{
    "acceptDate": "2017-12-14T01:24:34.437Z",
    "acceptTermVersion": "1.0",
    "agentCode": "013013",
    "agentCodeDisp": "024000-02-000548",
    "authorised": [
        "M9A",
        "M9",
        "M5",
        "HI",
        "M8A",
        "M8",
        "IFAST"
    ],
    "authorisedDes": "Investment Linked Plan, Life Insurance, Health Insurance, Unit Trusts",
    "channel": "AGENCY",
    "compCode": "01",
    "company": "EAB Systems Company Limited",
    "createDate": "7/1/2029",
    "email": "darren.auyeung@eabsystems.com",
    "lastUpdateDate": "2018-01-24T01:35:37.968Z",
    "manager": "Kenny Chan",
    "managerCode": "005005",
    "managerDisp": "024000-02-000548",
    "mobile": "12345678",
    "name": "Darren Au Yeung",
    "position": "Financial Services Director",
    "profileId": "darren.auyeung",
    "rawData": {
        "agentCode": "013013",
        "authGroup": "AG001",
        "authorizedHI": "Y",
        "authorizedIFAST": "Y",
        "authorizedM8": "Y",
        "authorizedM8A": "Y",
        "directorOrFirm": "EAB Systems Company Limited",
        "distribCode": "024000-02-000548",
        "email": "darren.auyeung@eabsystems.com",
        "fullName": "Darren Au Yeung",
        "mobilePhone": "12345678",
        "officePhone": "0",
        "position": "FSD",
        "proxy1UserId": "DSSAG100006",
        "proxyEndDate": "2017-11-01",
        "proxyStartDate": "2017-11-01",
        "rank": "FSD",
        "unitCode": "024000",
        "upline1Code": "005005",
        "upline2Code": "000548",
        "userCat": "AGENT-MM1",
        "userId": "darren.auyeung",
        "userRole": "MM1",
        "userStatus": "A",
        "userType": "AGENT"
    },
    "role": "MM1",
    "tel": "0",
    "type": "agent"
}