{
	"TYPE": "agent",
	"compCode": "AG",
	"agentCode": "014014",
	"role": "02",
	"name": "Frankie Ng",
	"profileId": "frankie.ng",
	"channel": "AGENCY",
	"createDate": "7/1/2030",
	"lastUpdateDate": "7/14/2030",
	"company": "EAB Systems Company Limited",
	"tel": "98765432",
	"mobile": "28765432",
	"email": "frankie.ng@eabsystems.com",
	"position": "Agent",
	"manager": "Cherrie Hung",
	"managerCode": "100014",
	"achievements": "MDRT, SUPER MDRT",
	"authorised": "M9A, M9, M5, HI, M8, M8A, IFAST"
}