{
	"TYPE": "agent",
	"compCode": "AG",
	"agentCode": "000124",
	"role": "02",
	"name": "G1801181L Agency",
	"profileId": "",
	"channel": "AGENCY",
	"createDate": "7/1/2017",
	"lastUpdateDate": "7/14/2017",
	"company": "AXA Insurance Pte Ltd (Co. Reg. No. 199903512M)",
	"tel": "99000124",
	"mobile": "66000124",
	"email": "@eabsystems.com",
	"position": "Agent",
	"manager": "G1801181L Agency(M)",
	"managerCode": "100002",
	"achievements": "AXA Signature",
	"authorised": "M9A, M9, M5, HI, M8, M8A"
}