{
	"TYPE": "agent",
	"compCode": "AG",
	"agentCode": "111155",
	"role": "02",
	"name": "G2966838B BROKER",
	"profileId": "G2966838B",
	"channel": "BROKER",
	"createDate": "7/1/2017",
	"lastUpdateDate": "7/14/2017",
	"company": "IFA Singapore",
	"tel": "99111155",
	"mobile": "66111155",
	"email": "clement.chew@axa.com.sg",
	"position": "Financial Advisor",
	"manager": "G2966838B BROKER(M)",
	"managerCode": "999999",
	"achievements": "AXA Signature, MDRT, SUPER MDRT",
	"authorised": "M9A, M9, M5, HI, M8"
}