{
	"TYPE": "agent",
	"compCode": "AG",
	"agentCode": "000125",
	"role": "02",
	"name": "G2801181L AGENCY",
	"profileId": "G2801181L",
	"channel": "AGENCY",
	"createDate": "7/1/2017",
	"lastUpdateDate": "7/14/2017",
	"company": "AXA Insurance Pte Ltd (Co. Reg. No. 199903512M)",
	"tel": "99000125",
	"mobile": "66000125",
	"email": "reetika.goenka@axa.com.sg",
	"position": "Agent",
	"manager": "G2801181L AGENCY(M)",
	"managerCode": "100002",
	"achievements": "AXA Signature",
	"authorised": "M9A, M9, M5, HI, M8, M8A"
}