{
	"TYPE": "agent",
	"compCode": "AG",
	"agentCode": "337733",
	"role": "02",
	"name": "S6302713E DIRECT",
	"profileId": "S6302713E",
	"channel": "DIRECT",
	"createDate": "7/1/2017",
	"lastUpdateDate": "7/14/2017",
	"company": "AXA Direct",
	"tel": "99337733",
	"mobile": "66337733",
	"email": "yeeling.loh@axa.com.sg",
	"position": "Agent",
	"manager": "S6302713E DIRECT(M)",
	"managerCode": "900001",
	"achievements": "MDRT",
	"authorised": "M9A, M9, M5"
}