{
	"TYPE": "agent",
	"compCode": "AG",
	"agentCode": "000123",
	"role": "02",
	"name": "S9073124F Agency",
	"profileId": "",
	"channel": "AGENCY",
	"createDate": "7/1/2017",
	"lastUpdateDate": "7/14/2017",
	"company": "AXA Insurance Pte Ltd (Co. Reg. No. 199903512M)",
	"tel": "99000123",
	"mobile": "66000123",
	"email": "@eabsystems.com",
	"position": "Agent",
	"manager": "S9073124F Agency(M)",
	"managerCode": "100001",
	"achievements": "AXA Signature",
	"authorised": "M9A, M9, M5, HI, M8, M8A, IFAST"
}