{
	"TYPE": "agent",
	"compCode": "AG",
	"agentCode": "544445",
	"role": "02",
	"name": "T3807927A DIRECT",
	"profileId": "T3807927A",
	"channel": "DIRECT",
	"createDate": "7/1/2017",
	"lastUpdateDate": "7/14/2017",
	"company": "AXA Direct",
	"tel": "99544445",
	"mobile": "66544445",
	"email": "saakshi.jham@axa.com.sg",
	"position": "Agent",
	"manager": "T3807927A DIRECT(M)",
	"managerCode": "900002",
	"achievements": "MDRT",
	"authorised": "M9A, M9"
}