{
	"TYPE": "agent",
	"compCode": "AG",
	"agentCode": "111111",
	"role": "02",
	"name": "T9342834F AXA@Post",
	"profileId": "T9342834F",
	"channel": "SINGPOST",
	"createDate": "7/1/2017",
	"lastUpdateDate": "7/14/2017",
	"company": "AXA@Post",
	"tel": "99111111",
	"mobile": "66111111",
	"email": "@eabsystems.com",
	"position": "Agent",
	"manager": "T9342834F AXA@Post(M)",
	"managerCode": "000001",
	"achievements": "AXA Signature, MDRT",
	"authorised": "M9A, M9, M5, HI, M8"
}