{
  "type": "layout",
  "formId": "menu_plan",
  "skipCheck": true,
  "items": [{
    "type": "BLOCK",
    "id": "planDetails",
    "title": "",
    "items": [{
        "type": "block",
        "style": {
          "paddingBottom": "30px",
          "borderBottom": "1px solid #cac4c4"
        },
        "items": [{
            "type": "heading",
            "id": "planTypeName",
            "detailSeq": 1
          },
          {
            "type": "table",
            "no1stItemLeftPadding": true,
            "id": "displayPlanList",
            "allowEdit": false,
            "equalWidthCol": true,
            "items": [{
                "type": "HBOX",
                "title": "Basic Plan",
                "presentation": "planCover@covName",
                "items": [{
                    "type": "image",
                    "id": "planCover"
                  },
                  {
                    "type": "TEXT",
                    "id": "covName"
                  }
                ]
              },
              {
                "type": "TEXT",
                "id": "sumInsured",
                "title": "Sum Assured/Benefits",
                "subType": "currency",
                "decimal": 0,
                "colSpan": 2,
                "right": true
              },
              {
                "type": "TEXT",
                "id": "polTermDesc",
                "title": "Policy Term",
                "colSpan": 2,
                "right":true
              },
              {
                "type": "TEXT",
                "id": "premTermDesc",
                "title": "Premium Term",
                "colSpan": 2,
                "right":true
              }
            ]
          },
          {
            "type": "table",
            "no1stItemLeftPadding": true,
            "id": "riderList",
            "allowEdit": false,
            "equalWidthCol": true,
            "trigger": {
              "type": "notEmpty",
              "id": "riderList"
            },
            "items": [
              {
                "type": "HBOX",
                "title": "Rider",
                "presentation": "planCover@covName",
                "colSpan": 2,
                "items": [
                  {
                    "type": "image",
                    "id": "planCover"
                  },
                  {
                    "type": "TEXT",
                    "id": "covName"
                  }
                ]
              },
              {
                "type": "TEXT",
                "id": "sumInsured",
                "title": "Sum Assured/Benefits",
                "subType": "currency",
                "decimal": 0,
                "colSpan": 2,
                "right": true
              },
              {
                "type": "TEXT",
                "id": "polTermDesc",
                "title": "Policy Term",
                "colSpan": 2,
                "right":true
              },
              {
                "type": "TEXT",
                "id": "premTermDesc",
                "title": "Premium Term",
                "colSpan": 2,
                "right":true
              }
            ]
          }
        ]
      },
      {
        "type": "block",
        "title": "Other Plan Details",
        "items": [
          {
            "type": "HBOX",
            "trigger": {
              "type": "showIfEqual",
              "id": "wdSelect",
              "value": "true"
            },
            "items": [{
                "type": "QTITLE",
                "title": "Regular Withdrawal Details:"
              },
              {
                "id": "wdAmount",
                "title": "Amount",
                "type": "READONLY",
                "subType": "currency",
                "decimal": 2
              },
              {
                "id": "wdFreq",
                "title": "Payment Frequency",
                "type": "READONLY",
                "options": [{
                    "title": {
                      "en": "Annual"
                    },
                    "value": "A"
                  },
                  {
                    "title": {
                      "en": "Semi-Annual"
                    },
                    "value": "S"
                  },
                  {
                    "title": {
                      "en": "Quarterly"
                    },
                    "value": "Q"
                  },
                  {
                    "title": {
                      "en": "Monthly"
                    },
                    "value": "M"
                  }
                ]
              },
              {
                "id": "wdFromAge",
                "title": "From Age",
                "type": "READONLY"
              },
              {
                "id": "wdToAge",
                "title": "To Age",
                "type": "READONLY"
              }
            ]
          },
          {
            "type": "HBOX",
            "trigger": {
              "type": "showIfEqual",
              "id": "rspSelect",
              "value": "true"
            },
            "items": [{
                "type": "QTITLE",
                "title": "Recurring Single Premium (RSP) Details:"
              },
              {
                "id": "rspAmount",
                "title": "RSP Amount",
                "type": "READONLY",
                "subType": "currency",
                "decimal": 2
              },
              {
                "id": "rspPayFreq",
                "title": "RSP Payment Frequency",
                "type": "READONLY",
                "options": [{
                    "title": {
                      "en": "Annual"
                    },
                    "value": "A"
                  },
                  {
                    "title": {
                      "en": "Semi-Annual"
                    },
                    "value": "S"
                  },
                  {
                    "title": {
                      "en": "Quarterly"
                    },
                    "value": "Q"
                  },
                  {
                    "title": {
                      "en": "Monthly"
                    },
                    "value": "M"
                  }
                ]
              }
            ]
          },
          {
            "type": "HBOX",
            "trigger": {
              "type": "showIfEqual",
              "id": "topUpSelect",
              "value": "true"
            },
            "items": [{
                "id": "topUpAmt",
                "decimal": 2,
                "title": "Top-Up Amount",
                "subType": "currency",
                "type": "READONLY",
                "trigger": {
                  "type": "notEmpty",
                  "id": "topUpAmt"
                }
              },
              {
                "id": "insuranceCharge",
                "title": "Insurance Charge",
                "type": "READONLY",
                "options": [{
                    "title": {
                      "en": "Yearly Renewable Term",
                      "zh-Hant": "Yearly Renewable Term"
                    },
                    "value": "yrt"
                  },
                  {
                    "title": {
                      "en": "Level Until Age 50",
                      "zh-Hant": "Level Until Age 50"
                    },
                    "value": "age50"
                  },
                  {
                    "title": {
                      "en": "Level Until Age 55",
                      "zh-Hant": "Level Until Age 55"
                    },
                    "value": "age55"
                  },
                  {
                    "title": {
                      "en": "Level Until Age 60",
                      "zh-Hant": "Level Until Age 60"
                    },
                    "value": "age60"
                  },
                  {
                    "title": {
                      "en": "Level Until Age 62",
                      "zh-Hant": "Level Until Age 62"
                    },
                    "value": "age62"
                  },
                  {
                    "title": {
                      "en": "Level Until Age 65",
                      "zh-Hant": "Level Until Age 65"
                    },
                    "value": "age65"
                  },
                  {
                    "title": {
                      "en": "Level Until Age 99",
                      "zh-Hant": "Level Until Age 99"
                    },
                    "value": "age99"
                  }
                ]
              }
            ]
          },
          {
            "type": "HBOX",
            "trigger": {
              "type": "showIfNotEqual",
              "id": "topUpSelect",
              "value": "true"
            },
            "items": [
              {
                "id": "insuranceCharge",
                "title": "Insurance Charge",
                "type": "READONLY",
                "options": [{
                    "title": {
                      "en": "Yearly Renewable Term",
                      "zh-Hant": "Yearly Renewable Term"
                    },
                    "value": "yrt"
                  },
                  {
                    "title": {
                      "en": "Level Until Age 50",
                      "zh-Hant": "Level Until Age 50"
                    },
                    "value": "age50"
                  },
                  {
                    "title": {
                      "en": "Level Until Age 55",
                      "zh-Hant": "Level Until Age 55"
                    },
                    "value": "age55"
                  },
                  {
                    "title": {
                      "en": "Level Until Age 60",
                      "zh-Hant": "Level Until Age 60"
                    },
                    "value": "age60"
                  },
                  {
                    "title": {
                      "en": "Level Until Age 62",
                      "zh-Hant": "Level Until Age 62"
                    },
                    "value": "age62"
                  },
                  {
                    "title": {
                      "en": "Level Until Age 65",
                      "zh-Hant": "Level Until Age 65"
                    },
                    "value": "age65"
                  },
                  {
                    "title": {
                      "en": "Level Until Age 99",
                      "zh-Hant": "Level Until Age 99"
                    },
                    "value": "age99"
                  }
                ]
              }
            ]
          },
          {
            "type": "HBOX",
            "items": [{
                "id": "ccy",
                "title": "Policy Currency",
                "type": "READONLY",
                "options": [{
                    "value": "ALL",
                    "title": {
                      "en": "All Currencies",
                      "zh-hant": "所有貨幣"
                    },
                    "exRate": "1",
                    "seq": "1"
                  },
                  {
                    "value": "AUD",
                    "title": {
                      "en": "AUD",
                      "zh-hant": "澳元"
                    },
                    "_title": {
                      "en": "Australian Dollars",
                      "zh-hant": "澳元"
                    },
                    "shortTitle": "AUD",
                    "exRate": "1.2",
                    "seq": "2"
                  },
                  {
                    "value": "CAD",
                    "title": {
                      "en": "Canadian Dollars",
                      "zh-hant": "加幣"
                    },
                    "exRate": "1.2",
                    "seq": "3"
                  },
                  {
                    "value": "CHF",
                    "title": {
                      "en": "Swiss Francs",
                      "zh-hant": "瑞士法郎"
                    },
                    "exRate": "1.2",
                    "seq": "4"
                  },
                  {
                    "value": "EUR",
                    "title": {
                      "en": "EUR",
                      "zh-hant": "歐元"
                    },
                    "_title": {
                      "en": "Euros",
                      "zh-hant": "歐元"
                    },
                    "exRate": "1",
                    "seq": "5"
                  },
                  {
                    "value": "GBP",
                    "title": {
                      "en": "GBP",
                      "zh-hant": "英鎊"
                    },
                    "_title": {
                      "en": "British Pounds",
                      "zh-hant": "英鎊"
                    },
                    "exRate": "0.64",
                    "seq": "6"
                  },
                  {
                    "value": "HKD",
                    "title": {
                      "en": "Hong Kong Dollars",
                      "zh-hant": "港幣"
                    },
                    "shortTitle": "HK$",
                    "exRate": "8",
                    "seq": "7"
                  },
                  {
                    "value": "NZD",
                    "title": {
                      "en": "New Zealand Dollars",
                      "zh-hant": "紐元"
                    },
                    "exRate": "1.8",
                    "seq": "8"
                  },
                  {
                    "value": "USD",
                    "title": {
                      "en": "USD",
                      "zh-hant": "美金"
                    },
                    "exRate": "1",
                    "seq": "9"
                  },
                  {
                    "value": "SGD",
                    "title": {
                      "en": "SGD",
                      "zh-hant": "新加坡幣"
                    },
                    "exRate": "1.6",
                    "seq": "10"
                  }
                ]
              },
              {
                "type": "HBOX",
                "items": [{
                    "id": "paymentMode",
                    "title": "Payment Mode",
                    "type": "READONLY",
                    "options": [{
                        "value": "M",
                        "title": "Monthly"
                      },
                      {
                        "value": "Q",
                        "title": "Quarterly"
                      },
                      {
                        "value": "S",
                        "title": "Semi-Annual"
                      },
                      {
                        "value": "A",
                        "title": "Annual"
                      },
                      {
                        "value": "L",
                        "title": "Single Premium"
                      }
                    ]
                  },
                  {
                    "id": "riskCommenDate",
                    "title": "Selected Commencement Date (DD/MM/YYYY)",
                    "type": "READONLY",
                    "subType": "date",
                    "trigger": {
                      "id": "isBackDate",
                      "type": "showIfEqual",
                      "value": "Y"
                    }
                  }
                ]
              }
            ]
          },
          {
            "type": "HBOX",
            "items": [{
                "id": "basicBenefit",
                "title": "Basic Benefit",
                "type": "READONLY",
                "options": [{
                    "value": "C",
                    "title": "Choice Cover"
                  },
                  {
                    "value": "M",
                    "title": "Max Cover"
                  }
                ]
              },
              {
                "type": "READONLY",
                "trigger": {
                  "type": "notEmpty",
                  "id": "totYearPrem"
                },
                "id": "totYearPrem",
                "title": "Total Premium Amount (including riders if any)",
                "subType": "currency",
                "colSpan": 3,
                "decimal": 2
              }
            ]
          }
        ]
      },
      {
        "type": "block",
        "title": "Fund Details",
        "items": [{
            "type": "table",
            "no1stItemLeftPadding": true,
            "id": "fundList",
            "allowEdit": false,
            "trigger": {
              "type": "notEmpty",
              "id": "topUpAmt"
            },
            "items": [{
                "id": "fundName",
                "type": "TEXT",
                "title": "Fund Name"
              },
              {
                "id": "alloc",
                "type": "TEXT",
                "title": "Allocation (Regular Premium or RSP, as applicable)",
                "subType": "percent",
                "right": true
              },
              {
                "id": "topUpAlloc",
                "type": "TEXT",
                "title": "Allocation (Top-Up Premium)",
                "subType": "percent",
                "right": true
              }
            ]
          },
          {
            "type": "table",
            "no1stItemLeftPadding": true,
            "id": "fundList",
            "allowEdit": false,
            "trigger": {
              "type": "empty",
              "id": "topUpAmt"
            },
            "items": [{
                "id": "fundName",
                "type": "TEXT",
                "title": "Fund Name"
              },
              {
                "id": "alloc",
                "type": "TEXT",
                "title": "Allocation (Regular Premium or RSP, as applicable)",
                "subType": "percent",
                "right": true
              }
            ]
          }
        ]
      }
    ]
  }]
}
