{
	"SAV":{
		"la":{
			"PET":"dyn_la_insurability_sio"
		},
		"ph":{
			"PPERA":"dyn_ph_fuluw_insurability",
			"PPEPS":"dyn_ph_fuluw_insurability"
		}
	},
	"BAD":{
		"_comment": "change the rider code...",
		"la":{
			"AMR":"dyn_la_insurability_siopa"
		}
	},
	"IND": {
		"la":{
			
		},
		"ph":{
			
		}
	}
}
