{
    "campaignCode": "RHP2019",
    "campaignId": "campaign_RHP2019_1",
    "endTime": "2020-12-30T15:59:59.999Z",
    "groupPriority": 1,
    "groupTitle": "<div style=\"font-weight:bold;\">Ongoing Campaign from 10 Oct 2019!<div>",
    "impactedPlan": {
        "RHP": [
            {
                "discount": 0.17
            }
		],
		"TPD": [
            {
                "discount": 0.17
            }
		]
    },
    "message": "• AXA Retire Happy Plus Premium Discount Campaign",
    "messageGroup": "campaignMsg",
    "messageId": "campaign_RHP2019_1_MSG",
    "messageMapping": {
        "JSON": [
            {
                "format": "DATE",
                "from": "startTime",
                "to": "{{{startDate}}}"
            }
        ]
    },
    "messagePriorityInAlertBox": 2,
    "messageDealerGroups": ["AGENCY","FUSION"],
    "prod__endTime": "2019-12-30T15:59:59.999Z",
    "prod__startTime": "2019-07-09T16:00:00.000Z",
    "startTime": "2019-07-09T16:00:00.000Z",
    "type": "campaign"
}