{
    "type": "layout",
    "channels": {
        "AGENCY": {
            "title": "Agency",
            "type": "AGENCY"
        },
        "SINGPOST": {
            "title": "AXA@Post",
            "type": "AGENCY"
        },
        "DIRECT": {
            "title": "Direct",
            "type": "AGENCY"
        },
        "FUSION": {
            "title": "IAM/JPK",
            "type": "AGENCY"
        },
        "BROKER": {
            "title": "Broker",
            "type": "FA"
        },
        "SYNERGY": {
            "title": "Synergy",
            "type": "FA"
        },
        "GIAGENCY": {
            "title": "GI Agents",
            "type": "AGENCY"
        },
        "BANCA": {
            "title": "Banca",
            "type": "AGENCY"
        },
        "INTBROKER":{
            "title":"International Broker",
            "type":"FA",
            "subtype":"IB"
        }
    },
    "features": {
        "AGENCY": ["CP", "FNA", "QQ", "FQ", "EAPP"],
        "FA": {"default":["CP", "FQ", "EAPP"],"IB":["CP","QQ"]}
    }
}