{
	"type": "layout",
	"options": [
		{"residency":"R2","city":"","category":1},
		{"residency":"R1","city":"","category":2},
		{"residency":"R3","city":"","category":2},
		{"residency":"R4","city":"","category":2},
		{"residency":"R5","city":"","category":2},
		{"residency":"R51","city":"T51","category":2},
		{"residency":"R51","city":"T52","category":2},
		{"residency":"R51","city":"T53","category":2},
		{"residency":"R51","city":"T54","category":2},
		{"residency":"R51","city":"T55","category":2},
		{"residency":"R51","city":"T56","category":2},
		{"residency":"R51","city":"T57","category":2},
		{"residency":"R51","city":"T58","category":2},
		{"residency":"R51","city":"T59","category":2},
		{"residency":"R51","city":"T60","category":2},
		{"residency":"R51","city":"T61","category":2},
		{"residency":"R51","city":"T62","category":2},
		{"residency":"R51","city":"T63","category":2},
		{"residency":"R51","city":"T64","category":2},
		{"residency":"R51","city":"T65","category":2},
		{"residency":"R51","city":"T66","category":2},
		{"residency":"R51","city":"T67","category":2},
		{"residency":"R51","city":"T68","category":2},
		{"residency":"R51","city":"T69","category":2},
		{"residency":"R51","city":"T70","category":2},
		{"residency":"R51","city":"T71","category":2},
		{"residency":"R51","city":"T72","category":2},
		{"residency":"R51","city":"T73","category":2},
		{"residency":"R51","city":"T74","category":2},
		{"residency":"R51","city":"T75","category":2},
		{"residency":"R51","city":"T76","category":2},
		{"residency":"R51","city":"T77","category":2},
		{"residency":"R51","city":"T78","category":2},
		{"residency":"R51","city":"T79","category":2},
		{"residency":"R51","city":"T80","category":2},
		{"residency":"R51","city":"T81","category":2},
		{"residency":"R51","city":"T82","category":2},
		{"residency":"R51","city":"T83","category":2},
		{"residency":"R51","city":"T84","category":2},
		{"residency":"R51","city":"T85","category":2},
		{"residency":"R51","city":"T86","category":2},
		{"residency":"R51","city":"T87","category":2},
		{"residency":"R51","city":"T88","category":2},
		{"residency":"R51","city":"T89","category":2},
		{"residency":"R51","city":"T90","category":2},
		{"residency":"R51","city":"T91","category":2},
		{"residency":"R51","city":"T92","category":2},
		{"residency":"R51","city":"T93","category":2},
		{"residency":"R51","city":"T94","category":2},
		{"residency":"R51","city":"T95","category":2},
		{"residency":"R51","city":"T96","category":2},
		{"residency":"R51","city":"T97","category":2},
		{"residency":"R51","city":"T98","category":2},
		{"residency":"R51","city":"T99","category":2},
		{"residency":"R51","city":"T100","category":2},
		{"residency":"R51","city":"T101","category":2},
		{"residency":"R51","city":"T102","category":2},
		{"residency":"R51","city":"T103","category":2},
		{"residency":"R51","city":"T104","category":2},
		{"residency":"R53","city":"T110","category":2},
		{"residency":"R53","city":"T115","category":6},
		{"residency":"R54","city":"T120","category":3},
		{"residency":"R54","city":"T125","category":6},
		{"residency":"R6","city":"","category":4},
		{"residency":"R7","city":"","category":4},
		{"residency":"R8","city":"","category":4},
		{"residency":"R9","city":"","category":2},
		{"residency":"R10","city":"","category":4},
		{"residency":"R11","city":"","category":4},
		{"residency":"R12","city":"","category":4},
		{"residency":"R13","city":"","category":4},
		{"residency":"R14","city":"","category":2},
		{"residency":"R15","city":"","category":4},
		{"residency":"R16","city":"","category":4},
		{"residency":"R17","city":"","category":4},
		{"residency":"R18","city":"","category":4},
		{"residency":"R19","city":"","category":4},
		{"residency":"R20","city":"","category":4},
		{"residency":"R21","city":"","category":4},
		{"residency":"R22","city":"","category":4},
		{"residency":"R23","city":"","category":4},
		{"residency":"R24","city":"","category":4},
		{"residency":"R25","city":"","category":4},
		{"residency":"R26","city":"","category":4},
		{"residency":"R27","city":"","category":4},
		{"residency":"R28","city":"","category":4},
		{"residency":"R29","city":"","category":4},
		{"residency":"R30","city":"","category":4},
		{"residency":"R31","city":"","category":2},
		{"residency":"R32","city":"","category":4},
		{"residency":"R33","city":"","category":4},
		{"residency":"R34","city":"","category":2},
		{"residency":"R35","city":"","category":4},
		{"residency":"R36","city":"","category":4},
		{"residency":"R37","city":"","category":4},
		{"residency":"R38","city":"","category":2},
		{"residency":"R39","city":"","category":4},
		{"residency":"R40","city":"","category":4},
		{"residency":"R41","city":"","category":4},
		{"residency":"R42","city":"","category":4},
		{"residency":"R43","city":"","category":4},
		{"residency":"R44","city":"","category":4},
		{"residency":"R45","city":"","category":4},
		{"residency":"R46","city":"","category":4},
		{"residency":"R47","city":"","category":4},
		{"residency":"R48","city":"","category":2},
		{"residency":"R49","city":"","category":2},
		{"residency":"R50","city":"","category":2},
		{"residency":"R55","city":"","category":4},
		{"residency":"R56","city":"","category":4},
		{"residency":"R57","city":"","category":4},
		{"residency":"R58","city":"","category":4},
		{"residency":"R59","city":"","category":4},
		{"residency":"R60","city":"","category":4},
		{"residency":"R61","city":"","category":4},
		{"residency":"R62","city":"","category":4},
		{"residency":"R63","city":"","category":6},
		{"residency":"R64","city":"","category":4},
		{"residency":"R65","city":"","category":4},
		{"residency":"R66","city":"","category":4},
		{"residency":"R67","city":"","category":4},
		{"residency":"R68","city":"","category":4},
		{"residency":"R69","city":"","category":4},
		{"residency":"R70","city":"","category":4},
		{"residency":"R71","city":"","category":4},
		{"residency":"R73","city":"","category":4},
		{"residency":"R74","city":"","category":4},
		{"residency":"R75","city":"","category":4},
		{"residency":"R76","city":"","category":4},
		{"residency":"R77","city":"","category":4},
		{"residency":"R78","city":"","category":4},
		{"residency":"R79","city":"","category":4},
		{"residency":"R80","city":"","category":4},
		{"residency":"R81","city":"","category":4},
		{"residency":"R82","city":"","category":4},
		{"residency":"R83","city":"","category":4},
		{"residency":"R84","city":"","category":4},
		{"residency":"R85","city":"","category":4},
		{"residency":"R86","city":"","category":4},
		{"residency":"R87","city":"","category":4},
		{"residency":"R88","city":"","category":4},
		{"residency":"R89","city":"","category":4},
		{"residency":"R90","city":"","category":4},
		{"residency":"R91","city":"","category":4},
		{"residency":"R92","city":"","category":4},
		{"residency":"R93","city":"","category":4},
		{"residency":"R94","city":"","category":4},
		{"residency":"R95","city":"","category":4},
		{"residency":"R96","city":"","category":4},
		{"residency":"R97","city":"","category":4},
		{"residency":"R98","city":"","category":4},
		{"residency":"R99","city":"","category":6},
		{"residency":"R100","city":"","category":4},
		{"residency":"R101","city":"","category":4},
		{"residency":"R102","city":"","category":6},
		{"residency":"R103","city":"","category":4},
		{"residency":"R104","city":"","category":6},
		{"residency":"R105","city":"","category":4},
		{"residency":"R106","city":"","category":6},
		{"residency":"R107","city":"","category":4},
		{"residency":"R108","city":"","category":4},
		{"residency":"R109","city":"","category":4},
		{"residency":"R110","city":"","category":4},
		{"residency":"R111","city":"","category":4},
		{"residency":"R112","city":"","category":4},
		{"residency":"R113","city":"","category":4},
		{"residency":"R114","city":"","category":4},
		{"residency":"R115","city":"","category":4},
		{"residency":"R116","city":"","category":4},
		{"residency":"R117","city":"","category":4},
		{"residency":"R118","city":"","category":4},
		{"residency":"R119","city":"","category":4},
		{"residency":"R120","city":"T174","category":3},
		{"residency":"R120","city":"T180","category":3},
		{"residency":"R121","city":"","category":4},
		{"residency":"R122","city":"","category":4},
		{"residency":"R123","city":"","category":4},
		{"residency":"R124","city":"","category":4},
		{"residency":"R125","city":"","category":4},
		{"residency":"R126","city":"","category":4},
		{"residency":"R127","city":"","category":6},
		{"residency":"R128","city":"","category":4},
		{"residency":"R129","city":"","category":4},
		{"residency":"R130","city":"","category":4},
		{"residency":"R131","city":"","category":4},
		{"residency":"R132","city":"","category":4},
		{"residency":"R133","city":"","category":4},
		{"residency":"R135","city":"","category":4},
		{"residency":"R136","city":"","category":6},
		{"residency":"R137","city":"","category":4},
		{"residency":"R138","city":"","category":4},
		{"residency":"R139","city":"","category":4},
		{"residency":"R140","city":"","category":4},
		{"residency":"R141","city":"","category":4},
		{"residency":"R142","city":"","category":4},
		{"residency":"R143","city":"","category":4},
		{"residency":"R144","city":"","category":4},
		{"residency":"R145","city":"","category":6},
		{"residency":"R146","city":"","category":6},
		{"residency":"R147","city":"T201","category":6},
		{"residency":"R147","city":"T205","category":6},
		{"residency":"R148","city":"","category":4},
		{"residency":"R149","city":"","category":6},
		{"residency":"R150","city":"","category":4},
		{"residency":"R151","city":"","category":4},
		{"residency":"R152","city":"","category":4},
		{"residency":"R153","city":"","category":4},
		{"residency":"R154","city":"","category":6},
		{"residency":"R155","city":"","category":6},
		{"residency":"R156","city":"","category":4},
		{"residency":"R157","city":"","category":4},
		{"residency":"R158","city":"","category":4},
		{"residency":"R159","city":"","category":4},
		{"residency":"R160","city":"","category":4},
		{"residency":"R161","city":"","category":4},
		{"residency":"R162","city":"","category":4},
		{"residency":"R163","city":"","category":6},
		{"residency":"R164","city":"","category":4},
		{"residency":"R165","city":"","category":6},
		{"residency":"R166","city":"","category":4},
		{"residency":"R167","city":"","category":6},
		{"residency":"R168","city":"","category":4},
		{"residency":"R169","city":"","category":6},
		{"residency":"R170","city":"","category":4},
		{"residency":"R171","city":"","category":6},
		{"residency":"R172","city":"","category":4},
		{"residency":"R173","city":"","category":6},
		{"residency":"R174","city":"","category":4},
		{"residency":"R175","city":"","category":4},
		{"residency":"R176","city":"","category":6},
		{"residency":"R177","city":"","category":4},
		{"residency":"R178","city":"","category":4},
		{"residency":"R179","city":"","category":6},
		{"residency":"R180","city":"","category":4},
		{"residency":"R181","city":"","category":6},
		{"residency":"R182","city":"","category":6},
		{"residency":"R183","city":"","category":6},
		{"residency":"R184","city":"","category":6},
		{"residency":"R185","city":"","category":4},
		{"residency":"R186","city":"","category":4},
		{"residency":"R187","city":"","category":6},
		{"residency":"R188","city":"","category":4},
		{"residency":"R189","city":"","category":6},
		{"residency":"R190","city":"","category":6},
		{"residency":"R191","city":"","category":4},
		{"residency":"R192","city":"","category":4},
		{"residency":"R193","city":"","category":6},
		{"residency":"R194","city":"","category":4},
		{"residency":"R195","city":"","category":4},
		{"residency":"R196","city":"","category":4},
		{"residency":"R197","city":"","category":4},
		{"residency":"R198","city":"","category":6},
		{"residency":"R199","city":"","category":6},
		{"residency":"R200","city":"","category":6},
		{"residency":"R201","city":"","category":6},
		{"residency":"R202","city":"","category":6},
		{"residency":"R203","city":"","category":4},
		{"residency":"R204","city":"","category":4},
		{"residency":"R205","city":"","category":6},
		{"residency":"R206","city":"","category":4},
		{"residency":"R207","city":"","category":6},
		{"residency":"R208","city":"","category":6},
		{"residency":"R209","city":"","category":4},
		{"residency":"R210","city":"","category":4},
		{"residency":"R211","city":"","category":4},
		{"residency":"R212","city":"","category":4},
		{"residency":"R213","city":"","category":4},
		{"residency":"R214","city":"","category":4},
		{"residency":"R215","city":"","category":4},
		{"residency":"R216","city":"","category":6},
		{"residency":"R217","city":"","category":4},
		{"residency":"R218","city":"","category":4},
		{"residency":"R219","city":"","category":6},
		{"residency":"R220","city":"","category":4},
		{"residency":"R221","city":"","category":4},
		{"residency":"R222","city":"","category":4},
		{"residency":"R223","city":"","category":4},
		{"residency":"R224","city":"","category":4},
		{"residency":"R225","city":"","category":4},
		{"residency":"R226","city":"","category":4},
		{"residency":"R227","city":"","category":4},
		{"residency":"R228","city":"","category":4},
		{"residency":"R229","city":"","category":4},
		{"residency":"R230","city":"","category":4},
		{"residency":"R231","city":"","category":4},
		{"residency":"R232","city":"","category":4},
		{"residency":"R233","city":"","category":4},
		{"residency":"R234","city":"","category":6},
		{"residency":"R235","city":"","category":6},
		{"residency":"R236","city":"","category":6},
		{"residency":"R237","city":"","category":4},
		{"residency":"R238","city":"","category":6},
		{"residency":"R239","city":"","category":4},
		{"residency":"R240","city":"","category":6},
		{"residency":"R241","city":"","category":4},
		{"residency":"R242","city":"","category":6},
		{"residency":"R243","city":"","category":4},
		{"residency":"R244","city":"","category":4},
		{"residency":"R245","city":"","category":6},
		{"residency":"R246","city":"","category":6},
		{"residency":"R247","city":"","category":4},
		{"residency":"R248","city":"","category":4},
		{"residency":"R249","city":"","category":6},
		{"residency":"R250","city":"","category":4},
		{"residency":"R251","city":"","category":6},
		{"residency":"R252","city":"","category":7},
		{"residency":"R72","city":"T206","category":3},
		{"residency":"R72","city":"T207","category":3},
		{"residency":"R120","city":"T208","category":6},
		{"residency":"R134","city":"T209","category":3},
		{"residency":"R134","city":"T210","category":6},
		{"residency":"R134","city":"T211","category":3},
		{"residency":"R51","city":"T212","category":3},
		{"residency":"R51","city":"T213","category":3},
		{"residency":"R51","city":"T214","category":3},
		{"residency":"R51","city":"T215","category":3},
		{"residency":"R51","city":"T216","category":3},
		{"residency":"R51","city":"T217","category":3},
		{"residency":"R51","city":"T218","category":3},
		{"residency":"R51","city":"T219","category":3},
		{"residency":"R51","city":"T220","category":3},
		{"residency":"R51","city":"T221","category":3},
		{"residency":"R53","city":"T222","category":2},
		{"residency":"R52","city":"T223","category":3},
		{"residency":"R52","city":"T224","category":3}
	]
}