{
  "compName": "AXA Insurance Pte Ltd",
  "compRegNo": "199903512M",
  "compAddr": "8 Shenton Way, #24-01, AXA Tower, Singapore 068811",
  "compAddr2": "AXA CUSTOMER CARE CENTRE: #01-21/22",
  "compTel": "6880 4888",
  "compFax": "6880 5501",
  "compWeb": "www.axa.com.sg",
  "dateFormat": "dd/mm/yyyy",
  "datetimeFormat": "dd/mm/yyyy HH:MM:ss",
  "fromEmail": "ease@axa.com.sg",
  "companyIntro": "AXA Insurance is part of the AXA group, a worldwide leader in insurance and asset management, with 166,000 employees serving 103 million clients in 64 countries. Since its inception in 1969, AXA Insurance has been serving the general and life insurance needs of individuals and companies in Singapore through a wide range of innovative products. As one of the world's leading insurance companies, and one of the top global insurers in Singapore, AXA Insurance protects more than a quarter of a million of customers in Singapore. As a company whose business is about protecting people, AXA Insurance is committed to building a stronger and safer society, empowering customers to live better lives.",
  "companyCD": "005",
  "customerCareEmail": "comsvc@axa.com.sg",
  "footerTemplate": {
    "covCode": ["RHP2"],
    "content": "<div style='text-align: center;'><strong>AXA Insurance Pte Ltd</strong> (Co. Reg. No. 199903512M)</div><div style='text-align: center;'>8 Shenton Way, #24-01, AXA Tower, Singapore 068811 | Tel: 6880 4888 | Email: comsvc@axa.com.sg | www.axa.com.sg</div>"
  }
}
