{
	"_id": "countryTelCode",
	"options": [
		{"title":"+65","value":"+65","countryName":"Singapore","rls_phone_no":"65","alpha3":"SGP"},
    {"title":"+60","value":"+60","countryName":"Malaysia","rls_phone_no":"60","alpha3":"MYS"},
    {"title":"+852","value":"+852","countryName":"Hong Kong","rls_phone_no":"852","alpha3":"HKG"},
    {"title":"+886","value":"+886","countryName":"Taiwan","rls_phone_no":"886","alpha3":"TWN"},
    {"title":"+673","value":"+673","countryName":"Brunei Darussalam","rls_phone_no":"673","alpha3":"BRN"},
    {"title":"+86","value":"+86","countryName":"China - Major City","rls_phone_no":"86","alpha3":"CHN"},
    {"title":"+86","value":"+86","countryName":"China - Other than Major City","rls_phone_no":"86","alpha3":"CHN"},
    {"title":"+91","value":"+91","countryName":"India","rls_phone_no":"91","alpha3":"IND"},
    {"title":"+62","value":"+62","countryName":"Indonesia","rls_phone_no":"62","alpha3":"IDN"},
    {"title":"+61","value":"+61","countryName":"Australia","rls_phone_no":"61","alpha3":"AUS"},
    {"title":"+43","value":"+43","countryName":"Austria","rls_phone_no":"43","alpha3":"AUT"},
    {"title":"+32","value":"+32","countryName":"Belgium","rls_phone_no":"32","alpha3":"BEL"},
    {"title":"+1","value":"+1","countryName":"Canada","rls_phone_no":"01","alpha3":"CAN"},
    {"title":"+385","value":"+385","countryName":"Croatia","rls_phone_no":"385","alpha3":"HRV"},
    {"title":"+45","value":"+45","countryName":"Denmark","rls_phone_no":"45","alpha3":"DNK"},
    {"title":"+372","value":"+372","countryName":"Estonia","rls_phone_no":"372","alpha3":"EST"},
    {"title":"+358","value":"+358","countryName":"Finland","rls_phone_no":"358","alpha3":"FIN"},
    {"title":"+33","value":"+33","countryName":"France","rls_phone_no":"33","alpha3":"FRA"},
    {"title":"+49","value":"+49","countryName":"Germany","rls_phone_no":"49","alpha3":"DEU"},
    {"title":"+30","value":"+30","countryName":"Greece","rls_phone_no":"30","alpha3":"GRC"},
    {"title":"+36","value":"+36","countryName":"Hungary","rls_phone_no":"36","alpha3":"HUN"},
    {"title":"+354","value":"+354","countryName":"Iceland","rls_phone_no":"354","alpha3":"ISL"},
    {"title":"+353","value":"+353","countryName":"Ireland","rls_phone_no":"353","alpha3":"IRL"},
    {"title":"+39","value":"+39","countryName":"Italy","rls_phone_no":"39","alpha3":"ITA"},
    {"title":"+82","value":"+82","countryName":"Korea, (South) Republic of","rls_phone_no":"850","alpha3":"KOR"},
    {"title":"+371","value":"+371","countryName":"Latvia","rls_phone_no":"371","alpha3":"LVA"},
    {"title":"+370","value":"+370","countryName":"Lithuania","rls_phone_no":"370","alpha3":"LTU"},
    {"title":"+853","value":"+853","countryName":"Macau","rls_phone_no":"853","alpha3":"MAC"},
    {"title":"+31","value":"+31","countryName":"Netherlands","rls_phone_no":"31","alpha3":"NLD"},
    {"title":"+599","value":"+599","countryName":"Netherlands Antilles","rls_phone_no":"599","alpha3":"NLD"},
    {"title":"+64","value":"+64","countryName":"New Zealand","rls_phone_no":"64","alpha3":"NZL"},
    {"title":"+47","value":"+47","countryName":"Norway","rls_phone_no":"47","alpha3":"NOR"},
    {"title":"+48","value":"+48","countryName":"Poland","rls_phone_no":"48","alpha3":"POL"},
    {"title":"+421","value":"+421","countryName":"Slovakia","rls_phone_no":"421","alpha3":"SVK"},
    {"title":"+46","value":"+46","countryName":"Sweden","rls_phone_no":"46","alpha3":"SWE"},
    {"title":"+41","value":"+41","countryName":"Switzerland","rls_phone_no":"41","alpha3":"CHE"},
    {"title":"+44","value":"+44","countryName":"United Kingdom","rls_phone_no":"44","alpha3":"GBR"},
    {"title":"+355","value":"+355","countryName":"Albania","rls_phone_no":"355","alpha3":"ALB"},
    {"title":"+95","value":"+95","countryName":"Myanmar","rls_phone_no":"95","alpha3":"MMR"},
    {"title":"+1-684","value":"+1-684","countryName":"American Samoa","rls_phone_no":"1684","alpha3":"ASM"},
    {"title":"+27","value":"+27","countryName":"South Africa","rls_phone_no":"27","alpha3":"ZAF"},
    {"title":"+376","value":"+376","countryName":"Andorra","rls_phone_no":"376","alpha3":"AND"},
    {"title":"+1-264","value":"+1-264","countryName":"Anguilla","rls_phone_no":"1264","alpha3":"AIA"},
    {"title":"+1-268","value":"+1-268","countryName":"Antigua and Barbuda","rls_phone_no":"1268","alpha3":"ATG"},
    {"title":"+54","value":"+54","countryName":"Argentina","rls_phone_no":"54","alpha3":"ARG"},
    {"title":"+374","value":"+374","countryName":"Armenia","rls_phone_no":"374","alpha3":"ARM"},
    {"title":"+297","value":"+297","countryName":"Aruba","rls_phone_no":"297","alpha3":"ABW"},
    {"title":"+994","value":"+994","countryName":"Azerbaijan","rls_phone_no":"994","alpha3":"AZE"},
    {"title":"+1-242","value":"+1-242","countryName":"Bahamas","rls_phone_no":"1242","alpha3":"BHS"},
    {"title":"+1-246","value":"+1-246","countryName":"Barbados","rls_phone_no":"1246","alpha3":"BRB"},
    {"title":"+501","value":"+501","countryName":"Belize","rls_phone_no":"501","alpha3":"BLZ"},
    {"title":"+1-441","value":"+1-441","countryName":"Bermuda","rls_phone_no":"1441","alpha3":"BMU"},
    {"title":"+599","value":"+599","countryName":"Bonaire, St.Eustat, Saba","rls_phone_no":"599","alpha3":"BES"},
    {"title":"+387","value":"+387","countryName":"Bosnia and Herzegovina","rls_phone_no":"387","alpha3":"BIH"},
    {"title":"+55","value":"+55","countryName":"Bouvet Island","rls_phone_no":"55","alpha3":"BVT"},
    {"title":"+55","value":"+55","countryName":"Brazil","rls_phone_no":"55","alpha3":"BRA"},
    {"title":"+246","value":"+246","countryName":"British Indian Ocean Territory","rls_phone_no":"246","alpha3":"IOT"},
    {"title":"+1-284","value":"+1-284","countryName":"British Virgin Islands","rls_phone_no":"678","alpha3":"VGB"},
    {"title":"+359","value":"+359","countryName":"Bulgaria","rls_phone_no":"359","alpha3":"BGR"},
    {"title":"+1-345","value":"+1-345","countryName":"Cayman Islands","rls_phone_no":"1345","alpha3":"CYM"},
    {"title":"+56","value":"+56","countryName":"Chile","rls_phone_no":"56","alpha3":"CHL"},
    {"title":"+53","value":"+53","countryName":"Christmas Island","rls_phone_no":"61","alpha3":"CXR"},
    {"title":"+61","value":"+61","countryName":"Cocos (Keeling) Islands","rls_phone_no":"61","alpha3":"CCK"},
    {"title":"+682","value":"+682","countryName":"Cook Islands","rls_phone_no":"682","alpha3":"COK"},
    {"title":"+506","value":"+506","countryName":"Costa Rica","rls_phone_no":"506","alpha3":"CRI"},
    {"title":"+357","value":"+357","countryName":"Cyprus","rls_phone_no":"357","alpha3":"CYP"},
    {"title":"+420","value":"+420","countryName":"Czech Republic","rls_phone_no":"420","alpha3":"CZE"},
    {"title":"+1-767","value":"+1-767","countryName":"Dominica","rls_phone_no":"1767","alpha3":"DMA"},
    {"title":"+1-809 and +1-829  ","value":"+1-809 and +1-829  ","countryName":"Dominican Republic","rls_phone_no":"1809","alpha3":"DOM"},
    {"title":"+593 ","value":"+593 ","countryName":"Ecuador","rls_phone_no":"593","alpha3":"ECU"},
    {"title":"+503","value":"+503","countryName":"El Salvador","rls_phone_no":"503","alpha3":"SLV"},
    {"title":"+500","value":"+500","countryName":"Falkland Is. (Malvinas)","rls_phone_no":"500","alpha3":"FLK"},
    {"title":"+298","value":"+298","countryName":"Faroe Islands","rls_phone_no":"298","alpha3":"FRO"},
    {"title":"+679","value":"+679","countryName":"Fiji","rls_phone_no":"679","alpha3":"FJI"},
    {"title":"+594","value":"+594","countryName":"French Guiana","rls_phone_no":"594","alpha3":"GUF"},
    {"title":"+689","value":"+689","countryName":"French Polynesia","rls_phone_no":"689","alpha3":"PYF"},
    {"title":"+995","value":"+995","countryName":"Georgia","rls_phone_no":"995","alpha3":"GEO"},
    {"title":"+350","value":"+350","countryName":"Gibraltar","rls_phone_no":"350","alpha3":"GIB"},
    {"title":"+299","value":"+299","countryName":"Greenland","rls_phone_no":"299","alpha3":"GRL"},
    {"title":"+1-473","value":"+1-473","countryName":"Grenada","rls_phone_no":"1473","alpha3":"GRD"},
    {"title":"+590","value":"+590","countryName":"Guadeloupe","rls_phone_no":"590","alpha3":"GLP"},
    {"title":"+1-671","value":"+1-671","countryName":"Guam","rls_phone_no":"1671","alpha3":"GUM"},
    {"title":"+502","value":"+502","countryName":"Guatemala","rls_phone_no":"502","alpha3":"GTM"},
    {"title":"+592","value":"+592","countryName":"Guyana","rls_phone_no":"592","alpha3":"GUY"},
    {"title":"+379","value":"+379","countryName":"Holy See (Vatican)","rls_phone_no":"379","alpha3":"VAT"},
    {"title":"+504","value":"+504","countryName":"Honduras","rls_phone_no":"504","alpha3":"HND"},
    {"title":"+1-876","value":"+1-876","countryName":"Jamaica","rls_phone_no":"1876","alpha3":"JAM"},
    {"title":"+441534","value":"+441534","countryName":"Jersey","rls_phone_no":"441534","alpha3":"JEY"},
    {"title":"+7","value":"+7","countryName":"Kazakhstan","rls_phone_no":"7","alpha3":"KAZ"},
    {"title":"+423","value":"+423","countryName":"Liechtenstein","rls_phone_no":"423","alpha3":"LIE"},
    {"title":"+352","value":"+352","countryName":"Luxembourg","rls_phone_no":"352","alpha3":"LUX"},
    {"title":"+960","value":"+960","countryName":"Maldives","rls_phone_no":"960","alpha3":"MDV"},
    {"title":"+356","value":"+356","countryName":"Malta","rls_phone_no":"356","alpha3":"MLT"},
    {"title":"+441624","value":"+441624","countryName":"Man, Isle of","rls_phone_no":"441624","alpha3":"IMN"},
    {"title":"+692","value":"+692","countryName":"Marshall Islands","rls_phone_no":"692","alpha3":"MHL"},
    {"title":"+596","value":"+596","countryName":"Martinique (FR)","rls_phone_no":"596","alpha3":"MTQ"},
    {"title":"+52","value":"+52","countryName":"Mexico","rls_phone_no":"52","alpha3":"MEX"},
    {"title":"+691","value":"+691","countryName":"Micronesia, Fed. States of","rls_phone_no":"691","alpha3":"FSM"},
    {"title":"+377","value":"+377","countryName":"Monaco","rls_phone_no":"377","alpha3":"MCO"},
    {"title":"+382","value":"+382","countryName":"Montenegro","rls_phone_no":"382","alpha3":"MNE"},
    {"title":"+1-664","value":"+1-664","countryName":"Montserrat","rls_phone_no":"1664","alpha3":"MSR"},
    {"title":"+95","value":"+95","countryName":"Myanmar","rls_phone_no":"95","alpha3":"MMR"},
    {"title":"+674","value":"+674","countryName":"Nauru","rls_phone_no":"674","alpha3":"NRU"},
    {"title":"+687","value":"+687","countryName":"New Caledonia","rls_phone_no":"687","alpha3":"NCL"},
    {"title":"+505","value":"+505","countryName":"Nicaragua","rls_phone_no":"505","alpha3":"NIC"},
    {"title":"+683","value":"+683","countryName":"Niue","rls_phone_no":"683","alpha3":"NIU"},
    {"title":"+672","value":"+672","countryName":"Norfolk Island","rls_phone_no":"683","alpha3":"NFK"},
    {"title":"+1-670","value":"+1-670","countryName":"Northern Mariana Islands","rls_phone_no":"1670","alpha3":"MNP"},
    {"title":"+680","value":"+680","countryName":"Palau","rls_phone_no":"680","alpha3":"PLW"},
    {"title":"+507","value":"+507","countryName":"Panama","rls_phone_no":"507","alpha3":"PAN"},
    {"title":"+675","value":"+675","countryName":"Papua New Guinea","rls_phone_no":"675","alpha3":"PNG"},
    {"title":"+51","value":"+51","countryName":"Peru","rls_phone_no":"51","alpha3":"PER"},
    {"title":"+63","value":"+63","countryName":"Philippines","rls_phone_no":"63","alpha3":"PHL"},
    {"title":"+64","value":"+64","countryName":"Pitcairn Island","rls_phone_no":"64","alpha3":"PCN"},
    {"title":"+351","value":"+351","countryName":"Portugal","rls_phone_no":"351","alpha3":"PRT"},
    {"title":"+1-787 or +1-939","value":"+1-787 or +1-939","countryName":"Puerto Rico","rls_phone_no":"1787","alpha3":"PRI"},
    {"title":"+40","value":"+40","countryName":"Romania","rls_phone_no":"40","alpha3":"ROU"},
    {"title":"+290","value":"+290","countryName":"Saint Barthelemy (FR)","rls_phone_no":"590","alpha3":"BLM"},
    {"title":"+290","value":"+290","countryName":"Saint Helena ","rls_phone_no":"290","alpha3":"SHN"},
    {"title":"+1-869","value":"+1-869","countryName":"Saint Kitts and Nevis","rls_phone_no":"1869","alpha3":"KNA"},
    {"title":"+1-758","value":"+1-758","countryName":"Saint Lucia","rls_phone_no":"1758","alpha3":"LCA"},
    {"title":"+508","value":"+508","countryName":"Saint Martin (FR)","rls_phone_no":"590","alpha3":"MAF"},
    {"title":"+508","value":"+508","countryName":"Saint Pierre and Miquelon ","rls_phone_no":"508","alpha3":"SPM"},
    {"title":"+1-784","value":"+1-784","countryName":"Saint Vincent and the Grenadines ","rls_phone_no":"1784","alpha3":"VCT"},
    {"title":"+378","value":"+378","countryName":"San Marino","rls_phone_no":"378","alpha3":"SMR"},
    {"title":"+381","value":"+381","countryName":"Serbia","rls_phone_no":"381","alpha3":"SRB"},
    {"title":"+386","value":"+386","countryName":"Slovenia","rls_phone_no":"386","alpha3":"SVN"},
    {"title":"+27","value":"+27","countryName":"South Africa","rls_phone_no":"27","alpha3":"ZAF"},
    {"title":"+34","value":"+34","countryName":"Spain","rls_phone_no":"34","alpha3":"ESP"},
    {"title":"+47","value":"+47","countryName":"Svalbard & Jan Mayen Is.","rls_phone_no":"47","alpha3":"SJM"},
    {"title":"+992","value":"+992","countryName":"Tajikistan","rls_phone_no":"992","alpha3":"TJK"},
    {"title":"+690","value":"+690","countryName":"Tokelau","rls_phone_no":"690","alpha3":"TKL"},
    {"title":"+676","value":"+676","countryName":"Tonga","rls_phone_no":"676","alpha3":"TON"},
    {"title":"+1-868","value":"+1-868","countryName":"Trinidad & Tobago","rls_phone_no":"1868","alpha3":"TTO"},
    {"title":"+90","value":"+90","countryName":"Turkey","rls_phone_no":"90","alpha3":"TUR"},
    {"title":"+1-649","value":"+1-649","countryName":"Turks and Caicos Is.","rls_phone_no":"1649","alpha3":"TCA"},
    {"title":"+598","value":"+598","countryName":"Uruguay","rls_phone_no":"598","alpha3":"URY"},
    {"title":"+58","value":"+58","countryName":"Venezuela","rls_phone_no":"58","alpha3":"VEN"},
    {"title":"+1-340","value":"+1-340","countryName":"Virgin Islands, U.S.","rls_phone_no":"1340","alpha3":"VIR"},
    {"title":"+681","value":"+681","countryName":"Wallis and Futuna","rls_phone_no":"681","alpha3":"WLF"},
    {"title":"+7","value":"+7","countryName":"Russia (Russian Fed.)","rls_phone_no":"7","alpha3":"RUS"},
    {"title":"+93","value":"+93","countryName":"Afghanistan","rls_phone_no":"93","alpha3":"AFG"},
    {"title":"+358","value":"+358","countryName":"Aland Islands","rls_phone_no":"358","alpha3":"ALA"},
    {"title":"+213","value":"+213","countryName":"Algeria","rls_phone_no":"213","alpha3":"DZA"},
    {"title":"+244","value":"+244","countryName":"Angola","rls_phone_no":"244","alpha3":"AGO"},
    {"title":"+973","value":"+973","countryName":"Bahrain","rls_phone_no":"973","alpha3":"BHR"},
    {"title":"+880","value":"+880","countryName":"Bangladesh","rls_phone_no":"880","alpha3":"BGD"},
    {"title":"+375","value":"+375","countryName":"Belarus","rls_phone_no":"375","alpha3":"BLR"},
    {"title":"+229","value":"+229","countryName":"Benin","rls_phone_no":"229","alpha3":"BEN"},
    {"title":"+975","value":"+975","countryName":"Bhutan","rls_phone_no":"975","alpha3":"BTN"},
    {"title":"+591","value":"+591","countryName":"Bolivia","rls_phone_no":"591","alpha3":"BOL"},
    {"title":"+267","value":"+267","countryName":"Botswana","rls_phone_no":"267","alpha3":"BWA"},
    {"title":"+226","value":"+226","countryName":"Burkina Faso","rls_phone_no":"226","alpha3":"BFA"},
    {"title":"+257","value":"+257","countryName":"Burundi","rls_phone_no":"257","alpha3":"BDI"},
    {"title":"+855","value":"+855","countryName":"Cambodia","rls_phone_no":"855","alpha3":"KHM"},
    {"title":"+237","value":"+237","countryName":"Cameroon","rls_phone_no":"237","alpha3":"CMR"},
    {"title":"+238","value":"+238","countryName":"Cape Verde","rls_phone_no":"238","alpha3":"CPV"},
    {"title":"+236","value":"+236","countryName":"Central African Republic","rls_phone_no":"1345","alpha3":"CYM"},
    {"title":"+235","value":"+235","countryName":"Chad","rls_phone_no":"235","alpha3":"TCD"},
    {"title":"+57","value":"+57","countryName":"Colombia","rls_phone_no":"57","alpha3":"COL"},
    {"title":"+269","value":"+269","countryName":"Comoros","rls_phone_no":"269","alpha3":"COM"},
    {"title":"+243","value":"+243","countryName":"Congo, Dem. Rep. of the","rls_phone_no":"243","alpha3":"COD"},
    {"title":"+242","value":"+242","countryName":"Congo, Republic of the","rls_phone_no":"242","alpha3":"COG"},
    {"title":"+225","value":"+225","countryName":"Cote D'Ivoire(Ivory Coast)","rls_phone_no":"225","alpha3":"CIV"},
    {"title":"+53","value":"+53","countryName":"Cuba","rls_phone_no":"53","alpha3":"CUB"},
    {"title":"+253","value":"+253","countryName":"Djibouti","rls_phone_no":"253","alpha3":"DJI"},
    {"title":"+670","value":"+670","countryName":"East Timor (Timor-Leste)","rls_phone_no":"670","alpha3":"TLS"},
    {"title":"+20","value":"+20","countryName":"Egypt","rls_phone_no":"20","alpha3":"EGY"},
    {"title":"+240","value":"+240","countryName":"Equatorial Guinea","rls_phone_no":"240","alpha3":"GNQ"},
    {"title":"+291","value":"+291","countryName":"Eritrea","rls_phone_no":"291","alpha3":"ERI"},
    {"title":"+251","value":"+251","countryName":"Ethiopia","rls_phone_no":"251","alpha3":"ETH"},
    {"title":"+241","value":"+241","countryName":"Gabon","rls_phone_no":"241","alpha3":"GAB"},
    {"title":"+220","value":"+220","countryName":"Gambia, the","rls_phone_no":"500","alpha3":"GMB"},
    {"title":"+233","value":"+233","countryName":"Ghana","rls_phone_no":"233","alpha3":"GHA"},
    {"title":"+224","value":"+224","countryName":"Guinea","rls_phone_no":"224","alpha3":"GIN"},
    {"title":"+224","value":"+224","countryName":"Guinea, Equatorial","rls_phone_no":"224","alpha3":"GIN"},
    {"title":"+245","value":"+245","countryName":"Guinea-Bissau","rls_phone_no":"245","alpha3":"GNB"},
    {"title":"+509","value":"+509","countryName":"Haiti","rls_phone_no":"509","alpha3":"HTI"},
    {"title":"+98","value":"+98","countryName":"Iran, Islamic Republic of","rls_phone_no":"98","alpha3":"IRN"},
    {"title":"+964","value":"+964","countryName":"Iraq","rls_phone_no":"964","alpha3":"IRQ"},
    {"title":"+972","value":"+972","countryName":"Israel","rls_phone_no":"972","alpha3":"ISR"},
    {"title":"+962","value":"+962","countryName":"Jordan","rls_phone_no":"962","alpha3":"JOR"},
    {"title":"+254","value":"+254","countryName":"Kenya","rls_phone_no":"254","alpha3":"KEN"},
    {"title":"+686","value":"+686","countryName":"Kiribati","rls_phone_no":"686","alpha3":"KIR"},
    {"title":"+965","value":"+965","countryName":"Kuwait","rls_phone_no":"965","alpha3":"KWT"},
    {"title":"+856","value":"+856","countryName":"Laos (Lao People's Democ. Rep.)","rls_phone_no":"856","alpha3":"LAO"},
    {"title":"+961","value":"+961","countryName":"Lebanon","rls_phone_no":"961","alpha3":"LBN"},
    {"title":"+266","value":"+266","countryName":"Lesotho","rls_phone_no":"266","alpha3":"LSO"},
    {"title":"+231","value":"+231","countryName":"Liberia","rls_phone_no":"231","alpha3":"LBR"},
    {"title":"+218","value":"+218","countryName":"Libya","rls_phone_no":"218","alpha3":"LBY"},
    {"title":"+389","value":"+389","countryName":"Macedonia, TFYR","rls_phone_no":"389","alpha3":"MKD"},
    {"title":"+261","value":"+261","countryName":"Madagascar","rls_phone_no":"261","alpha3":"MDG"},
    {"title":"+265","value":"+265","countryName":"Malawi","rls_phone_no":"265","alpha3":"MWI"},
    {"title":"+223","value":"+223","countryName":"Mali","rls_phone_no":"223","alpha3":"MLI"},
    {"title":"+222","value":"+222","countryName":"Mauritania","rls_phone_no":"222","alpha3":"MRT"},
    {"title":"+230","value":"+230","countryName":"Mauritius","rls_phone_no":"230","alpha3":"MUS"},
    {"title":"+269","value":"+269","countryName":"Mayotte (FR)","rls_phone_no":"262","alpha3":"MYT"},
    {"title":"+373","value":"+373","countryName":"Moldova, Republic of","rls_phone_no":"373","alpha3":"MDA"},
    {"title":"+976","value":"+976","countryName":"Mongolia","rls_phone_no":"976","alpha3":"MNG"},
    {"title":"+212","value":"+212","countryName":"Morocco","rls_phone_no":"212","alpha3":"MAR"},
    {"title":"+258","value":"+258","countryName":"Mozambique","rls_phone_no":"258","alpha3":"MOZ"},
    {"title":"+264","value":"+264","countryName":"Namibia","rls_phone_no":"264","alpha3":"NAM"},
    {"title":"+977","value":"+977","countryName":"Nepal","rls_phone_no":"977","alpha3":"NPL"},
    {"title":"+227","value":"+227","countryName":"Niger","rls_phone_no":"227","alpha3":"NER"},
    {"title":"+234","value":"+234","countryName":"Nigeria","rls_phone_no":"234","alpha3":"NGA"},
    {"title":"+850","value":"+850","countryName":"North Korea (Korea Dem. People's Rep.)","rls_phone_no":"850","alpha3":"PRK"},
    {"title":"+968","value":"+968","countryName":"Oman","rls_phone_no":"968","alpha3":"OMN"},
    {"title":"+92","value":"+92","countryName":"Pakistan","rls_phone_no":"92","alpha3":"PAK"},
    {"title":"+970","value":"+970","countryName":"Palestinian Territory","rls_phone_no":"970","alpha3":"PSE"},
    {"title":"+595","value":"+595","countryName":"Paraguay","rls_phone_no":"595","alpha3":"PRY"},
    {"title":"+974 ","value":"+974 ","countryName":"Qatar","rls_phone_no":"974","alpha3":"QAT"},
    {"title":"+262","value":"+262","countryName":"Reunion (FR)","rls_phone_no":"262","alpha3":"REU"},
    {"title":"+250","value":"+250","countryName":"Rwanda","rls_phone_no":"250","alpha3":"RWA"},
    {"title":"+685","value":"+685","countryName":"Samoa","rls_phone_no":"685","alpha3":"WSM"},
    {"title":"+239","value":"+239","countryName":"Sao Tome and Principe","rls_phone_no":"239","alpha3":"STP"},
    {"title":"+966","value":"+966","countryName":"Saudi Arabia","rls_phone_no":"966","alpha3":"SAU"},
    {"title":"+221","value":"+221","countryName":"Senegal","rls_phone_no":"221","alpha3":"SEN"},
    {"title":"+248","value":"+248","countryName":"Seychelles","rls_phone_no":"248","alpha3":"SYC"},
    {"title":"+232","value":"+232","countryName":"Sierra Leone","rls_phone_no":"232","alpha3":"SLE"},
    {"title":"+677","value":"+677","countryName":"Solomon Islands","rls_phone_no":"677","alpha3":"SLB"},
    {"title":"+252","value":"+252","countryName":"Somalia","rls_phone_no":"252","alpha3":"SOM"},
    {"title":"+211","value":"+211","countryName":"South Sudan","rls_phone_no":"211","alpha3":"SSD"},
    {"title":"+94","value":"+94","countryName":"Sri Lanka ","rls_phone_no":"94","alpha3":"LKA"},
    {"title":"+249","value":"+249","countryName":"Sudan","rls_phone_no":"249","alpha3":"SDN"},
    {"title":"+597","value":"+597","countryName":"Suriname","rls_phone_no":"597","alpha3":"SUR"},
    {"title":"+268","value":"+268","countryName":"Swaziland","rls_phone_no":"268","alpha3":"SWZ"},
    {"title":"+963","value":"+963","countryName":"Syrian Arab Republic","rls_phone_no":"963","alpha3":"SYR"},
    {"title":"+255","value":"+255","countryName":"Tanzania, United Rep. of","rls_phone_no":"255","alpha3":"TZA"},
    {"title":"+66","value":"+66","countryName":"Thailand","rls_phone_no":"66","alpha3":"THA"},
    {"title":"+228","value":"+228","countryName":"Togo","rls_phone_no":"228","alpha3":"TGO"},
    {"title":"+216","value":"+216","countryName":"Tunisia","rls_phone_no":"216","alpha3":"TUN"},
    {"title":"+993","value":"+993","countryName":"Turkmenistan","rls_phone_no":"993","alpha3":"TKM"},
    {"title":"+688","value":"+688","countryName":"Tuvalu","rls_phone_no":"688","alpha3":"TUV"},
    {"title":"+256","value":"+256","countryName":"Uganda","rls_phone_no":"256","alpha3":"UGA"},
    {"title":"+380","value":"+380","countryName":"Ukraine","rls_phone_no":"380","alpha3":"UKR"},
    {"title":"+971","value":"+971","countryName":"United Arab Emirates","rls_phone_no":"971","alpha3":"ARE"},
    {"title":"+998","value":"+998","countryName":"Uzbekistan","rls_phone_no":"998","alpha3":"UZB"},
    {"title":"+678","value":"+678","countryName":"Vanuatu","rls_phone_no":"678","alpha3":"VUT"},
    {"title":"+84","value":"+84","countryName":"Vietnam","rls_phone_no":"84","alpha3":"VNM"},
    {"title":"+212","value":"+212","countryName":"Western Sahara","rls_phone_no":"212","alpha3":"ESH"},
    {"title":"+967","value":"+967","countryName":"Yemen","rls_phone_no":"967","alpha3":"YEM"},
    {"title":"+260","value":"+260","countryName":"Zambia","rls_phone_no":"260","alpha3":"ZMB"},
    {"title":"+263","value":"+263","countryName":"Zimbabwe","rls_phone_no":"263","alpha3":"ZWE"},
    {"title":"+81","value":"+81","countryName":"Japan","rls_phone_no":"81","alpha3":"JPN"},
    {"title":"+1","value":"+1","countryName":"United States","rls_phone_no":"1","alpha3":"USA"}
	],
	"type": "layout"
}
