{
  "type": "layout",
  "id":"dyn_la_insurability_siopa",
  "formId":"menu_insure",
  "item": 
    {
      "title": "Proposer",
      "subType": "insured",
      "type":"tab",
      "items": [
        {
          "id":"insurability",
          "type":"block",
          "items":[
            {
              "type": "block",
              "title": "Insurance History",
              "items":[
                {
                  "id":"INS01",
                  "title":"1. Have you ever made an application or application for reinstatement of a life, disability, accident, medical or critical illness insurance which has been accepted with an extra premium or on special terms, postponed, declined, withdrawn or is still being considered?",
                  "type":"QRADIOGROUP",
                  "mandatory":true,
                  "horizontal": true,
                  "align": "left",
                  "valueTrigger": {
                    "type": "resetTargetValue",
                    "id": "insAllNoInd",
                    "value": "Y,N"
                  },
                  "options":[
                    {
                      "title":"Yes",
                      "value":"Y"
                    },
                    {
                      "title":"No",
                      "value":"N"
                    }
                  ]
                },
                {
                  "type": "table",
                  "mandatory":true,
                  "id":"INS01_DATA",
                  "trigger": {
                    "id": "INS01",
                    "type": "showIfEqual",
                    "value": "Y"
                  },
                  "allowEdit": true,
                  "hasBorder": true,
                  "items": [
                    {
                      "id": "INS01a",
                      "type": "text",
                      "title": "Name of Insurance Company",
                      "mandatory":true,
                      "max": 50,
                      "width":"20%"
                    },
                    {
                      "type": "table-block-t",
                      "title": "Type of Coverage",
                      "presentation": "INS01b1$INS01b2$INS01b3$INS01b4$INS01b5",
                      "width":"20%",
                      "mandatory":true,
                      "key":"INS01a1-b",
                      "items":[
                        {
                          "id":"INS01b1",
                          "type":"checkbox",
                          "title":"Life"
                        },
                        {
                          "id":"INS01b2",
                          "type":"checkbox",
                          "title":"Total Permanent Disability"
                        },
                        {
                          "id":"INS01b3",
                          "type":"checkbox",
                          "title":"Critical Illness"
                        },
                        {
                          "id":"INS01b4",
                          "type":"checkbox",
                          "title":"Accident"
                        },
                        {
                          "id":"INS01b5",
                          "type":"checkbox",
                          "title":"Hospitalisation & Surgical  Benefit"
                        }
                      ]
                    },
                    {
                      "id":"INS01c",
                      "type": "DATEPICKER",
                      "width":"10%",
                      "title": "Date incurred (MM/YYYY)",
                      "mandatory":true,
                      "max":0,
                      "min":100,
                      "dateFormat":"mm/yyyy"
                    },
                    {
                      "title":"Condition of Special Terms ",
                      "mandatory":true,
                      "id": "INS01d",
                      "type":"picker",
                      "width":"25%",
                      "options":[
                        {
                          "value":"medical",
                          "title":"Medical"
                        },
                        {
                          "value":"residential",
                          "title":"Residential"
                        },
                        {
                          "value":"financial",
                          "title":"Financial"
                        },
                        {
                          "value":"others",
                          "title":"Others"
                        }
                      ]
                    },
                    {
                      "title":"Decision & Detailed Reason(s) of special terms ",
                      "mandatory":true,
                      "id":"INS01e",
                      "type":"text",
                      "max":200,
                      "width":"25%"
                    }
                  ]
                },
                {
                  "id":"INS02",
                  "title":"2. Are you presently receiving a disability benefit or incapable for work or have you ever made or intend to make any claim against any insurer for disability, accident, medical care, hospitalisation, critical illness and/or other benefits?",
                  "type":"QRADIOGROUP",
                  "mandatory":true,
                  "horizontal": true,
                  "align": "left",
                  "valueTrigger": {
                    "type": "resetTargetValue",
                    "id": "insAllNoInd",
                    "value": "Y,N"
                  },
                  "options":[
                    {
                      "title":"Yes",
                      "value":"Y"
                    },
                    {
                      "title":"No",
                      "value":"N"
                    }
                  ]
                },
                {
                  "type": "table",
                  "mandatory":true,
                  "id":"INS02_DATA",
                  "trigger": {
                    "id": "INS02",
                    "type": "showIfEqual",
                    "value": "Y"
                  },
                  "allowEdit": true,
                  "hasBorder": true,
                  "items": [
                    {
                      "id": "INS02a",
                      "mandatory":true,
                      "type": "text",
                      "title": "Name of Insurance Company",
                      "max": 50,
                      "width":"20%"
                    },
                    {
                      "type": "table-block-t",
                      "key":"INS02b-b",
                      "mandatory":true,
                      "title": "Type of the Claim",
                      "presentation": "INS02b1$INS02b2$INS02b3$INS02b4$other",
                      "width":"20%",
                      "items":[
                        {
                          "id":"INS02b1",
                          "type":"checkbox",
                          "title":"Total Permanent Disability"
                        },
                        {
                          "id":"INS02b2",
                          "type":"checkbox",
                          "title":"Critical Illness"
                        },
                        {
                          "id":"INS02b3",
                          "type":"checkbox",
                          "title":"Accident"
                        },
                        {
                          "id":"INS02b4",
                          "type":"checkbox",
                          "title":"Hospitalisation & Surgical  Benefit"
                        },
                        {
                          "id":"other",
                          "type":"checkbox",
                          "title":"Others"
                        },
                        {
                          "id":"resultOther",
                          "mandatory":true,
                          "type":"text",
                          "placeholder":"Others",
                          "max":20,
                          "trigger":{
                            "id":"other",
                            "type":"showIfEqual",
                            "value":"Y"
                          }
                        }
                      ]
                    },
                    {
                      "id": "INS02c",
                      "type": "DATEPICKER",
                      "width":"10%",
                      "mandatory":true,
                      "title": "Date incurred (MM/YYYY)",
                      "max":0,
                      "min":100,
                      "dateFormat":"mm/yyyy"
                    },
                    {
                      "id": "INS02d",
                      "mandatory":true,
                      "title":"Medical Condition",
                      "type":"text",
                      "width":"25%",
                      "max":200
                    },
                    {
                      "title":"Claim Details (Duration of hospitalisation /offwork, treatment, follow-up etc)",
                      "id":"INS02e",
                      "mandatory":true,
                      "type":"text",
                      "max":200,
                      "width":"25%"
                    }
                  ]
                }
              ]
            },   
            {
              "title":"Lifestyle and Habits",
              "type":"block",
              "items":[  
                {
                  "id":"LIFESTYLE06",
                  "mandatory":true,
                  "type":"QRADIOGROUP",
                  "horizontal": true,
                  "align": "left",
                  "title":"1. Do you travel outside Singapore for more than 3 months in a year (other than for holidays or studies)?",
                  "valueTrigger": {
                    "type": "resetTargetValue",
                    "id": "insAllNoInd",
                    "value": "Y,N"
                  },
                  "options":[
                     {
                      "value":"Y",
                      "title":"Yes"
                    },
                    {
                      "value":"N",
                      "title":"No"
                    }
                  ]
                },
                {
                  "type": "QTITLE", 
                  "title": "Please provide details of country/city, frequency and duration of the trips?", 
                  "trigger": {
                    "id": "LIFESTYLE06", 
                    "type": "showIfEqual",
                    "value": "Y" 
                  }
                },
                {
                  "type":"table",
                  "id":"LIFESTYLE06_DATA",
                  "hasBorder":true,
                  "allowEdit":true,
                  "mandatory":true,
                  "trigger":{
                    "id":"LIFESTYLE06",
                    "value":"Y",
                    "type":"showIfEqual"
                  },
                  "items":[
                    {
                      "id":"LIFESTYLE06a",
                      "mandatory":true,
                      "type":"PICKER",
                      "subType": "limit",
                      "title":"Country",
                      "width":"20%",
                      "options": "residency"
                    },
                    {
                      "id":"LIFESTYLE06b",
                      "mandatory":true,
                      "type":"text",
                      "title":"City",
                      "width":"25%",
                      "max":50
                    },
                    {
                      "id":"LIFESTYLE06c",
                      "mandatory":true,
                      "type":"text",
                      "subType":"number",
                      "title":"Duration(how many days per year)",
                      "width":"15%",
                      "max":99999
                    },
                    {
                      "type":"table-block-t",
                      "title":"Reason",
                      "key":"LIFESTYLE06d-b",
                      "mandatory":true,
                      "presentation": "permanent$work$study$cob$family$immigrate$visit$other",
                      "width":"50%",
                      "items": [
                        {
                          "id":"permanent",
                          "type":"checkbox",
                          "title":"Permanent Residence"
                        },
                        {
                          "id":"work",
                          "type":"checkbox",
                          "title":"Business / Work"
                        },
                        {
                          "id":"study",
                          "type":"checkbox",
                          "title":"Study"
                        },
                        {
                          "id":"cob",
                          "type":"checkbox",
                          "title":"Country of birth"
                        },

                        {
                          "id":"family",
                          "type":"checkbox",
                          "title":"Place where family members or relatives residing"
                        },
                        {
                          "id":"immigrate",
                          "type":"checkbox",
                          "title":"Immigration"
                        },
                        
                         {
                          "id":"visit",
                          "type":"checkbox",
                          "title":"Visit family/relatives/friends"
                        },
                        {
                          "id":"other",
                          "type":"checkbox",
                          "title":"Others"
                        },
                        {
                          "type": "TEXT",
                          "mandatory":true,
                          "title": "Others",
                          "id": "resultOther",
                          "max": 50,
                          "detailSeq": 4,
                          "trigger": {
                            "id": "other",
                            "type": "showIfEqual",
                            "value": "Y"
                          }
                        }
                      ]
                    }
                  ]
                },
                {
                  "id":"LIFESTYLE05",
                  "mandatory":true,
                  "type":"QRADIOGROUP",
                  "horizontal": true,
                  "align": "left",
                  "title":"2. Do you participate or intend to participate in any hazardous activities related to your occupation or recreation such as diving, mountaineering, skydiving, parachuting, hang gliding, motor sports or aviation (excluding flying as a passenger on a regular scheduled airline)?",
                  "valueTrigger": {
                    "type": "resetTargetValue",
                    "id": "insAllNoInd",
                    "value": "Y,N"
                  },
                  "options":[
                     {
                      "value":"Y",
                      "title":"Yes"
                    },
                    {
                      "value":"N",
                      "title":"No"
                    }
                  ]
                },
                {
                  "type":"table",
                  "id":"LIFESTYLE05_DATA",
                  "mandatory":true,
                  "hasBorder":true,
                  "allowEdit":true,
                  "trigger":{
                    "id":"LIFESTYLE05",
                    "value":"Y",
                    "type":"showIfEqual"
                  },
                  "items":[
                    {
                      "type":"table-block",
                      "title":"Type of hazardous activities",
                      "presentation":"LIFESTYLE05a",
                      "width":"35%",
                      "items":
                      [
                        {
                          "id":"LIFESTYLE05a",
                          "mandatory":true,
                          "type":"picker",
                          "title":"Type of hazardous activities",
                          "options":[
                            {
                              "title":"Diving/scuba diving",
                              "value":"diving"
                            },
                            {
                              "title":"Mountaineering",
                              "value":"mountaineering"
                            },
                            {
                              "title":"Skydiving",
                              "value":"skydiving"
                            },
                            {
                              "title":"Parachuting",
                              "value":"parachuting"
                            },
                            {
                              "title":"Hand gliding",
                              "value":"handGliding"
                            },
                            {
                              "title":"Motor sports",
                              "value":"motor"
                            },
                            {
                              "title":"Aviation (other than fare-paying passenger) ",
                              "value":"aviation"
                            },
                            {
                              "title":"Other",
                              "value":"other"
                            }
                          ]
                        },
                        {
                          "id":"resultOther",
                          "mandatory":true,
                          "type":"text",
                          "title":{
                            "en":"Please specify"
                          },
                          "trigger":{
                            "id":"LIFESTYLE05a",
                            "type":"showIfEqual",
                            "value":"other"
                          },
                          "max":50
                        }
                      ]
                    },
                    {
                      "id":"LIFESTYLE05b",
                      "mandatory":true,
                      "title":"Frequency (per year)",
                      "type":"text",
                      "subType":"number",
                      "max":99999,
                      "width":"25%"
                    },
                    {
                      "id":"LIFESTYLE05c",
                      "title":"Details (e.g. Expertise, level of participation, experience etc)",
                      "type":"text",
                      "max":200,
                      "width":"40%"
                    }
                  ]
                }
              ]
            },           
            {
              "type": "block",
              "title": "Medical and Health Information",
              "items": [
                {
                  "id": "HEALTH_GIO03",
                  "mandatory":true,
                  "type": "QRADIOGROUP",
                  "horizontal": true,
                  "align": "left",
                  "title": "1. Do you have or ever had any disease, infirmity, illness or physical defect, and /or conditions affecting mobility, sight and / or hearing?",
                  "valueTrigger": {
                    "type": "resetTargetValue",
                    "id": "insAllNoInd",
                    "value": "Y,N"
                  },
                  "options": [
                    {
                      "value": "Y",
                      "title": "Yes"
                    },
                    {
                      "value": "N",
                      "title": "No"
                    }
                  ]
                },
                {
                  "type": "table",
                  "mandatory":true,
                  "id":"HEALTH_GIO03_DATA",
                  "trigger": {
                    "id": "HEALTH_GIO03",
                    "type": "showIfEqual",
                    "value": "Y"
                  },
                  "allowEdit": true,
                  "hasBorder": true,
                  "items": [
                    {
                      "id": "HEALTH_GIO03a",
                      "mandatory":true,
                      "type": "text",
                      "title": "Medical Condition/Diagnosis",
                      "max": 200,
                      "width":"14%"
                    },
                    {
                      "id": "HEALTH_GIO03b",
                      "mandatory":true,
                      "title": "Year of diagnosis",
                      "type": "picker",
                      "subType": "selectField",
                      "optionsTable": "years",
                      "width":"10%",
                      "options": [
                        {
                          "value": "2017",
                          "title": "2017"
                        },
                        {
                          "value": "2016",
                          "title": "2016"
                        },
                        {
                          "value": "2015",
                          "title": "2015"
                        }
                      ]
                    },
                    {
                      "id": "HEALTH_GIO03c",
                      "type": "text",
                      "title": "Type of test done (if any)",
                      "max": 200,
                      "width":"14%"
                    },
                    {
                      "id": "HEALTH_GIO03d",
                      "type": "datepicker",
                      "subType":"date",
                      "title": "Date of test done (if any)",
                      "max":0,
                      "min":100,
                      "width":"10%"
                    },
                    {
                      "id": "HEALTH_GIO03e",
                      "type": "QRADIOGROUP",
                      "align": "left",
                      "title": "Test result (if any)",
                      "max": 200,
                      "width":"14%",
                      "options": [
                        {
                          "value": "Y",
                          "title": "Normal"
                        },
                        {
                          "value": "N",
                          "title": "Abnormal"
                        }
                      ]
                    },
                    {
                      "id": "HEALTH_GIO03f",
                      "mandatory":true,
                      "type": "text",
                      "title": "Details  (Medication/Treatment / Follow up / Complication) ",
                      "width":"10%",
                      "max": 200
                    },
                    {
                      "id": "HEALTH_GIO03g",
                      "type": "text",
                      "title": "Name of Doctor",
                      "width":"14%",
                      "max": 200
                    },
                    {
                      "id": "HEALTH_GIO03h",
                      "type": "text",
                      "title": "Address of Hospital/Clinic",
                      "width":"14%",
                      "max": 200
                    }
                  ]
                }
              ]
            },
            {
              "id": "insAllNoInd",
              "type": "checkbox",
              "disableTrigger": {
                "type": "AnyFieldMatch",
                "id": "INS01,INS02,LIFESTYLE05,LIFESTYLE06,HEALTH_GIO03",
                "value": "Y"
              },
              "valueTrigger": {
                "type": "resetTargetValue",
                "id": "INS01,INS02,LIFESTYLE05,LIFESTYLE06,HEALTH_GIO03",
                "value": "Y,N"
              },
              "title": "I confirm the answer to all of the above medical and health questions for life assured is \"no\""
            }
          ]
        }
      ]
    }
  
}