{
  "items": [
    {
      "covCode": "SAV",
      "paymentMethod": "",
      "paymentMode": ["A"],
      "payOptions": ["crCard", "eNets", "dbsCrCardIpp", "axasam", "chequeCashierOrder", "cash", "teleTransfter"]
    },
    {
      "covCode": "SAV",
      "paymentMethod": "",
      "paymentMode": ["S", "Q", "M", "L"],
      "payOptions": ["crCard", "eNets", "axasam", "chequeCashierOrder", "cash", "teleTransfter"]
    },
    {
      "covCode": "TPX",
      "paymentMethod": "",
      "paymentMode": ["A"],
      "payOptions": ["crCard", "eNets", "dbsCrCardIpp", "axasam", "chequeCashierOrder", "cash", "teleTransfter"]
    },
    {
      "covCode": "TPX",
      "paymentMethod": "",
      "paymentMode": ["S", "Q", "M", "L"],
      "payOptions": ["crCard", "eNets", "axasam", "chequeCashierOrder", "cash", "teleTransfter"]
    },
    {
      "covCode": "TPX",
      "notPaybySGD": true,
      "payOptions": ["chequeCashierOrder", "teleTransfter"]
    },
    {
      "covCode": "TPPX",
      "paymentMethod": "",
      "paymentMode": ["A"],
      "payOptions": ["crCard", "eNets", "dbsCrCardIpp", "axasam", "chequeCashierOrder", "cash", "teleTransfter"]
    },
    {
      "covCode": "TPPX",
      "paymentMethod": "",
      "paymentMode": ["S", "Q", "M", "L"],
      "payOptions": ["crCard", "eNets", "axasam", "chequeCashierOrder", "cash", "teleTransfter"]
    },
    {
      "covCode": "TPPX",
      "notPaybySGD": true,
      "payOptions": ["chequeCashierOrder", "teleTransfter"]
    },
    {
      "covCode": "FPX",
      "paymentMethod": "cash",
      "paymentMode": ["A"],
      "payOptions": ["crCard", "eNets", "dbsCrCardIpp", "axasam", "chequeCashierOrder", "cash", "teleTransfter"]
    },
    {
      "covCode": "FPX",
      "paymentMethod": "cash",
      "paymentMode": ["S", "Q", "M", "L"],
      "payOptions": ["crCard", "eNets", "axasam", "chequeCashierOrder", "cash", "teleTransfter"]
    },
    {
      "covCode": "FSX",
      "paymentMethod": "cash",
      "paymentMode": ["A"],
      "payOptions": ["crCard", "eNets", "dbsCrCardIpp", "axasam", "chequeCashierOrder", "cash", "teleTransfter"]
    },
    {
      "covCode": "FSX",
      "paymentMethod": "cash",
      "paymentMode": ["S", "Q", "M", "L"],
      "payOptions": ["crCard", "eNets", "axasam", "chequeCashierOrder", "cash", "teleTransfter"]
    },
    {
      "covCode": "IND",
      "paymentMethod": "cash",
      "paymentMode": ["A", "S", "Q", "M", "L"],
      "payOptions": ["eNets", "axasam", "chequeCashierOrder", "cash", "teleTransfter"]
    },
    {
      "covCode": "IND",
      "paymentMethod": "cpfisoa",
      "paymentMode": ["A", "S", "Q", "M", "L"],
      "payOptions": ["cpfisoa"]
    },
    {
      "covCode": "IND",
      "paymentMethod": "cpfissa",
      "paymentMode": ["A", "S", "Q", "M", "L"],
      "payOptions": ["cpfissa"]
    },
    {
      "covCode": "IND",
      "paymentMethod": "srs",
      "paymentMode": ["A", "S", "Q", "M", "L"],
      "payOptions": ["srs"]
    },
    {
      "covCode": "BAA",
      "paymentMethod": "",
      "paymentMode": ["A"],
      "payOptions": ["crCard", "eNets", "dbsCrCardIpp", "axasam", "chequeCashierOrder", "cash", "teleTransfter"]
    },
    {
      "covCode": "BAA",
      "paymentMethod": "",
      "paymentMode": ["S", "Q", "M", "L"],
      "payOptions": ["crCard", "eNets", "axasam", "chequeCashierOrder", "cash", "teleTransfter"]
    },
    {
      "covCode": "AWT",
      "paymentMethod": "cash",
      "paymentMode": ["S", "Q", "M", "L"],
      "payOptions": ["crCard", "eNets", "axasam", "chequeCashierOrder", "cash", "teleTransfter"]
    },
    {
      "covCode": "AWT",
      "paymentMethod": "cash",
      "paymentMode": ["A"],
      "payOptions": ["crCard", "eNets", "dbsCrCardIpp", "axasam", "chequeCashierOrder", "cash", "teleTransfter"]
    },
    {
      "covCode": "AWT",
      "notPaybySGD": true,
      "payOptions": ["chequeCashierOrder", "teleTransfter"]
    },
    {
      "covCode": "PUL",
      "paymentMethod": "cash",
      "paymentMode": ["S", "Q", "M", "L"],
      "payOptions": ["crCard", "eNets", "axasam", "chequeCashierOrder", "cash", "teleTransfter"]
    },
    {
      "covCode": "PUL",
      "paymentMethod": "cash",
      "paymentMode": ["A"],
      "payOptions": ["crCard", "eNets", "dbsCrCardIpp", "axasam", "chequeCashierOrder", "cash", "teleTransfter"]
    },
    {
      "covCode": "PUL",
      "notPaybySGD": true,
      "payOptions": ["chequeCashierOrder", "teleTransfter"]
    },
    {
      "covCode": "LMP",
      "paymentMethod": "",
      "paymentMode": ["A"],
      "payOptions": ["crCard", "eNets", "dbsCrCardIpp", "axasam", "chequeCashierOrder", "cash", "teleTransfter"]
    },
    {
      "covCode": "LMP",
      "paymentMethod": "",
      "paymentMode": ["S", "Q", "M", "L"],
      "payOptions": ["crCard", "eNets", "axasam", "chequeCashierOrder", "cash", "teleTransfter"]
    },
    {
      "covCode": "LITE",
      "paymentMethod": "",
      "paymentMode": ["A"],
      "payOptions": ["crCard", "eNets", "dbsCrCardIpp", "axasam", "chequeCashierOrder", "cash", "teleTransfter"]
    },
    {
      "covCode": "LITE",
      "paymentMethod": "",
      "paymentMode": ["S", "Q", "M", "L"],
      "payOptions": ["crCard", "eNets", "axasam", "chequeCashierOrder", "cash", "teleTransfter"]
    },
    {
      "covCode": "ESP",
      "paymentMethod": "",
      "paymentMode": ["A"],
      "payOptions": ["crCard", "eNets", "dbsCrCardIpp", "axasam", "chequeCashierOrder", "cash", "teleTransfter"]
    },
    {
      "covCode": "ESP",
      "paymentMethod": "",
      "paymentMode": ["S", "Q", "M", "L"],
      "payOptions": ["crCard", "eNets", "axasam", "chequeCashierOrder", "cash", "teleTransfter"]
    },
    {
      "covCode": "RHP",
      "paymentMethod": "cash",
      "paymentMode": ["A"],
      "payOptions": ["crCard", "eNets", "dbsCrCardIpp", "axasam", "chequeCashierOrder", "cash", "teleTransfter"]
    },
    {
      "covCode": "RHP",
      "paymentMethod": "cash",
      "paymentMode": ["S", "Q", "M", "L"],
      "payOptions": ["crCard", "eNets", "axasam", "chequeCashierOrder", "cash", "teleTransfter"]
    },
    {
      "covCode": "RHP",
      "paymentMethod": "srs",
      "paymentMode": ["A", "S", "Q", "M", "L"],
      "payOptions": ["srs"]
    },
    {
      "covCode": "RHP2",
      "paymentMethod": "cash",
      "paymentMode": ["A"],
      "payOptions": ["crCard", "eNets", "dbsCrCardIpp", "axasam", "chequeCashierOrder", "cash", "teleTransfter"]
    },
    {
      "covCode": "RHP2",
      "paymentMethod": "cash",
      "paymentMode": ["S", "Q", "M", "L"],
      "payOptions": ["crCard", "eNets", "axasam", "chequeCashierOrder", "cash", "teleTransfter"]
    },
    {
      "covCode": "RHP2",
      "paymentMethod": "srs",
      "paymentMode": ["A", "S", "Q", "M", "L"],
      "payOptions": ["srs"]
    },
    {
      "covCode": "NPE",
      "paymentMethod": "cash",
      "paymentMode": ["A"],
      "payOptions": ["crCard", "eNets", "axasam", "chequeCashierOrder", "cash", "teleTransfter","dbsCrCardIpp"]
    },
    {
      "covCode": "NPE",
      "paymentMethod": "cash",
      "paymentMode": ["S", "Q", "M", "L"],
      "payOptions": ["crCard", "eNets", "axasam", "chequeCashierOrder", "cash", "teleTransfter"]
    },
    {
      "covCode": "NPE",
      "paymentMethod": "srs",
      "paymentMode": ["A", "S", "Q", "M", "L"],
      "payOptions": ["srs"]
    },
    {
      "covCode": "ART2",
      "paymentMethod": "cash",
      "paymentMode": ["A"],
      "payOptions": ["crCard", "eNets", "axasam", "chequeCashierOrder", "cash", "teleTransfter","dbsCrCardIpp"]
    },
    {
      "covCode": "ART2",
      "paymentMethod": "cash",
      "paymentMode": ["S", "Q", "M", "L"],
      "payOptions": ["crCard", "eNets", "axasam", "chequeCashierOrder", "cash", "teleTransfter"]
    },
    {
      "covCode": "ART2",
      "paymentMethod": "srs",
      "paymentMode": ["A", "S", "Q", "M", "L"],
      "payOptions": ["srs"]
    },
    {
      "covCode": "HER",
      "paymentMethod": "",
      "paymentMode": ["A"],
      "payOptions": ["crCard", "eNets", "dbsCrCardIpp", "axasam", "chequeCashierOrder", "cash", "teleTransfter"]
    },
    {
        "covCode": "HER",
        "paymentMethod": "",
        "paymentMode": ["S", "Q", "M", "L"],
        "payOptions": ["crCard", "eNets", "axasam", "chequeCashierOrder", "cash", "teleTransfter"]
    },
    {
      "covCode": "HIM",
      "paymentMethod": "",
      "paymentMode": ["A"],
      "payOptions": ["crCard", "eNets", "dbsCrCardIpp", "axasam", "chequeCashierOrder", "cash", "teleTransfter"]
    },
    {
        "covCode": "HIM",
        "paymentMethod": "",
        "paymentMode": ["S", "Q", "M", "L"],
        "payOptions": ["crCard", "eNets", "axasam", "chequeCashierOrder", "cash", "teleTransfter"]
    },
    {
      "covCode": "ESC",
      "paymentMethod": "",
      "paymentMode": ["A"],
      "payOptions": ["crCard", "eNets", "dbsCrCardIpp", "axasam", "chequeCashierOrder", "cash", "teleTransfter"]
    },
    {
        "covCode": "ESC",
        "paymentMethod": "",
        "paymentMode": ["S", "Q", "M", "L"],
        "payOptions": ["crCard", "eNets", "axasam", "chequeCashierOrder", "cash", "teleTransfter"]
    },
    {
      "covCode": "AWICA",
      "paymentMethod": "cash",
      "paymentMode": ["A", "S", "Q", "M", "L"],
      "payOptions": ["eNets", "axasam", "chequeCashierOrder", "cash", "teleTransfter"]
    },
    {
      "covCode": "AWICA",
      "paymentMethod": "cpfisoa",
      "paymentMode": ["A", "S", "Q", "M", "L"],
      "payOptions": ["cpfisoa"]
    },
    {
      "covCode": "AWICA",
      "paymentMethod": "cpfissa",
      "paymentMode": ["A", "S", "Q", "M", "L"],
      "payOptions": ["cpfissa"]
    },
    {
      "covCode": "AWICA",
      "paymentMethod": "srs",
      "paymentMode": ["A", "S", "Q", "M", "L"],
      "payOptions": ["srs"]
    },
    {
      "covCode": "AWICP",
      "paymentMethod": "cash",
      "paymentMode": ["A", "S", "Q", "M", "L"],
      "payOptions": ["eNets", "axasam", "chequeCashierOrder", "cash", "teleTransfter"]
    },
    {
      "covCode": "AWICP",
      "paymentMethod": "cpfisoa",
      "paymentMode": ["A", "S", "Q", "M", "L"],
      "payOptions": ["cpfisoa"]
    },
    {
      "covCode": "AWICP",
      "paymentMethod": "cpfissa",
      "paymentMode": ["A", "S", "Q", "M", "L"],
      "payOptions": ["cpfissa"]
    },
    {
      "covCode": "AWICP",
      "paymentMethod": "srs",
      "paymentMode": ["A", "S", "Q", "M", "L"],
      "payOptions": ["srs"]
    },
    {
      "covCode": "SPEN",
      "paymentMethod": "cash",
      "paymentMode": ["A"],
      "payOptions": ["crCard", "eNets", "axasam", "chequeCashierOrder", "cash", "teleTransfter","dbsCrCardIpp"]
    },
    {
      "covCode": "SPEN",
      "paymentMethod": "cash",
      "paymentMode": ["S", "Q", "M", "L"],
      "payOptions": ["crCard", "eNets", "axasam", "chequeCashierOrder", "cash", "teleTransfter"]
    },
    {
      "covCode": "SPEN",
      "paymentMethod": "",
      "paymentMode": ["A", "S", "Q", "M", "L"],
      "payOptions": ["crCard", "eNets", "axasam", "chequeCashierOrder", "cash", "teleTransfter"]
    },
    {
      "covCode": "AWTR",
      "paymentMethod": "cash",
      "paymentMode": ["S", "Q", "M", "L"],
      "payOptions": ["crCard", "eNets", "axasam", "chequeCashierOrder", "cash", "teleTransfter"]
    },
    {
      "covCode": "AWTR",
      "paymentMethod": "cash",
      "paymentMode": ["A"],
      "payOptions": ["crCard", "eNets", "dbsCrCardIpp", "axasam", "chequeCashierOrder", "cash", "teleTransfter"]
    },
    {
      "covCode": "AWTR",
      "notPaybySGD": true,
      "payOptions": ["chequeCashierOrder", "teleTransfter"]
    },
    {
      "covCode": "MPC",
      "paymentMethod": "",
      "paymentMode": ["A"],
      "payOptions": ["crCard", "eNets", "dbsCrCardIpp", "axasam", "chequeCashierOrder", "cash", "teleTransfter"]
    },
    {
      "covCode": "MPC",
      "paymentMethod": "",
      "paymentMode": ["S", "Q", "M", "L"],
      "payOptions": ["crCard", "eNets", "axasam", "chequeCashierOrder", "cash", "teleTransfter"]
    },
    {
      "covCode": "MPC",
      "notPaybySGD": true,
      "payOptions": ["chequeCashierOrder", "teleTransfter"]
    },
    {
      "covCode": "CSP",
      "paymentMethod": "",
      "paymentMode": ["A"],
      "payOptions": ["crCard", "eNets", "dbsCrCardIpp", "axasam", "chequeCashierOrder", "cash", "teleTransfter"]
    },
    {
      "covCode": "CSP",
      "paymentMethod": "",
      "paymentMode": ["S", "Q", "M", "L"],
      "payOptions": ["crCard", "eNets", "axasam", "chequeCashierOrder", "cash", "teleTransfter"]
    },
    {
      "covCode": "CSP",
      "notPaybySGD": true,
      "payOptions": ["chequeCashierOrder", "teleTransfter"]
    },
    {
      "covCode": "FX2",
      "paymentMethod": "cash",
      "paymentMode": ["A"],
      "payOptions": ["crCard", "eNets", "dbsCrCardIpp", "axasam", "chequeCashierOrder", "cash", "teleTransfter"]
    },
    {
      "covCode": "FX2",
      "paymentMethod": "cash",
      "paymentMode": ["S", "Q", "M", "L"],
      "payOptions": ["crCard", "eNets", "axasam", "chequeCashierOrder", "cash", "teleTransfter"]
    },
    {
      "covCode": "FX2",
      "notPaybySGD": true,
      "payOptions": ["chequeCashierOrder", "teleTransfter"]
    }
  ]
}
