{
  "portfolios": [
    {
      "riskProfile": 1,
      "models": [
        {
          "id": "pm-1-1",
          "title": "Model 1",
          "groups": [
            { "percentage": 5, "riskRatings": [4]},
            { "percentage": 5, "riskRatings": [3] },
            { "percentage": 90, "riskRatings": [1] }
          ]
        },
        {
          "id": "pm-1-2",
          "title": "Model 2",
          "groups": [
            { "percentage": 15, "riskRatings": [3] },
            { "percentage": 85, "riskRatings": [1] }
          ]
        },
        {
          "id": "pm-1-3",
          "title": "Model 3",
          "groups": [
            { "percentage": 25, "riskRatings": [2] },
            { "percentage": 75, "riskRatings": [1] }
          ]
        }
      ]
    },
    {
      "riskProfile": 2,
      "models": [
        {
          "id": "pm-2-1",
          "title": "Model 1",
          "groups": [
            { "percentage": 10, "riskRatings": [5] },
            { "percentage": 10, "riskRatings": [4] },
            { "percentage": 30, "riskRatings": [2] },
            { "percentage": 50, "riskRatings": [1] }
          ]
        },
        {
          "id": "pm-2-2",
          "title": "Model 2",
          "groups": [
            { "percentage": 25, "riskRatings": [4] },
            { "percentage": 40, "riskRatings": [2] },
            { "percentage": 35, "riskRatings": [1] }
          ]
        },
        {
          "id": "pm-2-3",
          "title": "Model 3",
          "groups": [
            { "percentage": 70, "riskRatings": [3] },
            { "percentage": 30, "riskRatings": [2] }
          ]
        },
        {
          "id": "pm-2-4",
          "title": "Architas",
		      "products":["AWT","PUL","AWICA", "AWTR", "FX2"],
          "specialRisk": "architas",
          "groups": [
            { "percentage": 100, "riskRatings": [2]}
          ],
          "notDisplayAdjustButton":true
        }
      ]
    },
    {
      "riskProfile": 3,
      "models": [
        {
          "id": "pm-3-1",
          "title": "Model 1",
          "groups": [
            { "percentage": 20, "riskRatings": [5] },
            { "percentage": 20, "riskRatings": [4] },
            { "percentage": 30, "riskRatings": [2] },
            { "percentage": 30, "riskRatings": [1] }
          ]
        },
        {
          "id": "pm-3-2",
          "title": "Model 2",
          "groups": [
            { "percentage": 10, "riskRatings": [5] },
            { "percentage": 35, "riskRatings": [4] },
            { "percentage": 55, "riskRatings": [2] }
          ]
        },
        {
          "id": "pm-3-3",
          "title": "Model 3",
          "groups": [
            { "percentage": 60, "riskRatings": [4] },
            { "percentage": 30, "riskRatings": [2] },
            { "percentage": 10, "riskRatings": [1] }
          ]
        },
        {
          "id": "pm-3-4",
          "title": "Architas",
		      "products":["AWT","PUL","AWICA", "AWTR", "FX2"],
          "specialRisk": "architas",
          "groups": [
            { "percentage": 25, "riskRatings": [5]},
            { "percentage": 75, "riskRatings": [2]}
          ]
        }
      ]
    },
    {
      "riskProfile": 4,
      "models": [
        {
          "id": "pm-4-1",
          "title": "Model 1",
          "groups": [
            { "percentage": 60, "riskRatings": [5] },
            { "percentage": 20, "riskRatings": [2] },
            { "percentage": 20, "riskRatings": [1] }
          ]
        },
        {
          "id": "pm-4-2",
          "title": "Model 2",
          "groups": [
            { "percentage": 50, "riskRatings": [5] },
            { "percentage": 25, "riskRatings": [4] },
            { "percentage": 25, "riskRatings": [1] }
          ]
        },
        {
          "id": "pm-4-3",
          "title": "Model 3",
          "groups": [
            { "percentage": 40, "riskRatings": [5] },
            { "percentage": 40, "riskRatings": [4] },
            { "percentage": 20, "riskRatings": [2] }
          ]
        },
        {
          "id": "pm-4-4",
          "title": "Architas",
		      "products":["AWT","PUL","AWICA", "AWTR", "FX2"],
          "specialRisk": "architas",
          "groups": [
            { "percentage": 100, "riskRatings": [4]}
          ]
        }
      ]
    },
    {
      "riskProfile": 5,
      "models": [
        {
          "id": "pm-6",
          "specialRisk": "architas",
          "title": "Architas",
		      "products":["AWT","PUL","AWICA", "AWTR", "FX2"],
          "groups": [
            { "percentage": 100, "riskRatings": [5]}
          ]
        }
      ]
    },
	{
      "riskProfile": 5,
      "models": [
        {
          "id": "pm-5",
          "title": "Choose any combination - no restrictions",
          "any": true,
          "notDisplayAdjustButton":true
        }
      ]
    }
  ],

  "architasFunds":["AFBF", "AFEF","AMAB"]
}
