{
    "IND": {
        "method": "getPaymentMethodWithBI"
    },
    "SAV": {
        "method": "showRP"
    },
    "BAA": {
        "method": "showRP"
    },
    "FSX": {
        "method": "showRP"
    },
    "FPX": {
        "method": "showRP"
    },
    "ASIM": {
        "method": "showRP"
    },
    "TPX": {
        "method": "getPaymentMethodWithPaymentMode"
    },
    "TPPX": {
      "method": "getPaymentMethodWithPaymentMode"
    }
}
