{
	"type": "layout",
	"items": [{
			"type": "SECTION",
			"items": [{
				"type": "HBOX",
				"items": [{
					"id": "photo",
					"title": {
						"en": "Client Profile"
					},
					"type": "PHOTO",
					"align": "left",
					"styleClass": "DetailsItem",
					"profilePhoto": true
				}]
			}]
		}, {
			"type": "SECTION",
			"title": {
				"en": "Client Profile",
				"zh-Hant": "客戶資料"
			},
			"items": [{
				"type": "HBOX",
				"items": [{
						"id": "firstName",
						"title": {
							"en": "Given name (as shown in ID)"
						},
						"type": "text",
						"max": 30,
						"mandatory": true,
						"invalidate": {
							"fna": "M,S,D",
							"quotation": "P,I",
							"application": "P,I"
						},
						"onChange": {
							"module": "client",
							"type": "onNameChange"
						}
					}, {
						"id": "lastName",
						"title": {
							"en": "Surname (as shown in ID)"
						},
						"invalidate": {
							"fna": "M,S,D",
							"quotation": "P,I",
							"application": "P,I"
						},
						"type": "text",
						"max": 30,
						"onChange": {
							"module": "client",
							"type": "onNameChange"
						}
					},
					{
						"id": "othName",
						"title": {
							"en": "English or Other Name"
						},
						"invalidate": {
							"application": "P,I"
						},
						"max": 30,
						"type": "text"
					},
					{
						"id": "hanyuPinyinName",
						"title": {
							"en": "Han Yu Pin Yin Name",
							"zh-Hant": "漢語拼音名字"
						},
						"invalidate": {
							"application": "P,I"
						},
						"type": "text",
						"max": 30
					},
					{
						"id": "fullName",
						"type": "text",
						"title": {
							"en": "Name",
							"zh-Hant": "全名"
						},
						"max": 30,
						"mandatory": true,
						"invalidate": {
							"fna": "M,S,D",
							"quotation": "P,I",
							"application": "P,I"
						},
						"validation": {
							"module": "client",
							"type": "validateFullName"
						}
					},
					{
						"id": "nameOrder",
						"type": "picker",
						"title": {
							"en": "Name Order"
						},
						"invalidate": {
							"fna": "M,S,D",
							"quotation": "P,I",
							"application": "P,I"
						},
						"value": "L",
						"onChange": {
							"module": "client",
							"type": "onNameChange"
						},
						"options": [{
								"value": "F",
								"title": {
									"en": "Given name first"
								}
							},
							{
								"value": "L",
								"title": {
									"en": "Surname first"
								}
							}
						]
					},
					{
						"id": "title",
						"title": {
							"en": "Title",
							"zh-Hant": "稱呼"
						},
						"type": "picker",
						"validation": {
							"module": "client",
							"type": "validateTitle"
						},
						"options": [{
							"title": {
								"en": "Dr",
								"zh-Hant": "博士"
							},
							"value": "Dr"
						}, {
							"title": {
								"en": "Mr",
								"zh-Hant": "先生"
							},
							"value": "Mr"
						}, {
							"title": {
								"en": "Mrs",
								"zh-Hant": "夫人"
							},
							"value": "Mrs"
						}, {
							"title": {
								"en": "Ms",
								"zh-Hant": "女士"
							},
							"value": "Ms"
						}, {
							"title": {
								"en": "Mdm",
								"zh-Hant": "Mdm"
							},
							"value": "Mdm"
						}]
					},
					{
						"id": "gender",
						"mandatory": true,
						"title": {
							"en": "Gender",
							"zh-Hant": "性別"
						},
						"type": "picker",
						"invalidate": {
							"fna": "M,S,D",
							"quotation": "P,I",
							"application": "P,I"
						},
						"validation": {
							"module": "client",
							"type": "validateGender"
						},
						"options": [{
							"title": {
								"en": "Male",
								"zh-Hant": "男"
							},
							"value": "M"
						}, {
							"title": {
								"en": "Female",
								"zh-Hant": "女"
							},
							"value": "F"
						}],
						"condition": "existing"
					},
					{
						"id": "dob",
						"title": {
							"en": "Date of Birth(DD/MM/YYYY)",
							"zh-Hant": "出生日期"
						},
						"invalidate": {
							"fna": "M,S,D",
							"quotation": "P,I",
							"application": "P,I"
						},
						"type": "datePicker",
						"subType": "date",
						"min": 100,
						"max": 0,
						"value": 30,
						"condition": "existing",
						"onChange": {
							"module": "client",
							"type": "onDobChange"
						}
					},
					{
						"type": "12Box",
						"items": [{
								"id": "nationality",
								"title": {
									"en": "Nationality",
									"zh-Hant": "居住國家"
								},
								"type": "picker",
								"subType": "limit",
								"options": "nationality",
								"invalidate": {
									"quotation": "P,I",
									"application": "P,I"
								},
								"validation": {
									"module": "client",
									"type": "validateNationality"
								}
							},
							{
								"id": "prStatus",
								"title": {
									"en": "Singapore PR status",
									"zh-Hant": "PR status"
								},
								"mandatory": true,
								"isCustom": true,
								"trigger": {
									"type": "dynamicCondition",
									"id": "nationality",
									"value": "#1 && #1!='N1' && #1!='N2'"
								},
								"type": "picker",
								"invalidate": {
									"quotation": "P,I",
									"application": "P,I"
								},
								"options": [{
									"title": {
										"en": "Yes",
										"zh-Hant": "是"
									},
									"value": "Y"
								}, {
									"title": {
										"en": "No",
										"zh-Hant": "否"
									},
									"value": "N"
								}]
							}
						]
					},
					{
						"id": "residenceCountry",
						"title": {
							"en": "Country of Residence"
						},
						"value": "R2",
						"type": "picker",
						"subType": "limit",
						"options": "residency",
						"onChange": {
							"module": "client",
							"type": "onResidenceCountryChange"
						},
						"invalidate": {
							"quotation": "P,I",
							"application": "P,I"
						},
						"trigger": {
							"id": "residenceCity",
							"type": "notShowNAoption"
						}
					},
					{
						"type": "12Box",
						"items": [{
								"id": "residenceCity",
								"title": {
									"en": "City/State"
								},
								"type": "picker",
								"options": "city",
								"mandatory": true,
								"invalidate": {
                  "quotation": "P,I",
									"application": "P,I"
								},
								"onChange": {
									"module": "client",
									"type": "onResidenceCityChange"
								},
								"trigger": {
									"id": "residenceCountry",
									"type": "optionCondition"
								}
							},
							{
								"id": "otherResidenceCity",
								"title": {
									"en": "Others"
								},
								"isCustom": true,
								"type": "text",
								"mandatory": true,
								"invalidate": {
									"application": "P,I"
								},
								"trigger": {
									"type": "dynamicCondition",
									"id": "residenceCountry,residenceCity,$city",
									"value": "((!_.isUndefined(#1)  && !_.isUndefined(#2) && (#2 ==='T110' || #2 ==='T120'|| #2 ==='T224'|| #2 ==='T205' || #2 ==='T207'|| #2 ==='T208'|| #2 ==='T209' ) && !_.isUndefined(#3)))"
								},
								"subType": "text",
								"maxLength": 50
							}
						],
						"trigger": {
							"type": "dynamicCondition",
							"id": "residenceCountry,residenceCity",
							"value": "!_.isUndefined(#1) && ((#1 ==='R51' ||#1 ==='R52' || #1 ==='R53' || #1 ==='R72' || #1 ==='R54' || #1 ==='R120' || #1 ==='R134' || #1 ==='R147') || (!_.isUndefined(#2) && (#2 ==='T110' || #2 ==='T120'|| #2 ==='T224'|| #2 ==='T205' || #2 ==='T207'|| #2 ==='T208'|| #2 ==='T209' )))"
						}
					},
					{
						"type": "12BOX",
						"items": [{
								"id": "idDocType",
								"title": {
									"en": "ID Document Type"
								},
								"type": "picker",
								"validation": {
									"module": "client",
									"type": "validationIdDocType"
								},
								"invalidate": {
									"fna": "M,S",
									"application": "P,I"
								},
								"options": [{
										"title": {
											"en": "Birth Certificate No."
										},
										"value": "bcNo"
									}, {
										"title": {
											"en": "FIN No."
										},
										"value": "fin"
									},
									{
										"title": {
											"en": "NRIC"
										},
										"value": "nric"
									}, {
										"title": {
											"en": "Passport"
										},
										"value": "passport"
									}, {
										"title": {
											"en": "Others"
										},
										"isOther": true,
										"max": 30,
										"value": "other"
									}
								]
							},
							{
								"id": "idDocTypeOther",
								"type": "text",
								"max": 25,
								"placeholder": {
									"en": "Please Specify:"
								},
								"mandatory": true,
								"invalidate": {
									"fna": "M,S,D",
									"application": "P,I"
								},
								"trigger": {
									"id": "idDocType",
									"type": "showIfContains",
									"value": "other"
								}
							}
						]
					}, {
						"id": "idCardNo",
						"title": {
							"en": "ID Number",
							"zh-Hant": "ID 號"
						},
						"type": "text",
						"max": 20,
						"invalidate": {
							"fna": "M,S",
							"application": "P,I"
						},
						"validation": {
							"module": "client",
							"type": "validateIdCardNo"
						}
					}, {
						"id": "isSmoker",
						"title": {
							"en": "Smoking Status"
						},
						"type": "picker",
						"invalidate": {
							"quotation": "P,I"
						},
						"options": [{
							"title": {
								"en": "Non-smoker"
							},
							"value": "N"
						}, {
							"title": {
								"en": "Smoker",
								"zh-Hant": "吸煙"
							},
							"value": "Y"
						}]
					}, {
						"id": "marital",
						"title": {
							"en": "Marital status",
							"zh-Hant": "婚姻狀況"
						},
						"type": "picker",
						"invalidate": {
							"fna": "M,S",
							"application": "P,I"
						},
						"options": "marital",
						"validation": {
							"module": "client",
							"type": "validateMarital"
						}
					},
					{
						"type": "HBOX",
						"title": {
							"en": "Mobile No."
						},
						"shadow": true,
						"key": "mobileNoSection",
						"items": [{
								"id": "mobileCountryCode",
								"type": "picker",
								"subType": "limit",
								"placeholder": {
									"en": "Country code of Mobile"
								},
								"value": "+65",
								"invalidate": {
									"fna": "M,S",
									"application": "P,I"
								},
								"options": "countryTelCode"
							},
							{
								"id": "mobileNo",
								"placeholder": {
									"en": "Mobile No."
								},
								"type": "text",
								"subType": "digit",
								"invalidate": {
									"fna": "M,S",
									"application": "P,I"
								},
								"validation": {
									"module": "client",
									"type": "validateMobileNo"
								}
							}
						]

					},
					{
						"type": "HBOX",
						"title": {
							"en": "Other No."
						},
						"shadow": true,
						"key": "otherMobileNoSection",
						"items": [{
								"id": "otherMobileCountryCode",
								"type": "picker",
								"subType": "limit",
								"placeholder": {
									"en": "Country code of Other"
								},
								"value": "+65",
								"options": "countryTelCode"
							},
							{
								"id": "otherNo",
								"placeholder": {
									"en": "Other No."
								},
								"type": "text",
								"subType": "digit",
								"validation": {
									"module": "client",
									"type": "validateOtherNo"
								}
							}
						]

					},
					{
						"id": "email",
						"title": {
							"en": "Email",
							"zh-Hant": "電子郵件"
						},
						"type": "text",
						"invalidate": {
							"application": "P"
						},
						"subType": "email",
						"maxLength": 50
					},
					{
						"title": {
							"en": "Language Spoken",
							"zh-Hant": "語言"
						},
						"type": "popover",
						"items": [{
								"id": "language",
								"type": "checkboxGroup",
								"invalidate": {
									"fna": "M,S"
								},
								"options": [{
									"title": {
										"en": "English",
										"zh-Hant": "英文"
									},
									"value": "en"
								}, {
									"title": {
										"en": "Mandarin",
										"zh-Hant": "中文"
									},
									"value": "zh"
								}, {
									"title": {
										"en": "Malay",
										"zh-Hant": "馬來語"
									},
									"value": "ms"
								}, {
									"title": {
										"en": "Tamil",
										"zh-Hant": "坦米爾語"
									},
									"value": "ta"
								}, {
									"title": {
										"en": "Other",
										"zh-Hant": "其他"
									},
									"isOther": true,
									"value": "other"
								}]
							},
							{
								"id": "languageOther",
								"type": "text",
								"max": 30,
								"placeholder": {
									"en": "Please Specify"
								},
								"validation": {
									"module": "client",
									"type": "validateLanguageOther"
								},
								"trigger": {
									"id": "language",
									"type": "showIfContains",
									"value": "other"
								}
							}
						]
					}
				]
			}]
		},
		{
			"type": "SECTION",
			"title": {
				"en": "Residential Address",
				"zh-Hant": "住宅地址"
			},
			"items": [{
					"type": "HBOX",
					"items": [{
							"id": "addrCountry",
							"title": {
								"en": "Country"
							},
							"type": "picker",
							"value": "R2",
							"subType": "limit",
							"options": "residency",
							"disabled": true,
							"invalidate": {
								"application": "P,I"
							},
							"trigger": {
								"id": "residenceCountry",
								"type": "notShowNAoption",
								"optionList": "residency"
							}
						},
						{
							"id": "addrCity",
							"title": {
								"en": "City/State"
							},
							"options": "city",
							"type": "picker",
							"subType": "AUTOCOMPLETE",
							"invalidate": {
								"application": "P,I"
							},
							"disabled": true,
							"hiddenField": {
								"type": "skip"
							},
							"trigger": {
								"type": "dynamicCondition",
								"id": "residenceCountry,residenceCity,$city",
								"value": "!_.isUndefined(#1) && (#1 ==='R51' || #1 ==='R148' || #1 ==='R121') && !_.isUndefined(#2) && !_.isUndefined(#3) && _.filter(_value[2], obj => {return obj.value === _value[1]}).length > 0"
							}
						},
						{
							"id": "addrCity",
							"title": {
								"en": "City/State"
							},
							"type": "text",
							"hiddenField": {
								"type": "skip"
							},
							"invalidate": {
								"application": "P,I"
							},
							"max": 12,
							"trigger": [{
									"id": "residenceCity",
									"type": "NotinOption",
									"optionList": "city"
								},
								{
									"id": "residenceCountry",
									"type": "showIfContains",
									"value": "R51,R148,R121"
								}
							]
						},
						{
							"id": "postalCode",
							"title": {
								"en": "Postal Code"
							},
							"type": "text",
							"subType": "postalcode",
							"max": 10,
							"countryAllowed": "residenceCountry",
							"invalidate": {
								"application": "P,I"
							},
							"mapping": {
								"bldgNo": "addrBlock,12",
								"bldgName": "addrEstate,40",
								"streetName": "addrStreet,24"
							}
						}
					]
				},
				{
					"id": "addrBlock",
					"title": {
						"en": "Block/House Number"
					},
					"invalidate": {
						"application": "P,I"
					},
					"type": "text",
					"max": 12,
					"populate": {
						"module": "client"
					}
				},
				{
					"id": "addrStreet",
					"title": {
						"en": "Street/Road Name"
					},
					"type": "text",
					"max": 24,
					"invalidate": {
						"application": "P,I"
					},
					"populate": {
						"module": "client"
					}
				},
				{
					"id": "unitNum",
					"title": {
						"en": "Unit Number"
					},
					"type": "text",
					"subType": "unit_no",
					"invalidate": {
						"application": "P,I"
					},
					"max": 13
				},
				{
					"id": "addrEstate",
					"title": {
						"en": "Building/ Estate Name"
					},
					"invalidate": {
						"application": "P,I"
					},
					"type": "text",
					"max": 40
				}
			]
		},
		{
			"type": "section",
			"title": {
				"en": "Education/Work Information",
				"zh-Hant": "教育 / 工作信息"
			},
			"items": [{
				"type": "HBOX",
				"items": [{
						"id": "education",
						"title": {
							"en": "Education"
						},
						"type": "picker",
						"invalidate": {
							"fna": "M,S"
						},
						"options": [{
							"title": {
								"en": "Below GCE ‘N’ or ‘O’ Levels certificate"
							},
							"value": "below"
						}, {
							"title": {
								"en": "GCE ‘N’ or ‘O’ Levels and above certificate"
							},
							"value": "above"
						}]
					},
					{
						"type": "12BOX",
						"items": [{
								"id": "employStatus",
								"type": "picker",
								"title": {
									"en": "Employment Status",
									"zh-Hant": "就業狀況"
								},
								"invalidate": {
									"fna": "M,S"
								},
								"options": [{
									"title": {
										"en": "Full Time"
									},
									"value": "ft"
								}, {
									"title": {
										"en": "Househusband"
									},
									"value": "hh"
								}, {
									"title": {
										"en": "Housewife"
									},
									"value": "hw"
								}, {
									"title": {
										"en": "Part Time"
									},
									"value": "pt"
								}, {
									"title": {
										"en": "Retired"
									},
									"value": "rt"
								}, {
									"title": {
										"en": "Self Employed"
									},
									"value": "se"
								}, {
									"title": {
										"en": "Student"
									},
									"value": "sd"
								}, {
									"title": {
										"en": "Unemployed"
									},
									"value": "ue"
								}, {
									"title": {
										"en": "Others"
									},
									"isOther": true,
									"value": "ot"
								}],
								"onChange": {
									"module": "client",
									"type": "onEmployStatusChange"
								},
								"validation": {
									"module": "client",
									"type": "validateEmployStatus"
								}
							},
							{
								"id": "employStatusOther",
								"type": "text",
								"max": 30,
								"mandatory": true,
								"trigger": {
									"id": "employStatus",
									"type": "dynamicCondition",
									"value": "#1=='ot'"
								}
							}
						]
					},
					{
						"type": "12BOX",
						"items": [{
							"id": "occupation",
							"title": {
								"en": "Occupation"
							},
							"type": "picker",
							"subType": "limit",
							"options": "occupation",
							"invalidate": {
								"quotation": "P,I",
								"application": "P,I"
							},
							"trigger": {
								"id": "industry",
								"type": "optionCondition",
								"showIfNoValue": true
							},
							"maxSearchResults": 200,
							"onChange": {
								"module": "client",
								"type": "onOccupationChange"
							},
							"validation": {
								"module": "client",
								"type": "validateOccupation"
							}
						},
						{
							"id": "occupationOther",
							"placeholder": {
								"en": "Please Specify:"
							},
							"type": "text",
							"invalidate": {
								"application": "P,I"
							},
							"max": 50,
							"trigger": {
								"id": "occupation",
								"type": "dynamicCondition",
								"value": "#1=='O921'"
							}
						}]
					},
					{
						"id": "industry",
						"title": {
							"en": "Industry"
						},
						"type": "picker",
						"subType": "limit",
						"options": "industry",
						"invalidate": {
							"quotation": "P,I",
							"application": "P,I"
						},
						"maxSearchResults": 30,
						"validation": {
							"module": "client",
							"type": "validateIndustry"
						},
						"onChange": {
							"module": "client",
							"type": "onIndustryChange"
						}
					},
					{
						"id": "organization",
						"type": "text",
						"title": {
							"en": "Name of Employer/Business/School"
						},
						"max": 50,
						"invalidate": {
							"application": "P,I"
						},
						"validation": {
							"module": "client",
							"type": "validateOrganization"
						}
					},
					{
						"id": "organizationCountry",
						"type": "picker",
						"subType": "limit",
						"title": {
							"en": "Country of Employer/Business/School"
						},
						"value": "R2",
						"options": "residency",
						"invalidate": {
							"application": "P,I"
						},
						"validation": {
							"module": "client",
							"type": "validateOrganizationCountry"
						}
					},
					{
						"type": "12Box",
						"trigger": {
							"type": "dynamicCondition",
							"id": "nationality,prStatus",
							"value": "#1 && #1 !='N2' && #1!='N1' && #2 && #2=='N'"
						},
						"items": [{
								"id": "pass",
								"type": "picker",
								"title": {
									"en": "Type of Pass"
								},
								"invalidate": {
									"application": "P,I"
								},
								"options": "pass"
							},
							{
								"id": "passOther",
								"type": "text",
								"mandatory": true,
								"max": 24,
								"invalidate": {
									"application": "P,I"
								},
								"trigger": {
									"id": "pass",
									"type": "dynamicCondition",
									"value": "#1 && #1 == 'o'"
								}
							}
						]
					},

					{
						"id": "passExpDate",
						"title": {
							"en": "Pass Expiry Date(DD/MM/YYYY)"
						},
						"type": "datePicker",
						"subType": "date",
						"min": 0,
						"max": 10,
						"invalidate": {
							"application": "P,I"
						},
						"trigger": {
							"type": "dynamicCondition",
							"id": "nationality,prStatus",
							"value": "#1 && #1!='N1' && #1!='N2' && #2 && #2=='N'"
						}
					},
					{
						"id": "allowance",
						"title": {
							"en": "Monthly Income/Allowance SGD"
						},
						"subType": "currency",
						"min": 0,
						"max": 9999999999,
						"invalidate": {
							"fna": "M,S",
							"application": "P,I"
						},
						"type": "text",
						"allowZero": true,
						"initEmpty": true
					}
				]
			}]
		}
	]
}
