{
  "type": "layout",
  "result":[
    {
      "type": "tabs",
      "items": [
        {
          "title": "Life Assured",
          "subType": "insured",
          "items": [
            {
              "type": "block",
              "items": [
                {
                  "type": "hbox",
                  "items": [
                    {
                      "id": "HW01",
                      "type": "text",
                      "subType": "number",
                      "maxLenght": 3,
                      "decimal": 2,
                      "title": "Height (m, meter)"
                    },
                    {
                      "id": "HW02",
                      "type": "text",
                      "subType": "number",
                      "maxLenght": 5,
                      "decimal": 2,
                      "title": "Weight (kg, kilogram)"
                    }
                  ]
                },
                {
                  "id": "HW03",
                  "type": "QRADIOGROUP",
                  "title": "Any weight change in the last 12 months? (kg)",
                  "options": [
                    {
                      "value": "Y",
                      "title": "Yes"
                    },
                    {
                      "value": "N",
                      "title": "No"
                    }
                  ]
                },
                {
                  "type": "hbox",
                  "trigger":{
                    "id":"HW03",
                    "value":"Y",
                    "type": "showIfEqual"
                  },
                  "items": [
                    {
                      "id": "HW03a",
                      "type": "QRADIOGROUP",
                      "title": "Weight change",
                      "options": [
                        {
                          "value": "G",
                          "title": "Gain"
                        },
                        {
                          "value": "L",
                          "title": "Lost"
                        }
                      ]
                    },
                    {
                      "id": "HW03b",
                      "type": "text",
                      "subType": "number",
                      "maxLenght": 3,
                      "title": "How many kg?"
                    }
                  ]
                },
                {
                  "type": "hbox",
                  "items":[
                    {
                      "id": "HW03c",
                      "mandatory":true,
                      "type":"picker",
                      "trigger":{
                        "id":"HW03",
                        "value":"Y",
                        "type": "showIfEqual"
                      },
                      "title": "Reason of weight change",
                      "options":[
                        {
                          "title":"Diet Control",
                          "value":"diet"
                        },
                        {
                          "title":"Exercising",
                          "value":"exercise"
                        },
                        {
                          "title":"Pregnancy",
                          "value":"pregnancy"
                        },
                        {
                          "title":"Post delivery",
                          "value":"pdelivery"
                        },
                        {
                          "title":"Other",
                          "value":"other"
                        }
                      ]
                    },
                    {
                      "id":"HW03c1",
                      "title":{
                        "en":"Please specify/Others"
                      },
                      "type":"text",
                      "mandatory":true,
                      "max": 100,
                      "trigger":{
                        "id":"HW03c",
                        "type":"showIfEqual",
                        "value":"other"
                      }
                    }
                  ]
                }
              ]
            },
            {
              "type": "block",
              "title": "Medical and Health Information",
              "items": [
                {
                  "type": "qTitel",
                  "id": "HEALTH01_LABEL",
                  "title": "1. Have you ever had, or been told you had, or received treatment for:"
                },
                {
                  "id": "HEALTH01",
                  "type": "QRADIOGROUP",
                  "title": "(a) Any physical or developmental impairments or abnormalities or premature birth? ",
                  "note": "(to be completed for Life Assured age 15 years and below)",
                  "options": [
                    {
                      "value": "Y",
                      "title": "Yes"
                    },
                    {
                      "value": "N",
                      "title": "No"
                    }
                  ],
                  "trigger":{
                    "id":"personalInfo/age",
                    "type":"showIfSmaller",
                    "value":16
                  },
                  "defaultValue": 0
                },
                {
                  "type": "table",
                  "trigger": {
                    "id": "HEALTH01",
                    "type": "showIfEqual",
                    "value": "Y"
                  },
                  "allowEdit": true,
                  "hasBorder": true,
                  "items": [
                    {
                      "id": "HEALTH01a",
                      "type": "text",
                      "title": "Medical Condition/Diagnosis",
                      "maxLenght": 200
                    },
                    {
                      "id": "HEALTH01b",
                      "title": "Year of diagnosis",
                      "type": "picker",
                      "subType": "selectField",
                      "optionsTable": "years",
                      "options": [
                        {
                          "value": "2017",
                          "title": "2017"
                        },
                        {
                          "value": "2016",
                          "title": "2016"
                        },
                        {
                          "value": "2015",
                          "title": "2015"
                        }
                      ]
                    },
                    {
                      "id": "HEALTH01c",
                      "type": "text",
                      "title": "Tests Done",
                      "maxLenght": 200
                    },
                    {
                      "id": "HEALTH01d",
                      "type": "datepicker",
                      "title": "Date of Test"
                    },
                    {
                      "id": "HEALTH01e",
                      "type": "text",
                      "title": "Results of Test",
                      "maxLenght": 200
                    },
                    {
                      "id": "HEALTH01f",
                      "type": "text",
                      "title": "Medication/Treatment: Follow up or any complication",
                      "maxLenght": 200
                    },
                    {
                      "id": "HEALTH01g",
                      "type": "text",
                      "title": "Name of Doctor",
                      "maxLenght": 200
                    },
                    {
                      "id": "HEALTH01h",
                      "type": "text",
                      "title": "Address of Hospital/Clinic",
                      "maxLenght": 200
                    }
                  ]
                },
                {
                  "id": "HEALTH02",
                  "type": "QRADIOGROUP",
                  "title": "(b) Chest pain, high blood pressure, heart attack, stroke, diabetes, or any heart, blood or vascular disease or disorder?",
                  "options": [
                    {
                      "value": "Y",
                      "title": "Yes"
                    },
                    {
                      "value": "N",
                      "title": "No"
                    }
                  ]
                },
                {
                  "type": "table",
                  "trigger": {
                    "id": "HEALTH02",
                    "type": "showIfEqual",
                    "value": "Y"
                  },
                  "allowEdit": true,
                  "hasBorder": true,
                  "items": [
                    {
                      "id": "HEALTH02a",
                      "type": "text",
                      "title": "Medical Condition/Diagnosis",
                      "maxLenght": 200
                    },
                    {
                      "id": "HEALTH02b",
                      "title": "Year of diagnosis",
                      "type": "picker",
                      "subType": "selectField",
                      "optionsTable": "years",
                      "options": [
                        {
                          "value": "2017",
                          "title": "2017"
                        },
                        {
                          "value": "2016",
                          "title": "2016"
                        },
                        {
                          "value": "2015",
                          "title": "2015"
                        }
                      ]
                    },
                    {
                      "id": "HEALTH02c",
                      "type": "text",
                      "title": "Tests Done",
                      "maxLenght": 200
                    },
                    {
                      "id": "HEALTH02d",
                      "type": "datepicker",
                      "title": "Date of Test"
                    },
                    {
                      "id": "HEALTH02e",
                      "type": "text",
                      "title": "Results of Test",
                      "maxLenght": 200
                    },
                    {
                      "id": "HEALTH02f",
                      "type": "text",
                      "title": "Medication/Treatment: Follow up or any complication",
                      "maxLenght": 200
                    },
                    {
                      "id": "HEALTH02g",
                      "type": "text",
                      "title": "Name of Doctor",
                      "maxLenght": 200
                    },
                    {
                      "id": "HEALTH02h",
                      "type": "text",
                      "title": "Address of Hospital/Clinic",
                      "maxLenght": 200
                    }
                  ]
                },
                {
                  "id": "HEALTH03",
                  "type": "QRADIOGROUP",
                  "title": "(c) Cancer, melanoma, tumour, cysts, lump, polyp or growth of any kind?",
                  "options": [
                    {
                      "value": "Y",
                      "title": "Yes"
                    },
                    {
                      "value": "N",
                      "title": "No"
                    }
                  ]
                },
                {
                  "type": "table",
                  "trigger": {
                    "id": "HEALTH03",
                    "type": "showIfEqual",
                    "value": "Y"
                  },
                  "allowEdit": true,
                  "hasBorder": true,
                  "items": [
                    {
                      "id": "HEALTH03a",
                      "type": "text",
                      "title": "Medical Condition/Diagnosis",
                      "maxLenght": 200
                    },
                    {
                      "id": "HEALTH03b",
                      "title": "Year of diagnosis",
                      "type": "picker",
                      "subType": "selectField",
                      "optionsTable": "years",
                      "options": [
                        {
                          "value": "2017",
                          "title": "2017"
                        },
                        {
                          "value": "2016",
                          "title": "2016"
                        },
                        {
                          "value": "2015",
                          "title": "2015"
                        }
                      ]
                    },
                    {
                      "id": "HEALTH03c",
                      "type": "text",
                      "title": "Tests Done",
                      "maxLenght": 200
                    },
                    {
                      "id": "HEALTH03d",
                      "type": "datepicker",
                      "title": "Date of Test"
                    },
                    {
                      "id": "HEALTH03e",
                      "type": "text",
                      "title": "Results of Test",
                      "maxLenght": 200
                    },
                    {
                      "id": "HEALTH03f",
                      "type": "text",
                      "title": "Medication/Treatment: Follow up or any complication",
                      "maxLenght": 200
                    },
                    {
                      "id": "HEALTH03g",
                      "type": "text",
                      "title": "Name of Doctor",
                      "maxLenght": 200
                    },
                    {
                      "id": "HEALTH03h",
                      "type": "text",
                      "title": "Address of Hospital/Clinic",
                      "maxLenght": 200
                    }
                  ]
                },
                {
                  "id": "HEALTH04",
                  "type": "QRADIOGROUP",
                  "title": "(d) Kidney disease (e.g. stone, cyst), mental or nervous disorder (e.g. anxiety, depression), vision or hearing problems (e.g. cataract, meniere’s disease), digestive system  disorder (e.g. gastritis), endocrine disease (e.g. thyroid problem), liver disease (e.g. fatty liver), nervous system disorder(e.g. epilepsy, motor neurone disease), respiratory system disorder (e.g. asthma), skin disease(e.g. psoriasis), urinary system disorder (e.g. blood/protein in urine), spinal or muscle problems (e.g. slipped disc, dystrophy)?",
                  "options": [
                    {
                      "value": "Y",
                      "title": "Yes"
                    },
                    {
                      "value": "N",
                      "title": "No"
                    }
                  ]
                },
                {
                  "type": "table",
                  "trigger": {
                    "id": "HEALTH04",
                    "type": "showIfEqual",
                    "value": "Y"
                  },
                  "allowEdit": true,
                  "hasBorder": true,
                  "items": [
                    {
                      "id": "HEALTH04a",
                      "type": "text",
                      "title": "Medical Condition/Diagnosis",
                      "maxLenght": 200
                    },
                    {
                      "id": "HEALTH04b",
                      "title": "Year of diagnosis",
                      "type": "picker",
                      "subType": "selectField",
                      "optionsTable": "years",
                      "options": [
                        {
                          "value": "2017",
                          "title": "2017"
                        },
                        {
                          "value": "2016",
                          "title": "2016"
                        },
                        {
                          "value": "2015",
                          "title": "2015"
                        }
                      ]
                    },
                    {
                      "id": "HEALTH04c",
                      "type": "text",
                      "title": "Tests Done",
                      "maxLenght": 200
                    },
                    {
                      "id": "HEALTH04d",
                      "type": "datepicker",
                      "title": "Date of Test"
                    },
                    {
                      "id": "HEALTH04e",
                      "type": "text",
                      "title": "Results of Test",
                      "maxLenght": 200
                    },
                    {
                      "id": "HEALTH04f",
                      "type": "text",
                      "title": "Medication/Treatment: Follow up or any complication",
                      "maxLenght": 200
                    },
                    {
                      "id": "HEALTH04g",
                      "type": "text",
                      "title": "Name of Doctor",
                      "maxLenght": 200
                    },
                    {
                      "id": "HEALTH04h",
                      "type": "text",
                      "title": "Address of Hospital/Clinic",
                      "maxLenght": 200
                    }
                  ]
                },
                {
                  "id": "HEALTH05",
                  "type": "QRADIOGROUP",
                  "title": "(e) Joint, limb or bone disease or disorder, auto-immune disease (e.g. systemic lupus erythematosus) or infectious disease?",
                  "options": [
                    {
                      "value": "Y",
                      "title": "Yes"
                    },
                    {
                      "value": "N",
                      "title": "No"
                    }
                  ]
                },
                {
                  "type": "table",
                  "trigger": {
                    "id": "HEALTH05",
                    "type": "showIfEqual",
                    "value": "Y"
                  },
                  "allowEdit": true,
                  "hasBorder": true,
                  "items": [
                    {
                      "id": "HEALTH05a",
                      "type": "text",
                      "title": "Medical Condition/Diagnosis",
                      "maxLenght": 200
                    },
                    {
                      "id": "HEALTH05b",
                      "title": "Year of diagnosis",
                      "type": "picker",
                      "subType": "selectField",
                      "optionsTable": "years",
                      "options": [
                        {
                          "value": "2017",
                          "title": "2017"
                        },
                        {
                          "value": "2016",
                          "title": "2016"
                        },
                        {
                          "value": "2015",
                          "title": "2015"
                        }
                      ]
                    },
                    {
                      "id": "HEALTH05c",
                      "type": "text",
                      "title": "Tests Done",
                      "maxLenght": 200
                    },
                    {
                      "id": "HEALTH05d",
                      "type": "datepicker",
                      "title": "Date of Test"
                    },
                    {
                      "id": "HEALTH05e",
                      "type": "text",
                      "title": "Results of Test",
                      "maxLenght": 200
                    },
                    {
                      "id": "HEALTH05f",
                      "type": "text",
                      "title": "Medication/Treatment: Follow up or any complication",
                      "maxLenght": 200
                    },
                    {
                      "id": "HEALTH05g",
                      "type": "text",
                      "title": "Name of Doctor",
                      "maxLenght": 200
                    },
                    {
                      "id": "HEALTH05h",
                      "type": "text",
                      "title": "Address of Hospital/Clinic",
                      "maxLenght": 200
                    }
                  ]
                },
                {
                  "id": "HEALTH06",
                  "type": "QRADIOGROUP",
                  "title": "(f) Hepatitis B or C, HIV infection, tuberculosis, alcohol or drug dependency?",
                  "options": [
                    {
                      "value": "Y",
                      "title": "Yes"
                    },
                    {
                      "value": "N",
                      "title": "No"
                    }
                  ]
                },
                {
                  "type": "table",
                  "trigger": {
                    "id": "HEALTH06",
                    "type": "showIfEqual",
                    "value": "Y"
                  },
                  "allowEdit": true,
                  "hasBorder": true,
                  "items": [
                    {
                      "id": "HEALTH06a",
                      "type": "text",
                      "title": "Medical Condition/Diagnosis",
                      "maxLenght": 200
                    },
                    {
                      "id": "HEALTH06b",
                      "title": "Year of diagnosis",
                      "type": "picker",
                      "subType": "selectField",
                      "optionsTable": "years",
                      "options": [
                        {
                          "value": "2017",
                          "title": "2017"
                        },
                        {
                          "value": "2016",
                          "title": "2016"
                        },
                        {
                          "value": "2015",
                          "title": "2015"
                        }
                      ]
                    },
                    {
                      "id": "HEALTH06c",
                      "type": "text",
                      "title": "Tests Done",
                      "maxLenght": 200
                    },
                    {
                      "id": "HEALTH06d",
                      "type": "datepicker",
                      "title": "Date of Test"
                    },
                    {
                      "id": "HEALTH06e",
                      "type": "text",
                      "title": "Results of Test",
                      "maxLenght": 200
                    },
                    {
                      "id": "HEALTH06f",
                      "type": "text",
                      "title": "Medication/Treatment: Follow up or any complication",
                      "maxLenght": 200
                    },
                    {
                      "id": "HEALTH06g",
                      "type": "text",
                      "title": "Name of Doctor",
                      "maxLenght": 200
                    },
                    {
                      "id": "HEALTH06h",
                      "type": "text",
                      "title": "Address of Hospital/Clinic",
                      "maxLenght": 200
                    }
                  ]
                },
                {
                  "id": "HEALTH07",
                  "type": "QRADIOGROUP",
                  "title": "(g) Any other illness, disease, disorder, operation, physical disability or accident not mentioned above?",
                  "options": [
                    {
                      "value": "Y",
                      "title": "Yes"
                    },
                    {
                      "value": "N",
                      "title": "No"
                    }
                  ]
                },
                {
                  "type": "table",
                  "trigger": {
                    "id": "HEALTH07",
                    "type": "showIfEqual",
                    "value": "Y"
                  },
                  "allowEdit": true,
                  "hasBorder": true,
                  "items": [
                    {
                      "id": "HEALTH07a",
                      "type": "text",
                      "title": "Medical Condition/Diagnosis",
                      "maxLenght": 200
                    },
                    {
                      "id": "HEALTH07b",
                      "title": "Year of diagnosis",
                      "type": "picker",
                      "subType": "selectField",
                      "optionsTable": "years",
                      "options": [
                        {
                          "value": "2017",
                          "title": "2017"
                        },
                        {
                          "value": "2016",
                          "title": "2016"
                        },
                        {
                          "value": "2015",
                          "title": "2015"
                        }
                      ]
                    },
                    {
                      "id": "HEALTH07c",
                      "type": "text",
                      "title": "Tests Done",
                      "maxLenght": 200
                    },
                    {
                      "id": "HEALTH07d",
                      "type": "datepicker",
                      "title": "Date of Test"
                    },
                    {
                      "id": "HEALTH07e",
                      "type": "text",
                      "title": "Results of Test",
                      "maxLenght": 200
                    },
                    {
                      "id": "HEALTH07f",
                      "type": "text",
                      "title": "Medication/Treatment: Follow up or any complication",
                      "maxLenght": 200
                    },
                    {
                      "id": "HEALTH07g",
                      "type": "text",
                      "title": "Name of Doctor",
                      "maxLenght": 200
                    },
                    {
                      "id": "HEALTH07h",
                      "type": "text",
                      "title": "Address of Hospital/Clinic",
                      "maxLenght": 200
                    }
                  ]
                },
                {
                  "id": "HEALTH08",
                  "type": "QRADIOGROUP",
                  "title": "2. Are you currently receiving any medical treatment or do you intend seeking or have been advised to seek medical treatment for any health problems or are you waiting the results of any tests/ investigations?",
                  "options": [
                    {
                      "value": "Y",
                      "title": "Yes"
                    },
                    {
                      "value": "N",
                      "title": "No"
                    }
                  ]
                },
                {
                  "type": "table",
                  "trigger": {
                    "id": "HEALTH08",
                    "type": "showIfEqual",
                    "value": "Y"
                  },
                  "allowEdit": true,
                  "hasBorder": true,
                  "items": [
                    {
                      "id": "HEALTH08a",
                      "type": "text",
                      "title": "Medical Condition/Diagnosis",
                      "maxLenght": 200
                    },
                    {
                      "id": "HEALTH08b",
                      "title": "Year of diagnosis",
                      "type": "picker",
                      "subType": "selectField",
                      "optionsTable": "years",
                      "options": [
                        {
                          "value": "2017",
                          "title": "2017"
                        },
                        {
                          "value": "2016",
                          "title": "2016"
                        },
                        {
                          "value": "2015",
                          "title": "2015"
                        }
                      ]
                    },
                    {
                      "id": "HEALTH08c",
                      "type": "text",
                      "title": "Tests Done",
                      "maxLenght": 200
                    },
                    {
                      "id": "HEALTH08d",
                      "type": "datepicker",
                      "title": "Date of Test"
                    },
                    {
                      "id": "HEALTH08e",
                      "type": "text",
                      "title": "Results of Test",
                      "maxLenght": 200
                    },
                    {
                      "id": "HEALTH08f",
                      "type": "text",
                      "title": "Medication/Treatment: Follow up or any complication",
                      "maxLenght": 200
                    },
                    {
                      "id": "HEALTH08g",
                      "type": "text",
                      "title": "Name of Doctor",
                      "maxLenght": 200
                    },
                    {
                      "id": "HEALTH08h",
                      "type": "text",
                      "title": "Address of Hospital/Clinic",
                      "maxLenght": 200
                    }
                  ]
                },
                {
                  "id": "HEALTH09",
                  "type": "QRADIOGROUP",
                  "title": "3. Apart from condition listed above, have you ever seen a doctor or other health professional, or been prescribed medication for any other condition which has lasted for more than (apart from usual flu and colds) 5 days?",
                  "options": [
                    {
                      "value": "Y",
                      "title": "Yes"
                    },
                    {
                      "value": "N",
                      "title": "No"
                    }
                  ]
                },
                {
                  "type": "table",
                  "trigger": {
                    "id": "HEALTH09",
                    "type": "showIfEqual",
                    "value": "Y"
                  },
                  "allowEdit": true,
                  "hasBorder": true,
                  "items": [
                    {
                      "id": "HEALTH09a",
                      "type": "text",
                      "title": "Medical Condition/Diagnosis",
                      "maxLenght": 200
                    },
                    {
                      "id": "HEALTH09b",
                      "title": "Year of diagnosis",
                      "type": "picker",
                      "subType": "selectField",
                      "optionsTable": "years",
                      "options": [
                        {
                          "value": "2017",
                          "title": "2017"
                        },
                        {
                          "value": "2016",
                          "title": "2016"
                        },
                        {
                          "value": "2015",
                          "title": "2015"
                        }
                      ]
                    },
                    {
                      "id": "HEALTH09c",
                      "type": "text",
                      "title": "Tests Done",
                      "maxLenght": 200
                    },
                    {
                      "id": "HEALTH09d",
                      "type": "datepicker",
                      "title": "Date of Test"
                    },
                    {
                      "id": "HEALTH09e",
                      "type": "text",
                      "title": "Results of Test",
                      "maxLenght": 200
                    },
                    {
                      "id": "HEALTH09f",
                      "type": "text",
                      "title": "Medication/Treatment: Follow up or any complication",
                      "maxLenght": 200
                    },
                    {
                      "id": "HEALTH09g",
                      "type": "text",
                      "title": "Name of Doctor",
                      "maxLenght": 200
                    },
                    {
                      "id": "HEALTH09h",
                      "type": "text",
                      "title": "Address of Hospital/Clinic",
                      "maxLenght": 200
                    }
                  ]
                },
                {
                  "id": "HEALTH10",
                  "type": "QRADIOGROUP",
                  "title": "4. Have you or your spouse been told to have received any medical advice, counseling or treatment in connection with sexually transmitted disease, AIDS, AIDS Related Complex or any other AIDS related condition?",
                  "options": [
                    {
                      "value": "Y",
                      "title": "Yes"
                    },
                    {
                      "value": "N",
                      "title": "No"
                    }
                  ]
                },
                {
                  "type": "table",
                  "trigger": {
                    "id": "HEALTH10",
                    "type": "showIfEqual",
                    "value": "Y"
                  },
                  "allowEdit": true,
                  "hasBorder": true,
                  "items": [
                    {
                      "id": "HEALTH10a",
                      "type": "text",
                      "title": "Medical Condition/Diagnosis",
                      "maxLenght": 200
                    },
                    {
                      "id": "HEALTH10b",
                      "title": "Year of diagnosis",
                      "type": "picker",
                      "subType": "selectField",
                      "optionsTable": "years",
                      "options": [
                        {
                          "value": "2017",
                          "title": "2017"
                        },
                        {
                          "value": "2016",
                          "title": "2016"
                        },
                        {
                          "value": "2015",
                          "title": "2015"
                        }
                      ]
                    },
                    {
                      "id": "HEALTH10c",
                      "type": "text",
                      "title": "Tests Done",
                      "maxLenght": 200
                    },
                    {
                      "id": "HEALTH10d",
                      "type": "datepicker",
                      "title": "Date of Test"
                    },
                    {
                      "id": "HEALTH10e",
                      "type": "text",
                      "title": "Results of Test",
                      "maxLenght": 200
                    },
                    {
                      "id": "HEALTH10f",
                      "type": "text",
                      "title": "Medication/Treatment: Follow up or any complication",
                      "maxLenght": 200
                    },
                    {
                      "id": "HEALTH10g",
                      "type": "text",
                      "title": "Name of Doctor",
                      "maxLenght": 200
                    },
                    {
                      "id": "HEALTH10h",
                      "type": "text",
                      "title": "Address of Hospital/Clinic",
                      "maxLenght": 200
                    }
                  ]
                },
                {
                  "id": "HEALTH11",
                  "type": "QRADIOGROUP",
                  "title": "5. In the PAST FIVE YEARS, have you had any tests done such as X-ray, ultrasound, CT scan, biopsy, electrocardiogram (ECG), blood or urine test? If yes, please provide details in the following table and please submit copy of report (if available).",
                  "options": [
                    {
                      "value": "Y",
                      "title": "Yes"
                    },
                    {
                      "value": "N",
                      "title": "No"
                    }
                  ]
                },
                {
                  "type": "table",
                  "trigger": {
                    "id": "HEALTH11",
                    "type": "showIfEqual",
                    "value": "Y"
                  },
                  "allowEdit": true,
                  "hasBorder": true,
                  "items": [
                    {
                      "id": "HEALTH11a",
                      "type": "text",
                      "title": "Medical Condition/Diagnosis",
                      "maxLenght": 200
                    },
                    {
                      "id": "HEALTH11b",
                      "title": "Year of diagnosis",
                      "type": "picker",
                      "subType": "selectField",
                      "optionsTable": "years",
                      "options": [
                        {
                          "value": "2017",
                          "title": "2017"
                        },
                        {
                          "value": "2016",
                          "title": "2016"
                        },
                        {
                          "value": "2015",
                          "title": "2015"
                        }
                      ]
                    },
                    {
                      "id": "HEALTH11c",
                      "type": "text",
                      "title": "Tests Done",
                      "maxLenght": 200
                    },
                    {
                      "id": "HEALTH11d",
                      "type": "datepicker",
                      "title": "Date of Test"
                    },
                    {
                      "id": "HEALTH11e",
                      "type": "text",
                      "title": "Results of Test",
                      "maxLenght": 200
                    },
                    {
                      "id": "HEALTH11f",
                      "type": "text",
                      "title": "Medication/Treatment: Follow up or any complication",
                      "maxLenght": 200
                    },
                    {
                      "id": "HEALTH11g",
                      "type": "text",
                      "title": "Name of Doctor",
                      "maxLenght": 200
                    },
                    {
                      "id": "HEALTH11h",
                      "type": "text",
                      "title": "Address of Hospital/Clinic",
                      "maxLenght": 200
                    }
                  ]
                },
                {
                  "type": "qtitle",
                  "id": "HEALTH12_LABEL",
                  "title": "6. For Female Applicants only (For age 10 and above)"
                },
                {
                  "id": "HEALTH12",
                  "type": "QRADIOGROUP",
                  "title": "(a) Have you had any breast disease, menstrual disorders, fibroids, cysts or any other disorders of the female reproductive organs, or abnormal pap smear, mammogram, ultrasound or any gynaecological investigations?",
                  "options": [
                    {
                      "value": "Y",
                      "title": "Yes"
                    },
                    {
                      "value": "N",
                      "title": "No"
                    }
                  ]
                },
                {
                  "type": "table",
                  "trigger": {
                    "id": "HEALTH12",
                    "type": "showIfEqual",
                    "value": "Y"
                  },
                  "allowEdit": true,
                  "hasBorder": true,
                  "items": [
                    {
                      "id": "HEALTH12a",
                      "type": "text",
                      "title": "Medical Condition/Diagnosis",
                      "maxLenght": 200
                    },
                    {
                      "id": "HEALTH12b",
                      "title": "Year of diagnosis",
                      "type": "picker",
                      "subType": "selectField",
                      "optionsTable": "years",
                      "options": [
                        {
                          "value": "2017",
                          "title": "2017"
                        },
                        {
                          "value": "2016",
                          "title": "2016"
                        },
                        {
                          "value": "2015",
                          "title": "2015"
                        }
                      ]
                    },
                    {
                      "id": "HEALTH12c",
                      "type": "text",
                      "title": "Tests Done",
                      "maxLenght": 200
                    },
                    {
                      "id": "HEALTH12d",
                      "type": "datepicker",
                      "title": "Date of Test"
                    },
                    {
                      "id": "HEALTH12e",
                      "type": "text",
                      "title": "Results of Test",
                      "maxLenght": 200
                    },
                    {
                      "id": "HEALTH12f",
                      "type": "text",
                      "title": "Medication/Treatment: Follow up or any complication",
                      "maxLenght": 200
                    },
                    {
                      "id": "HEALTH12g",
                      "type": "text",
                      "title": "Name of Doctor",
                      "maxLenght": 200
                    },
                    {
                      "id": "HEALTH12h",
                      "type": "text",
                      "title": "Address of Hospital/Clinic",
                      "maxLenght": 200
                    }
                  ]
                },
                {
                  "id": "HEALTH13",
                  "type": "QRADIOGROUP",
                  "title": "(b) Are you currently pregnant?",
                  "options": [
                    {
                      "value": "Y",
                      "title": "Yes"
                    },
                    {
                      "value": "N",
                      "title": "No"
                    }
                  ]
                },
                {
                  "id": "HEALTH13a",
                  "trigger": {
                    "id": "HEALTH13",
                    "type": "showIfEqual",
                    "value": "Y"
                  },
                  "type": "text",
                  "subType": "number",
                  "maxLenght": 2
                },
                {
                  "type": "table",
                  "trigger": {
                    "id": "HEALTH13",
                    "type": "showIfEqual",
                    "value": "Y"
                  },
                  "allowEdit": true,
                  "hasBorder": true,
                  "items": [
                    {
                      "id": "HEALTH13a",
                      "type": "text",
                      "title": "Medical Condition/Diagnosis",
                      "maxLenght": 200
                    },
                    {
                      "id": "HEALTH13b",
                      "title": "Year of diagnosis",
                      "type": "picker",
                      "subType": "selectField",
                      "optionsTable": "years",
                      "options": [
                        {
                          "value": "2017",
                          "title": "2017"
                        },
                        {
                          "value": "2016",
                          "title": "2016"
                        },
                        {
                          "value": "2015",
                          "title": "2015"
                        }
                      ]
                    },
                    {
                      "id": "HEALTH13c",
                      "type": "text",
                      "title": "Tests Done",
                      "maxLenght": 200
                    },
                    {
                      "id": "HEALTH13d",
                      "type": "datepicker",
                      "title": "Date of Test"
                    },
                    {
                      "id": "HEALTH13e",
                      "type": "text",
                      "title": "Results of Test",
                      "maxLenght": 200
                    },
                    {
                      "id": "HEALTH13f",
                      "type": "text",
                      "title": "Medication/Treatment: Follow up or any complication",
                      "maxLenght": 200
                    },
                    {
                      "id": "HEALTH13g",
                      "type": "text",
                      "title": "Name of Doctor",
                      "maxLenght": 200
                    },
                    {
                      "id": "HEALTH13h",
                      "type": "text",
                      "title": "Address of Hospital/Clinic",
                      "maxLenght": 200
                    }
                  ]
                },
                {
                  "id": "HEALTH14_LABEL",
                  "type": "qtitle",
                  "title": "6. for juvenile applicants only (For 0 - 6 months)"
                },
                {
                  "id": "HEALTH14",
                  "type": "QRADIOGROUP",
                  "title": "(a) Was the child born premature or pre-term (before 37 weeks gestation)?",
                  "options": [
                    {
                      "value": "Y",
                      "title": "Yes"
                    },
                    {
                      "value": "N",
                      "title": "No"
                    }
                  ]
                },
                {
                  "id": "HEALTH14a",
                  "title": "Gestational Week:",
                  "subType": "number",
                  "max": 37,
                  "trigger": {
                    "id": "HEALTH14",
                    "type": "showIfEqual",
                    "value": "Y"
                  }
                },
                {
                  "id": "HEALTH15",
                  "type": "QRADIOGROUP",
                  "title": "(b) Was the Life Assured’s birth weight below 2.5kg? If yes, please state birth weight.",
                  "options": [
                    {
                      "value": "Y",
                      "title": "Yes"
                    },
                    {
                      "value": "N",
                      "title": "No"
                    }
                  ]
                },
                {
                  "id": "HEALTH15a",
                  "title": "Birth Weight (kgs):",
                  "subType": "decimal",
                  "max": 2.5,
                  "maxLenght": 4,
                  "trigger": {
                    "id": "HEALTH15",
                    "type": "showIfEqual",
                    "value": "Y"
                  }
                },
                {
                  "id": "HEALTH16",
                  "type": "QRADIOGROUP",
                  "title": "(c) Was the duration of hospital stay after birth is more than 3 days?",
                  "options": [
                    {
                      "value": "Y",
                      "title": "Yes"
                    },
                    {
                      "value": "N",
                      "title": "No"
                    }
                  ]
                },
                {
                  "id": "HEALTH16a",
                  "title": "Duration of Hospital Stay (days):",
                  "subType": "decimal",
                  "max": 2.5,
                  "maxLenght": 4,
                  "trigger": {
                    "id": "HEALTH15",
                    "type": "showIfEqual",
                    "value": "Y"
                  }
                },
                {
                  "id": "HEALTH17",
                  "type": "QRADIOGROUP",
                  "title": "(d) Has the child ever suffered from, or currently suffering from, or being followed up or investigated for any residual birth/delivery complications, congenital disorder/birth defect, physical impairment, mental retardation, G6PD deficiency, cerebral palsy, Down’s Syndrome, prolonged jaundice, respiratory distress syndrome or any other serious disorder?",
                  "options": [
                    {
                      "value": "Y",
                      "title": "Yes"
                    },
                    {
                      "value": "N",
                      "title": "No"
                    }
                  ]
                },
                {
                  "type": "table",
                  "trigger": {
                    "id": "HEALTH17",
                    "type": "showIfEqual",
                    "value": "Y"
                  },
                  "allowEdit": true,
                  "hasBorder": true,
                  "items": [
                    {
                      "id": "HEALTH17a",
                      "type": "text",
                      "title": "Medical Condition/Diagnosis",
                      "maxLenght": 200
                    },
                    {
                      "id": "HEALTH17b",
                      "title": "Year of diagnosis",
                      "type": "picker",
                      "subType": "selectField",
                      "optionsTable": "years",
                      "options": [
                        {
                          "value": "2017",
                          "title": "2017"
                        },
                        {
                          "value": "2016",
                          "title": "2016"
                        },
                        {
                          "value": "2015",
                          "title": "2015"
                        }
                      ]
                    },
                    {
                      "id": "HEALTH17c",
                      "type": "text",
                      "title": "Tests Done",
                      "maxLenght": 200
                    },
                    {
                      "id": "HEALTH17d",
                      "type": "datepicker",
                      "title": "Date of Test"
                    },
                    {
                      "id": "HEALTH17e",
                      "type": "text",
                      "title": "Results of Test",
                      "maxLenght": 200
                    },
                    {
                      "id": "HEALTH17f",
                      "type": "text",
                      "title": "Medication/Treatment: Follow up or any complication",
                      "maxLenght": 200
                    },
                    {
                      "id": "HEALTH17g",
                      "type": "text",
                      "title": "Name of Doctor",
                      "maxLenght": 200
                    },
                    {
                      "id": "HEALTH17h",
                      "type": "text",
                      "title": "Address of Hospital/Clinic",
                      "maxLenght": 200
                    }
                  ]
                },
                {
                  "type": "paragraph",
					        "align": "left",
                  "content": "<p><b>Important:</b> If ‘Yes’ for any of the above child questions, please submit latest Child Health Booklet including all assessments done to date.</p>  "
                }
              ]
            }
          ]
        }
      ]
    }
  ]
}