
{
  "type": "setup",

  "values": {

    "appPdf" : {
      "name": "e-App",
      "filename": "eapp_form"
    },

    "proposal" : {
      "name": "e-PI",
      "filename": "policy_illustration"
    },

    "fnaReport" : {
      "name": "e-FNA",
      "filename": "fna_report"
    },

    "eCpdPdf" : {
      "name": "e-CPD",
      "filename": "e-CPD"
    },

    "cAck" : {
      "name": "Client acknowledgement/FNA",
      "filename": "Client acknowledgement Or FNA (for FA)"
    },

    "pNric" : {
      "name": "Proposer's Singapore NRIC",
      "filename": "Proposer's Singapore NRIC"
    },

    "pPass" : {
      "name": "Proposer's Copy of valid pass in Singapore",
      "filename": "Proposer's Copy of valid pass in Singapore"
    },

    "pPassport" : {
      "name": "Proposer's Copy of valid passport (first page)",
      "filename": "Proposer's Copy of valid passport (first page)"
    },

    "pPassportWStamp" : {
      "name": "Proposer's Copy of valid passport pages with entry stamps issued by Singapore immigration",
      "filename": "Proposer's Copy of valid passport pages with entry stamps issued by Singapore immigration"
    },

    "bAccountState" : {
      "name": "Bank Account Statement",
      "filename": "Bank Account Statement"
    },

    "pAddrProof" : {
      "name": "Proposer's Proof of Residential Address",
      "filename": "Proposer's Proof of Residential Address"
    },

    "pChinaVisit" : {
      "name": "Proposer's Mainland China Visitor Declaration Form",
      "filename": "Proposer's Mainland China Visitor Declaration Form"
    },
    "pBoardingPass" : {
      "name": "Proposer's Copy of Boarding Pass",
      "filename": "Proposer's Copy of Boarding Pass"
    },

    "pJapaneseNotShield" : {
      "name": "Declaration Form Status (Japanese)",
      "filename": "Declaration Form Status (Japanese)"
    },

    "thirdPartyID" : {
      "name": "Third Party Payor's ID copy",
      "filename": "Third Party Payor's ID copy"
    },

    "thirdPartyAddrProof" : {
      "name": "Third Party Payor's Proof of Residential Address",
      "filename": "Third Party Payor's Proof of Residential Address"
    },

    "axasam" : {
      "name": "AXS/SAM Receipt",
      "filename": "AXS Or SAM Receipt"
    },

    "chequeCashierOrder" : {
      "name": "Cheque / Cashier Order Copy",
      "filename": "Cheque Or Cashier Order Copy"
    },

    "teleTransfer" : {
      "name": "Telegraphic Transfer Receipt",
      "filename": "Telegraphic Transfer Receipt"
    },

    "cash" : {
      "name": "Conditional Receipt of Cash",
      "filename": "Conditional Receipt of Cash"
    },

    "pMedicalTest" : {
      "name": "Copy of medical test / investigation / check up report",
      "filename": "Copy of medical test Or investigation Or Check-up report"
    },

    "iNric" : {
      "name": "Singapore NRIC /Birth Certificate",
      "filename": "Singapore NRIC Or Birth Certificate"
    },

    "iPass" : {
      "name": "Copy of valid pass in Singapore",
      "filename": "Copy of valid pass in Singapore"
    },

    "iPassport" : {
      "name": "Copy of valid passport (first page)",
      "filename": "Copy of valid passport (first page)"
    },

    "iPassportWStamp" : {
      "name": "Copy of passport pages with entry stamps issued by Singapore immigration",
      "filename": "Copy of passport pages with entry stamps issued by Singapore immigration"
    },

    "iChinaVisit" : {
      "name": "Mainland China Visitor Declaration Form",
      "filename": "Mainland China Visitor Declaration Form"
    },
    "iBoardingPass" : {
      "name": "Copy of Boarding Pass",
      "filename": "Copy of Boarding Pass"
    },

    "iJapaneseNotShield" : {
      "name": "Declaration Form Status (Japanese)",
      "filename": "Declaration Form Status (Japanese)"
    },

    "iMedicalTest" : {
      "name": "Copy of medical test / investigation / check up report",
      "filename": "Copy of medical test Or investigation Or Check-up report"
    },

    "iJuvenileQuestions" : {
      "name": "Copy of latest Child Health Booklet including all assessments done to date",
      "filename": "Copy of latest Child Health Booklet including all assessments done to date"
    },

    "eapproval_supervisor_pdf": {
      "name": "Supervisor Validation",
      "filename": "Supervisor Validation"
    },

    "faFirm_Comment": {
      "name": "Comments by FA Firm Admin",
      "filename": "Comments by FA Firm Admin"
    },
    "healthDeclaration": {
      "name": "Health Declaration",
      "filename": "Health Declaration"
    },
    "iReentryPermit": {
      "name": "Re-entry Permit Form 7",
      "filename": "Re_entry Permit Form 7"
    },
    "iMedicalReport": {
      "name": "Medical Report",
      "filename": "Medical Report"
    },
    "pMedicalReport": {
      "name": "Medical Report",
      "filename": "Medical Report"
    },
    "iDischargeSummary": {
      "name": "Discharge Summary Report",
      "filename": "Discharge Summary Report"
    },
    "pDischargeSummary": {
      "name": "Discharge Summary Report",
      "filename": "Discharge Summary Report"
    },
    "iOtherIllnessQues": {
      "name": "Other Illness Questionnaire",
      "filename": "Other Illness Questionnaire"
    },
    "pOtherIllnessQues": {
      "name": "Other Illness Questionnaire",
      "filename": "Other Illness Questionnaire"
    },
    "iPhysicianState": {
      "name": "Attending Physician Statement for AXA Cancer ReCover Plan",
      "filename": "Attending Physician Statement for AXA Cancer ReCover Plan"
    },
    "pPhysicianState": {
      "name": "Attending Physician Statement for AXA Cancer ReCover Plan",
      "filename": "Attending Physician Statement for AXA Cancer ReCover Plan"
    }
  }

}
