{ 
    "type":"agent",
    "compCode":	"AG",
    "agentCode": "agent",
    "role":	"02",
    "name":	"G1801181L Agency",
    "profileId":	"G1801181L",
    "channel":	"AGENCY",
    "createDate": "1/7/2017",
    "lastUpdateDate":	"14/7/2017",
    "company":	"AXA Insurance Pte Ltd (Co. Reg. No. 199903512M)",
    "tel": "99000124",
    "mobile": "66000124",
    "email":	"Tom.chan@axa.com.sg",
    "position":	"Agent",
    "manager": "Tom Chan",
    "managerCode": "012345",
    "achievements": "AXA Signature",
    "authorised":   "M9A,M9,M5,HI,M8, M8A"
}
