{ 
    "type":"agent",
    "compCode":	"AG",
    "agentCode": "000001",
    "role":	"02",
    "name":	"T7893589D IAM / JPK",
    "profileId":	"T7893589D",
    "channel":	"FUSION",
    "createDate": "1/7/2017",
    "lastUpdateDate":	"14/7/2017",
    "company":	"I am JPK",
    "tel": "99000001",
    "mobile": "66000001",
    "email":	"T7893589D@eabsystems.com",
    "position":	"Agent",
    "manager": "T7893589D IAM / JPK(M)",
    "managerCode": "888888",
    "achievements": "MDRT, AXA ACHIEVEMENT",
    "authorised":   "M9A"
}
