
{
    "compCode"  : "08",
    "type"      : "material",
    "section"   : "General Provision",
    "sectionId" : "gprov",
    "name"      : "Critical Illness Benefit SP Nov 2017 (AXA LMP)",
    "id"        : "genprov28_1",
    "effDate"   : "2017-05-22 14:10:34",
    "expDate"   : "2018-05-12 14:19:47",
    "releaseDate":"2019-05-21 09:11:59"        
}