
{
    "compCode"  : "08",
    "type"      : "material",
    "section"   : "General Provision",
    "sectionId" : "gprov",
    "name"      : "Pulsar GP May 2019",
    "id"        : "genprov75_1",
    "effDate"   : "2017-05-22 14:10:34",
    "expDate"   : "2020-02-17 17:35:01",
    "releaseDate":"2019-02-19 09:11:59"      
}