
{
    "compCode"  : "08",
    "type"      : "material",
    "section"   : "General Provision",
    "sectionId" : "gprov",
    "name"      : "AXA Wealth Treasure GP Nov 2018",
    "id"        : "genprov23_1",
    "effDate"   : "2017-05-22 14:10:34",
    "expDate"   : "2018-05-22 14:19:47"  
}