
{
    "compCode"  : "08",
    "type"      : "material",
    "section"   : "General Provision",
    "sectionId" : "gprov",
    "name"      : "AXA Retire Happy Plus (Inflated) GP Jun 2019",
    "id"        : "genprov16_1",
    "effDate"   : "2017-05-22 14:10:34",
    "expDate"   : "2020-02-17 14:19:47"  
}