
{
    "compCode"  : "08",
    "type"      : "material",
    "section"   : "General Provision",
    "sectionId" : "gprov",
    "name"      : "DisabilityCash SP_ILP Mar 2020",
    "id"        : "genprov38b_1",
    "effDate"   : "2017-05-22 14:10:34",
    "expDate"   : "2120-02-23 18:06:02"
}
