
{
    "compCode"  : "08",
    "type"      : "material",
    "section"   : "General Provision",
    "sectionId" : "gprov",
    "name"      : "Advance TPD Payout SP Mar 2020",
    "id"        : "genprov04a_1",
    "effDate"   : "2017-05-22 14:10:34",
    "expDate"   : "2118-05-22 14:19:47"  
}