
{
    "compCode"  : "08",
    "type"      : "material",
    "section"   : "NB Admin Form",
    "sectionId" : "nbadmin",
    "name"      : "Credit Card Authorisation Form IPP 16Jan2018",
    "id"        : "NBform08_1",
    "effDate"   : "2017-05-22 14:10:34",
    "expDate"   : "2018-05-22 14:19:47"  
}