
{
    "compCode"  : "08",
    "type"      : "material",
    "section"   : "NB Admin Form",
    "sectionId" : "nbadmin",
    "name"      : "Appointment of Secondary Life Assured (062019)",
    "id"        : "NBform00_1",
    "effDate"   : "2017-05-22 14:10:34",
    "expDate"   : "2118-05-22 14:19:47",
    "releaseDate":"2019-04-01 09:11:59"   
}