
{
    "compCode"  : "08",
    "type"      : "material",
    "section"   : "Policy Servicing Forms",
    "sectionId" : "polform",
    "name"      : "AXA Shield Service Request Form (version 032019)",
    "id"        : "PolForm02_1",
    "effDate"   : "2017-05-22 14:10:34",
    "expDate"   : "2020-01-16 14:19:47",
    "releaseDate":"2019-03-15 15:11:59"     
}