{
    "compCode"  : "08",
    "type"      : "material",
    "section"   : "Product Summary",
    "sectionId" : "prod",
    "name"      : "AXA CritiCare For Her PS Jul 2018",
    "id"        : "prod08_1",
    "effDate"   : "2017-05-22 14:10:34",
    "expDate"   : "2020-02-17 17:02:08"  
}