{
    "compCode"  : "08",
    "type"      : "material",
    "section"   : "Product Summary",
    "sectionId" : "prod",
    "name"      : "ETPD Benefit PS Nov 2017",
    "id"        : "prod35_1",
    "effDate"   : "2017-05-22 14:10:34",
    "expDate"   : "2020-01-22 14:19:47"  
}