{
    "compCode"  : "08",
    "type"      : "material",
    "section"   : "Product Summary",
    "sectionId" : "prod",
    "name"      : "AXA Shield Plan AB PS Feb 2020",
    "id"        : "prod19a_1",
    "effDate"   : "2017-05-22 14:10:34",
    "expDate"   : "2118-05-22 14:19:47",
    "releaseDate":"2019-03-08 11:11:59"    
}