{
    "compCode"  : "08",
    "type"      : "material",
    "section"   : "Product Summary",
    "sectionId" : "prod",
    "name"      : "SavvySaver PS Jun 2019",
    "id"        : "prod57_1",
    "effDate"   : "2017-05-22 14:10:34",
    "expDate"   : "2020-01-06 17:34:51"  
}