{
    "compCode"  : "08",
    "type"      : "material",
    "section"   : "Product Summary",
    "sectionId" : "prod",
    "name"      : "Pulsar PS Mar 2020",
    "id"        : "prod56a_1",
    "effDate"   : "2017-05-22 14:10:34",
    "expDate"   : "2118-05-22 14:19:47",
    "releaseDate":"2019-05-18 09:11:59"     
}