{
    "compCode"  : "08",
    "type"      : "material",
    "section"   : "Product Summary",
    "sectionId" : "prod",
    "name"      : "AXA Retire Treasure (II) PS Jun 2019",
    "id"        : "prod17_1",
    "effDate"   : "2017-05-22 14:10:34",
    "expDate"   : "2120-02-17 17:02:08",
    "releaseDate":"2019-01-03 09:11:59"     
}