
{
    "compCode"  : "08",
    "type"      : "material",
    "section"   : "Proposal Forms",
    "sectionId" : "propform",
    "name"      : "Proposal For AXA Shield A B Plan version 092018",
    "id"        : "proposal_form05_1",
    "effDate"   : "2017-05-22 14:10:34",
    "expDate"   : "2018-05-22 14:19:47"  
}