{
    "compCode": "08",
    "type": "material",
    "section": "PULSAR Fund Range",
    "sectionId": "pulf",
    "name": "FAM Global Opportunities Plus Fund (USD)",
    "id": "pul17b_1",
    "effDate": "2017-05-22 14:10:34",
    "expDate": "2118-05-22 14:19:47",
    "releaseDate": "2019-05-09T08:37:35.163Z"
}