{
    "compCode": "08",
    "type": "material",
    "section": "PULSAR Fund Range",
    "sectionId": "pulf",
    "name": "JPM Greater China Fund (USD)",
    "id": "pul47_1",
    "effDate": "2017-05-22 14:10:34",
    "expDate": "2118-05-22 14:19:47",
    "releaseDate": "2019-05-09T08:38:54.854Z"
}