{
    "allowBackdate": "N",
    "budgetRules": [
        "RP",
        "SP"
    ],
    "calcAgeMethod": "nearest",
    "compCode": "08",
    "covCode": "SV",
    "covName": {
        "en": "Guaranteed Survival Payout",
        "zh-Hant": "Guaranteed Survival Payout"
    },
    "ctyGroup": [
        "*"
    ],
    "currencies": [
        {
            "ccy": [
                "SGD",
                "USD",
                "GBP",
                "AUD",
                "EUR"
            ],
            "country": "*"
        }
    ],
    "dealerGroup": [
        "DIRECT",
        "AGENCY",
        "SINGPOST",
        "FUSION",
        "SYNERGY",
        "BROKER"
    ],
    "effDate": "2016-08-23 16:00:00",
    "entryAge": [
        {
            "country": "*",
            "imaxAge": 70,
            "imaxAgeUnit": "nearestAge",
            "iminAge": 1,
            "iminAgeUnit": "month",
            "omaxAge": 100,
            "omaxAgeUnit": "na",
            "ominAge": 0,
            "ominAgeUnit": "na",
            "sameAsOwner": ""
        }
    ],
    "expDate": "2118-07-26 16:00:00",
    "formulas": {
        "calcQuotFunc": "",
        "getCommRates": "function (quotation, planInfo, planDetails) {var rateKey, lookupYr; if (planInfo.policyTerm === planInfo.premTerm) { rateKey = 'RP_'; lookupYr = planInfo.policyTerm.endsWith('_YR') ? Number.parseInt(planInfo.policyTerm) : Number.parseInt(planInfo.policyTerm) - quotation.iAge; } else { rateKey = 'LP_'; if (planInfo.premTerm === 'SP') { lookupYr = 1; } else if (planInfo.premTerm.endsWith('_YR')) { lookupYr = Number.parseInt(planInfo.premTerm); } else { lookupYr = Number.parseInt(planInfo.premTerm) - quotation.iAge; } } switch (quotation.dealerGroup) { case 'SYNERGY': rateKey += 'AGENCY'; break; case 'FUSION': rateKey += 'BROKER'; break; default: rateKey += quotation.dealerGroup; } var rateTable = planDetails[quotation.baseProductCode].rates.riderCommRates[rateKey]; var commRates = []; if (rateTable) { var maxTerm = 0; _.each(rateTable, (rates, key) => { var rateTerm = Number(key); if (lookupYr >= rateTerm && rateTerm > maxTerm) { commRates = [].concat(rates); maxTerm = rateTerm; } }); } if (commRates[commRates.length - 1]) { for (var i = commRates.length; i < 99; i++) { commRates.push(commRates[i - 1]); } } return commRates;}",
        "getPremRate": "function (quotation, planInfo, planDetail, age) {var rateKey = 'SVNR_';if (planInfo.premTerm.endsWith('_YR')) { rateKey += Number.parseInt(planInfo.premTerm) + 'P_';} else { rateKey += 'RP_';}rateKey += quotation.iGender;rateKey += quotation.iSmoke === 'Y' ? 'S' : 'NS';var term = planInfo.premTerm.endsWith('_YR');var rates = planDetail.rates.premRate[rateKey];var premRate = math.bignumber(rates[Number.parseInt(planInfo.policyTerm)][age] || 0);return math.number(premRate);}",
        "illustrateFunc": "function (quotation, planInfo, planDetails, extraPara) {var roundDown = function (value, digit) { var scale = math.pow(10, digit); return math.divide(math.floor(math.multiply(value, scale)), scale); }; var planDetail = planDetails[planInfo.covCode]; var planType = quotation.policyOptions.planType; var indexation = quotation.policyOptions.indexation === 'Y'; var polYrs = planInfo.policyTerm.endsWith('_YR') ? Number.parseInt(planInfo.policyTerm) : Number.parseInt(planInfo.policyTerm) - quotation.iAge; var premYrs; if (planInfo.premTerm === 'SP') { premYrs = 1; } else if (planInfo.premTerm.endsWith('_YR')) { premYrs = Number.parseInt(planInfo.premTerm); } else { premYrs = Number.parseInt(planInfo.premTerm) - quotation.iAge; } var sumInsured = planInfo.sumInsured; var illYrs = polYrs; var yearPrems = [0]; var indexPrems = []; for (var i = 1; i <= illYrs; i++) { var age = quotation.iAge + i - 1; var premRate = math.bignumber(runFunc(planDetail.formulas.getPremRate, quotation, planInfo, planDetail, age) || 0); var yearPrem; var indexPrem = math.bignumber(0); if (i === 1) { yearPrem = math.bignumber(planInfo.yearPrem); } else { yearPrem = yearPrems[i - 1]; if (planInfo.policyTerm !== planInfo.premTerm && i > premYrs) { yearPrem = math.bignumber(0); } else { if (indexation) { var bpIlls = extraPara.illustrations[quotation.baseProductCode]; var dbDiff = i === 1 ? math.bignumber(0) : math.subtract(math.bignumber(bpIlls[i - 1].guaranteedDB), math.bignumber(bpIlls[i - 2].guaranteedDB)); indexPrem = math.multiply(premRate, dbDiff, 0.001); yearPrem = math.add(yearPrem, indexPrem); } } } yearPrems.push(yearPrem); indexPrems.push(indexPrem); } var commRates = runFunc(planDetail.formulas.getCommRates, quotation, planInfo, planDetails); var totComms = [0]; var premIncSum = [0]; for (var i = 1; i <= illYrs; i++) { var premInc = math.subtract(yearPrems[i], yearPrems[i - 1]); premIncSum.push(math.add(premInc, premIncSum[i - 1])); if (math.number(premInc)) { for (var j = 0; j < commRates.length; j++) { if (commRates[j]) { var comm = math.multiply(indexation ? premInc : premIncSum[i], commRates[j]); if (!totComms[i + j]) { totComms[i + j] = math.bignumber(0); } if (math.number(comm) > 0) { totComms[i + j] = math.add(totComms[i + j], comm); } } } } } var illustration = []; var illLength = Math.max(totComms.length, yearPrems.length) - 1; for (var i = 0; i < illLength; i++) { illustration.push({ yearPrem: yearPrems[i + 1] ? math.number(yearPrems[i + 1]) : 0, totComm: totComms[i + 1] ? math.number(totComms[i + 1]) : 0, indexPrem: indexPrems[i] ? math.number(indexPrems[i]) : 0 }); } return illustration;}",
        "polTermsFunc": "function (planDetail, quotation) {return [{ value: '99_TA', title: 'To Age 99' }];}",
        "premFunc": "function (quotation, planInfo, planDetail) {var roundDown = function (value, digit) { var scale = math.pow(10, digit); return math.divide(math.floor(math.multiply(value, scale)), scale);};var premium = null;var sumInsured = planInfo.sumInsured;if (planInfo.premTerm && sumInsured) { var premRate = math.bignumber(runFunc(planDetail.formulas.getPremRate, quotation, planInfo, planDetail, quotation.iAge)); var yearPrem = math.round(roundDown(math.divide(roundDown(math.multiply(premRate, sumInsured), 2), 1000), 2), 2); var modalFactor = 1; for (var p in planDetail.payModes) { if (planDetail.payModes[p].mode === quotation.paymentMode) { modalFactor = planDetail.payModes[p].factor; } } var prem = roundDown(math.multiply(yearPrem, modalFactor), 2); premium = math.number(prem);}return premium;}",
        "premTermsFunc": "function (planDetail, quotation) {return [ { value: '15_YR', title: '15 Years' }, { value: '20_YR', title: '20 Years' }, { value: '99_TA', title: 'To Age 99' } ]; }",
        "prepareClassConfig": "",
        "prepareSAPremConfig": "",
        "prepareTermConfig": "function (planDetail, quotation, planDetails) {let planInfo = quotation.plans && quotation.plans.find(p => p.covCode === planDetail.covCode); let polTermList = quotDriver.runFunc(planDetail.formulas.polTermsFunc, planDetail, quotation); planInfo.policyTerm = polTermList[0].value; planDetail.inputConfig.canEditPolicyTerm = false; planDetail.inputConfig.policyTermList = polTermList; let premTermList = quotDriver.runFunc(planDetail.formulas.premTermsFunc, planDetail, quotation); if (planInfo && !premTermList.find((opt) => opt.value === planInfo.premTerm)) { planInfo.premTerm = null; } planDetail.inputConfig.canEditPremTerm = true; planDetail.inputConfig.premTermList = premTermList; }",
        "saFunc": "",
        "validAfterCalcFunc": "function (quotation, planInfo, planDetail) {quotValid.validatePlanAfterCalc(quotation, planInfo, planDetail); if (planInfo.premium) { var mapping = planDetail.planCodeMapping; for (var i = 0; i < mapping.planCode.length; i++) { if (planInfo.premTerm === mapping.premTerm[i]) { planInfo.planCode = mapping.planCode[i]; break; } } planInfo.policyTermYr = planInfo.policyTerm.endsWith('_YR') ? Number.parseInt(planInfo.policyTerm) : Number.parseInt(planInfo.policyTerm) - quotation.iAge; if (planInfo.premTerm === 'SP') { planInfo.premTermYr = 1; } else if (planInfo.premTerm.endsWith('_YR')) { planInfo.premTermYr = Number.parseInt(planInfo.premTerm); } else { planInfo.premTermYr = Number.parseInt(planInfo.premTerm) - quotation.iAge; } } else { planInfo.planCode = null; } }",
        "validBeforeCalcFunc": "",
        "validQuotFunc": "",
        "willValidQuotFunc": ""
    },
    "genderInd": "*",
    "isMasterData": true,
    "lastUpdatedTime": "2018-09-03T09:09:00.187Z",
    "payModes": [
        {
            "covMonth": 12,
            "default": "",
            "factor": 1,
            "mode": "A",
            "operator": "M"
        },
        {
            "covMonth": 6,
            "default": "",
            "factor": 0.51,
            "mode": "S",
            "operator": "M"
        },
        {
            "covMonth": 3,
            "default": "",
            "factor": 0.26,
            "mode": "Q",
            "operator": "M"
        },
        {
            "covMonth": 1,
            "default": "",
            "factor": 0.0875,
            "mode": "M",
            "operator": "M"
        }
    ],
    "planCodeMapping": {
        "planCode": [
            "15SV",
            "20SV",
            "99SV"
        ],
        "premTerm": [
            "15_YR",
            "20_YR",
            "99_TA"
        ]
    },
    "planInd": "R",
    "polMatSameAsPremMat": "N",
    "polTermInd": "N",
    "polTermRule": "na",
    "policyMatSameAsBasic": "Y",
    "premType": "L",
    "prodFeature": {},
    "prod_summary": 723268,
    "productCategory": "protectionOnly",
    "productLine": "CIT",
    "rates": {
        "premRate": {
            "SVNR_15P_FNS": {
                "99": [
                    3.09,
                    3.07,
                    3.05,
                    3.04,
                    3.02,
                    3,
                    2.99,
                    2.97,
                    2.95,
                    2.93,
                    2.92,
                    2.89,
                    2.88,
                    2.86,
                    2.84,
                    2.82,
                    2.79,
                    2.78,
                    2.76,
                    2.74,
                    2.72,
                    2.82,
                    2.92,
                    3.02,
                    3.11,
                    3.23,
                    3.36,
                    3.5,
                    3.63,
                    3.77,
                    3.9,
                    4.09,
                    4.27,
                    4.45,
                    4.63,
                    4.81,
                    5.05,
                    5.28,
                    5.53,
                    5.76,
                    6,
                    6.31,
                    6.6,
                    6.91,
                    7.2,
                    7.5,
                    7.88,
                    8.26,
                    8.64,
                    9.04,
                    9.42,
                    9.89,
                    10.37,
                    10.84,
                    11.33,
                    11.81,
                    12.39,
                    12.99,
                    13.57,
                    14.16,
                    14.74,
                    15.43,
                    16.13,
                    16.81,
                    17.49,
                    18.17,
                    18.92,
                    19.66,
                    20.39,
                    21.11,
                    21.82
                ]
            },
            "SVNR_15P_FS": {
                "99": [
                    1.4,
                    1.39,
                    1.39,
                    1.38,
                    1.37,
                    1.36,
                    1.36,
                    1.35,
                    1.34,
                    1.33,
                    1.32,
                    1.31,
                    1.31,
                    1.3,
                    1.29,
                    1.28,
                    1.27,
                    1.26,
                    1.25,
                    1.25,
                    1.24,
                    1.28,
                    1.33,
                    1.37,
                    1.42,
                    1.47,
                    1.53,
                    1.59,
                    1.65,
                    1.71,
                    1.77,
                    1.86,
                    1.94,
                    2.02,
                    2.11,
                    2.19,
                    2.3,
                    2.4,
                    2.52,
                    2.62,
                    2.73,
                    2.87,
                    3.01,
                    3.15,
                    3.28,
                    3.42,
                    3.59,
                    3.77,
                    3.94,
                    4.12,
                    4.3,
                    4.52,
                    4.74,
                    4.96,
                    5.18,
                    5.4,
                    5.67,
                    5.95,
                    6.22,
                    6.5,
                    6.77,
                    7.1,
                    7.43,
                    7.75,
                    8.08,
                    8.4,
                    8.76,
                    9.12,
                    9.47,
                    9.83,
                    10.19
                ]
            },
            "SVNR_15P_MNS": {
                "99": [
                    2.5,
                    2.48,
                    2.47,
                    2.46,
                    2.44,
                    2.43,
                    2.42,
                    2.4,
                    2.39,
                    2.37,
                    2.36,
                    2.34,
                    2.33,
                    2.31,
                    2.3,
                    2.28,
                    2.26,
                    2.25,
                    2.23,
                    2.22,
                    2.2,
                    2.28,
                    2.36,
                    2.44,
                    2.52,
                    2.61,
                    2.72,
                    2.83,
                    2.94,
                    3.05,
                    3.16,
                    3.31,
                    3.46,
                    3.6,
                    3.75,
                    3.9,
                    4.09,
                    4.28,
                    4.48,
                    4.67,
                    4.86,
                    5.11,
                    5.35,
                    5.6,
                    5.84,
                    6.08,
                    6.39,
                    6.7,
                    7.01,
                    7.33,
                    7.64,
                    8.03,
                    8.42,
                    8.81,
                    9.21,
                    9.6,
                    10.08,
                    10.57,
                    11.05,
                    11.54,
                    12.02,
                    12.6,
                    13.18,
                    13.76,
                    14.34,
                    14.92,
                    15.57,
                    16.22,
                    16.87,
                    17.52,
                    18.17
                ]
            },
            "SVNR_15P_MS": {
                "99": [
                    0.96,
                    0.95,
                    0.94,
                    0.94,
                    0.93,
                    0.93,
                    0.93,
                    0.92,
                    0.91,
                    0.91,
                    0.9,
                    0.89,
                    0.89,
                    0.88,
                    0.88,
                    0.87,
                    0.86,
                    0.86,
                    0.85,
                    0.85,
                    0.84,
                    0.87,
                    0.9,
                    0.93,
                    0.96,
                    1,
                    1.04,
                    1.08,
                    1.13,
                    1.17,
                    1.21,
                    1.27,
                    1.33,
                    1.38,
                    1.44,
                    1.5,
                    1.57,
                    1.64,
                    1.72,
                    1.79,
                    1.87,
                    1.96,
                    2.05,
                    2.15,
                    2.24,
                    2.34,
                    2.46,
                    2.58,
                    2.7,
                    2.82,
                    2.94,
                    3.1,
                    3.25,
                    3.4,
                    3.56,
                    3.72,
                    3.91,
                    4.1,
                    4.29,
                    4.49,
                    4.68,
                    4.92,
                    5.15,
                    5.39,
                    5.63,
                    5.87,
                    6.15,
                    6.43,
                    6.71,
                    7,
                    7.3
                ]
            },
            "SVNR_20P_FNS": {
                "99": [
                    2.2,
                    2.19,
                    2.18,
                    2.16,
                    2.15,
                    2.14,
                    2.13,
                    2.11,
                    2.1,
                    2.09,
                    2.08,
                    2.06,
                    2.05,
                    2.04,
                    2.03,
                    2,
                    1.99,
                    1.98,
                    1.97,
                    1.95,
                    1.94,
                    2,
                    2.08,
                    2.15,
                    2.22,
                    2.3,
                    2.4,
                    2.48,
                    2.58,
                    2.68,
                    2.78,
                    2.91,
                    3.04,
                    3.17,
                    3.3,
                    3.43,
                    3.59,
                    3.76,
                    3.94,
                    4.11,
                    4.27,
                    4.49,
                    4.7,
                    4.92,
                    5.13,
                    5.34,
                    5.62,
                    5.89,
                    6.16,
                    6.43,
                    6.7,
                    7.05,
                    7.39,
                    7.73,
                    8.07,
                    8.41,
                    8.83,
                    9.25,
                    9.66,
                    10.09,
                    10.49,
                    11,
                    11.49,
                    11.97,
                    12.47,
                    12.94,
                    13.48,
                    14,
                    14.53,
                    15.04,
                    15.54
                ]
            },
            "SVNR_20P_FS": {
                "99": [
                    1,
                    0.99,
                    0.99,
                    0.98,
                    0.98,
                    0.97,
                    0.97,
                    0.96,
                    0.95,
                    0.95,
                    0.94,
                    0.94,
                    0.93,
                    0.93,
                    0.92,
                    0.91,
                    0.9,
                    0.9,
                    0.89,
                    0.89,
                    0.88,
                    0.91,
                    0.94,
                    0.98,
                    1.01,
                    1.04,
                    1.09,
                    1.13,
                    1.17,
                    1.22,
                    1.26,
                    1.33,
                    1.38,
                    1.44,
                    1.5,
                    1.56,
                    1.63,
                    1.71,
                    1.79,
                    1.87,
                    1.94,
                    2.04,
                    2.14,
                    2.24,
                    2.34,
                    2.43,
                    2.56,
                    2.69,
                    2.81,
                    2.94,
                    3.06,
                    3.22,
                    3.38,
                    3.53,
                    3.69,
                    3.85,
                    4.04,
                    4.24,
                    4.43,
                    4.63,
                    4.82,
                    5.06,
                    5.29,
                    5.52,
                    5.76,
                    5.98,
                    6.24,
                    6.49,
                    6.75,
                    7,
                    7.25
                ]
            },
            "SVNR_20P_MNS": {
                "99": [
                    1.78,
                    1.77,
                    1.76,
                    1.75,
                    1.74,
                    1.73,
                    1.72,
                    1.71,
                    1.7,
                    1.69,
                    1.68,
                    1.67,
                    1.66,
                    1.65,
                    1.64,
                    1.62,
                    1.61,
                    1.6,
                    1.59,
                    1.58,
                    1.57,
                    1.62,
                    1.68,
                    1.74,
                    1.8,
                    1.86,
                    1.94,
                    2.01,
                    2.09,
                    2.17,
                    2.25,
                    2.36,
                    2.46,
                    2.57,
                    2.67,
                    2.78,
                    2.91,
                    3.05,
                    3.19,
                    3.33,
                    3.46,
                    3.64,
                    3.81,
                    3.99,
                    4.16,
                    4.33,
                    4.56,
                    4.78,
                    5,
                    5.22,
                    5.44,
                    5.72,
                    6,
                    6.28,
                    6.56,
                    6.84,
                    7.18,
                    7.53,
                    7.87,
                    8.22,
                    8.56,
                    8.98,
                    9.39,
                    9.8,
                    10.22,
                    10.63,
                    11.09,
                    11.55,
                    12.02,
                    12.48,
                    12.94
                ]
            },
            "SVNR_20P_MS": {
                "99": [
                    0.68,
                    0.68,
                    0.67,
                    0.67,
                    0.67,
                    0.66,
                    0.66,
                    0.65,
                    0.65,
                    0.65,
                    0.64,
                    0.64,
                    0.63,
                    0.63,
                    0.63,
                    0.62,
                    0.62,
                    0.61,
                    0.61,
                    0.6,
                    0.6,
                    0.62,
                    0.64,
                    0.67,
                    0.69,
                    0.71,
                    0.74,
                    0.77,
                    0.8,
                    0.83,
                    0.86,
                    0.9,
                    0.94,
                    0.99,
                    1.02,
                    1.07,
                    1.12,
                    1.17,
                    1.22,
                    1.28,
                    1.33,
                    1.4,
                    1.46,
                    1.53,
                    1.6,
                    1.66,
                    1.75,
                    1.84,
                    1.92,
                    2.01,
                    2.1,
                    2.21,
                    2.32,
                    2.43,
                    2.54,
                    2.65,
                    2.78,
                    2.92,
                    3.06,
                    3.2,
                    3.33,
                    3.5,
                    3.67,
                    3.84,
                    4.01,
                    4.19,
                    4.38,
                    4.58,
                    4.78,
                    4.99,
                    5.2
                ]
            },
            "SVNR_RP_FNS": {
                "99": [
                    0.3,
                    0.3,
                    0.3,
                    0.3,
                    0.3,
                    0.3,
                    0.3,
                    0.3,
                    0.3,
                    0.3,
                    0.3,
                    0.3,
                    0.3,
                    0.3,
                    0.3,
                    0.3,
                    0.3,
                    0.3,
                    0.3,
                    0.3,
                    0.3,
                    0.31,
                    0.32,
                    0.33,
                    0.36,
                    0.37,
                    0.38,
                    0.41,
                    0.42,
                    0.44,
                    0.47,
                    0.49,
                    0.52,
                    0.54,
                    0.57,
                    0.6,
                    0.64,
                    0.67,
                    0.72,
                    0.75,
                    0.79,
                    0.84,
                    0.89,
                    0.94,
                    1,
                    1.06,
                    1.12,
                    1.18,
                    1.26,
                    1.34,
                    1.42,
                    1.52,
                    1.6,
                    1.71,
                    1.82,
                    1.93,
                    2.05,
                    2.19,
                    2.33,
                    2.49,
                    2.65,
                    2.82,
                    3.01,
                    3.2,
                    3.42,
                    3.64,
                    3.88,
                    4.13,
                    4.4,
                    4.69,
                    4.98
                ]
            },
            "SVNR_RP_FS": {
                "99": [
                    0.13,
                    0.13,
                    0.13,
                    0.13,
                    0.13,
                    0.13,
                    0.13,
                    0.13,
                    0.13,
                    0.13,
                    0.13,
                    0.13,
                    0.13,
                    0.13,
                    0.13,
                    0.13,
                    0.13,
                    0.13,
                    0.13,
                    0.13,
                    0.13,
                    0.14,
                    0.15,
                    0.15,
                    0.16,
                    0.17,
                    0.17,
                    0.19,
                    0.19,
                    0.2,
                    0.21,
                    0.22,
                    0.24,
                    0.25,
                    0.26,
                    0.28,
                    0.29,
                    0.3,
                    0.33,
                    0.34,
                    0.36,
                    0.38,
                    0.4,
                    0.43,
                    0.46,
                    0.48,
                    0.51,
                    0.54,
                    0.57,
                    0.61,
                    0.65,
                    0.69,
                    0.73,
                    0.78,
                    0.83,
                    0.88,
                    0.94,
                    1,
                    1.07,
                    1.14,
                    1.22,
                    1.3,
                    1.39,
                    1.48,
                    1.58,
                    1.68,
                    1.79,
                    1.92,
                    2.04,
                    2.18,
                    2.33
                ]
            },
            "SVNR_RP_MNS": {
                "99": [
                    0.24,
                    0.24,
                    0.24,
                    0.24,
                    0.24,
                    0.24,
                    0.24,
                    0.24,
                    0.24,
                    0.24,
                    0.24,
                    0.24,
                    0.24,
                    0.24,
                    0.24,
                    0.24,
                    0.24,
                    0.24,
                    0.24,
                    0.24,
                    0.24,
                    0.25,
                    0.26,
                    0.27,
                    0.29,
                    0.3,
                    0.31,
                    0.33,
                    0.34,
                    0.36,
                    0.38,
                    0.4,
                    0.42,
                    0.44,
                    0.46,
                    0.49,
                    0.52,
                    0.54,
                    0.58,
                    0.61,
                    0.64,
                    0.68,
                    0.72,
                    0.76,
                    0.81,
                    0.86,
                    0.91,
                    0.96,
                    1.02,
                    1.09,
                    1.15,
                    1.23,
                    1.3,
                    1.39,
                    1.48,
                    1.57,
                    1.67,
                    1.78,
                    1.9,
                    2.03,
                    2.16,
                    2.3,
                    2.46,
                    2.62,
                    2.8,
                    2.99,
                    3.19,
                    3.41,
                    3.64,
                    3.89,
                    4.15
                ]
            },
            "SVNR_RP_MS": {
                "99": [
                    0.09,
                    0.09,
                    0.09,
                    0.09,
                    0.09,
                    0.09,
                    0.09,
                    0.09,
                    0.09,
                    0.09,
                    0.09,
                    0.09,
                    0.09,
                    0.09,
                    0.09,
                    0.09,
                    0.09,
                    0.09,
                    0.09,
                    0.09,
                    0.09,
                    0.1,
                    0.1,
                    0.1,
                    0.11,
                    0.11,
                    0.12,
                    0.13,
                    0.13,
                    0.14,
                    0.15,
                    0.15,
                    0.16,
                    0.17,
                    0.18,
                    0.19,
                    0.2,
                    0.21,
                    0.22,
                    0.23,
                    0.25,
                    0.26,
                    0.28,
                    0.29,
                    0.31,
                    0.33,
                    0.35,
                    0.37,
                    0.39,
                    0.42,
                    0.44,
                    0.47,
                    0.5,
                    0.54,
                    0.57,
                    0.61,
                    0.65,
                    0.69,
                    0.74,
                    0.79,
                    0.84,
                    0.9,
                    0.96,
                    1.03,
                    1.1,
                    1.18,
                    1.26,
                    1.35,
                    1.45,
                    1.55,
                    1.67
                ]
            }
        }
    },
    "releaseDate": "2018-07-30 02:58:09",
    "remarks": {
        "en": "Guaranteed Survival Payout",
        "zh-Hant": "Guaranteed Survival Payout"
    },
    "saInput": [
        {
            "ccy": "SGD",
            "decimal": 0,
            "factor": 0
        },
        {
            "ccy": "USD",
            "decimal": 0,
            "factor": 0
        },
        {
            "ccy": "GBP",
            "decimal": 0,
            "factor": 0
        },
        {
            "ccy": "AUD",
            "decimal": 0,
            "factor": 0
        },
        {
            "ccy": "EUR",
            "decimal": 0,
            "factor": 0
        }
    ],
    "saInputInd": "N",
    "saPostfix": {},
    "saRate": 1,
    "saRule": "BSA",
    "saScale": 1,
    "saViewInd": "Y",
    "smokeInd": "*",
    "status": "A",
    "type": "product",
    "updatedBy": "mandy",
    "version": 2,
    "wholeLifeInd": "N"
}