{
    "allowBackdate": "N",
    "budgetRules": [
        "RP"
    ],
    "classInd": "Y",
    "classList": [
        {
            "benefitValue": [],
            "className": {
                "en": "AXA General Care (Plan A)",
                "zh-Hant": "AXA General Care (Plan A)"
            },
            "covClass": "A",
            "default": "",
            "valueType": "sa"
        },
        {
            "benefitValue": [],
            "className": {
                "en": "AXA General Care (Plan B)",
                "zh-Hant": "AXA General Care (Plan B)"
            },
            "covClass": "B",
            "default": "",
            "valueType": "sa"
        }
    ],
    "classSecDesc": {},
    "compCode": "08",
    "corpInd": "N",
    "covCode": "ASG",
    "covName": {
        "en": "AXA General Care",
        "zh-Hant": "AXA General Care"
    },
    "ctyGroup": [
        "*"
    ],
    "dealerGroup": [
        "AGENCY",
        "DIRECT",
        "SINGPOST",
        "BROKER",
        "FUSION",
        "SYNERGY"
    ],
    "effDate": "2017-12-12 15:20:40",
    "entryAge": [
        {
            "country": "*",
            "imaxAge": 75,
            "imaxAgeUnit": "nextAge",
            "iminAge": 15,
            "iminAgeUnit": "day",
            "omaxAge": 99,
            "omaxAgeUnit": "nextAge",
            "ominAge": 19,
            "ominAgeUnit": "nextAge",
            "sameAsOwner": ""
        }
    ],
    "expDate": "2118-12-12 15:19:54",
    "formulas": {
        "calcQuotFunc": "function (quotation, planInfo, planDetails) {var basicCarePlan; for (var p in quotation.plans) { if (quotation.plans[p].covCode === 'ASP') { basicCarePlan = quotation.plans[p]; break; } } planInfo.paymentMethod = basicCarePlan.paymentMethod; planInfo.payFreq = basicCarePlan.payFreq; var covClass = quotation.plans[0].covClass; var gender = quotation.iGender; var age = quotation.iAge; if (covClass) { var planDetail = planDetails[planInfo.covCode]; var modalFactor = math.bignumber(1); var covMonth = 12; var payModes = planDetail.payModes; for (var i in payModes) { if (payModes[i].mode === planInfo.payFreq) { modalFactor = math.bignumber(payModes[i].factor); covMonth = payModes[i].covMonth; } } var rate = math.bignumber(planDetail.rates.premRate[covClass][gender][age]); var regularPrem = math.divide(math.floor(math.multiply(math.multiply(rate, modalFactor), 100)), 100); var prem = regularPrem; if (planDetails[quotation.baseProductCode].gstInd === 'Y') { var gstRate = math.bignumber(planDetails[quotation.baseProductCode].gstRate); var gstAmt = math.round(math.multiply(regularPrem, gstRate), 2); prem = math.round(math.add(prem, gstAmt), 1); if (planInfo.payFreq === 'M') { planInfo.tax = { monthTax: math.number(gstAmt), yearTax: math.number(math.divide(math.floor(math.multiply(gstAmt, 12 / covMonth, 100)), 100)) }; } else if (planInfo.payFreq === 'A') { planInfo.tax = { yearTax: math.number(gstAmt) }; } } planInfo.premium = math.number(prem); planInfo.yearPrem = math.number(math.divide(math.floor(math.multiply(prem, 12 / covMonth, 100)), 100)); planInfo.covClass = covClass; } }",
        "illustrateFunc": "",
        "polTermsFunc": "",
        "premFunc": "",
        "premTermsFunc": "",
        "prepareClassConfig": "",
        "prepareSAPremConfig": "function (planDetail, quotation, planDetails) {planDetail.inputConfig.canEditPaymentMethod = false; planDetail.inputConfig.paymentMethodList = [ { value: 'CASH', title: { en: 'Cash' } } ]; planDetail.inputConfig.canEditPayFreq = false; planDetail.inputConfig.payFreqList = [ { value: 'A', title: { en: 'Annual' } }, { value: 'M', title: { en: 'Monthly' } } ]; planDetail.inputConfig.canEditPremium = false; }",
        "prepareTermConfig": "",
        "saFunc": "",
        "validAfterCalcFunc": "function (quotation, planInfo, planDetail) {for (var c in planDetail.classList) { var classItem = planDetail.classList[c]; if (classItem.covClass === planInfo.covClass) { planInfo.covName = classItem.className; break; }}for (var p in planDetail.inputConfig.paymentMethodList) { var item = planDetail.inputConfig.paymentMethodList[p]; if (item.value === planInfo.paymentMethod) { planInfo.paymentMethodDesc = item.title.en; break; }}for (var p in planDetail.inputConfig.payFreqList) { var item = planDetail.inputConfig.payFreqList[p]; if (item.value === planInfo.payFreq) { planInfo.payFreqDesc = item.title.en; break; }}}",
        "validBeforeCalcFunc": "",
        "validQuotFunc": "",
        "willValidQuotFunc": ""
    },
    "genderInd": "*",
    "insuredAgeDesc": {},
    "isOccupClass": "N",
    "jointLives": "N",
    "keyProdFeatures": {
        "en": "-",
        "zh-Hant": "-"
    },
    "licence": [
        ""
    ],
    "payModeDesc": {},
    "payModes": [
        {
            "covMonth": 12,
            "default": "",
            "factor": 1,
            "mode": "A",
            "operator": "M"
        },
        {
            "covMonth": 1,
            "default": "",
            "factor": 0.0875,
            "mode": "M",
            "operator": "M"
        }
    ],
    "planInd": "R",
    "prodFeature": {},
    "prod_summary": 0,
    "prod_summary_1": 191788,
    "productCategory": "sgResidentOnly",
    "productLine": "HP",
    "rates": {
        "premRate": {
            "A": {
                "F": [
                    83.21,
                    83.21,
                    83.21,
                    83.21,
                    83.21,
                    83.21,
                    83.21,
                    83.21,
                    83.21,
                    83.21,
                    83.21,
                    83.21,
                    83.21,
                    83.21,
                    83.21,
                    83.21,
                    83.21,
                    83.21,
                    83.21,
                    86.95,
                    86.95,
                    86.95,
                    86.95,
                    86.95,
                    86.95,
                    86.95,
                    86.95,
                    86.95,
                    86.95,
                    86.95,
                    86.95,
                    127.14,
                    127.14,
                    127.14,
                    127.14,
                    127.14,
                    127.14,
                    127.14,
                    127.14,
                    127.14,
                    127.14,
                    144.9,
                    144.9,
                    144.9,
                    144.9,
                    144.9,
                    253.31,
                    253.31,
                    253.31,
                    253.31,
                    253.31,
                    355.18,
                    355.18,
                    355.18,
                    355.18,
                    355.18,
                    506.58,
                    506.58,
                    506.58,
                    506.58,
                    506.58,
                    684.15,
                    684.15,
                    684.15,
                    684.15,
                    684.15,
                    1001.91,
                    1001.91,
                    1001.91,
                    1001.91,
                    1001.91,
                    1186.02,
                    1186.02,
                    1186.02,
                    1429.01,
                    1429.01,
                    1429.01,
                    1429.01,
                    1429.01,
                    1513.12,
                    1513.12,
                    1844.9,
                    1844.9,
                    1844.9,
                    2164.52,
                    2164.52,
                    2164.52,
                    2164.52,
                    2164.52,
                    2571.07,
                    2571.07,
                    2571.07,
                    2571.07,
                    2571.07,
                    2571.07,
                    2571.07,
                    2571.07,
                    2571.07,
                    2571.07,
                    2571.07
                ],
                "M": [
                    83.21,
                    83.21,
                    83.21,
                    83.21,
                    83.21,
                    83.21,
                    83.21,
                    83.21,
                    83.21,
                    83.21,
                    83.21,
                    83.21,
                    83.21,
                    83.21,
                    83.21,
                    83.21,
                    83.21,
                    83.21,
                    83.21,
                    86.95,
                    86.95,
                    86.95,
                    86.95,
                    86.95,
                    86.95,
                    86.95,
                    86.95,
                    86.95,
                    86.95,
                    86.95,
                    86.95,
                    127.14,
                    127.14,
                    127.14,
                    127.14,
                    127.14,
                    127.14,
                    127.14,
                    127.14,
                    127.14,
                    127.14,
                    144.9,
                    144.9,
                    144.9,
                    144.9,
                    144.9,
                    253.31,
                    253.31,
                    253.31,
                    253.31,
                    253.31,
                    355.18,
                    355.18,
                    355.18,
                    355.18,
                    355.18,
                    506.58,
                    506.58,
                    506.58,
                    506.58,
                    506.58,
                    684.15,
                    684.15,
                    684.15,
                    684.15,
                    684.15,
                    1001.91,
                    1001.91,
                    1001.91,
                    1001.91,
                    1001.91,
                    1186.02,
                    1186.02,
                    1186.02,
                    1429.01,
                    1429.01,
                    1429.01,
                    1429.01,
                    1429.01,
                    1513.12,
                    1513.12,
                    1844.9,
                    1844.9,
                    1844.9,
                    2164.52,
                    2164.52,
                    2164.52,
                    2164.52,
                    2164.52,
                    2571.07,
                    2571.07,
                    2571.07,
                    2571.07,
                    2571.07,
                    2571.07,
                    2571.07,
                    2571.07,
                    2571.07,
                    2571.07,
                    2571.07
                ]
            },
            "B": {
                "F": [
                    54.24,
                    54.24,
                    54.24,
                    54.24,
                    54.24,
                    54.24,
                    54.24,
                    54.24,
                    54.24,
                    54.24,
                    54.24,
                    54.24,
                    54.24,
                    54.24,
                    54.24,
                    54.24,
                    54.24,
                    54.24,
                    54.24,
                    65.46,
                    65.46,
                    65.46,
                    65.46,
                    65.46,
                    65.46,
                    65.46,
                    65.46,
                    65.46,
                    65.46,
                    65.46,
                    65.46,
                    92.56,
                    92.56,
                    92.56,
                    92.56,
                    92.56,
                    92.56,
                    92.56,
                    92.56,
                    92.56,
                    92.56,
                    126.21,
                    126.21,
                    126.21,
                    126.21,
                    126.21,
                    197.23,
                    197.23,
                    197.23,
                    197.23,
                    197.23,
                    245.83,
                    245.83,
                    245.83,
                    245.83,
                    245.83,
                    332.75,
                    332.75,
                    332.75,
                    332.75,
                    332.75,
                    533.68,
                    533.68,
                    533.68,
                    533.68,
                    533.68,
                    786.02,
                    786.02,
                    786.02,
                    786.02,
                    786.02,
                    925.27,
                    925.27,
                    925.27,
                    1107.51,
                    1107.51,
                    1107.51,
                    1107.51,
                    1107.51,
                    1177.61,
                    1177.61,
                    1438.35,
                    1438.35,
                    1438.35,
                    1689.76,
                    1689.76,
                    1689.76,
                    1689.76,
                    1689.76,
                    2009.38,
                    2009.38,
                    2009.38,
                    2009.38,
                    2009.38,
                    2009.38,
                    2009.38,
                    2009.38,
                    2009.38,
                    2009.38,
                    2009.38
                ],
                "M": [
                    54.24,
                    54.24,
                    54.24,
                    54.24,
                    54.24,
                    54.24,
                    54.24,
                    54.24,
                    54.24,
                    54.24,
                    54.24,
                    54.24,
                    54.24,
                    54.24,
                    54.24,
                    54.24,
                    54.24,
                    54.24,
                    54.24,
                    65.46,
                    65.46,
                    65.46,
                    65.46,
                    65.46,
                    65.46,
                    65.46,
                    65.46,
                    65.46,
                    65.46,
                    65.46,
                    65.46,
                    92.56,
                    92.56,
                    92.56,
                    92.56,
                    92.56,
                    92.56,
                    92.56,
                    92.56,
                    92.56,
                    92.56,
                    126.21,
                    126.21,
                    126.21,
                    126.21,
                    126.21,
                    197.23,
                    197.23,
                    197.23,
                    197.23,
                    197.23,
                    245.83,
                    245.83,
                    245.83,
                    245.83,
                    245.83,
                    332.75,
                    332.75,
                    332.75,
                    332.75,
                    332.75,
                    533.68,
                    533.68,
                    533.68,
                    533.68,
                    533.68,
                    786.02,
                    786.02,
                    786.02,
                    786.02,
                    786.02,
                    925.27,
                    925.27,
                    925.27,
                    1107.51,
                    1107.51,
                    1107.51,
                    1107.51,
                    1107.51,
                    1177.61,
                    1177.61,
                    1438.35,
                    1438.35,
                    1438.35,
                    1689.76,
                    1689.76,
                    1689.76,
                    1689.76,
                    1689.76,
                    2009.38,
                    2009.38,
                    2009.38,
                    2009.38,
                    2009.38,
                    2009.38,
                    2009.38,
                    2009.38,
                    2009.38,
                    2009.38,
                    2009.38
                ]
            }
        }
    },
    "ref_no": "ASG",
    "releaseDate": "2018-07-16 16:57:08",
    "remarks": {
        "en": "",
        "zh-Hant": ""
    },
    "smokeInd": "*",
    "status": "A",
    "task_desc": "General Care Rider for AXA Shield",
    "type": "product",
    "version": 3
}