{
    "allowBackdate": "N",
    "budgetRules": [
        "RP"
    ],
    "classInd": "Y",
    "classList": [
        {
            "benefitValue": [],
            "className": {
                "en": "AXA Basic Care (Plan A)",
                "zh-Hant": "AXA Basic Care (Plan A)"
            },
            "covClass": "A",
            "default": "",
            "valueType": "sa"
        },
        {
            "benefitValue": [],
            "className": {
                "en": "AXA Basic Care (Plan B)",
                "zh-Hant": "AXA Basic Care (Plan B)"
            },
            "covClass": "B",
            "default": "",
            "valueType": "sa"
        },
        {
            "benefitValue": [],
            "className": {
                "en": "AXA Basic Care (Standard Plan)",
                "zh-Hant": "AXA Basic Care (Standard Plan)"
            },
            "covClass": "C",
            "default": "",
            "valueType": "sa"
        }
    ],
    "classTitle": {},
    "compCode": "08",
    "covCode": "ASP",
    "covName": {
        "en": "AXA Basic Care",
        "zh-Hant": "AXA Basic Care"
    },
    "ctyGroup": [
        "*"
    ],
    "dealerGroup": [
        "DIRECT",
        "SINGPOST",
        "BROKER",
        "AGENCY",
        "FUSION",
        "SYNERGY"
    ],
    "effDate": "2017-12-12 07:11:09",
    "entryAge": [
        {
            "country": "*",
            "imaxAge": 75,
            "imaxAgeUnit": "nextAge",
            "iminAge": 15,
            "iminAgeUnit": "day",
            "omaxAge": 99,
            "omaxAgeUnit": "nextAge",
            "ominAge": 19,
            "ominAgeUnit": "nextAge",
            "sameAsOwner": ""
        }
    ],
    "expDate": "2118-07-26 16:00:00",
    "formulas": {
        "calcQuotFunc": "function (quotation, planInfo, planDetails) {planInfo.paymentMethod = 'CASH'; if (!planInfo.payFreq || planInfo.payFreq === '') { planInfo.payFreq = 'M'; } var covClass = quotation.plans[0].covClass; var gender = quotation.iGender; var age = quotation.iAge; if (covClass) { var planDetail = planDetails[planInfo.covCode]; var modalFactor = math.bignumber(1); var covMonth = 12; var payModes = planDetail.payModes; for (var i in payModes) { if (payModes[i].mode === planInfo.payFreq) { modalFactor = math.bignumber(payModes[i].factor); covMonth = payModes[i].covMonth; break; } } var rate = math.bignumber(planDetail.rates.premRate[covClass][gender][age]); var regularPrem = math.divide(math.floor(math.multiply(math.multiply(rate, modalFactor), 100)), 100); var prem = regularPrem; if (planDetails[quotation.baseProductCode].gstInd === 'Y') { var gstRate = math.bignumber(planDetails[quotation.baseProductCode].gstRate); var gstAmt = math.round(math.multiply(regularPrem, gstRate), 2); prem = math.round(math.add(prem, gstAmt), 1); if (planInfo.payFreq === 'M') { planInfo.tax = { monthTax: math.number(gstAmt), yearTax: math.number(math.divide(math.floor(math.multiply(gstAmt, 12 / covMonth, 100)), 100)) }; } else if (planInfo.payFreq === 'A') { planInfo.tax = { yearTax: math.number(gstAmt) }; } } planInfo.premium = math.number(prem); planInfo.yearPrem = math.number(math.divide(math.floor(math.multiply(prem, 12 / covMonth, 100)), 100)); planInfo.covClass = covClass; } }",
        "illustrateFunc": "",
        "polTermsFunc": "",
        "premFunc": "",
        "premTermsFunc": "",
        "prepareClassConfig": "",
        "prepareSAPremConfig": "function (planDetail, quotation, planDetails) {planDetail.inputConfig.canEditPaymentMethod = false; planDetail.inputConfig.paymentMethodList = [ { value: 'CASH', title: { en: 'Cash' } } ]; planDetail.inputConfig.canEditPayFreq = true; planDetail.inputConfig.payFreqList = [ { value: 'A', title: { en: 'Annual' } }, { value: 'M', title: { en: 'Monthly' } } ]; planDetail.inputConfig.canEditPremium = false; }",
        "prepareTermConfig": "",
        "saFunc": "",
        "validAfterCalcFunc": "function (quotation, planInfo, planDetail) {for (var c in planDetail.classList) { var classItem = planDetail.classList[c]; if (classItem.covClass === planInfo.covClass) { planInfo.covName = classItem.className; break; }}for (var p in planDetail.inputConfig.paymentMethodList) { var item = planDetail.inputConfig.paymentMethodList[p]; if (item.value === planInfo.paymentMethod) { planInfo.paymentMethodDesc = item.title.en; break; }}for (var p in planDetail.inputConfig.payFreqList) { var item = planDetail.inputConfig.payFreqList[p]; if (item.value === planInfo.payFreq) { planInfo.payFreqDesc = item.title.en; break; }}}",
        "validBeforeCalcFunc": "",
        "validQuotFunc": "",
        "willValidQuotFunc": ""
    },
    "genderInd": "*",
    "isOccupClass": "N",
    "payModes": [
        {
            "covMonth": 12,
            "default": "",
            "factor": 1,
            "mode": "A",
            "operator": "M"
        },
        {
            "covMonth": 1,
            "default": "",
            "factor": 0.0875,
            "mode": "M",
            "operator": "M"
        }
    ],
    "planInd": "R",
    "prodFeature": {},
    "prod_summary": 0,
    "prod_summary_1": 187404,
    "prod_summary_2": 179676,
    "productCategory": "sgResidentOnly",
    "productLine": "HP",
    "rates": {
        "premRate": {
            "A": {
                "F": [
                    525.23,
                    525.23,
                    525.23,
                    525.23,
                    485.98,
                    485.98,
                    485.98,
                    485.98,
                    485.98,
                    485.98,
                    485.98,
                    485.98,
                    485.98,
                    485.98,
                    485.98,
                    485.98,
                    485.98,
                    485.98,
                    485.98,
                    533.64,
                    533.64,
                    577.57,
                    577.57,
                    577.57,
                    577.57,
                    577.57,
                    577.57,
                    577.57,
                    577.57,
                    577.57,
                    577.57,
                    603.74,
                    603.74,
                    603.74,
                    603.74,
                    603.74,
                    617.76,
                    617.76,
                    617.76,
                    617.76,
                    617.76,
                    707.48,
                    707.48,
                    707.48,
                    707.48,
                    707.48,
                    719.63,
                    719.63,
                    719.63,
                    719.63,
                    719.63,
                    892.52,
                    892.52,
                    892.52,
                    892.52,
                    892.52,
                    1097.2,
                    1097.2,
                    1097.2,
                    1097.2,
                    1097.2,
                    1135.51,
                    1135.51,
                    1135.51,
                    1135.51,
                    1135.51,
                    1576.64,
                    1576.64,
                    1576.64,
                    1576.64,
                    1576.64,
                    2891.59,
                    2891.59,
                    2891.59,
                    2891.59,
                    2891.59,
                    3185.98,
                    3185.98,
                    3185.98,
                    3185.98,
                    3185.98,
                    3185.98,
                    3185.98,
                    3185.98,
                    3574.77,
                    3574.77,
                    3782.24,
                    3782.24,
                    3782.24,
                    4161.68,
                    4161.68,
                    4550.47,
                    4550.47,
                    4550.47,
                    4859.81,
                    4859.81,
                    5041.12,
                    5041.12,
                    5041.12,
                    5156.07
                ],
                "M": [
                    525.23,
                    525.23,
                    525.23,
                    525.23,
                    485.98,
                    485.98,
                    485.98,
                    485.98,
                    485.98,
                    485.98,
                    485.98,
                    485.98,
                    485.98,
                    485.98,
                    485.98,
                    485.98,
                    485.98,
                    485.98,
                    485.98,
                    533.64,
                    533.64,
                    577.57,
                    577.57,
                    577.57,
                    577.57,
                    577.57,
                    577.57,
                    577.57,
                    577.57,
                    577.57,
                    577.57,
                    603.74,
                    603.74,
                    603.74,
                    603.74,
                    603.74,
                    617.76,
                    617.76,
                    617.76,
                    617.76,
                    617.76,
                    707.48,
                    707.48,
                    707.48,
                    707.48,
                    707.48,
                    719.63,
                    719.63,
                    719.63,
                    719.63,
                    719.63,
                    892.52,
                    892.52,
                    892.52,
                    892.52,
                    892.52,
                    1097.2,
                    1097.2,
                    1097.2,
                    1097.2,
                    1097.2,
                    1135.51,
                    1135.51,
                    1135.51,
                    1135.51,
                    1135.51,
                    1576.64,
                    1576.64,
                    1576.64,
                    1576.64,
                    1576.64,
                    2891.59,
                    2891.59,
                    2891.59,
                    2891.59,
                    2891.59,
                    3185.98,
                    3185.98,
                    3185.98,
                    3185.98,
                    3185.98,
                    3185.98,
                    3185.98,
                    3185.98,
                    3574.77,
                    3574.77,
                    3782.24,
                    3782.24,
                    3782.24,
                    4161.68,
                    4161.68,
                    4550.47,
                    4550.47,
                    4550.47,
                    4859.81,
                    4859.81,
                    5041.12,
                    5041.12,
                    5041.12,
                    5156.07
                ]
            },
            "B": {
                "F": [
                    317.76,
                    317.76,
                    317.76,
                    317.76,
                    158.88,
                    158.88,
                    158.88,
                    158.88,
                    158.88,
                    158.88,
                    158.88,
                    158.88,
                    158.88,
                    158.88,
                    158.88,
                    158.88,
                    158.88,
                    158.88,
                    158.88,
                    186.92,
                    186.92,
                    186.92,
                    186.92,
                    186.92,
                    186.92,
                    186.92,
                    186.92,
                    186.92,
                    186.92,
                    186.92,
                    186.92,
                    186.92,
                    186.92,
                    186.92,
                    186.92,
                    186.92,
                    186.92,
                    186.92,
                    186.92,
                    186.92,
                    186.92,
                    257.01,
                    257.01,
                    257.01,
                    257.01,
                    257.01,
                    262.62,
                    262.62,
                    262.62,
                    262.62,
                    262.62,
                    345.79,
                    345.79,
                    345.79,
                    345.79,
                    345.79,
                    476.64,
                    476.64,
                    476.64,
                    476.64,
                    476.64,
                    645.79,
                    645.79,
                    645.79,
                    645.79,
                    645.79,
                    944.86,
                    944.86,
                    944.86,
                    944.86,
                    944.86,
                    1157.01,
                    1157.01,
                    1157.01,
                    1232.71,
                    1232.71,
                    1345.79,
                    1345.79,
                    1345.79,
                    1398.13,
                    1398.13,
                    1428.97,
                    1428.97,
                    1428.97,
                    1616.82,
                    1616.82,
                    1725.23,
                    1725.23,
                    1725.23,
                    1896.26,
                    1896.26,
                    2052.34,
                    2052.34,
                    2052.34,
                    2142.99,
                    2142.99,
                    2252.34,
                    2252.34,
                    2252.34,
                    2345.79
                ],
                "M": [
                    317.76,
                    317.76,
                    317.76,
                    317.76,
                    158.88,
                    158.88,
                    158.88,
                    158.88,
                    158.88,
                    158.88,
                    158.88,
                    158.88,
                    158.88,
                    158.88,
                    158.88,
                    158.88,
                    158.88,
                    158.88,
                    158.88,
                    186.92,
                    186.92,
                    186.92,
                    186.92,
                    186.92,
                    186.92,
                    186.92,
                    186.92,
                    186.92,
                    186.92,
                    186.92,
                    186.92,
                    186.92,
                    186.92,
                    186.92,
                    186.92,
                    186.92,
                    186.92,
                    186.92,
                    186.92,
                    186.92,
                    186.92,
                    257.01,
                    257.01,
                    257.01,
                    257.01,
                    257.01,
                    262.62,
                    262.62,
                    262.62,
                    262.62,
                    262.62,
                    345.79,
                    345.79,
                    345.79,
                    345.79,
                    345.79,
                    476.64,
                    476.64,
                    476.64,
                    476.64,
                    476.64,
                    645.79,
                    645.79,
                    645.79,
                    645.79,
                    645.79,
                    944.86,
                    944.86,
                    944.86,
                    944.86,
                    944.86,
                    1157.01,
                    1157.01,
                    1157.01,
                    1232.71,
                    1232.71,
                    1345.79,
                    1345.79,
                    1345.79,
                    1398.13,
                    1398.13,
                    1428.97,
                    1428.97,
                    1428.97,
                    1616.82,
                    1616.82,
                    1725.23,
                    1725.23,
                    1725.23,
                    1896.26,
                    1896.26,
                    2052.34,
                    2052.34,
                    2052.34,
                    2142.99,
                    2142.99,
                    2252.34,
                    2252.34,
                    2252.34,
                    2345.79
                ]
            },
            "C": {
                "F": [
                    143.93,
                    143.93,
                    143.93,
                    143.93,
                    143.93,
                    143.93,
                    143.93,
                    143.93,
                    143.93,
                    143.93,
                    143.93,
                    143.93,
                    143.93,
                    143.93,
                    143.93,
                    143.93,
                    143.93,
                    143.93,
                    143.93,
                    154.21,
                    154.21,
                    154.21,
                    154.21,
                    154.21,
                    154.21,
                    154.21,
                    154.21,
                    154.21,
                    154.21,
                    154.21,
                    154.21,
                    173.84,
                    173.84,
                    173.84,
                    173.84,
                    173.84,
                    173.84,
                    173.84,
                    173.84,
                    173.84,
                    173.84,
                    206.55,
                    206.55,
                    206.55,
                    206.55,
                    206.55,
                    229.91,
                    229.91,
                    229.91,
                    229.91,
                    229.91,
                    280.38,
                    280.38,
                    280.38,
                    280.38,
                    280.38,
                    345.8,
                    345.8,
                    345.8,
                    345.8,
                    345.8,
                    469.16,
                    469.16,
                    469.16,
                    469.16,
                    469.16,
                    694.4,
                    694.4,
                    694.4,
                    694.4,
                    694.4,
                    862.62,
                    862.62,
                    862.62,
                    935.52,
                    935.52,
                    1067.29,
                    1067.29,
                    1067.29,
                    1133.65,
                    1133.65,
                    1275.71,
                    1275.71,
                    1275.71,
                    1406.55,
                    1406.55,
                    1516.83,
                    1516.83,
                    1516.83,
                    1675.71,
                    1675.71,
                    1830.85,
                    1830.85,
                    1830.85,
                    1945.8,
                    1945.8,
                    2087.86,
                    2087.86,
                    2087.86,
                    2225.24
                ],
                "M": [
                    143.93,
                    143.93,
                    143.93,
                    143.93,
                    143.93,
                    143.93,
                    143.93,
                    143.93,
                    143.93,
                    143.93,
                    143.93,
                    143.93,
                    143.93,
                    143.93,
                    143.93,
                    143.93,
                    143.93,
                    143.93,
                    143.93,
                    154.21,
                    154.21,
                    154.21,
                    154.21,
                    154.21,
                    154.21,
                    154.21,
                    154.21,
                    154.21,
                    154.21,
                    154.21,
                    154.21,
                    173.84,
                    173.84,
                    173.84,
                    173.84,
                    173.84,
                    173.84,
                    173.84,
                    173.84,
                    173.84,
                    173.84,
                    206.55,
                    206.55,
                    206.55,
                    206.55,
                    206.55,
                    229.91,
                    229.91,
                    229.91,
                    229.91,
                    229.91,
                    280.38,
                    280.38,
                    280.38,
                    280.38,
                    280.38,
                    345.8,
                    345.8,
                    345.8,
                    345.8,
                    345.8,
                    469.16,
                    469.16,
                    469.16,
                    469.16,
                    469.16,
                    694.4,
                    694.4,
                    694.4,
                    694.4,
                    694.4,
                    862.62,
                    862.62,
                    862.62,
                    935.52,
                    935.52,
                    1067.29,
                    1067.29,
                    1067.29,
                    1133.65,
                    1133.65,
                    1275.71,
                    1275.71,
                    1275.71,
                    1406.55,
                    1406.55,
                    1516.83,
                    1516.83,
                    1516.83,
                    1675.71,
                    1675.71,
                    1830.85,
                    1830.85,
                    1830.85,
                    1945.8,
                    1945.8,
                    2087.86,
                    2087.86,
                    2087.86,
                    2225.24
                ]
            }
        }
    },
    "releaseDate": "2020-01-03 04:22:20",
    "remarks": {
        "en": "",
        "zh-Hant": ""
    },
    "smokeInd": "*",
    "status": "A",
    "type": "product",
    "version": 3
}