{
    "allowBackdate": "N",
    "budgetRules": [
        "RP"
    ],
    "classInd": "N",
    "compCode": "08",
    "covCode": "FX2_EPW",
    "covName": {
        "en": "ECI Premium Waiver",
        "zh-Hant": "-"
    },
    "ctyGroup": [
        "*"
    ],
    "currencies": [
        {
            "ccy": [
                "SGD",
                "USD"
            ],
            "country": "*"
        }
    ],
    "dealerGroup": [
        "AGENCY",
        "DIRECT",
        "FUSION",
        "BROKER",
        "SINGPOST",
        "SYNERGY"
    ],
    "effDate": "2017-12-19 16:00:00",
    "entryAge": [
        {
            "country": "*",
            "imaxAge": 55,
            "imaxAgeUnit": "nearestAge",
            "iminAge": 18,
            "iminAgeUnit": "na",
            "omaxAge": 70,
            "omaxAgeUnit": "nearestAge",
            "ominAge": 18,
            "ominAgeUnit": "year",
            "sameAsOwner": "N"
        }
    ],
    "expDate": "2118-07-26 16:00:00",
    "formulas": {
        "calcQuotFunc": "",
        "illustrateFunc": "",
        "polTermsFunc": "function(planDetail, quotation) {var opts = [];for(var i = 10; i <=30; i++){ opts.push({ value: \"yrs\" + i, title: i + \" Years\" });}/*var ageOpts = [55, 60, 65, 85, 99], iAge = quotation.iAge;for(var i in ageOpts){ var ageOpt = ageOpts[i]; if(ageOpt - iAge >= 10){ opts.push({ value: \"age\" + ageOpt, title: \"To Age \" + ageOpt }); }}*/return opts;}",
        "premFunc": "",
        "premTermsFunc": "",
        "prepareClassConfig": "",
        "prepareSAPremConfig": "function (planDetail, quotation, planDetails) {planDetail.inputConfig.canViewPremium = false; }",
        "prepareTermConfig": "",
        "saFunc": "",
        "validAfterCalcFunc": "function(quotation, planInfo, planDetail) {planInfo.premTerm = planInfo.policyTerm;planInfo.premTermDesc = planInfo.polTermDesc;if(planInfo.policyTerm){ var year = planInfo.policyTerm.substring(3, planInfo.policyTerm.length); if (year.length < 2) { year = '0' + year; } planInfo.planCode = year + \"EPW\"; planInfo.policyTermYr = math.number(year); planInfo.premTermYr = math.number(year);}}",
        "validBeforeCalcFunc": "",
        "validQuotFunc": "",
        "willValidQuotFunc": ""
    },
    "genderInd": "*",
    "othSaInd": "N",
    "payModes": [
        {
            "covMonth": 1,
            "default": "",
            "factor": 12,
            "mode": "M",
            "operator": "D"
        },
        {
            "covMonth": 3,
            "default": "",
            "factor": 4,
            "mode": "Q",
            "operator": "D"
        },
        {
            "covMonth": 6,
            "default": "",
            "factor": 2,
            "mode": "S",
            "operator": "D"
        },
        {
            "covMonth": 1,
            "default": "",
            "factor": 1,
            "mode": "A",
            "operator": "D"
        }
    ],
    "planCodeMapping": {
        "": [
            "10",
            "11",
            "12",
            "13",
            "14",
            "15",
            "16",
            "17",
            "18",
            "19",
            "20",
            "21",
            "22",
            "23",
            "24",
            "25",
            "26",
            "27",
            "28",
            "29",
            "30",
            "To Age 55",
            "To Age 60",
            "To Age 65",
            "To Age 85"
        ],
        "planCode": [
            "10WPSR",
            "11WPSR",
            "12WPSR",
            "13WPSR",
            "14WPSR",
            "15WPSR",
            "16WPSR",
            "17WPSR",
            "18WPSR",
            "19WPSR",
            "20WPSR",
            "21WPSR",
            "22WPSR",
            "23WPSR",
            "24WPSR",
            "25WPSR",
            "26WPSR",
            "27WPSR",
            "28WPSR",
            "29WPSR",
            "30WPSR",
            "WPSR55",
            "WPSR60",
            "WPSR65",
            "WPSR85"
        ]
    },
    "planInd": "R",
    "polMatSameAsPremMat": "N",
    "polMaturities": [],
    "polTermInd": "Y",
    "polTermRule": "na",
    "policyMatSameAsBasic": "N",
    "premInput": [
        {
            "ccy": "SGD",
            "decimal": 2,
            "factor": 0
        },
        {
            "ccy": "USD",
            "decimal": 2,
            "factor": 0
        }
    ],
    "premInputInd": "N",
    "premMatSameAsBasic": "N",
    "premMatSameAsPolMat": "N",
    "premMaturities": [],
    "premPostfix": {},
    "premTermInd": "N",
    "premTermRule": "BT",
    "prodFeature": {},
    "prod_summary": 252052,
    "prod_summary_1": 1245460,
    "productCategory": "ilp",
    "productLine": "IL",
    "rates": {
        "premRate": ""
    },
    "releaseDate": "2020-02-20 03:16:25",
    "remarks": {
        "en": "-"
    },
    "saInput": [
        {
            "ccy": "SGD",
            "decimal": 0,
            "factor": 0
        },
        {
            "ccy": "USD",
            "decimal": 0,
            "factor": 0
        }
    ],
    "saInputInd": "N",
    "saPostfix": {},
    "saRule": "na",
    "saScale": "",
    "saViewInd": "N",
    "smokeInd": "*",
    "status": "A",
    "type": "product",
    "version": 1,
    "wholeLifeInd": "N"
}