{
    "compCode": "08",
    "expDate": "2047-02-01 07:06:29",
    "footer": {
        "en": "<div class=\"global_intro\"><xsl:if test=\"*/mainInfo/quickQuote='Y'\">\n<table style=\"text-align: left; table-layout: fixed; width: 100%; font-size: 10pt; margin: 0 auto;\">\n<tbody>\n<xsl:if test=\"*/cover/sameAs='N'\">\n<tr style=\"color: white;\">\n<td style=\"padding-left: 50px;\">\n<div style=\"border-bottom: solid 1px black; width: 80%;\">1</div>\n</td>\n<td style=\"padding-left: 50px;\">\n<div style=\"border-bottom: solid 1px black; width: 80%;\">2</div>\n</td>\n<td style=\"padding-left: 50px;\">\n<div style=\"border-bottom: solid 1px black; width: 80%;\">3</div>\n</td>\n</tr>\n<tr>\n<td style=\"padding-left: 50px; padding-top: 3px;\">Adviser's Signature</td>\n<td style=\"padding-left: 50px; padding-top: 3px;\">Proposer's Signature</td>\n<td style=\"padding-left: 50px; padding-top: 3px;\">Life Assured 2's Signature</td>\n</tr>\n<tr>\n<td style=\"padding-left: 50px;\">Date:</td>\n<td style=\"padding-left: 50px;\">Date:</td>\n<td style=\"padding-left: 50px;\">Date:</td>\n</tr>\n</xsl:if>\n<xsl:if test=\"*/cover/sameAs='Y'\">\n<tr style=\"color: white;\">\n<td style=\"padding-left: 50px;\">\n<div style=\"border-bottom: solid 1px black; width: 80%;\">1</div>\n</td>\n<td style=\"padding-left: 50px;\">\n<div style=\"border-bottom: solid 1px black; width: 80%;\">2</div>\n</td>\n</tr>\n<tr>\n<td style=\"padding-left: 50px; padding-top: 3px;\">Adviser's Signature</td>\n<td style=\"padding-left: 50px; padding-top: 3px;\">Proposer's Signature</td>\n</tr>\n<tr>\n<td style=\"padding-left: 50px;\">Date:</td>\n<td style=\"padding-left: 50px;\">Date:</td>\n</tr>\n</xsl:if>\n</tbody>\n</table>\n</xsl:if>\n<table style=\"width: 100%; font-size: 10pt;\">\n<tbody>\n<tr>\n<td style=\"width: 49.8018%;\"><strong>Page [[@PAGE_NO]] of [[@TOTAL_PAGE]]</strong></td>\n<td style=\"text-align: right; width: 46.1982%;\">Release Version <xsl:value-of select=\"*/releaseVersion\"/></td>\n</tr>\n</tbody>\n</table>\n<div class=\"foot\">\n<div style=\"text-align: center;\"><strong><xsl:value-of select=\"*/footer/compName\"/></strong> (Co. Reg. No. <xsl:value-of select=\"*/footer/compRegNo\"/>)</div>\n<div style=\"text-align: center;\"><xsl:value-of select=\"*/footer/compAddr\"/> | Tel: <xsl:value-of select=\"*/footer/compTel\"/> | Email: <xsl:value-of select=\"*/footer/customerCareEmail\"/> | <xsl:value-of select=\"*/footer/compWeb\"/></div>\n</div>\n</div>",
        "zh-Hant": "<p></p>"
    },
    "formulas": {
        "prepareReportData": "function(quotation, planInfo, planDetails, extraPara) { var basicPlan = quotation.plans[0]; var hasSpTopUp = quotation.policyOptions.topUpSelect; var hasRspTopUp = quotation.policyOptions.rspSelect; var hasWithdrawal = quotation.policyOptions.wdSelect; var company = extraPara.company; return { footer: { compName: company.compName, compRegNo: company.compRegNo, compAddr: company.compAddr, compAddr2: company.compAddr2, compTel: company.compTel, compFax: company.compFax, compWeb: company.compWeb, sysdate: new Date(extraPara.systemDate).format(extraPara.dateFormat), planCode: basicPlan.planCode, releaseVersion: \"1\", customerCareEmail: company.customerCareEmail }, cover: { sameAs: quotation.sameAs, polType: quotation.policyOptions.policytype, proposer: { name: quotation.pFullName, }, insured: { name: quotation.iFullName, }, plans: quotation.plans.map(function(plan) { return { name: plan.covName.en, polTermDesc: plan.polTermDesc, premTermDesc: plan.premTermDesc, }; }), } };}"
    },
    "header": {
        "en": "<table style=\"width: 100%;\">\n<tbody>\n<tr>\n<td><div class=\"awt-intro-logo\"/></td>\n</tr>\n</tbody>\n</table>",
        "zh-Hant": "<p></p>"
    },
    "launchDate": "2018-02-01 07:06:09",
    "pdfCode": "PVTVUL_PRODUCT_SUMMARY",
    "pdfName": {
        "en": "PVTVUL Product Summary",
        "zh-Hant": "AWT Product Summary",
        "zh-tw": "AWT Product Summary"
    },
    "releaseDate": "2020-02-18 03:11:51",
    "remarks": {
        "en": "PVTVUL Product Summary"
    },
    "status": "A",
    "style": ".foot{font-size:9pt;text-align:center;}",
    "template": {
        "en": [
            "<!-- VUL PRODUCT SUMMARY -->\n\n<div style=\"text-align: center; width: 100%; paddingtop: 10px;\">\n    <strong>PRODUCT SUMMARY</strong>\n  </div>\n  <br/>\n  <div class=\"b u\">Presented to:</div>\n  <br/>\n  <table class=\"w100\">\n\n <xsl:if test=\"*/cover/polType='joint'\">\n      <tr>\n        <td class=\"vtop\">\n          <div class=\"vpd8\">Name of Life Assured 1</div>\n        </td>\n        <td class=\"vtop\">\n          <div class=\"vpd8\">:\n            <xsl:value-of select=\"*/cover/proposer/name\" /> </div>\n        </td>\n      </tr>\n      <tr>\n          <td class=\"vtop\" style=\"width: 25%;\">\n            <div class=\"vpd8\">Name of Life Assured 2</div>\n          </td>\n          <td class=\"vtop\">\n            <div class=\"vpd8\">:\n              <xsl:value-of select=\"*/cover/insured/name\" /> </div>\n          </td>\n        </tr>\n    </xsl:if>\n\n    <xsl:if test=\"*/cover/polType='single'\">\n    <tr>\n      <td class=\"vtop\" style=\"width: 25%;\">\n        <div class=\"vpd8\">Name of Life Assured </div>\n      </td>\n      <td class=\"vtop\">\n        <div class=\"vpd8\">:\n          <xsl:value-of select=\"*/cover/proposer/name\" /> </div>\n      </td>\n    </tr>\n   </xsl:if>\n\n  </table>\n  <div class=\"sectionSpace\" />\n  <div class=\"b u\">Your Plan and Rider(s), if any:</div>\n  <xsl:for-each select=\"*/cover/plans\">\n    <div>\n      <xsl:value-of select=\"name\" /> </div>\n  </xsl:for-each>\n  <br/>\n  <br/>\n  <div class=\"b u\">Client(s) Acknowledgement of Product Summary:</div>\n  <br/>\n  <table class=\"w100\">\n    <tr>\n      <td class=\"vtop w24p\">1.</td>\n      <td class=\"vtop\">\n        <div>I / We confirm that I / We have received all pages of the Policy Illustration for the basic plan / all rider(s) listed\n          above, where applicable.</div>\n        <br/> </td>\n    </tr>\n    <tr>\n      <td class=\"vtop w24p\">2.</td>\n      <td class=\"vtop\">\n        <div>I / We confirm that I / We have received all pages of the Product Summary for the basic plan and/or all riders listed above, where applicable.  \n   \n        </div>\n        <br/> </td>\n    </tr>\n    <tr>\n      <td class=\"vtop w24p\">3.</td>\n      <td class=\"vtop\">\n        <div>The terms and conditions of the policy and riders (if applicable) as set out in the Product Summary have been explained to me and I understand the features of the policy and riders (if applicable), including the applicable fees and charges.  </div>\n        <br/> </td>\n    </tr>\n  </table>\n  <xsl:if test=\"not(*/mainInfo/quickQuote='Y')\">\n    <div class=\"global_prodSumm\" style=\"position:absolute; bottom: 0px;\">\n      <div style=\"width: 100%;\">\n        <table style=\"text-align: left; table-layout: fixed; width: 100%; font-size: 10pt; margin: 0 auto;\">\n          <tbody>\n            <tr style=\"color: white;\">\n              <td style=\"padding-left: 50px;\">\n                <div style=\"border-bottom: solid 1px black; width: 80%;\">ADVISOR_SIGNATURE</div>\n              </td>\n              <td style=\"padding-left: 50px;\">\n                <div style=\"border-bottom: solid 1px  black; width: 80%;\">PROPOSER_SIGNATURE</div>\n              </td>\n            </tr>\n            <tr>\n              <td style=\"padding-left: 50px; padding-top: 10px;\">Adviser's Signature</td>\n              <td style=\"padding-left: 50px; padding-top: 10px;\">Proposer's Signature</td>\n            </tr>\n            <tr>\n              <td style=\"padding-left: 50px;\">Date:</td>\n              <td style=\"padding-left: 50px;\">Date:</td>\n            </tr>\n          </tbody>\n        </table>\n      </div>\n    </div>\n  </xsl:if>"
        ],
        "zh-Hant": []
    },
    "type": "pdfTemplate",
    "version": 1
}