{
    "allowBackdate": "N",
    "benlim": [],
    "budgetRules": [
        "RP"
    ],
    "calcAgeMethod": "0",
    "classInd": "N",
    "compCode": "08",
    "covCode": "AP_DTS",
    "covName": {
        "en": "Personal Accident Benefit",
        "zh-Hant": "Personal Accident Benefit"
    },
    "ctyGroup": [
        "*"
    ],
    "currencies": [
        {
            "ccy": [
                "SGD"
            ],
            "country": "*"
        }
    ],
    "dealerGroup": [
        "AGENCY",
        "DIRECT",
        "SINGPOST",
        "BROKER",
        "FUSION",
        "SYNERGY"
    ],
    "effDate": "2018-10-07 16:00:00",
    "entryAge": [
        {
            "country": "*",
            "imaxAge": 60,
            "imaxAgeUnit": "nearestAge",
            "iminAge": 16,
            "iminAgeUnit": "year",
            "omaxAge": 0,
            "omaxAgeUnit": "na",
            "ominAge": 0,
            "ominAgeUnit": "na",
            "sameAsOwner": ""
        }
    ],
    "expDate": "2118-07-26 16:00:00",
    "formulas": {
        "calcQuotFunc": "function(quotation, planInfo, planDetails) { var planDetail = planDetails[planInfo.covCode]; var rates = planDetail.rates; var petRates = rates.premRate; var sumSa = planInfo.sumInsured; var occClass = quotation.iOccupationClass; var plancode = 'AP'; var round = function(value, position) { var scale = math.pow(10, position); return math.divide(math.round(math.multiply(value, scale)), scale); }; var trunc = function(value, position) { if(!value) { return null; } if (!position) { position = 0; } var sign = value < 0 ? -1 : 1; var scale = math.pow(10, position); return math.multiply(sign, math.divide(math.floor(math.multiply(math.abs(value), scale)), scale)); }; function calculateRiderPremium(curPlanInfo){ var annualPremium = 0; var premRate = petRates[occClass]; var minSa = 20000; var maxSa = 1000000; var basicSA = quotation.plans[0].sumInsured; if((basicSA*10) < maxSa){ maxSa = basicSA*10; } if(sumSa < minSa){ sumSa = minSa; }else if(sumSa > maxSa){ sumSa = maxSa; }else{/** set sa is multiples 1000 */ sumSa = math.divide(sumSa, 1000); sumSa = trunc(sumSa,0); sumSa = math.multiply(sumSa ,1000); } annualPremium = math.divide(math.multiply(math.bignumber(premRate) , sumSa) , math.bignumber(1000)); annualPremium = round(annualPremium ,2); curPlanInfo.yearPrem = math.number(annualPremium); curPlanInfo.halfYearPrem = math.number(trunc(math.multiply(math.bignumber(annualPremium),math.bignumber(0.51)),2)); /** Math.floor(annualPremium * 0.51 * 100)/100; */ curPlanInfo.quarterPrem = math.number(trunc(math.multiply(math.bignumber(annualPremium),math.bignumber(0.26)),2));/** Math.floor(annualPremium * 0.26 * 100)/100;*/ curPlanInfo.monthPrem = math.number(trunc(math.multiply(math.bignumber(annualPremium),math.bignumber(0.0875)),2));/** Math.floor(annualPremium * 0.0875 * 100)/100;*/ quotation.totYearPrem += curPlanInfo.yearPrem; quotation.totHalfyearPrem += curPlanInfo.halfYearPrem; quotation.totQuarterPrem += curPlanInfo.quarterPrem; quotation.totMonthPrem += curPlanInfo.monthPrem; switch (quotation.paymentMode){ case 'A': { curPlanInfo.premium = curPlanInfo.yearPrem; quotation.premium += curPlanInfo.yearPrem; break;} case 'S': { curPlanInfo.premium = curPlanInfo.halfYearPrem; quotation.premium += curPlanInfo.halfYearPrem; break;} case 'Q': { curPlanInfo.premium = curPlanInfo.quarterPrem; quotation.premium += curPlanInfo.quarterPrem; break;} case 'M': { curPlanInfo.premium = curPlanInfo.monthPrem; quotation.premium += curPlanInfo.monthPrem; break;} default: { curPlanInfo.premium = curPlanInfo.yearPrem; quotation.premium += curPlanInfo.yearPrem; break;} } curPlanInfo.sumInsured = sumSa; curPlanInfo.planCode=plancode; } calculateRiderPremium(planInfo); }",
        "illustrateFunc": "function(quotation, planInfo, planDetails, extraPara) {var planDetail = planDetails[planInfo.covCode]; var MAX_POLICY_YEAR = 100; var rates = planDetail.rates; var commissionTable = rates.comm; var commRate = 0; var policyTerm = planInfo.policyTerm; var trunc = function(value, position) { if(!value) { return null; } if (!position) { position = 0; } var sign = value < 0 ? -1 : 1; var scale = math.pow(10, position); return math.multiply(sign, math.divide(math.floor(math.multiply(math.abs(value), scale)), scale)); }; var convertBignumberToReadable = function(data) { for (var row in data) { for (var col in data[row]) { if (typeof(data[row][col]) !== 'string') { data[row][col] = math.number(data[row][col]); } } } }; var calcIllustration = function(illustration){ var sustainTestResult = true; var rawData = []; var defaultRawData = { policyYear : 0, accumPremium : math.bignumber(0), tdc : math.bignumber(0) }; rawData.push(Object.assign({}, defaultRawData)); for (var year = 1; year <= MAX_POLICY_YEAR; year ++) { var currData = Object.assign({}, defaultRawData); var prevData = rawData[year - 1]; currData.policyYear = year; var currPrem = math.bignumber(year <= planInfo.premTerm ? planInfo.yearPrem : 0); currData.accumPremium = math.add(currPrem, prevData.accumPremium); var row = year; if(row > 7){row = 7;} var colm = policyTerm-10; if(colm < 0){ colm = 0; } commRate = commissionTable[row][colm]; var currTdc = math.multiply(math.bignumber(commRate), currPrem); currData.tdc = math.add(currTdc , prevData.tdc); var illData = illustration[year - 1]; illData.policyYear = currData.policyYear; illData.accumPremium = currData.accumPremium; illData.tdc = currData.tdc; rawData.push(currData); } convertBignumberToReadable(rawData); return sustainTestResult; }; var illustration = []; var illustrationData = { policyYear : 0, accumPremium : 0, tdc : 0 }; for (var y = 0; y < MAX_POLICY_YEAR; y ++) { illustration.push(Object.assign({}, JSON.parse(JSON.stringify(illustrationData)))); } calcIllustration(illustration); return illustration;}",
        "polTermsFunc": "function(planDetail, quotation) {var policyTermsList = [];var policyTerm = parseInt(quotation.plans[0].policyTerm);var polrider = math.min((65-quotation.iAge),(policyTerm-3));policyTermsList.push({ value: polrider, title: polrider + ' Years'});if(quotation.plans[0].policyTerm !== undefined){ for(var i=0; i<quotation.plans.length;i++){ var cratePlan=quotation.plans[i]; if(cratePlan.covCode=='AP_DTS'){ quotation.plans[i].policyTerm=polrider; } }}return policyTermsList;}",
        "premFunc": "",
        "premTermsFunc": "",
        "prepareClassConfig": "",
        "prepareSAPremConfig": "function(planDetail, quotation, planDetails) { if(quotation.plans[0].policyTerm === undefined || quotation.plans[0].sumInsured === undefined || quotation.plans[0].sumInsured === null || quotation.plans[0].sumInsured === ''){ planDetail.saInputInd ='N'; }else{ planDetail.saInputInd ='Y'; } quotDriver.prepareAmountConfig(planDetail, quotation); var basicAssred = parseInt(quotation.plans[0].sumInsured); var maxriderSA=math.min((10 * basicAssred),1000000); if (planDetail.saInputInd == 'Y') { planDetail.inputConfig.benlim = { min: 20000 , max: maxriderSA }; }}",
        "prepareTermConfig": "",
        "saFunc": "",
        "validAfterCalcFunc": "",
        "validBeforeCalcFunc": "",
        "validQuotFunc": "",
        "willValidQuotFunc": ""
    },
    "genderInd": "*",
    "othSaInd": "N",
    "payModes": [
        {
            "covMonth": 12,
            "default": "",
            "factor": 1,
            "mode": "A",
            "operator": "M"
        },
        {
            "covMonth": 6,
            "default": "",
            "factor": 0.51,
            "mode": "S",
            "operator": "M"
        },
        {
            "covMonth": 3,
            "default": "",
            "factor": 0.26,
            "mode": "Q",
            "operator": "M"
        },
        {
            "covMonth": 1,
            "default": "",
            "factor": 0.0875,
            "mode": "M",
            "operator": "M"
        }
    ],
    "planInd": "R",
    "polMatSameAsPremMat": "N",
    "polMaturities": [],
    "polTermInd": "N",
    "polTermRule": "na",
    "policyMatSameAsBasic": "N",
    "premInput": [
        {
            "ccy": "SGD",
            "decimal": 2,
            "factor": 0
        }
    ],
    "premInputInd": "N",
    "premMatSameAsBasic": "N",
    "premMatSameAsPolMat": "Y",
    "premPostfix": {},
    "premTermInd": "N",
    "premTermRule": "BT",
    "premType": "L",
    "prodFeature": {},
    "prod_summary": 0,
    "prod_summary_1": 152136,
    "productCategory": "protectionOnly",
    "productLine": "CIT",
    "rates": {
        "comm": {
            "1": [
                0.3644,
                0.3644,
                0.3644,
                0.3644,
                0.3644,
                0.4373,
                0.4373,
                0.4373,
                0.4373,
                0.4373,
                0.4373,
                0.4373,
                0.4373,
                0.4373,
                0.4373,
                0.4373,
                0.4373,
                0.4373,
                0.4373,
                0.4373,
                0.4373,
                0,
                0,
                0,
                0,
                0,
                0,
                0,
                0,
                0,
                0,
                0,
                0,
                0,
                0,
                0,
                0,
                0,
                0,
                0,
                0,
                0,
                0,
                0,
                0,
                0,
                0,
                0,
                0,
                0,
                0,
                0,
                0,
                0,
                0,
                0,
                0,
                0,
                0,
                0,
                0,
                0,
                0,
                0,
                0,
                0,
                0,
                0,
                0,
                0,
                0,
                0,
                0,
                0,
                0,
                0,
                0,
                0,
                0,
                0,
                0,
                0,
                0,
                0,
                0,
                0,
                0,
                0,
                0,
                0,
                0,
                0,
                0,
                0,
                0,
                0,
                0,
                0,
                0,
                0,
                0,
                0,
                0,
                0,
                0,
                0,
                0,
                0,
                0,
                0,
                0,
                0,
                0,
                0,
                0,
                0,
                0,
                0,
                0
            ],
            "2": [
                0.2445,
                0.2445,
                0.2445,
                0.2445,
                0.2445,
                0.2934,
                0.2934,
                0.2934,
                0.2934,
                0.2934,
                0.2934,
                0.2934,
                0.2934,
                0.2934,
                0.2934,
                0.2934,
                0.2934,
                0.2934,
                0.2934,
                0.2934,
                0.2934,
                0,
                0,
                0,
                0,
                0,
                0,
                0,
                0,
                0,
                0,
                0,
                0,
                0,
                0,
                0,
                0,
                0,
                0,
                0,
                0,
                0,
                0,
                0,
                0,
                0,
                0,
                0,
                0,
                0,
                0,
                0,
                0,
                0,
                0,
                0,
                0,
                0,
                0,
                0,
                0,
                0,
                0,
                0,
                0,
                0,
                0,
                0,
                0,
                0,
                0,
                0,
                0,
                0,
                0,
                0,
                0,
                0,
                0,
                0,
                0,
                0,
                0,
                0,
                0,
                0,
                0,
                0,
                0,
                0,
                0,
                0,
                0,
                0,
                0,
                0,
                0,
                0,
                0,
                0,
                0,
                0,
                0,
                0,
                0,
                0,
                0,
                0,
                0,
                0,
                0,
                0,
                0,
                0,
                0,
                0,
                0,
                0,
                0
            ],
            "3": [
                0.2089,
                0.2089,
                0.2089,
                0.2089,
                0.2089,
                0.2507,
                0.2507,
                0.2507,
                0.2507,
                0.2507,
                0.2507,
                0.2507,
                0.2507,
                0.2507,
                0.2507,
                0.2507,
                0.2507,
                0.2507,
                0.2507,
                0.2507,
                0.2507,
                0,
                0,
                0,
                0,
                0,
                0,
                0,
                0,
                0,
                0,
                0,
                0,
                0,
                0,
                0,
                0,
                0,
                0,
                0,
                0,
                0,
                0,
                0,
                0,
                0,
                0,
                0,
                0,
                0,
                0,
                0,
                0,
                0,
                0,
                0,
                0,
                0,
                0,
                0,
                0,
                0,
                0,
                0,
                0,
                0,
                0,
                0,
                0,
                0,
                0,
                0,
                0,
                0,
                0,
                0,
                0,
                0,
                0,
                0,
                0,
                0,
                0,
                0,
                0,
                0,
                0,
                0,
                0,
                0,
                0,
                0,
                0,
                0,
                0,
                0,
                0,
                0,
                0,
                0,
                0,
                0,
                0,
                0,
                0,
                0,
                0,
                0,
                0,
                0,
                0,
                0,
                0,
                0,
                0,
                0,
                0,
                0,
                0
            ],
            "4": [
                0.2089,
                0.2089,
                0.2089,
                0.2089,
                0.2089,
                0.2507,
                0.2507,
                0.2507,
                0.2507,
                0.2507,
                0.2507,
                0.2507,
                0.2507,
                0.2507,
                0.2507,
                0.2507,
                0.2507,
                0.2507,
                0.2507,
                0.2507,
                0.2507,
                0,
                0,
                0,
                0,
                0,
                0,
                0,
                0,
                0,
                0,
                0,
                0,
                0,
                0,
                0,
                0,
                0,
                0,
                0,
                0,
                0,
                0,
                0,
                0,
                0,
                0,
                0,
                0,
                0,
                0,
                0,
                0,
                0,
                0,
                0,
                0,
                0,
                0,
                0,
                0,
                0,
                0,
                0,
                0,
                0,
                0,
                0,
                0,
                0,
                0,
                0,
                0,
                0,
                0,
                0,
                0,
                0,
                0,
                0,
                0,
                0,
                0,
                0,
                0,
                0,
                0,
                0,
                0,
                0,
                0,
                0,
                0,
                0,
                0,
                0,
                0,
                0,
                0,
                0,
                0,
                0,
                0,
                0,
                0,
                0,
                0,
                0,
                0,
                0,
                0,
                0,
                0,
                0,
                0,
                0,
                0,
                0,
                0
            ],
            "5": [
                0.2089,
                0.2089,
                0.2089,
                0.2089,
                0.2089,
                0.2507,
                0.2507,
                0.2507,
                0.2507,
                0.2507,
                0.2507,
                0.2507,
                0.2507,
                0.2507,
                0.2507,
                0.2507,
                0.2507,
                0.2507,
                0.2507,
                0.2507,
                0.2507,
                0,
                0,
                0,
                0,
                0,
                0,
                0,
                0,
                0,
                0,
                0,
                0,
                0,
                0,
                0,
                0,
                0,
                0,
                0,
                0,
                0,
                0,
                0,
                0,
                0,
                0,
                0,
                0,
                0,
                0,
                0,
                0,
                0,
                0,
                0,
                0,
                0,
                0,
                0,
                0,
                0,
                0,
                0,
                0,
                0,
                0,
                0,
                0,
                0,
                0,
                0,
                0,
                0,
                0,
                0,
                0,
                0,
                0,
                0,
                0,
                0,
                0,
                0,
                0,
                0,
                0,
                0,
                0,
                0,
                0,
                0,
                0,
                0,
                0,
                0,
                0,
                0,
                0,
                0,
                0,
                0,
                0,
                0,
                0,
                0,
                0,
                0,
                0,
                0,
                0,
                0,
                0,
                0,
                0,
                0,
                0,
                0,
                0
            ],
            "6": [
                0.2089,
                0.2089,
                0.2089,
                0.2089,
                0.2089,
                0.2507,
                0.2507,
                0.2507,
                0.2507,
                0.2507,
                0.2507,
                0.2507,
                0.2507,
                0.2507,
                0.2507,
                0.2507,
                0.2507,
                0.2507,
                0.2507,
                0.2507,
                0.2507,
                0,
                0,
                0,
                0,
                0,
                0,
                0,
                0,
                0,
                0,
                0,
                0,
                0,
                0,
                0,
                0,
                0,
                0,
                0,
                0,
                0,
                0,
                0,
                0,
                0,
                0,
                0,
                0,
                0,
                0,
                0,
                0,
                0,
                0,
                0,
                0,
                0,
                0,
                0,
                0,
                0,
                0,
                0,
                0,
                0,
                0,
                0,
                0,
                0,
                0,
                0,
                0,
                0,
                0,
                0,
                0,
                0,
                0,
                0,
                0,
                0,
                0,
                0,
                0,
                0,
                0,
                0,
                0,
                0,
                0,
                0,
                0,
                0,
                0,
                0,
                0,
                0,
                0,
                0,
                0,
                0,
                0,
                0,
                0,
                0,
                0,
                0,
                0,
                0,
                0,
                0,
                0,
                0,
                0,
                0,
                0,
                0,
                0
            ],
            "7": [
                0,
                0,
                0,
                0,
                0,
                0,
                0,
                0,
                0,
                0,
                0,
                0,
                0,
                0,
                0,
                0,
                0,
                0,
                0,
                0,
                0,
                0,
                0,
                0,
                0,
                0,
                0,
                0,
                0,
                0,
                0,
                0,
                0,
                0,
                0,
                0,
                0,
                0,
                0,
                0,
                0,
                0,
                0,
                0,
                0,
                0,
                0,
                0,
                0,
                0,
                0,
                0,
                0,
                0,
                0,
                0,
                0,
                0,
                0,
                0,
                0,
                0,
                0,
                0,
                0,
                0,
                0,
                0,
                0,
                0,
                0,
                0,
                0,
                0,
                0,
                0,
                0,
                0,
                0,
                0,
                0,
                0,
                0,
                0,
                0,
                0,
                0,
                0,
                0,
                0,
                0,
                0,
                0,
                0,
                0,
                0,
                0,
                0,
                0,
                0,
                0,
                0,
                0,
                0,
                0,
                0,
                0,
                0,
                0,
                0,
                0,
                0,
                0,
                0,
                0,
                0,
                0,
                0,
                0
            ],
            "": [
                0,
                0,
                0,
                0,
                0,
                0,
                0,
                0,
                0,
                0,
                0,
                0,
                0,
                0,
                0,
                0,
                0,
                0,
                0,
                0,
                0,
                0,
                0,
                0,
                0,
                0,
                0,
                0,
                0,
                0,
                0,
                0,
                0,
                0,
                0,
                0,
                0,
                0,
                0,
                0,
                0,
                0,
                0,
                0,
                0,
                0,
                0,
                0,
                0,
                0,
                0,
                0,
                0,
                0,
                0,
                0,
                0,
                0,
                0,
                0,
                0,
                0,
                0,
                0,
                0,
                0,
                0,
                0,
                0,
                0,
                0,
                0,
                0,
                0,
                0,
                0,
                0,
                0,
                0,
                0,
                0,
                0,
                0,
                0,
                0,
                0,
                0,
                0,
                0,
                0,
                0,
                0,
                0,
                0,
                0,
                0,
                0,
                0,
                0,
                0,
                0,
                0,
                0,
                0,
                0,
                0,
                0,
                0,
                0,
                0,
                0,
                0,
                0,
                0,
                0,
                0,
                0,
                0,
                0
            ],
            "REF": [
                10,
                11,
                12,
                13,
                14,
                15,
                16,
                17,
                18,
                19,
                20,
                21,
                22,
                23,
                24,
                25,
                26,
                27,
                28,
                29,
                30,
                0,
                0,
                0,
                0,
                0,
                0,
                0,
                0,
                0,
                0,
                0,
                0,
                0,
                0,
                0,
                0,
                0,
                0,
                0,
                0,
                0,
                0,
                0,
                0,
                0,
                0,
                0,
                0,
                0,
                0,
                0,
                0,
                0,
                0,
                0,
                0,
                0,
                0,
                0,
                0,
                0,
                0,
                0,
                0,
                0,
                0,
                0,
                0,
                0,
                0,
                0,
                0,
                0,
                0,
                0,
                0,
                0,
                0,
                0,
                0,
                0,
                0,
                0,
                0,
                0,
                0,
                0,
                0,
                0,
                0,
                0,
                0,
                0,
                0,
                0,
                0,
                0,
                0,
                0,
                0,
                0,
                0,
                0,
                0,
                0,
                0,
                0,
                0,
                0,
                0,
                0,
                0,
                0,
                0,
                0,
                0,
                0,
                0
            ]
        },
        "premRate": {
            "1": 4,
            "2": 5,
            "3": 6,
            "4": 8
        }
    },
    "releaseDate": "2020-03-06 07:39:48",
    "remarks": {
        "en": "Personal Accident Benefit",
        "zh-Hant": "Personal Accident Benefit"
    },
    "saInput": [
        {
            "ccy": "SGD",
            "decimal": 0,
            "factor": 1000
        }
    ],
    "saInputInd": "Y",
    "saPostfix": {},
    "saRule": "0",
    "saScale": 0,
    "saViewInd": "Y",
    "smokeInd": "*",
    "status": "A",
    "type": "product",
    "version": 1,
    "wholeLifeInd": "N"
}