{
    "compCode": "08",
    "expDate": "2047-02-01 01:55:58",
    "footer": {
        "en": "<div class=\"global_intro\">\n<xsl:if test=\"*/mainInfo/quickQuote='Y'\">\n<table style=\"text-align: left; table-layout: fixed; width: 100%; font-size: 10pt; margin: 0 auto;\">\n<tbody>\n<tr style=\"color: white;\">\n<td style=\"padding-left: 50px;\">\n<div style=\"border-bottom: solid 1px black; width: 80%;\">1</div>\n</td>\n<td style=\"padding-left: 50px;\">\n<div style=\"border-bottom: solid 1px black; width: 80%;\">2</div>\n</td>\n</tr>\n<tr>\n<td style=\"padding-left: 50px; padding-top: 3px;\">Adviser's Signature</td>\n<td style=\"padding-left: 50px; padding-top: 3px;\">Proposer's Signature</td>\n</tr>\n<tr>\n<td style=\"padding-left: 50px;\">Date:</td>\n<td style=\"padding-left: 50px;\">Date:</td>\n</tr>\n</tbody>\n</table>\n</xsl:if>\n<table style=\"width: 100%; font-size: 10pt;\">\n<tbody>\n<tr>\n<td style=\"width: 49.8018%;\"><strong>Page [[@PAGE_NO]] of [[@TOTAL_PAGE]]</strong></td>\n<td style=\"text-align: right; width: 46.1982%;\">Release Version\n<xsl:value-of select=\"*/releaseVersion\"/>\n</td>\n</tr>\n</tbody>\n</table>\n<div style=\"text-align: center;\">\n<xsl:value-of select=\"*/footer/compName\"/> (Co. Reg. No.\n<xsl:value-of select=\"*/footer/compRegNo\"/>)</div>\n<div style=\"text-align: center;\">\n<xsl:value-of select=\"*/footer/compAddr\"/>\n</div>\n<div style=\"text-align: center;\">\n<xsl:value-of select=\"*/footer/compAddr2\"/> TEL:\n<xsl:value-of select=\"*/footer/compTel\"/> FAX:\n<xsl:value-of select=\"*/footer/compFax\"/>\n</div>\n<div style=\"text-align: center;\">\n<xsl:value-of select=\"*/footer/compWeb\"/>\n</div>\n</div>",
        "zh-Hant": "<p></p>"
    },
    "formulas": {
        "prepareReportData": "function(quotation, planInfo, planDetails, extraPara) {/*AWTR_SUPP_PDF*/var illustrations = extraPara.illustrations[planInfo.covCode];var afterWithdrawal = [];var afterWithdrawal2 = [];var afterWithdrawal3 = [];var afterWithdrawal4 = [];var planDetail = planDetails[planInfo.covCode];var aror = { low: planDetail.rates.aror.aror1 * 100, high: planDetail.rates.aror.aror2 * 100, lowStr: getCurrency(planDetail.rates.aror.aror1 * 100, '', 2), highStr: getCurrency(planDetail.rates.aror.aror2 * 100, '', 2)};var reduceYieldYear = math.max(20, 65 - quotation.iAge);var rYieldValue = 0;var rYieldReducedReturnRate = 0;var minInvPeriod = Number(quotation.policyOptions.mip) ? Number(quotation.policyOptions.mip) : 0;var hasPremHol = quotation.policyOptions.premium_holiday ? true : false;var hasWithdrawal = quotation.policyOptions.wdSelect ? true : false;var hasWithdrwalPage = (hasPremHol || hasWithdrawal) ? true : false;var basicPlan = quotation.plans[0];var hasSpTopUp = quotation.policyOptions.topUpSelect;var hasRspTopUp = quotation.policyOptions.rspSelect;var company = extraPara.company;var showTextThisPage2 = false; var showTextThisPage3 = false;var getGenderDesc = function(value){ return value == \"M\"? \"Male\": \"Female\";};var getSmokingDesc = function(value){ return value == \"N\"? \"Non-Smoker\": \"Smoker\";};var result = [];var incRowCnt = 0;var spcRowCnt = 0;if (illustrations instanceof Array) { var hasWithdrawal = quotation.policyOptions.wdSelect; var wdStartIndex = minInvPeriod; illustrations.forEach(function(illustration, i) { var policyYear = illustration.policyYear; var age = illustration.age; var policyYearAge = illustration.policyYear + ' / ' + illustration.age; var iTotalPremiumPaidToDate = illustration.suppTotalPremiumPaidToDate; var iAnnualWithdrawalAmount = illustration.annualWithdrawalAmount; var iNonGuaranteedAccValueAfterWD = illustration.nonGuaranteedAccValueAfterWD; var iTotalDeathBenefitAfterWD = illustration.totalDeathBenefitAfterWD; var iRYieldTotalEffectDeduction = illustration.rYieldTotalEffectDeduction; var iRYieldReducedReturnRate = illustration.rYieldReducedReturnRate; incRowCnt++; var incRowCntLineBreak = false; if(incRowCnt !== 0 && incRowCnt % 5 === 0 && incRowCnt !== illustrations.length){ incRowCntLineBreak = true; } if (i >= wdStartIndex && age <= 99) { if(spcRowCnt < 25){ afterWithdrawal.push({ policyYearAge: policyYearAge, totalPremiumPaidToDate: getCurrency(iTotalPremiumPaidToDate, '', 0), annualWithdrawalAmountLow: getCurrency(iAnnualWithdrawalAmount[aror.low], '', 0), nonGuaranteedAccValueAfterWDLow: getCurrency(iNonGuaranteedAccValueAfterWD[aror.low], '', 0), totalDeathBenefitAfterWDLow: getCurrency(iTotalDeathBenefitAfterWD[aror.low], '', 0), annualWithdrawalAmountHigh: getCurrency(iAnnualWithdrawalAmount[aror.high], '', 0), nonGuaranteedAccValueAfterWDHigh: getCurrency(iNonGuaranteedAccValueAfterWD[aror.high], '', 0), totalDeathBenefitAfterWDHigh: getCurrency(iTotalDeathBenefitAfterWD[aror.high], '', 0) }); if(incRowCntLineBreak){ afterWithdrawal.push({ policyYearAge: '', totalPremiumPaidToDate: '', annualWithdrawalAmountLow: '', nonGuaranteedAccValueAfterWDLow: '', totalDeathBenefitAfterWDLow: '', annualWithdrawalAmountHigh: '', nonGuaranteedAccValueAfterWDHigh: '', totalDeathBenefitAfterWDHigh: '' }); } }else if(spcRowCnt < 50){ afterWithdrawal2.push({ policyYearAge: policyYearAge, totalPremiumPaidToDate: getCurrency(iTotalPremiumPaidToDate, '', 0), annualWithdrawalAmountLow: getCurrency(iAnnualWithdrawalAmount[aror.low], '', 0), nonGuaranteedAccValueAfterWDLow: getCurrency(iNonGuaranteedAccValueAfterWD[aror.low], '', 0), totalDeathBenefitAfterWDLow: getCurrency(iTotalDeathBenefitAfterWD[aror.low], '', 0), annualWithdrawalAmountHigh: getCurrency(iAnnualWithdrawalAmount[aror.high], '', 0), nonGuaranteedAccValueAfterWDHigh: getCurrency(iNonGuaranteedAccValueAfterWD[aror.high], '', 0), totalDeathBenefitAfterWDHigh: getCurrency(iTotalDeathBenefitAfterWD[aror.high], '', 0) }); if(incRowCntLineBreak){ afterWithdrawal2.push({ policyYearAge: '', totalPremiumPaidToDate: '', annualWithdrawalAmountLow: '', nonGuaranteedAccValueAfterWDLow: '', totalDeathBenefitAfterWDLow: '', annualWithdrawalAmountHigh: '', nonGuaranteedAccValueAfterWDHigh: '', totalDeathBenefitAfterWDHigh: '' }); } }else if(spcRowCnt < 75){ afterWithdrawal3.push({ policyYearAge: policyYearAge, totalPremiumPaidToDate: getCurrency(iTotalPremiumPaidToDate, '', 0), annualWithdrawalAmountLow: getCurrency(iAnnualWithdrawalAmount[aror.low], '', 0), nonGuaranteedAccValueAfterWDLow: getCurrency(iNonGuaranteedAccValueAfterWD[aror.low], '', 0), totalDeathBenefitAfterWDLow: getCurrency(iTotalDeathBenefitAfterWD[aror.low], '', 0), annualWithdrawalAmountHigh: getCurrency(iAnnualWithdrawalAmount[aror.high], '', 0), nonGuaranteedAccValueAfterWDHigh: getCurrency(iNonGuaranteedAccValueAfterWD[aror.high], '', 0), totalDeathBenefitAfterWDHigh: getCurrency(iTotalDeathBenefitAfterWD[aror.high], '', 0) }); if(incRowCntLineBreak){ afterWithdrawal3.push({ policyYearAge: '', totalPremiumPaidToDate: '', annualWithdrawalAmountLow: '', nonGuaranteedAccValueAfterWDLow: '', totalDeathBenefitAfterWDLow: '', annualWithdrawalAmountHigh: '', nonGuaranteedAccValueAfterWDHigh: '', totalDeathBenefitAfterWDHigh: '' }); } }else if(spcRowCnt < 100){ afterWithdrawal4.push({ policyYearAge: policyYearAge, totalPremiumPaidToDate: getCurrency(iTotalPremiumPaidToDate, '', 0), annualWithdrawalAmountLow: getCurrency(iAnnualWithdrawalAmount[aror.low], '', 0), nonGuaranteedAccValueAfterWDLow: getCurrency(iNonGuaranteedAccValueAfterWD[aror.low], '', 0), totalDeathBenefitAfterWDLow: getCurrency(iTotalDeathBenefitAfterWD[aror.low], '', 0), annualWithdrawalAmountHigh: getCurrency(iAnnualWithdrawalAmount[aror.high], '', 0), nonGuaranteedAccValueAfterWDHigh: getCurrency(iNonGuaranteedAccValueAfterWD[aror.high], '', 0), totalDeathBenefitAfterWDHigh: getCurrency(iTotalDeathBenefitAfterWD[aror.high], '', 0) }); if(incRowCntLineBreak){ afterWithdrawal4.push({ policyYearAge: '', totalPremiumPaidToDate: '', annualWithdrawalAmountLow: '', nonGuaranteedAccValueAfterWDLow: '', totalDeathBenefitAfterWDLow: '', annualWithdrawalAmountHigh: '', nonGuaranteedAccValueAfterWDHigh: '', totalDeathBenefitAfterWDHigh: '' }); } } spcRowCnt++; } incRowCntLineBreak = false; if (policyYear === reduceYieldYear) { rYieldValue = getCurrency(iRYieldTotalEffectDeduction[aror.high], '', 0); } if (i === illustrations.length - 1) { rYieldReducedReturnRate = getCurrency(iRYieldReducedReturnRate, '', 2); } });}if(afterWithdrawal2.length < 10){ showTextThisPage2 = true;}else if(afterWithdrawal3.length < 10){ showTextThisPage3 = true;}var myWithdrawal = hasWithdrawal;result = { footer: { compName: company.compName, compRegNo: company.compRegNo, compAddr: company.compAddr, compAddr2: company.compAddr2, compTel: company.compTel, compFax: company.compFax, compWeb: company.compWeb, sysdate: new Date(extraPara.systemDate).format(extraPara.dateFormat), planCode: basicPlan.planCode, releaseVersion: \"1\" }, cover: { sameAs: quotation.sameAs, riskCommenDate: new Date(quotation.riskCommenDate).format(extraPara.dateFormat), proposer: { name: quotation.pFullName, gender: getGenderDesc(quotation.pGender), dob: new Date(quotation.pDob).format(extraPara.dateFormat), age: quotation.pAge, smoking: getSmokingDesc(quotation.pSmoke) }, insured: { name: quotation.iFullName, gender: getGenderDesc(quotation.iGender), dob: new Date(quotation.iDob).format(extraPara.dateFormat), age: quotation.iAge, smoking: getSmokingDesc(quotation.iSmoke) }, genDate: new Date(extraPara.systemDate).format(extraPara.dateFormat), plans: quotation.plans.map(function(plan,minInvPeriod) { return { name: plan.covName.en, polTermDesc: plan.polTermDesc, premTermDesc: plan.premTermDesc, mip: minInvPeriod }; }), withdrawal: { value: hasWithdrawal? getCurrency(quotation.policyOptions.wdAmount, '', 2): \"N/A\", from: hasWithdrawal? quotation.policyOptions.wdFromAge: \"N/A\", to: hasWithdrawal? quotation.policyOptions.wdToAge: \"N/A\" } }, basicPlan: { name: basicPlan.covName.en, sumInsured: getCurrency(basicPlan.sumInsured, '', 2), premium: getCurrency(basicPlan.premium, '', 2), aPremium: getCurrency(basicPlan.yearPrem, '', 2), sPremium: getCurrency(basicPlan.halfYearPrem, '', 2), qPremium: getCurrency(basicPlan.quarterPrem, '', 2), mPremium: getCurrency(basicPlan.monthPrem, '', 2), spTopUp: getCurrency(hasSpTopUp? quotation.policyOptions.topUpAmt: 0, '', 2), rspTopUp: getCurrency(hasRspTopUp? quotation.policyOptions.rspAmount: 0, '', 2), annualRspTopUp: getCurrency(hasRspTopUp? quotation.policyOptions.rspAmount * 12 : 0, '', 2), paymentModeDesc: quotation.paymentMode === 'A'? 'Annual': (quotation.paymentMode === 'S'? 'Semi-Annual': (quotation.paymentMode === 'Q'? 'Quarterly': 'Monthly')), ccy: quotation.ccy, ccySymbol: quotation.ccy === 'SGD' ? 'S$' : (quotation.ccy === 'USD' ? 'US$' : '$'), hasTopUp: hasSpTopUp? 'Y': 'N', hasRspTopUp: hasRspTopUp? 'Y': 'N', hasWithdrawal: hasWithdrawal? 'Y': 'N' }, illustration: { reductionInYield: { age: 65 - quotation.iAge >= 20 ? 'at age 65' : 'at age '+ (quotation.iAge+20), value: rYieldValue, reducedReturnRate: rYieldReducedReturnRate }, afterWithdrawal: afterWithdrawal, afterWithdrawal2: afterWithdrawal2, afterWithdrawal3: afterWithdrawal3, afterWithdrawal4: afterWithdrawal4, showTextThisPage2: showTextThisPage2, showTextThisPage3: showTextThisPage3, hasPremHol:hasPremHol, myWithdrawal:myWithdrawal }, aror: aror};if(!hasWithdrwalPage){ result.hidePagesIndexArray = [0,1,2,3];}else if(showTextThisPage2){ result.hidePagesIndexArray = [2,3];}else if(showTextThisPage3){ result.hidePagesIndexArray = [3];}return result;}"
    },
    "header": {
        "en": "<table style=\"width: 100%;\">\n<tbody>\n<tr>\n<td><div class=\"awt-intro-logo\"></div></td>\n<td style=\"float: right; width: 200px;\"></td>\n</tr>\n</tbody>\n</table>\n<p></p>",
        "zh-Hant": "<p></p>"
    },
    "launchDate": "2018-02-01 01:55:21",
    "overlay": {
        "en": ""
    },
    "pdfCode": "AWTR_SUPP",
    "pdfName": {
        "en": "AWT Supplementary",
        "zh-Hant": "AWT Main BI",
        "zh-tw": "AWT_MAIN"
    },
    "releaseDate": "2019-05-24 08:23:54",
    "remarks": {
        "en": "main"
    },
    "status": "A",
    "style": ".notbreak{page-break-inside:avoid;}.vtop{vertical-align:top;text-align:center;font-size:10pt;}.pd8{padding:8px;}.vpd2{padding-top:2px;padding-bottom:2px;}.hpd2{padding:0 2px;}.b{font-weight:bold;}.u{text-decoration:underline;}.vpd4{padding-top:4px;padding-bottom:4px;}.hpd4{padding:0 4px;}.pd2left0{padding:4px 4px 4px 0;}.pd2right0{padding:4px 0 4px 4px;}.pd4left0{padding:4px 4px 4px 0;}.pd4top0left0{padding:0 4px 4px 0;}.pd4right0{padding:4px 0 4px 4px;}.pd4top0right0{padding:0 0 4px 4px;}.w100{width:100%;}.w24p{width:24px;}.hr{width:100%;height:1pt;background:black;}div{text-align:justify;font-size:10pt;}.mtop8{margin-top:8px;}.bgblack{background:black;}.tcwhite{color:white;}.tdCol{height:13px;vertical-align:middle;text-align:center;}.txtCenterH{text-align:center;}td{position:relative;}.tBorder{position:aboslute;left:0;right:0;top:-1px;height:1px;background:black;}.bBorder{position:aboslute;left:0;right:0;bottom:-1px;height:1px;background:black;}.cover-margin{margin:24px;}.intro-img{height:50px;}.awt-intro-logo{background-image:<img@awt_intro-logo-img>;width:50px;height:50px;background-repeat:round;margin-top:0;float:left;}.awt-intro-barcode{background-image:<img@awt_intro-barcode-img>;width:192px;height:47px;background-repeat:round;margin-top:0;float:right;}.agentTableTitle1{width:22%;height:13px;}.agentTableTitle2{width:22%;height:13px;}.agentTableValue{width:36%;height:13px;}.detailTable{width:100%;font-size:10pt;}.detailTableTitle{width:16%;height:13px;}.detailTableTitle2{width:22%;height:13px;}.detailTableTitleRsp{width:20%;height:13px;}.detailTableValueRsp{width:38%;height:13px;}.detailTableValue{width:42%;height:13px;}.planName{width:40%;height:13px;}.planNumberPlan{width:28%;height:13px;}.planNumberPremium{width:35%;height:13px;text-align:left;}.fundName{width:40%;height:13px;}.fundAlloc{width:35%;height:13px;text-align:right;}.fundCode{width:25%;height:13px;text-align:right;}.global_intro{font-size:10pt;}.sectionSpace{height:10px;}.tleft{text-align:left;}.tright{text-align:right;}.font13{font-size:13px;}.link{color:blue;text-decoration:underline;}",
    "template": {
        "en": [
            "<table class=\"w100\">\n    <colgroup>\n        <col style=\"width:30%\" />\n        <col style=\"width:32%\" />\n        <col style=\"width:7%;\" />\n        <col style=\"width:31%\" />\n    </colgroup>\n\n    <thead>\n        <tr>\n            <th colspan=\"4\" style=\"text-align: center;  padding-bottom: 10px; font-size: 10pt;\">\n                <strong>SUPPLEMENTARY POLICY ILLUSTRATION</strong>\n            </th>\n        </tr>\n\n        <tr>\n            <th colspan=\"2\" class=\"vtop vpd2 b tleft\">\n                <span>Proposal on the life of: </span>\n                <span><xsl:value-of select=\"*/cover/insured/name\"/></span>\n            </th>\n\n            <th class=\"vtop vpd2 b tleft\">\n                <div>Date</div>\n            </th>\n            <th class=\"vtop vpd2 tleft\">\n                <span>:\n                        <xsl:value-of select=\"*/cover/genDate\" /> \n\t\t\t\t\t</span>\n            </th>\n        </tr>\n\n        <tr style=\"border-bottom: solid 1pt black\">\n            <th colspan=\"2\" class=\"vtop vpd2 b tleft\">\n                <span>Gender</span>\n                <span>:\n                        <xsl:value-of select=\"*/cover/insured/gender\" /> \n\t\t\t\t\t\t(<xsl:value-of select=\"*/cover/insured/smoking\" />) \n\t\t\t\t\t</span>\n            </th>\n            <th class=\"vtop vpd2 b tleft\">\n                <div>Age</div>\n            </th>\n            <th class=\"vtop vpd2 tleft\">\n                <div>:\n                    <xsl:value-of select=\"*/cover/insured/age\" /> (As at\n                    <xsl:value-of select=\"*/cover/riskCommenDate\" />) </div>\n            </th>\n        </tr>\n        <tr>\n            <th colspan=\"4\" style=\"text-align: center; width: 100%; padding-bottom: 10px;\"></th>\n        </tr>\n    </thead>\n\n    <tbody>\n        <tr>\n            <td colspan=\"4\">\n                <div id=\"pageDB\">\n                    <span style=\"font-size:10pt;\">This supplementary illustration is provided to illustrate the effect of death benefit and account value if the premium payment </span>\n                    <span style=\"font-size:10pt;\">\n                    <xsl:choose>\n                       \n                        <xsl:when test=\"*/illustration/hasPremHol = 'true'\">stops </xsl:when>\n                        <xsl:otherwise><span>continues </span></xsl:otherwise>\n\n                    </xsl:choose>\n                    </span>\n\n\n                    <xsl:if test=\"*/basicPlan/hasWithdrawal='Y' \">\n\n                        <span style=\"font-size:10pt;\">after MIP, and regular withdrawals have been chosen from age\n                        <xsl:value-of select=\" */cover/withdrawal/from \" /> to\n                        <xsl:value-of select=\"*/cover/withdrawal/to \" />.\n                        </span>\n\n                    </xsl:if>\n\n\n                    <xsl:if test=\"*/basicPlan/hasWithdrawal='N' \">\n\n                        .\n\n                    </xsl:if>\n                    <div>This is only a supplementary illustration and must be read in conjunction with the main illustration.\n                        <br/> The following table of values relate to the basic Policy plan.</div>\n                    <br/>\n                    <table class=\" mtop8 w100 \">\n                        <colgroup>\n                            <col style=\"width:7% \" />\n                            <col style=\"width:7% \" />\n                            <col style=\"width:7%; \" />\n                            <col style=\"width:14.3%; \" />\n                            <col style=\"width:14.3%; \" />\n                            <col style=\"width:14.3%; \" />\n                            <col style=\"width:14.3%; \" />\n                            <col style=\"width:14.3%; \" />\n                        </colgroup>\n\n\n                        <thead>\n                            <tr>\n                                <th rowspan=\"2 \" class=\"vtop pd2 \">End of Policy Year/Age</th>\n                                <th rowspan=\"2 \" class=\"vtop pd2 \">\n                                    Total \n                                    <br/>Premiums \n                                    <br/>Paid \n                                    <br/>To-Date*\n                                    <br/>(<xsl:value-of select=\"*/basicPlan/ccySymbol \" />)\n                                </th>\n                                <th colspan=\"3 \" class=\"vtop pd2 \">Illustrated at\n                                    <xsl:value-of select=\"*/aror/low \" />% Investment Return\n                                </th>\n                                <th colspan=\"3 \" class=\"vtop pd2 \">Illustrated at\n                                    <xsl:value-of select=\"*/aror/high \" />% Investment Return\n                                </th>\n                            </tr>\n                            <tr>\n                                <th class=\"vtop pd2 \">\n                                    Annual\n                                    <br/>Amount\n                                    <br/>Withdrawn\n                                    <br/>\n                                    <br/> (<xsl:value-of select=\"*/basicPlan/ccySymbol \" />)         \n                                </th>\n                                <th class=\"vtop pd2 \" style=\"width: 14% \">\n                                    Total Death\n                                    <br/>Benefit After\n                                    <br/>Withdrawals^\n                                    <br/>\n                                    <br/>(<xsl:value-of select=\"*/basicPlan/ccySymbol \" />)\n                                </th>\n                                <th class=\"vtop pd2 \">\n                                    Non-Guaranteed\n                                    <br/>Account Value\n                                    <br/>After\n                                    <br/>Withdrawals\n                                    <br/>(<xsl:value-of select=\"*/basicPlan/ccySymbol \" />)\n                                </th>\n                                <th class=\"vtop pd2 \" style=\"width: 14% \">\n                                    Annual\n                                    <br/>Amount\n                                    <br/>Withdrawn\n                                    <br/>\n                                    <br/>(<xsl:value-of select=\"*/basicPlan/ccySymbol \" />)\n                                </th>\n                                <th class=\"vtop pd2 \">\n                                    Total Death\n                                    <br/>Benefit After\n                                    <br/>Withdrawals^\n                                    <br/>\n                                    <br/>(<xsl:value-of select=\"*/basicPlan/ccySymbol \" />)\n                                </th>\n                                <th class=\"vtop pd2 \" style=\"width: 14% \">\n                                    Non-Guaranteed\n                                    <br/>Account Value\n                                    <br/>After\n                                    <br/>Withdrawals\n                                    <br/>(<xsl:value-of select=\"*/basicPlan/ccySymbol \" />)\n                                </th>\n                            </tr>\n                        </thead>\n                        <tbody>\n                            <xsl:for-each select=\"*/illustration/afterWithdrawal \">\n                                <tr>\n                                    <td class=\"tdCol \">\n                                        <xsl:value-of select=\"policyYearAge \" />\n                                    </td>\n                                    <td class=\"tdCol \">\n                                        <xsl:value-of select=\"totalPremiumPaidToDate \" />\n                                    </td>\n                                    <td class=\"tdCol \">\n                                        <xsl:value-of select=\"annualWithdrawalAmountLow \" />\n                                    </td>\n                                    <td class=\"tdCol \">\n                                        <xsl:value-of select=\"totalDeathBenefitAfterWDLow \" />\n                                    </td>\n                                    <td class=\"tdCol \">\n                                        <xsl:value-of select=\"nonGuaranteedAccValueAfterWDLow \" />\n                                    </td>\n                                    <td class=\"tdCol \">\n                                        <xsl:value-of select=\"annualWithdrawalAmountHigh \" />\n                                    </td>\n                                    <td class=\"tdCol \">\n                                        <xsl:value-of select=\"totalDeathBenefitAfterWDHigh \" />\n                                    </td>\n                                    <td class=\"tdCol \">\n                                        <xsl:value-of select=\"nonGuaranteedAccValueAfterWDHigh \" />\n                                    </td>\n                                </tr>\n                            </xsl:for-each>\n\n                        </tbody>\n                    </table>\n\n                    <div>* Total Premiums Paid To-Date stated is applicable only if there is still policy value at that policy year. </div>\n                        \n                </div>\n\n            </td>\n        </tr>\n    </tbody>\n</table>\n\n",
            "<table class=\"w100\">\n    <colgroup>\n        <col style=\"width:30%\" />\n        <col style=\"width:32%\" />\n        <col style=\"width:7%;\" />\n        <col style=\"width:31%\" />\n    </colgroup>\n\n    <thead>\n        <tr>\n            <th colspan=\"4\" style=\"text-align: center;  padding-bottom: 10px; font-size: 10pt;\">\n                <strong>SUPPLEMENTARY POLICY ILLUSTRATION</strong>\n            </th>\n        </tr>\n\n        <tr>\n            <th colspan=\"2\" class=\"vtop vpd2 b tleft\">\n                <span>Proposal on the life of: </span>\n                <span><xsl:value-of select=\"*/cover/insured/name\"/></span>\n            </th>\n\n            <th class=\"vtop vpd2 b tleft\">\n                <div>Date</div>\n            </th>\n            <th class=\"vtop vpd2 tleft\">\n                <span>:\n                        <xsl:value-of select=\"*/cover/genDate\" /> \n\t\t\t\t\t</span>\n            </th>\n        </tr>\n\n        <tr style=\"border-bottom: solid 1pt black\">\n            <th colspan=\"2\" class=\"vtop vpd2 b tleft\">\n                <span>Gender</span>\n                <span>:\n                        <xsl:value-of select=\"*/cover/insured/gender\" /> \n\t\t\t\t\t\t(<xsl:value-of select=\"*/cover/insured/smoking\" />) \n\t\t\t\t\t</span>\n            </th>\n            <th class=\"vtop vpd2 b tleft\">\n                <div>Age</div>\n            </th>\n            <th class=\"vtop vpd2 tleft\">\n                <div>:\n                    <xsl:value-of select=\"*/cover/insured/age\" /> (As at\n                    <xsl:value-of select=\"*/cover/riskCommenDate\" />) </div>\n            </th>\n        </tr>\n        <tr>\n            <th colspan=\"4\" style=\"text-align: center; width: 100%; padding-bottom: 10px;\"></th>\n        </tr>\n    </thead>\n\n    <tbody>\n        <tr>\n            <td colspan=\"4\">\n                <div id=\"pageDB\">\n\n\n                        <!--<xsl:if test=\"count(*/illustration/afterWithdrawal2) >0\">\n                    <br/>\n                    <div>The following table of values relate to the basic policy plan named above.</div>\n                    </xsl:if>\n                    <br/>-->\n                    <table class=\"mtop8 w100\">\n                        <colgroup>\n                            <col style=\"width:7%\" />\n                            <col style=\"width:7%\" />\n                            <col style=\"width:7%;\" />\n                            <col style=\"width:14.3%;\" />\n                            <col style=\"width:14.3%;\" />\n                            <col style=\"width:14.3%;\" />\n                            <col style=\"width:14.3%;\" />\n                            <col style=\"width:14.3%;\" />\n                        </colgroup>\n\n\n                            <thead>\n                                <tr>\n                                    <th rowspan=\"2\" class=\"vtop pd2\">End of Policy Year/Age</th>\n                                    <th rowspan=\"2\" class=\"vtop pd2\">\n                                    Total \n                                    <br/>Premiums \n                                    <br/>Paid \n                                    <br/>To-Date*\n                                    <br/>(<xsl:value-of select=\"*/basicPlan/ccySymbol \" />)\n                                    </th>\n                                    <th colspan=\"3\" class=\"vtop pd2\">Illustrated at\n                                        <xsl:value-of select=\"*/aror/low\" />% Investment Return\n                                    </th>\n                                    <th colspan=\"3\" class=\"vtop pd2\">Illustrated at\n                                        <xsl:value-of select=\"*/aror/high\" />% Investment Return\n                                    </th>\n                                </tr>\n                                <tr>\n                                    <th class=\"vtop pd2\">\n                                        Annual\n                                        <br/>Amount\n                                        <br/>Withdrawn\n                                        <br/>\n                                        <br/>(<xsl:value-of select=\"*/basicPlan/ccySymbol \" />)\n                                    </th>\n                                    <th class=\"vtop pd2\" style=\"width: 14%\">\n                                        Total Death\n                                        <br/>Benefit After\n                                        <br/>Withdrawals^\n                                        <br/>\n                                        <br/>(<xsl:value-of select=\"*/basicPlan/ccySymbol \" />)\n                                    </th>\n                                    <th class=\"vtop pd2\">\n                                        Non-Guaranteed\n                                        <br/>Account Value\n                                        <br/>After\n                                        <br/>Withdrawals\n                                        <br/>(<xsl:value-of select=\"*/basicPlan/ccySymbol \" />)\n                                    </th>\n                                    <th class=\"vtop pd2\" style=\"width: 14%\">\n                                        Annual\n                                        <br/>Amount\n                                        <br/>Withdrawn\n                                        <br/>\n                                        <br/>(<xsl:value-of select=\"*/basicPlan/ccySymbol \" />)\n                                    </th>\n                                    <th class=\"vtop pd2\">\n                                        Total Death\n                                        <br/>Benefit After\n                                        <br/>Withdrawals^\n                                        <br/>\n                                        <br/>(<xsl:value-of select=\"*/basicPlan/ccySymbol \" />)\n                                    </th>\n                                    <th class=\"vtop pd2\" style=\"width: 14%\">\n                                        Non-Guaranteed\n                                        <br/>Account Value\n                                        <br/>After\n                                        <br/>Withdrawals\n                                        <br/>(<xsl:value-of select=\"*/basicPlan/ccySymbol \" />)\n                                    </th>\n                                </tr>\n                            </thead>\n\n                        <xsl:if test=\"count(*/illustration/afterWithdrawal2) >0\">\n                        <tbody>\n                            <xsl:for-each select=\"*/illustration/afterWithdrawal2\">\n                                <tr>\n                                    <td class=\"tdCol\">\n                                        <xsl:value-of select=\"policyYearAge\" />\n                                    </td>\n                                    <td class=\"tdCol\">\n                                        <xsl:value-of select=\"totalPremiumPaidToDate\" />\n                                    </td>\n                                    <td class=\"tdCol\">\n                                        <xsl:value-of select=\"annualWithdrawalAmountLow\" />\n                                    </td>\n                                    <td class=\"tdCol\">\n                                        <xsl:value-of select=\"totalDeathBenefitAfterWDLow\" />\n                                    </td>\n                                    <td class=\"tdCol\">\n                                        <xsl:value-of select=\"nonGuaranteedAccValueAfterWDLow\" />\n                                    </td>\n                                    <td class=\"tdCol\">\n                                        <xsl:value-of select=\"annualWithdrawalAmountHigh\" />\n                                    </td>\n                                    <td class=\"tdCol\">\n                                        <xsl:value-of select=\"totalDeathBenefitAfterWDHigh\" />\n                                    </td>\n                                    <td class=\"tdCol\">\n                                        <xsl:value-of select=\"nonGuaranteedAccValueAfterWDHigh\" />\n                                    </td>\n                                </tr>\n                            </xsl:for-each>\n\n                        </tbody>\n                        </xsl:if>\n                    </table>\n                    <br/>\n\n                    <xsl:if test=\"count(*/illustration/afterWithdrawal2) >0\">\n                        <div>* Total Premiums Paid To-Date stated is applicable only if there is still policy value at that policy year. </div>\n                    </xsl:if>\n                   \n                    <xsl:if test=\"*/illustration/showTextThisPage2='true'\">\n                       <br/>  <p>^ For death occurring before the Policy Anniversary nearest to the Life Assured's 66th birthday, we pay both\n                            <br/>i) 101% of (Total Account Value)\n                            <br/>ii) 15% of (Total Account Value - Top-ups - RSPs), capped at SGD 500000\n                            <br/>Less outstanding fees and charges\n                        </p>\n                        <p>\n                            <br/>For death occurring on and after the Policy Anniversary nearest to the Life Assured's 66th birthday, we pay\n                            <br/>i) 101% of (Total Account Value)\n                            <br/>Less any outstanding fees and charges\n                        </p>\n                        <p>* Total Premiums Paid To-Date stated is applicable only if there is still policy value at that policy year. </p>\n                        <div>If your illustrated Account Value in a particular policy year </div>\n                        <div>a) is not sufficient to proceed with the payment for your requested Regular Withdrawal amount, or </div>\n                        <div>b) falls below the Minimum Account Balance as a result of the withdrawal,</div>\n                        <div>we will pay out the full remaining illustrated Account Value in that year and the policy will terminate. </div>\n                        <br/>\n                        <div>As such, the Non-Guaranteed Account Value After Withdrawals and the illustrated Total Death Benefit After Withdrawals in the subsequent years will be shown as 0 in the above illustration.</div>\n                        <br/>\n                        <div>The above table is for illustrative purposes only. The precise terms and conditions of this plan are specified in the General Provisions.</div>\n                    </xsl:if>\n                </div>\n\n            </td>\n        </tr>\n    </tbody>\n</table>\n\n<xsl:if test=\"*/basicPlan/hasWithdrawal = 'Y'\">\n\n</xsl:if>",
            "<table class=\"w100\">\n    <colgroup>\n        <col style=\"width:30%\" />\n        <col style=\"width:32%\" />\n        <col style=\"width:7%;\" />\n        <col style=\"width:31%\" />\n    </colgroup>\n\n    <thead>\n        <tr>\n            <th colspan=\"4\" style=\"text-align: center;  padding-bottom: 10px; font-size: 10pt;\">\n                <strong>SUPPLEMENTARY POLICY ILLUSTRATION</strong>\n            </th>\n        </tr>\n\n        <tr>\n            <th colspan=\"2\" class=\"vtop vpd2 b tleft\">\n                <span>Proposal on the life of: </span>\n                <span><xsl:value-of select=\"*/cover/insured/name\"/></span>\n            </th>\n\n            <th class=\"vtop vpd2 b tleft\">\n                <div>Date</div>\n            </th>\n            <th class=\"vtop vpd2 tleft\">\n                <span>:\n                        <xsl:value-of select=\"*/cover/genDate\" /> \n\t\t\t\t\t</span>\n            </th>\n        </tr>\n\n        <tr style=\"border-bottom: solid 1pt black\">\n            <th colspan=\"2\" class=\"vtop vpd2 b tleft\">\n                <span>Gender</span>\n                <span>:\n                        <xsl:value-of select=\"*/cover/insured/gender\" /> \n\t\t\t\t\t\t(<xsl:value-of select=\"*/cover/insured/smoking\" />) \n\t\t\t\t\t</span>\n            </th>\n            <th class=\"vtop vpd2 b tleft\">\n                <div>Age</div>\n            </th>\n            <th class=\"vtop vpd2 tleft\">\n                <div>:\n                    <xsl:value-of select=\"*/cover/insured/age\" /> (As at\n                    <xsl:value-of select=\"*/cover/riskCommenDate\" />) </div>\n            </th>\n        </tr>\n        <tr>\n            <th colspan=\"4\" style=\"text-align: center; width: 100%; padding-bottom: 10px;\"></th>\n        </tr>\n    </thead>\n\n    <tbody>\n        <tr>\n            <td colspan=\"4\">\n                <div id=\"pageDB\">\n\n                    <!--<xsl:if test=\"count(*/illustration/afterWithdrawal3) >0\">\n                    <br/>\n                    <div>The following table of values relate to the basic policy plan named above.</div>\n                        </xsl:if>\n                    <br/>-->\n                    <table class=\"mtop8 w100\">\n                        <colgroup>\n                            <col style=\"width:7%\" />\n                            <col style=\"width:7%\" />\n                            <col style=\"width:7%;\" />\n                            <col style=\"width:14.3%;\" />\n                            <col style=\"width:14.3%;\" />\n                            <col style=\"width:14.3%;\" />\n                            <col style=\"width:14.3%;\" />\n                            <col style=\"width:14.3%;\" />\n                        </colgroup>\n\n                 <xsl:if test=\"count(*/illustration/afterWithdrawal3) >0\">\n                            <thead>\n                                <tr>\n                                    <th rowspan=\"2\" class=\"vtop pd2\">End of Policy Year/Age</th>\n                                    <th rowspan=\"2\" class=\"vtop pd2\">\n                                    Total \n                                    <br/>Premiums \n                                    <br/>Paid \n                                    <br/>To-Date*\n                                    <br/>(<xsl:value-of select=\"*/basicPlan/ccySymbol \" />)\n                                    </th>\n                                    <th colspan=\"3\" class=\"vtop pd2\">Illustrated at\n                                        <xsl:value-of select=\"*/aror/low\" />% Investment Return\n                                    </th>\n                                    <th colspan=\"3\" class=\"vtop pd2\">Illustrated at\n                                        <xsl:value-of select=\"*/aror/high\" />% Investment Return\n                                    </th>\n                                </tr>\n                                <tr>\n                                    <th class=\"vtop pd2\">\n                                        Annual\n                                        <br/>Amount\n                                        <br/>Withdrawn\n                                        <br/>\n                                        <br/>(<xsl:value-of select=\"*/basicPlan/ccySymbol \" />)\n                                    </th>\n                                    <th class=\"vtop pd2\" style=\"width: 14%\">\n                                        Total Death\n                                        <br/>Benefit After\n                                        <br/>Withdrawals^\n                                        <br/>\n                                        <br/>(<xsl:value-of select=\"*/basicPlan/ccySymbol \" />)\n                                    </th>\n                                    <th class=\"vtop pd2\">\n                                        Non-Guaranteed\n                                        <br/>Account Value\n                                        <br/>After\n                                        <br/>Withdrawals\n                                        <br/>(<xsl:value-of select=\"*/basicPlan/ccySymbol \" />)\n                                    </th>\n                                    <th class=\"vtop pd2\" style=\"width: 14%\">\n                                        Annual\n                                        <br/>Amount\n                                        <br/>Withdrawn\n                                        <br/>\n                                        <br/>(<xsl:value-of select=\"*/basicPlan/ccySymbol \" />)\n                                    </th>\n                                    <th class=\"vtop pd2\">\n                                        Total Death\n                                        <br/>Benefit After\n                                        <br/>Withdrawals^\n                                        <br/>\n                                        <br/>(<xsl:value-of select=\"*/basicPlan/ccySymbol \" />)\n                                    </th>\n                                    <th class=\"vtop pd2\" style=\"width: 14%\">\n                                        Non-Guaranteed\n                                        <br/>Account Value\n                                        <br/>After\n                                        <br/>Withdrawals\n                                        <br/>(<xsl:value-of select=\"*/basicPlan/ccySymbol \" />)\n                                    </th>\n                                </tr>\n                            </thead>\n\n                       \n                        <tbody>\n                            <xsl:for-each select=\"*/illustration/afterWithdrawal3\">\n                                <tr>\n                                    <td class=\"tdCol\">\n                                        <xsl:value-of select=\"policyYearAge\" />\n                                    </td>\n                                    <td class=\"tdCol\">\n                                        <xsl:value-of select=\"totalPremiumPaidToDate\" />\n                                    </td>\n                                    <td class=\"tdCol\">\n                                        <xsl:value-of select=\"annualWithdrawalAmountLow\" />\n                                    </td>\n                                    <td class=\"tdCol\">\n                                        <xsl:value-of select=\"totalDeathBenefitAfterWDLow\" />\n                                    </td>\n                                    <td class=\"tdCol\">\n                                        <xsl:value-of select=\"nonGuaranteedAccValueAfterWDLow\" />\n                                    </td>\n                                    <td class=\"tdCol\">\n                                        <xsl:value-of select=\"annualWithdrawalAmountHigh\" />\n                                    </td>\n                                    <td class=\"tdCol\">\n                                        <xsl:value-of select=\"totalDeathBenefitAfterWDHigh\" />\n                                    </td>\n                                    <td class=\"tdCol\">\n                                        <xsl:value-of select=\"nonGuaranteedAccValueAfterWDHigh\" />\n                                    </td>\n                                </tr>\n                            </xsl:for-each>\n\n                        </tbody>\n                        </xsl:if>\n                    </table>\n <br/>\n                    <xsl:if test=\"count(*/illustration/afterWithdrawal3) >0\">\n                        <div>* Total Premiums Paid To-Date stated is applicable only if there is still policy value at that policy year. </div>\n                    </xsl:if>\n                   \n                    <xsl:if test=\"*/illustration/showTextThisPage3='true'\">\n                        <br/> <p>^ For death occurring before the Policy Anniversary nearest to the Life Assured's 66th birthday, we pay both\n                            <br/>i) 101% of (Total Account Value)\n                            <br/>ii) 15% of (Total Account Value - Top-ups - RSPs), capped at SGD 500000\n                            <br/>Less outstanding fees and charges\n                        </p>\n                        <p>\n                            <br/>For death occurring on and after the Policy Anniversary nearest to the Life Assured's 66th birthday, we pay\n                            <br/>i) 101% of (Total Account Value)\n                            <br/>Less any outstanding fees and charges\n                        </p>\n                        <p>* Total Premiums Paid To-Date stated is applicable only if there is still policy value at that policy year. </p>\n                        <div>If your illustrated Account Value in a particular policy year </div>\n                        <div>a) is not sufficient to proceed with the payment for your requested Regular Withdrawal amount, or </div>\n                        <div>b) falls below the Minimum Account Balance as a result of the withdrawal,</div>\n                        <div>we will pay out the full remaining illustrated Account Value in that year and the policy will terminate. </div>\n                        <br/>\n                        <div>As such, the Non-Guaranteed Account Value After Withdrawals and the illustrated Total Death Benefit After Withdrawals in the subsequent years will be shown as 0 in the above illustration.</div>\n                        <br/>\n                        <div>The above table is for illustrative purposes only. The precise terms and conditions of this plan are specified in the General Provisions.</div>\n                    </xsl:if>\n\n                </div>\n\n            </td>\n        </tr>\n    </tbody>\n</table>\n\n",
            "<table class=\"w100\">\n    <colgroup>\n        <col style=\"width:30%\" />\n        <col style=\"width:32%\" />\n        <col style=\"width:7%;\" />\n        <col style=\"width:31%\" />\n    </colgroup>\n\n    <thead>\n        <tr>\n            <th colspan=\"4\" style=\"text-align: center;  padding-bottom: 10px; font-size: 10pt;\">\n                <strong>SUPPLEMENTARY POLICY ILLUSTRATION</strong>\n            </th>\n        </tr>\n\n        <tr>\n            <th colspan=\"2\" class=\"vtop vpd2 b tleft\">\n                <span>Proposal on the life of: </span>\n                <span><xsl:value-of select=\"*/cover/insured/name\"/></span>\n            </th>\n\n            <th class=\"vtop vpd2 b tleft\">\n                <div>Date</div>\n            </th>\n            <th class=\"vtop vpd2 tleft\">\n                <span>:\n                        <xsl:value-of select=\"*/cover/genDate\" /> \n\t\t\t\t\t</span>\n            </th>\n        </tr>\n\n        <tr style=\"border-bottom: solid 1pt black\">\n            <th colspan=\"2\" class=\"vtop vpd2 b tleft\">\n                <span>Gender</span>\n                <span>:\n                        <xsl:value-of select=\"*/cover/insured/gender\" /> \n\t\t\t\t\t\t(<xsl:value-of select=\"*/cover/insured/smoking\" />) \n\t\t\t\t\t</span>\n            </th>\n            <th class=\"vtop vpd2 b tleft\">\n                <div>Age</div>\n            </th>\n            <th class=\"vtop vpd2 tleft\">\n                <div>:\n                    <xsl:value-of select=\"*/cover/insured/age\" /> (As at\n                    <xsl:value-of select=\"*/cover/riskCommenDate\" />) </div>\n            </th>\n        </tr>\n        <tr>\n            <th colspan=\"4\" style=\"text-align: center; width: 100%; padding-bottom: 10px;\"></th>\n        </tr>\n    </thead>\n\n    <tbody>\n        <tr>\n            <td colspan=\"4\">\n                <div id=\"pageDB\">\n\n                    <!--<xsl:if test=\"count(*/illustration/afterWithdrawal4) >0\">\n                    <br/>\n                    <div>The following table of values relate to the basic policy plan named above.</div>\n                        </xsl:if>\n                    <br/>-->\n                    <table class=\"mtop8 w100\">\n                        <colgroup>\n                            <col style=\"width:7%\" />\n                            <col style=\"width:7%\" />\n                            <col style=\"width:7%;\" />\n                            <col style=\"width:14.3%;\" />\n                            <col style=\"width:14.3%;\" />\n                            <col style=\"width:14.3%;\" />\n                            <col style=\"width:14.3%;\" />\n                            <col style=\"width:14.3%;\" />\n                        </colgroup>\n\n                 <xsl:if test=\"count(*/illustration/afterWithdrawal4) >0\">\n                            <thead>\n                                <tr>\n                                    <th rowspan=\"2\" class=\"vtop pd2\">End of Policy Year/Age</th>\n                                    <th rowspan=\"2\" class=\"vtop pd2\">\n                                    Total \n                                    <br/>Premiums \n                                    <br/>Paid \n                                    <br/>To-Date*\n                                    <br/>(<xsl:value-of select=\"*/basicPlan/ccySymbol \" />)\n                                    </th>\n                                    <th colspan=\"3\" class=\"vtop pd2\">Illustrated at\n                                        <xsl:value-of select=\"*/aror/low\" />% Investment Return\n                                    </th>\n                                    <th colspan=\"3\" class=\"vtop pd2\">Illustrated at\n                                        <xsl:value-of select=\"*/aror/high\" />% Investment Return\n                                    </th>\n                                </tr>\n                                <tr>\n                                    <th class=\"vtop pd2\">\n                                        Annual\n                                        <br/>Amount\n                                        <br/>Withdrawn\n                                        <br/>\n                                        <br/>(<xsl:value-of select=\"*/basicPlan/ccySymbol \" />)\n                                    </th>\n                                    <th class=\"vtop pd2\" style=\"width: 14%\">\n                                        Total Death\n                                        <br/>Benefit After\n                                        <br/>Withdrawals^\n                                        <br/>\n                                        <br/>(<xsl:value-of select=\"*/basicPlan/ccySymbol \" />)\n                                    </th>\n                                    <th class=\"vtop pd2\">\n                                        Non-Guaranteed\n                                        <br/>Account Value\n                                        <br/>After\n                                        <br/>Withdrawals\n                                        <br/>(<xsl:value-of select=\"*/basicPlan/ccySymbol \" />)\n                                    </th>\n                                    <th class=\"vtop pd2\" style=\"width: 14%\">\n                                        Annual\n                                        <br/>Amount\n                                        <br/>Withdrawn\n                                        <br/>\n                                        <br/>(<xsl:value-of select=\"*/basicPlan/ccySymbol \" />)\n                                    </th>\n                                    <th class=\"vtop pd2\">\n                                        Total Death\n                                        <br/>Benefit After\n                                        <br/>Withdrawals^\n                                        <br/>\n                                        <br/>(<xsl:value-of select=\"*/basicPlan/ccySymbol \" />)\n                                    </th>\n                                    <th class=\"vtop pd2\" style=\"width: 14%\">\n                                        Non-Guaranteed\n                                        <br/>Account Value\n                                        <br/>After\n                                        <br/>Withdrawals\n                                        <br/>(<xsl:value-of select=\"*/basicPlan/ccySymbol \" />)\n                                    </th>\n                                </tr>\n                            </thead>\n\n                       \n                        <tbody>\n                            <xsl:for-each select=\"*/illustration/afterWithdrawal4\">\n                                <tr>\n                                    <td class=\"tdCol\">\n                                        <xsl:value-of select=\"policyYearAge\" />\n                                    </td>\n                                    <td class=\"tdCol\">\n                                        <xsl:value-of select=\"totalPremiumPaidToDate\" />\n                                    </td>\n                                    <td class=\"tdCol\">\n                                        <xsl:value-of select=\"annualWithdrawalAmountLow\" />\n                                    </td>\n                                    <td class=\"tdCol\">\n                                        <xsl:value-of select=\"totalDeathBenefitAfterWDLow\" />\n                                    </td>\n                                    <td class=\"tdCol\">\n                                        <xsl:value-of select=\"nonGuaranteedAccValueAfterWDLow\" />\n                                    </td>\n                                    <td class=\"tdCol\">\n                                        <xsl:value-of select=\"annualWithdrawalAmountHigh\" />\n                                    </td>\n                                    <td class=\"tdCol\">\n                                        <xsl:value-of select=\"totalDeathBenefitAfterWDHigh\" />\n                                    </td>\n                                    <td class=\"tdCol\">\n                                        <xsl:value-of select=\"nonGuaranteedAccValueAfterWDHigh\" />\n                                    </td>\n                                </tr>\n                            </xsl:for-each>\n\n                        </tbody>\n                        </xsl:if>\n                    </table>\n               <br/>\n                    <xsl:if test=\"count(*/illustration/afterWithdrawal4) >0\">\n                         \n                        <div>* Total Premiums Paid To-Date stated is applicable only if there is still policy value at that policy year. </div>\n                    </xsl:if>\n                   \n\n                        <br/> <span style=\"font-size:10pt;\">^ For death occurring before the Policy Anniversary nearest to the Life Assured's 66th birthday, we pay both\n                            <br/>i) 101% of (Total Account Value)\n                            <br/>ii) 15% of (Total Account Value - Top-ups - RSPs), capped at SGD 500000\n                            <br/>Less outstanding fees and charges\n                        </span>\n                        <p>\n                            <br/>For death occurring on and after the Policy Anniversary nearest to the Life Assured's 66th birthday, we pay\n                            <br/>i) 101% of (Total Account Value)\n                            <br/>Less any outstanding fees and charges\n                        </p>\n                        <p>* Total Premiums Paid To-Date stated is applicable only if there is still policy value at that policy year. </p>\n                        <div>If your illustrated Account Value in a particular policy year </div>\n                        <div>a) is not sufficient to proceed with the payment for your requested Regular Withdrawal amount, or </div>\n                        <div>b) falls below the Minimum Account Balance as a result of the withdrawal,</div>\n                        <div>we will pay out the full remaining illustrated Account Value in that year and the policy will terminate. </div>\n                        <br/>\n                        <div>As such, the Non-Guaranteed Account Value After Withdrawals and the illustrated Total Death Benefit After Withdrawals in the subsequent years will be shown as 0 in the above illustration.</div>\n                        <br/>\n                        <div>The above table is for illustrative purposes only. The precise terms and conditions of this plan are specified in the General Provisions.</div>\n\n                </div>\n\n            </td>\n        </tr>\n    </tbody>\n</table>\n\n"
        ],
        "zh-Hant": []
    },
    "type": "pdfTemplate",
    "version": 1
}