{
    "compCode": "08",
    "expDate": "2047-05-31 08:48:16",
    "footer": {
        "en": "<div class=\"global_intro\">\n<xsl:if test=\"*/mainInfo/quickQuote='Y'\">\n<table style=\"text-align: left; table-layout: fixed; width: 100%; font-size: 10pt; margin: 0 auto;\">\n<tbody>\n<tr style=\"color: white;\">\n<td style=\"padding-left: 50px;\">\n<div style=\"border-bottom: solid 1px black; width: 80%;\">1</div>\n</td>\n<td style=\"padding-left: 50px;\">\n<div style=\"border-bottom: solid 1px black; width: 80%;\">2</div>\n</td>\n</tr>\n<tr>\n<td style=\"padding-left: 50px; padding-top: 3px;\">Adviser's Signature</td>\n<td style=\"padding-left: 50px; padding-top: 3px;\">Proposer's Signature</td>\n</tr>\n<tr>\n<td style=\"padding-left: 50px;\">Date:</td>\n<td style=\"padding-left: 50px;\">Date:</td>\n</tr>\n</tbody>\n</table>\n</xsl:if>\n<table style=\"width: 100%; font-size: 10pt;\">\n<tbody>\n<tr>\n<td style=\"width: 49.8018%;\"><strong>Page [[@PAGE_NO]] of [[@TOTAL_PAGE]]</strong></td>\n<td style=\"text-align: right; width: 46.1982%;\">Release Version\n<xsl:value-of select=\"*/releaseVersion\"/>\n</td>\n</tr>\n</tbody>\n</table>\n<p></p>\n<div style=\"text-align: center;\">\n<xsl:value-of select=\"*/footer/compName\"/> (Co. Reg. No.\n<xsl:value-of select=\"*/footer/compRegNo\"/>)</div>\n<div style=\"text-align: center;\">\n<xsl:value-of select=\"*/footer/compAddr\"/>\n</div>\n<div style=\"text-align: center;\">\n<xsl:value-of select=\"*/footer/compAddr2\"/> TEL:\n<xsl:value-of select=\"*/footer/compTel\"/> FAX:\n<xsl:value-of select=\"*/footer/compFax\"/>\n</div>\n<div style=\"text-align: center;\">\n<xsl:value-of select=\"*/footer/compWeb\"/>\n</div>\n</div>",
        "zh-Hant": "<p></p>"
    },
    "formulas": {
        "prepareReportData": ""
    },
    "header": {
        "en": "",
        "zh-Hant": ""
    },
    "launchDate": "2018-05-31 08:46:56",
    "overlay": {
        "en": ""
    },
    "pdfCode": "NEP_SECOND_PAGE",
    "pdfName": {
        "en": "NEP Second Page",
        "zh-Hant": "RHP Second Page",
        "zh-tw": "RHP Second Page"
    },
    "releaseDate": "2018-10-26 03:19:35",
    "remarks": {
        "en": "NEP Second Page",
        "zh-tw": "RHP Second Page"
    },
    "status": "A",
    "style": "",
    "template": {
        "en": [
            "<div class=\"global_main\">\n\n    <table class=\"w100\" style=\"border-bottom: solid 1pt black\">\n        <colgroup>\n            <col style=\"width:25%\" />\n            <col style=\"width:30%\" />\n            <col style=\"width:20%\" />\n            <col style=\"width:25%\" />\n        </colgroup>\n        <thead>\n            <tr>\n                <th colspan=\"4\" style=\"text-align: center; width: 100%; padding-bottom: 10px;\">\n                    <strong>MAIN POLICY ILLUSTRATION</strong>\n                </th>\n            </tr>\n\n            <tr>\n                <td class=\"vtop b  tleft\">Proposal on the life of</td>\n                <td class=\"vtop b  tleft\">:\n                    <xsl:value-of select=\"*/cover/insured/name\" />\n                </td>\n                <td class=\"vtop b  tleft\">Date</td>\n                <td class=\"vtop b tleft\">:\n                    <xsl:value-of select=\"*/common/genDate\" />\n                </td>\n            </tr>\n            <tr>\n                <td class=\"vtop b  tleft\">Gender</td>\n                <td class=\"vtop b  tleft\">:\n                    <xsl:value-of select=\"*/cover/insured/gender\" />\n                    (<xsl:value-of select=\"*/cover/insured/smoking\" />) </td>\n                <td class=\"vtop b tleft\">Age</td>\n                <td class=\"vtop b tleft\">:\n                    <xsl:value-of select=\"*/cover/insured/age\" /> (as at\n                    <xsl:value-of select=\"*/cover/riskCommenDate\" />)</td>\n            </tr>\n            <tr>\n                <th colspan=\"4\">\n                    <br/>\n                </th>\n            </tr>\n        </thead>\n    </table>\n    <div class=\"sectionSpace\" />\n    <table class=\"w100\" style=\"border-bottom: solid 1pt black\">\n        <colgroup>\n            <col style=\"width:25%\" />\n            <col style=\"width:30%\" />\n            <col style=\"width:20%\" />\n            <col style=\"width:25%\" />\n        </colgroup>\n\n        <tr>\n            <td>Payment Term</td>\n            <td>:\n                <xsl:value-of select=\"*/common/paymentTerm\" />\n            </td>\n            <td>Re-deposit Option</td>\n            <td>:\n                <xsl:value-of select=\"*/common/deposit\" />\n            </td>\n        </tr>\n        <tr>\n            <td>Accumulation Period</td>\n            <td>:\n                <xsl:value-of select=\"*/common/accPeriod\" />\n            </td>\n            <td></td>\n            <td></td>\n        </tr>\n        <tr>\n            <td>Income Payout Period</td>\n            <td>:\n                <xsl:value-of select=\"*/common/payoutTerm\" />\n            </td>\n            <td></td>\n            <td></td>\n        </tr>\n        <tr>\n            <td>\n                <br/>\n            </td>\n            <td></td>\n            <td></td>\n            <td></td>\n        </tr>\n        <tr>\n            <td>\n                <xsl:value-of select=\"*/common/premiumType\" /> Premium</td>\n            <td>: \n                $<xsl:value-of select=\"*/common/typePremium\" />\n            </td>\n            <td></td>\n            <td></td>\n        </tr>\n        <tr>\n            <td>Payment Mode</td>\n            <td>:\n                <xsl:value-of select=\"*/common/paymentMode\" />\n            </td>\n            <td></td>\n            <td></td>\n        </tr>\n        <tr>\n            <td>Sum Assured<sup>*</sup></td>\n            <td>: \n               $<xsl:value-of select=\"*/common/sumAssured\" />\n            </td>\n            <td></td>\n            <td></td>\n        </tr>\n        <tr>\n            <td>\n                <br/>\n            </td>\n            <td></td>\n            <td></td>\n            <td></td>\n        </tr>\n        <tr>\n            <td>Guaranteed Annual Income</td>\n            <td>: \n                $<xsl:value-of select=\"*/common/annualIncome\" />\n            </td>\n            <td></td>\n            <td></td>\n        </tr>\n        <tr>\n            <td>Policy Currency</td>\n            <td>: Singapore Dollars</td>\n            <td></td>\n            <td></td>\n        </tr>\n        <tr>\n            <td>\n                <br/>\n            </td>\n            <td></td>\n            <td></td>\n            <td></td>\n        </tr>\n    </table>\n    <div class=\"sectionSpace\" />\n    <div class=\"b\"><strong><u>Summary of Income Payout and Non-guaranteed Bonuses</u></strong></div>\n    <div class=\"sectionSpace\" />\n    <div style=\"border: solid 1px; margin-top:5px; padding:5px; \">\n        <table class=\"w100\">\n            <colgroup>\n                <col style=\"width:2%\" />\n                <col style=\"width:80%\" />\n                <col style=\"width:17%\" />\n                <col style=\"width:1%\" />\n            </colgroup>\n    \n            <tr>\n                <td class=\"b\" colspan=\"5\">Guaranteed Annual Income : Paid Out</td>\n            </tr>\n            <tr>\n                <td colspan=\"5\">\n                    <br/>\n                </td>\n            </tr>\n            <tr>\n                <td colspan=\"5\">The below assumes the Guaranteed Annual Income is payout at the Policy Anniversary immediately after the end of Payment Term and Accumulation Period (if any).</td>\n            </tr>\n            <tr>\n                <td colspan=\"5\">\n                    <br/>\n                </td>\n            </tr>\n            <tr>\n                <td></td>\n                <td>Total Premiums Paid for AXA Retire Treasure [A]</td>\n                <td>: \n                    $<xsl:value-of select=\"*/cover/retireSol/poPremiums\" />\n                </td>\n                <td></td>\n            </tr>\n            <tr>\n                <td></td>\n                <td>\n                    <br/>\n                </td>\n                <td></td>\n                <td></td>\n            </tr>\n            <tr>\n                <td></td>\n                <td>Total Guaranteed Annual Income [B]</td>\n                <td>: \n                    $<xsl:value-of select=\"*/cover/retireSol/poGRetireInc\" />\n                </td>\n                <td></td>\n            </tr>\n            <tr>\n                <td></td>\n                <td>Non-guaranteed Bonus at 4.75% p.a.<sup>1</sup> [C]</td>\n                <td>: \n                    $<xsl:value-of select=\"*/cover/retireSol/poNGRetireInc\" />\n                </td>\n                <td></td>\n            </tr>\n            <tr>\n                <td></td>\n                <td>Total Projected Benefit Payout [D] = [B] + [C]</td>\n                <td>: \n                    $<xsl:value-of select=\"*/cover/retireSol/poPayout\" />\n                </td>\n                <td></td>\n                <td></td>\n            </tr>\n            <tr>\n                <td></td>\n                <td>\n                    <br/>\n                </td>\n                <td></td>\n                <td></td>\n            </tr>\n            <tr>\n                <td></td>\n                <td>Total Projected Payout Ratio [D] / [A] </td>\n                <td>:\n                    <xsl:value-of select=\"*/cover/retireSol/poPayoutRatio\" /> %</td>\n                <td></td>\n            </tr>\n            <tr>\n                <td></td>\n                <td>Guaranteed Rate of Return to You</td>\n                <td>:\n                    <xsl:value-of select=\"*/cover/retireSol/poGR\" /> %</td>\n                <td></td>\n            </tr>\n            <tr>\n                <td></td>\n                <td>Total Rate of Return to You at\n                    <xsl:value-of select=\"*/common/highIRR\" />% p.a.<sup>1</sup></td>\n                <td>:\n                    <xsl:value-of select=\"*/cover/retireSol/poROR\" /> %</td>\n                <td></td>\n            </tr>\n        </table>\n    </div>\n\n    <xsl:if test=\"*/common/checkeddeposit='Y'\">\n\t\n\t\n       <div style=\"page-break-inside:avoid;\">\n\t\t\n\t\t<table class=\"w100\" style=\"border-bottom: solid 1pt black\">\n        <colgroup>\n            <col style=\"width:25%\" />\n            <col style=\"width:30%\" />\n            <col style=\"width:20%\" />\n            <col style=\"width:25%\" />\n        </colgroup>\n        <thead>\n            <tr>\n                <th colspan=\"4\" style=\"text-align: center; width: 100%; padding-bottom: 10px;\">\n                    <strong>MAIN POLICY ILLUSTRATION</strong>\n                </th>\n            </tr>\n\n            <tr>\n                <td class=\"vtop b  tleft\">Proposal on the life of</td>\n                <td class=\"vtop b  tleft\">:\n                    <xsl:value-of select=\"*/cover/insured/name\" />\n                </td>\n                <td class=\"vtop b  tleft\">Date</td>\n                <td class=\"vtop b tleft\">:\n                    <xsl:value-of select=\"*/common/genDate\" />\n                </td>\n            </tr>\n            <tr>\n                <td class=\"vtop b  tleft\">Gender</td>\n                <td class=\"vtop b  tleft\">:\n                    <xsl:value-of select=\"*/cover/insured/gender\" />\n                    (<xsl:value-of select=\"*/cover/insured/smoking\" />) </td>\n                <td class=\"vtop b tleft\">Age</td>\n                <td class=\"vtop b tleft\">:\n                    <xsl:value-of select=\"*/cover/insured/age\" /> (as at\n                    <xsl:value-of select=\"*/cover/riskCommenDate\" />)</td>\n            </tr>\n            <tr>\n                <th colspan=\"4\">\n                    <br/>\n                </th>\n            </tr>\n        </thead>\n\t\t</table>\n\t\t<div class=\"sectionSpace\" />\t\n\t\t<div style=\"border: solid 1px; margin-top:8px; margin-bottom:8px; padding:5px;\">\n            <table class=\"w100\">\n                 <colgroup>\n                <col style=\"width:2%\" />\n                <col style=\"width:80%\" />\n                <col style=\"width:17%\" />\n                <col style=\"width:1%\" />\n            </colgroup>\n                <tr>\n                    <td class=\"b\" colspan=\"5\">Re-deposit Guaranteed Annual Income</td>\n                </tr>\n                <tr>\n                    <td colspan=\"5\">\n                        <br/>\n                    </td>\n                </tr>\n                <tr>\n                    <td colspan=\"5\">The below assumes the Guaranteed Annual Income is re-deposited with us for\n                        <xsl:value-of select=\"*/common/Redeposit_Period\" /> year(s) at non-guaranteed interest rate of 3.00% p.a.\n                    </td>\n                </tr>\n                <tr>\n                    <td colspan=\"5\">\n                        <br/>\n                    </td>\n                </tr>\n                <tr>\n                    <td></td>\n                    <td>Total Premiums Paid for AXA Retire Treasure [E]</td>\n                    <td>: \n                        $<xsl:value-of select=\"*/cover/retireSol/acPremiums\" />\n                    </td>\n                    <td></td>\n                </tr>\n                <tr>\n                    <td></td>\n                    <td>\n                        <br/>\n                    </td>\n                    <td></td>\n                    <td></td>\n                </tr>\n                <tr>\n                    <td></td>\n                    <td>Total Guaranteed Annual Income [F]</td>\n                    <td>: \n                        $<xsl:value-of select=\"*/cover/retireSol/acGRetireInc\" />\n                    </td>\n                    <td></td>\n                </tr>\n                <tr>\n                    <td></td>\n                    <td>Non-guaranteed Bonus inclusive of interest on Re-deposited Guaranteed Annual Income [G] <sup>2</sup></td>\n                    <td>: \n                        $<xsl:value-of select=\"*/cover/retireSol/acNGRetireInc\" />\n                    </td>\n                    <td></td>\n                </tr>\n                <tr>\n                    <td></td>\n                    <td>Total Projected Benefit Payout [H] = [F] + [G]</td>\n                    <td>: \n                        $<xsl:value-of select=\"*/cover/retireSol/acPayout\" />\n                    </td>\n                    <td></td>\n                </tr>\n                <tr>\n                    <td></td>\n                    <td>\n                        <br/>\n                    </td>\n                    <td></td>\n                    <td></td>\n                </tr>\n                <tr>\n                    <td></td>\n                    <td>Total Projected Payout Ratio [H] / [E]</td>\n                    <td>:\n                        <xsl:value-of select=\"*/cover/retireSol/acPayoutRatio\" /> %</td>\n                    <td></td>\n                </tr>\n                <tr>\n                    <td></td>\n                    <td>Total Rate of Return to You at\n                        <xsl:value-of select=\"*/common/highIRR\" />% p.a.<sup>1</sup></td>\n                    <td>:\n                        <xsl:value-of select=\"*/cover/retireSol/acROR\" /> %</td>\n                    <td></td>\n                </tr>\n            </table>\n        </div>\n\t\t</div>\n    </xsl:if>\n    <div class=\"sectionSpace\" />\n    <table class=\"w100\">\n\n        <tr>\n            <td>1. This refers to the Illustrated Investment Rate of Return.</td>\n        </tr>\n        <xsl:if test=\"*/common/checkeddeposit='Y'\">\n            <tr>\n                <td>2. Guaranteed Annual Income will be re-deposited after the end of Payment Term and Accumulation Period (if any). The re-deposited Guaranteed Annual Income will accumulate at a non-guaranteed interest rate of 3.00% p.a., under the Illustrated\n                    Investment Rate of Return of 4.75% p.a. and paid out after the end of the re-deposit period.</td>\n            </tr>\n        </xsl:if>\n        <tr>\n            <td><sup>*</sup> Sum Assured is a notional value used solely for the calculation of reversionary and terminal bonuses and it is not the amount payable on the insured event.</td>\n        </tr>\n    </table>\n</div>"
        ],
        "zh-Hant": []
    },
    "type": "pdfTemplate",
    "version": 1
}