{
    "compCode": "08",
    "effDate": "2018-01-08 15:21:13",
    "expDate": "2019-01-08 17:51:33",
    "fHeight": "",
    "footer": {
        "en": "<p>test</p>",
        "zh-Hant": "<p></p>"
    },
    "hHeight": "",
    "header": {
        "en": "<div style=\"height: 8px;\"/>\n<table style=\"width: 100%;\">\n<tr>\n<td>\n<div class=\"fx-intro-logo\"/>\n</td>\n</tr>\n</table>",
        "zh-Hant": "<p></p>"
    },
    "isMasterData": true,
    "lastUpdatedTime": "2018-09-03T09:09:00.179Z",
    "launchDate": "2018-01-08 17:51:13",
    "pdfCode": "FX_PROD_SUM",
    "pdfName": {
        "en": "Product Summary Cover Page",
        "zh-Hant": "-",
        "zh-tw": "-"
    },
    "ref_no": "FX_PROD_SUM_001",
    "releaseDate": "2018-04-16 14:42:35",
    "remarks": {
        "en": "-",
        "zh-tw": "-"
    },
    "status": "A",
    "style": ".vpd8{margin:8px 0;}",
    "task_desc": "FX_PROD_SUM",
    "template": {
        "en": [
            "<div class=\"tcenter b\">PRODUCT SUMMARY COVER PAGE</div>\n<table class=\"w100\" style=\"margin-top: 16px;\">\n    <tr>\n        <td class=\"vtop\" style=\"width: 25%;\">\n            <div class=\"b u\">Presented to:<br/></div>\n        </td>\n        <td class=\"vtop\">\n            <div class=\"vpd8\"></div>\n        </td>\n    </tr>\n    <xsl:if test=\"*/mainInfo/sameAs='N'\">\n        <tr>\n            <td class=\"vtop\">\n                <div class=\"vpd8\">Name of Proposer<br/></div>\n            </td>\n            <td class=\"vtop\">\n                <div class=\"vpd8\">:\n                    <xsl:value-of select=\"*/cover/proposer/name\" />\n                </div>\n            </td>\n        </tr>\n    </xsl:if>\n    <tr>\n        <td class=\"vtop\" style=\"width: 25%;\">\n            <div class=\"vpd8\">Name of Life Assured<br/> </div>\n        </td>\n        <td class=\"vtop\">\n            <div class=\"vpd8\">:\n                <xsl:value-of select=\"*/cover/insured/name\" />\n            </div>\n        </td>\n    </tr>\n</table>\n<div class=\"b u\">Your Plan and Rider(s):</div>\n<xsl:for-each select=\"*/cover/plans\">\n    <div>\n        <xsl:value-of select=\"name\" />\n    </div>\n</xsl:for-each>\n<br/>\n<br/>\n<div class=\"b u\">Client(s) Acknowledgement of Product Summary: </div>\n<br/>\n<table class=\"w100\">\n    <tr>\n        <td class=\"vtop w24\">1.</td>\n        <td class=\"vtop\">\n            <div>I / We confirm that I / We have received all pages of the Benefit Illustration for the basic plan / all riders listed above, where applicable.</div>\n            <br/>\n        </td>\n    </tr>\n    <tr>\n        <td class=\"vtop w24\">2.</td>\n        <td class=\"vtop\">\n            <div>I / We confirm that I / We have received all pages of the Product Summary for the basic plan and riders listed above where applicable, and all Product Highlight Sheet(s) of the selected fund(s) (applicable only to investment-linked plan).</div>\n            <br/>\n        </td>\n    </tr>\n    <tr>\n        <td class=\"vtop w24\">3.</td>\n        <td class=\"vtop\">\n            <div>The terms and conditions of the policy and riders (if applicable) as set out in the Product Summary and Product Highlight Sheet(s) have been explained to me / Us and that I / We understand the features of the policy and riders (if applicable),\n                including the applicable fees and charges.</div>\n            <br/>\n        </td>\n    </tr>\n</table>\n\n<xsl:if test=\"not(*/mainInfo/quickQuote='Y')\">\n    <div class=\"global_prodSumm\" style=\"position:absolute; bottom: 0px;\">\n        <div style=\"width: 100%;\">\n            <table style=\"text-align: left; table-layout: fixed; width: 100%; font-size: 10pt; margin: 0 auto;\">\n                <tbody>\n                    <tr style=\"color: white;\">\n                        <td style=\"padding-left: 50px;\">\n                            <div style=\"border-bottom: solid 1px black; width: 80%;\">ADVISOR_SIGNATURE</div>\n                        </td>\n                        <td style=\"padding-left: 50px;\">\n                            <div style=\"border-bottom: solid 1px  black; width: 80%;\">PROPOSER_SIGNATURE</div>\n                        </td>\n                    </tr>\n                    <tr>\n                        <td style=\"padding-left: 50px; padding-top: 10px;\">Adviser's Signature</td>\n                        <td style=\"padding-left: 50px; padding-top: 10px;\">Proposer's Signature</td>\n                    </tr>\n                    <tr>\n                        <td style=\"padding-left: 50px;\">Date:</td>\n                        <td style=\"padding-left: 50px;\">Date:</td>\n                    </tr>\n                </tbody>\n            </table>\n        </div>\n    </div>\n</xsl:if>\n"
        ],
        "zh-Hant": []
    },
    "type": "pdfTemplate",
    "updatedBy": "mandy",
    "version": 1
}