{
    "compCode": "08",
    "expDate": "2047-02-01 08:14:40",
    "footer": {
        "en": "\n<div class=\"global_intro\">\n<xsl:if test=\"*/mainInfo/quickQuote='Y'\">\n<table style=\"text-align: left; table-layout: fixed; width: 100%; font-size: 10pt; margin: 0 auto;\">\n<tbody>\n<tr style=\"color: white;\">\n<td style=\"padding-left: 50px;\">\n<div style=\"border-bottom: solid 1px black; width: 80%;\">1</div>\n</td>\n<td style=\"padding-left: 50px;\">\n<div style=\"border-bottom: solid 1px black; width: 80%;\">2</div>\n</td>\n</tr>\n<tr>\n<td style=\"padding-left: 50px; padding-top: 3px;\">Adviser's Signature</td>\n<td style=\"padding-left: 50px; padding-top: 3px;\">Proposer's Signature</td>\n</tr>\n<tr>\n<td style=\"padding-left: 50px;\">Date:</td>\n<td style=\"padding-left: 50px;\">Date:</td>\n</tr>\n</tbody>\n</table>\n</xsl:if>\n<table style=\"width: 100%; font-size: 10pt;\">\n<tbody>\n<tr>\n<td style=\"width: 49.8018%;\"><strong>Page [[@PAGE_NO]] of [[@TOTAL_PAGE]]</strong></td>\n<td style=\"text-align: right; width: 46.1982%;\">Release Version <xsl:value-of select=\"*/releaseVersion\"/></td>\n</tr>\n</tbody>\n</table>\n<p></p>\n<div style=\"text-align: center;\"><xsl:value-of select=\"*/footer/compName\"/> (Co. Reg. No. <xsl:value-of select=\"*/footer/compRegNo\"/>)</div>\n<div style=\"text-align: center;\"><xsl:value-of select=\"*/footer/compAddr\"/></div>\n<div style=\"text-align: center;\"><xsl:value-of select=\"*/footer/compAddr2\"/> TEL: <xsl:value-of select=\"*/footer/compTel\"/> FAX: <xsl:value-of select=\"*/footer/compFax\"/></div>\n<div style=\"text-align: center;\"><xsl:value-of select=\"*/footer/compWeb\"/></div>\n</div>",
        "zh-Hant": "<p></p>"
    },
    "formulas": {
        "prepareReportData": "function (quotation, planInfo, planDetails, extraPara) {}"
    },
    "header": {
        "en": "<table style=\"width: 100%;\">\n<tbody>\n<tr>\n<td><div class=\"awt-intro-logo\"></div></td>\n<td style=\"float: right; width: 200px;\"></td>\n</tr>\n</tbody>\n</table>\n<p></p>",
        "zh-Hant": "<p></p>"
    },
    "launchDate": "2018-02-01 08:14:16",
    "pdfCode": "AWT_INTRO_IMPORT_NOTES",
    "pdfName": {
        "en": "AWT Introduction and Important Notes",
        "zh-Hant": "AWT Introduction and Important Notes",
        "zh-tw": "AWT Introduction and Important Notes"
    },
    "releaseDate": "2019-01-08 10:21:08",
    "remarks": {
        "en": "AWT Introduction and Important Notes"
    },
    "status": "A",
    "style": "",
    "template": {
        "en": [
            "<div class=\"global_main\">\n\n\n    <table class=\"w100\">\n        <colgroup>\n            <col style=\"width:30%\"/>\n            <col style=\"width:32%\"/>\n            <col style=\"width:7%;\"/>\n            <col style=\"width:31%\"/>\n        </colgroup>\n        \n        <thead>\n            <tr>\n                <th colspan=\"4\" style=\"text-align: center; padding-bottom: 10px;\">\n                    <strong>MAIN POLICY ILLUSTRATION</strong>\n                </th>\n            </tr>\n            \n            <tr>\n                <th colspan=\"2\" class=\"vtop vpd2 b tleft\">\n                    <span>Proposal on the life of: </span>\n                    <span><xsl:value-of select=\"*/cover/insured/name\"/></span>\n                </th>\n                                \n                <th class=\"vtop vpd2 b tleft\">\n                    <span>Date</span>\n                </th>\n                <th class=\"vtop vpd2 tleft\">\n                    <span>:\n                        <xsl:value-of select=\"*/cover/genDate\" />\n                    </span>\n                </th>\n            </tr>\n                        \n            <tr style=\"border-bottom: solid 1pt black\">\n                <th colspan=\"2\" class=\"vtop vpd2 b tleft\">\n                    <span>Gender: </span>\n                    <span>\n                        <xsl:value-of select=\"*/cover/insured/gender\" /> \n                        (<xsl:value-of select=\"*/cover/insured/smoking\" />)\n                    </span>\n                </th>\n                <th class=\"vtop vpd2 b tleft\">\n                    <span>Age</span>\n                </th>\n                <th class=\"vtop vpd2 tleft\">\n                    <span>:\n                        <xsl:value-of select=\"*/cover/insured/age\" /> (As At\n                        <xsl:value-of select=\"*/cover/riskCommenDate\" />)\n                    </span>\n                </th>\n            </tr>\t\n        </thead>\n                    \n        <tbody>\t\t\t\n            <tr>\n                <td colspan=\"4\">\n                    <div id=\"page1\">\n                        <p><strong>INTRODUCTION</strong></p>\n                        \n                        <p></p>\n                        <p>AXA Insurance Pte Ltd believes that it is important that \n                        you fully appreciate the benefits of your policy. You should \n                        also understand how the cost of your insurance cover and the \n                        expenses of administration and sales affect the benefits that \n                        you will receive.</p>\n    \n                        <p>The illustration that follows shows how the value of your \n                        policy progresses over time and the sum(s) that would be \n                        payable. The methods used to derive the values shown follow \n                        guidelines established by the Life Insurance Association, \n                        Singapore, to ensure that a fair and consistent approach is \n                        used in preparing this illustration.</p>\n    \n                        <p>Buying a life insurance policy can be a long-term commitment. \n                        An early termination of the policy usually involves high costs \n                        and the surrender value payable may be less than the total \n                        premiums paid.</p>\n    \n                        <p>If you need clarification please do not hesitate to ask \n                        your financial adviser.</p>\n    \n                        <p>This Policy is protected under the Policy Owners’ Protection \n                        Scheme which is administered by the Singapore Deposit \n                        Insurance Corporation (SDIC). Coverage for your policy is \n                        automatic and no further action is required from you. \n                        For more information on the types of benefits that are covered \n                        under the scheme as well as the limits of coverage, \n                        where applicable, please contact AXA Insurance Pte Ltd or \n                        visit the LIA or SDIC web-sites (<a class=\"link\" herf=\"www.lia.org.sg\">www.lia.org.sg</a> or\n                            <a class=\"link\" herf=\"www.sdic.org.sg\">www.sdic.org.sg</a>).</p>\n                    </div>\n                    \n                    <div id=\"page2\" class=\"pagebreak\">\n                        <p><strong>IMPORTANT NOTES </strong></p>\n                        \n                        <table class=\"w100\">\n                            <colgroup>\n                                <col style=\"width:3%\" />\n                                <col style=\"width:97%\" />\n                            </colgroup>\n                            \n                            <tr>\n                                <td class=\"vtop\">1.</td>\n                                <td>\n                                    The illustrations in the tables above are based on \n                                    illustrated investment returns of\n                                    <xsl:value-of select=\"*/aror/low\" />% p.a. and\n                                    <xsl:value-of select=\"*/aror/high\" />% p.a. The two rates \n                                    of returns are purely for illustrative purposes. The actual \n                                    rate may be higher or lower. The actual benefits payable \n                                    will depend on the actual performance of the underlying \n                                    assets of the fund(s). The performance of the fund(s) \n                                    is/are not guaranteed and the surrender value may be less \n                                    than the capital invested.\n                                    <br/><br/>\n                                </td>\n                            </tr>\n                        \n                            <tr>\n                                <td class=\"vtop\">2.</td>\n                                <td>\n                                    The quotation is applicable to standard life.\n                                    <br/><br/>\n                                </td>\n                            </tr>\n                            <tr>\n                                <td class=\"vtop\">3.</td>\n                                <td>\n                                    The quotation is for illustrative purposes \n                                    only and is not a contract of assurance. \n                                    The precise terms and conditions of this \n                                    plan are specified in the policy contract.\n                                    <br/><br/>\n                                </td>\n                            </tr>\n                            <tr>\n                                <td class=\"vtop\">4.</td>\n                                <td>\n                                    Buying a life insurance policy is a long-term \n                                    commitment. An early termination of the policy \n                                    usually involves high costs and the surrender \n                                    value payable, if any, may be less than \n                                    total premiums paid.\n                                    <br/><br/>\n                                </td>\n                            </tr>\n                            <tr>\n                                <td class=\"vtop\">5.</td>\n                                <td>\n                                    Figures shown in this main illustration table \n                                    assume that no withdrawal of funds have been \n                                    made during the term of the policy.\n                                    <br/><br/>\n                                </td>\n                            </tr>\n                            <tr>\n                                <td class=\"vtop\">6.</td>\n                                <td>\n                                    Please note the lapsation and termination \n                                    clauses in the product summary and policy contract.\n                                    <br/><br/>\n                                </td>\n                            </tr>\n                            <tr>\n                                <td class=\"vtop\">7.</td>\n                                <td>\n                                    All figures quoted are based on the selected \n                                    policy currency.\n                                    <br/><br/>\n                                </td>\n                            </tr>\n                            \n                            <tr>\n                                <td class=\"vtop\">8.</td>\n                                <td>\n                                    Figures shown in the illustration tables assume the \n                                    payment of Start-up Bonus and Loyalty Bonus (if any) \n                                    as applicable to your plan.\n                                    <br/><br/>\n                                </td>\n                            </tr>\t\t\t\t\t\n                            \n                            <tr>\n                                <td class=\"vtop\">9.</td>\n                                <td>\n                                    For the avoidance of doubt, the figures shown for \n                                    the Non-guaranteed Surrender Values in the last year \n                                    of the Premium Payment Term (\"PPT\") does not take into \n                                    account the applicable surrender charges \n                                    (the Early Encashment Charges) for the Policy, as it is \n                                    assumed that there will be no surrender in that particular year. \n                                    However, please note that in the event you do surrender \n                                    the Policy at any time before the end of the PPT, \n                                    we will levy surrender charges on the Policy payout.\n                                    <br/><br/>\n                                </td>\n                            </tr>\n                            \n                            <tr>\n                                <td class=\"vtop\">10.</td>\n                                <td>\n                                    All other figures in the illustration for \n                                    Non-guaranteed Surrender Values have already taken into \n                                    account the surrender charges (the Early Encashment Charges) \n                                    for the Policy, if the Policy is surrendered at any time \n                                    before the end of the PPT.\n                                    <br/><br/>\n                                </td>\n                            </tr>\n                            \n                            <tr>\n                                <td class=\"vtop\">11.</td>\n                                <td>\n                                    The illustrated Account Value under different \n                                    illustrated investment rates of return may or may not \n                                    be sufficient to carry out your requested Regular Withdrawal \n                                    amount (if any) throughout the requested Regular Withdrawal \n                                    duration. Please refer to the Supplementary Illustration \n                                    (Regular Withdrawal) page for more details of how long the \n                                    Account Value may sustain your requested Regular Withdrawal.\n                                    <br/><br/>\n                                </td>\n                            </tr>\n                            \n                        </table>\n                    </div>\n                </td>\n            </tr>\n                    \n        </tbody>\n            \n            \n    </table>\n    \n    </div>"
        ],
        "zh-Hant": []
    },
    "type": "pdfTemplate",
    "version": 1
}