{
    "allowBackdate": "N",
    "budgetRules": [
        "RP",
        "SP"
    ],
    "calcAgeMethod": "nearest",
    "ccyDesc": {},
    "classInd": "N",
    "classSecDesc": {},
    "compCode": "08",
    "corpInd": "N",
    "covCode": "UNBN",
    "covName": {
        "en": "Premium Waiver (UN)",
        "zh-Hant": "Premium Waiver (UN)"
    },
    "create": "Danny.Yuen  on 05 Jan 2018 16:14:49",
    "ctyGroup": [
        "*"
    ],
    "currencies": [
        {
            "ccy": [
                "SGD",
                "USD",
                "GBP",
                "AUD",
                "EUR"
            ],
            "country": "*"
        }
    ],
    "dealerGroup": [
        "AGENCY",
        "DIRECT",
        "SINGPOST",
        "BROKER",
        "FUSION",
        "SYNERGY"
    ],
    "effDate": "2016-08-24 00:00:00",
    "entryAge": [],
    "expDate": "2047-01-05 16:14:28",
    "formulas": {
        "calcQuotFunc": "function (quotation, planInfo, planDetails) { var baseProductCode = quotation.baseProductCode; if (baseProductCode === 'ESP') { if (quotation.plans[0] && quotation.plans[0].premTerm === 5) { planInfo.policyTerm = quotation.plans[0].premTerm + '_YR'; } else if (quotation.plans[0] && quotation.plans[0].premTerm === 10) { if (quotation.pAge >= 18 && quotation.pAge <= 40) { planInfo.policyTerm = quotation.plans[0].premTerm + '_YR'; } else if (quotation.pAge >= 41 && quotation.pAge <= 45) { planInfo.policyTerm = (50 - quotation.pAge) + '_TA'; } } planInfo.premTerm = planInfo.policyTerm; if (quotation.plans[0].premium) { quotCalc.calcPlanPrem(quotation, planInfo, planDetails); } } else { var planDetail = planDetails[planInfo.covCode]; var planInfo = _.find(quotation.plans, p => p.covCode === planDetail.covCode); if (quotation.policyOptions.planType === 'renew' && planDetail.inputConfig && planDetail.inputConfig.policyTermList && planDetail.inputConfig.policyTermList[0]) { planInfo.policyTerm = planDetail.inputConfig.policyTermList[0].value; } planInfo.premTerm = planInfo.policyTerm; if (quotation.plans[0].premium) { quotCalc.calcPlanPrem(quotation, planInfo, planDetails); } }}",
        "getAnnualBenefit": "function (quotation, planInfo, year, extraPara) {var indexation = quotation.policyOptions.indexation === 'Y'; var annualBenefit = math.bignumber(0); _.each(extraPara.illustrations, (ills, covCode) => { var ill = ills[year - 1]; if (ill) { if (covCode === quotation.baseProductCode) { annualBenefit = math.add(annualBenefit, math.bignumber(indexation ? ills[0].yearPrem : ill.yearPrem)); } else if (covCode === 'SV') { annualBenefit = math.add(annualBenefit, math.bignumber(indexation ? ills[0].yearPrem : ill.yearPrem)); } else if (covCode !== planInfo.covCode) { annualBenefit = math.add(annualBenefit, math.bignumber(ill.yearPrem)); } } }); return annualBenefit;}",
        "getCommRates": "function (quotation, planInfo, planDetails) {var rateKey = 'RP_'; var polYrs = planInfo.policyTerm.endsWith('_YR') ? Number.parseInt(planInfo.policyTerm) : Number.parseInt(planInfo.policyTerm) - quotation.iAge; switch (quotation.dealerGroup) { case 'SYNERGY': rateKey += 'AGENCY'; break; case 'FUSION': rateKey += 'BROKER'; break; default: rateKey += quotation.dealerGroup; } var rateTable = planDetails[planInfo.covCode].rates.commRates[rateKey]; var commRates = []; if (rateTable) { var maxTerm = 0; _.each(rateTable, (rates, key) => { var rateTerm = Number(key); if (polYrs >= rateTerm && rateTerm > maxTerm) { commRates = [].concat(rates); maxTerm = rateTerm; } }); } if (commRates[commRates.length - 1]) { for (var i = commRates.length; i < 99; i++) { commRates.push(commRates[i - 1]); } } return commRates;}",
        "getESPPremRate": "function (quotation, planInfo, planDetail, age) { var roundUp = function (value, digit) { var scale = Math.pow(10, digit); if (digit === 0) { return Math.ceil(value); } else { return Math.ceil(number * scale) / scale; } }; var round = function (value, digit) { var scale = math.pow(10, digit); return math.divide(math.round(math.multiply(value, scale)), scale); }; var rateKey; if (planInfo.policyTerm.indexOf('YR') > -1) { rateKey = 'UNB'; } else { rateKey = 'UNBN'; }var maturityAge = quotation.pAge + Number.parseInt(planInfo.policyTerm); rateKey += '_' + quotation.pGender; rateKey += quotation.pSmoke === 'Y' ? 'S' : 'NS'; var rates = planDetail.rates.premRate[rateKey]; var netAnnualPremium = 0; var verticalKey; var horizontalKey; horizontalKey = age - 18; verticalKey = Number.parseInt(planInfo.policyTerm); if (planInfo.policyTerm.indexOf('YR') > -1) { netAnnualPremium = rates[verticalKey][horizontalKey]; } else { netAnnualPremium = rates[maturityAge][horizontalKey]; } return netAnnualPremium;}",
        "getPremRate": "function (quotation, planInfo, planDetail, age) {var roundUp = function (value, digit) { var scale = Math.pow(10, digit); if (digit === 0) { return Math.ceil(value); } else { return Math.ceil(number * scale) / scale; } }; var round = function(value, digit) { var scale = math.pow(10, digit); return math.divide(math.round(math.multiply(value, scale)), scale); }; var rateKey; if (planInfo.policyTerm.indexOf('YR') > -1 || quotation.policyOptions.planType === 'renew') { rateKey = 'UNB'; } else { rateKey = 'UNBN'; } rateKey += '_' + quotation.iGender; rateKey += quotation.iSmoke === 'Y' ? 'S' : 'NS'; var rates = planDetail.rates.premRate[rateKey]; var maturityAge = (planInfo.policyTerm.indexOf('TA') > -1) ? Number.parseInt(planInfo.policyTerm) : quotation.iAge + Number.parseInt(planInfo.policyTerm); var Term_WU = maturityAge - quotation.iAge; var netAnnualPremium = 0; var verticalKey; var horizontalKey; if (planInfo.policyTerm.indexOf('YR') > -1 || quotation.policyOptions.planType === 'renew') { horizontalKey = age - 18; verticalKey = math.multiply(roundUp(math.divide(Term_WU, 5), 0), 5); netAnnualPremium = rates[verticalKey][horizontalKey]; } else { horizontalKey = age - 18; verticalKey = maturityAge; netAnnualPremium = rates[verticalKey][horizontalKey]; } var loadingKey = '1'; var substdClsMapping = planDetail.rates.substdCls[quotation.iResidence]; if (substdClsMapping) { loadingKey = substdClsMapping[quotation.iResidenceCity] || substdClsMapping.ALL || '1'; } var loadingFactor = planDetail.rates.premRate.UNB_SUBSTANDARD_LOADING[loadingKey] || 1; return round(math.multiply(netAnnualPremium, loadingFactor), 2);}",
        "illustrateFunc": "function (quotation, planInfo, planDetails, extraPara) { var roundDown = function (value, digit) { var scale = math.pow(10, digit); return math.divide(math.floor(math.multiply(value, scale)), scale); }; if (quotation.baseProductCode === 'ESP') { return []; } else { var planDetail = planDetails[planInfo.covCode]; var planType = quotation.policyOptions.planType; var indexation = quotation.policyOptions.indexation === 'Y'; var polYrs = planInfo.policyTerm.endsWith('_YR') ? Number.parseInt(planInfo.policyTerm) : Number.parseInt(planInfo.policyTerm) - quotation.iAge; var premYrs; if (planInfo.premTerm === 'SP') { premYrs = 1; } else if (planInfo.premTerm.endsWith('_YR')) { premYrs = Number.parseInt(planInfo.premTerm); } else { premYrs = Number.parseInt(planInfo.premTerm) - quotation.iAge; } var sumInsured = planInfo.sumInsured; var illYrs; if (planType === 'renew') { illYrs = Math.min((Math.floor((45 - quotation.iAge) / polYrs) + 1) * polYrs, 50 - quotation.iAge); } else { illYrs = polYrs; } var bpPolYrs = quotation.plans[0].policyTerm.endsWith('_YR') ? Number.parseInt(quotation.plans[0].policyTerm) : Number.parseInt(quotation.plans[0].policyTerm) - quotation.iAge; var premRateFirstYr = math.bignumber(runFunc(planDetail.formulas.getPremRate, quotation, planInfo, planDetail, quotation.iAge)); var sumProduct = math.bignumber(0); var yearPrems = [0]; for (var i = 1; i <= illYrs; i++) { var age = quotation.iAge + i - 1; var yearPrem; if (i === 1) { yearPrem = math.bignumber(planInfo.yearPrem); } else { yearPrem = math.bignumber(0); if (planType === 'renew') { if ((i - 1) % bpPolYrs < polYrs) { var rateAge = Math.floor((i - 1) / bpPolYrs) * bpPolYrs + quotation.iAge; var premRate = math.bignumber(runFunc(planDetail.formulas.getPremRate, quotation, planInfo, planDetail, rateAge)); var annualBenefit = roundDown(runFunc(planDetail.formulas.getAnnualBenefit, quotation, planInfo, i, extraPara), 1); yearPrem = roundDown(math.divide(roundDown(math.multiply(premRate, annualBenefit), 2), 100), 2); } } else if (i <= polYrs) { var annualBenefit = roundDown(runFunc(planDetail.formulas.getAnnualBenefit, quotation, planInfo, i, extraPara), 1); var premRate = math.bignumber(runFunc(planDetail.formulas.getPremRate, quotation, planInfo, planDetail, age)); var totIndexPrem = math.bignumber(0); if (extraPara.illustrations[quotation.baseProductCode][i - 1]) { totIndexPrem = math.add(totIndexPrem, math.bignumber(extraPara.illustrations[quotation.baseProductCode][i - 1].indexPrem)); } if (extraPara.illustrations.SV && extraPara.illustrations.SV[i - 1]) { totIndexPrem = math.add(totIndexPrem, math.bignumber(extraPara.illustrations.SV[i - 1].indexPrem)); } sumProduct = math.add(sumProduct, math.multiply(premRate, totIndexPrem)); yearPrem = roundDown(math.divide(roundDown(math.multiply(premRateFirstYr, annualBenefit), 2), 100), 2); yearPrem = math.add(yearPrem, math.divide(sumProduct, 100)); } } yearPrems.push(yearPrem); } var commRates = runFunc(planDetail.formulas.getCommRates, quotation, planInfo, planDetails); var totComms = [0]; for (var i = 1; i <= illYrs; i++) { var commRate = commRates[(i - 1) % polYrs]; if (commRate) { totComms[i] = math.multiply(yearPrems[i], commRate); } } var illustration = []; var illLength = Math.max(totComms.length, yearPrems.length) - 1; for (var i = 0; i < illLength; i++) { illustration.push({ yearPrem: yearPrems[i + 1] ? math.number(yearPrems[i + 1]) : 0, totComm: totComms[i + 1] ? math.number(totComms[i + 1]) : 0 }); } return illustration; }}",
        "polTermsFunc": "function (planDetail, quotation) {var policyTermList = []; var longestPayYear = 0; if (quotation && quotation.plans && quotation.plans.length > 0 && quotation.policyOptions.planType === 'renew') { for (var v in quotation.plans) { var premTerm = quotation.plans[v].premTerm; var covCode = quotation.plans[v].covCode; var policyTermValueAndType = (premTerm) ? premTerm.split('_') : []; if (policyTermValueAndType[0] && policyTermValueAndType[1] && policyTermValueAndType[1] === 'YR' && Number.parseInt(premTerm) > longestPayYear && covCode !== 'UNBN') { longestPayYear = Number.parseInt(premTerm); } else if (policyTermValueAndType[0] && policyTermValueAndType[1] && policyTermValueAndType[1] === 'TA' && (Number.parseInt(premTerm) - quotation.iAge) > longestPayYear && covCode !== 'UNBN') { longestPayYear = Number.parseInt(premTerm) - quotation.iAge; } } var values = [5, 10, 15, 20, 25, 30]; if ((quotation.iAge + longestPayYear) >= 50 && longestPayYear !== 0) { policyTermList.push({ value: 50 + '_TA', title: 'To Age 50', default: true }); } else if (longestPayYear >= 30) { policyTermList.push({ value: 30 + '_YR', title: '30 Years', default: true }); } else if (longestPayYear !== 0) { for (var v in values) { var value = values[v]; var testValue = value - longestPayYear; if ( testValue < 5 && testValue >=0 ) { policyTermList.push({ value: value + '_YR', title: value + ' Years', default: true }); } } } } else if (quotation && quotation.plans && quotation.plans.length > 0 && quotation.policyOptions.planType === 'toAge') { var lpVals = {}; var payYear = null; _.each(quotation.plans, (plan) => { if (plan.covCode !== planDetail.covCode && plan.premTerm) { var premTerm = plan.premTerm; if (premTerm.indexOf('YR') > -1) { lpVals[premTerm] = Number.parseInt(premTerm); payYear = Math.max(payYear, Number.parseInt(premTerm)); } else if (premTerm.indexOf('TA') > -1) { payYear = Math.max(payYear, Number.parseInt(premTerm) - quotation.iAge); } } }); _.each(lpVals, (val) => { if (quotation.pAge + val < 50) { policyTermList.push({ value: val + '_YR', title: val + ' Years' }); } }); if (quotation.iAge + payYear >= 50 && 50 - quotation.iAge >= 5) { policyTermList.push({ value: '50_TA', title: 'To Age 50' }); } } return policyTermList.sort((a, b) => a.value > b.value);}",
        "premFunc": "function (quotation, planInfo, planDetail) { var roundDown = function (value, digit) { var scale = math.pow(10, digit); return math.divide(math.floor(math.multiply(value, scale)), scale); }; var roundUp = function (value, digit) { var scale = Math.pow(10, digit); if (digit === 0) { return Math.ceil(value); } else { return Math.ceil(number * scale) / scale; } }; var numberTrunc = function (value = 0, digit) { value = value.toString(); if (value.indexOf('.') === -1) { return math.bignumber(Number.parseInt(value)); } else { value = value.substr(0, value.indexOf('.') + digit + 1); return math.bignumber(Number.parseFloat(value)); } }; var round = function (value, digit) { var scale = math.pow(10, digit); return math.divide(math.round(math.multiply(value, scale)), scale); }; var premium = null; if (quotation.baseProductCode === 'ESP') { premium = math.number(numberTrunc(math.divide(math.multiply(math.bignumber(runFunc(planDetail.formulas.getESPPremRate, quotation, planInfo, planDetail, quotation.pAge)), math.add(math.bignumber(_.get(quotation, 'plans[0].yearPrem', 0)), math.bignumber(_.get(quotation, 'plans[1].yearPrem', 0)))), 100), 2)); var modalFactor = 1; for (var p in planDetail.payModes) { if (planDetail.payModes[p].mode === quotation.paymentMode) { modalFactor = planDetail.payModes[p].factor; } } premium = (modalFactor === 1) ? premium : roundDown(math.multiply(premium, modalFactor), 2); } else if (planInfo.premTerm && planInfo.policyTerm && quotation.plans[0] && quotation.plans[0].premium) { var covCodeArr = ['TPX', 'TPPX', 'DIS', 'CRX', 'DCB', 'CIP', 'AP', 'SV']; var AB_WU = 0; for (var v in quotation.plans) { if (covCodeArr.indexOf(quotation.plans[v].covCode) > -1) { AB_WU += quotation.plans[v].yearPrem; } } var naP = runFunc(planDetail.formulas.getPremRate, quotation, planInfo, planDetail, quotation.iAge); premium = round(roundDown(math.divide(roundDown(math.multiply(naP, roundDown(AB_WU, 1)), 2), 100), 2), 2); var modalFactor = 1; for (var p in planDetail.payModes) { if (planDetail.payModes[p].mode === quotation.paymentMode) { modalFactor = planDetail.payModes[p].factor; } } premium = (modalFactor === 1) ? premium : roundDown(math.multiply(premium, modalFactor), 2); } else { premium = 0; } return premium;}",
        "premTermsFunc": "",
        "prepareClassConfig": "",
        "prepareSAPremConfig": "",
        "prepareTermConfig": "function (planDetail, quotation, planDetails) { var baseProductCode = quotation.baseProductCode; if (baseProductCode === 'ESP') { let basicDetail = planDetails[quotation.baseProductCode]; let polTermList = []; for (var index = 5; index <= 10; index++) { polTermList.push({ value: index + '_YR', title: index + ' Years', default: true }); polTermList.push({ value: index + '_TA', title: index + ' Years', default: true }); } planDetail.inputConfig.canEditPolicyTerm = false; planDetail.inputConfig.policyTermList = polTermList; planDetail.inputConfig.canEditPremTerm = false; planDetail.inputConfig.premTermList = polTermList; if (basicDetail && basicDetail.policyTerm) { planDetail.policyTerm = basicDetail.policyTerm; } else { planDetail.policyTerm = null; } if (basicDetail && basicDetail.premTerm) { planDetail.premTerm = basicDetail.premTerm; } else { planDetail.premTerm = null; } } else { let polTermList = quotDriver.runFunc(planDetail.formulas.polTermsFunc, planDetail, quotation); if (polTermList && polTermList.length) { for (let p in polTermList) { if (polTermList[p].default) { planDetail.inputConfig.defaultPolicyTerm = polTermList[p].value; break; } } } planDetail.inputConfig.canEditPolicyTerm = quotation.policyOptions.planType === 'toAge'; planDetail.inputConfig.policyTermList = polTermList; let premTermList = [].concat(polTermList); if (premTermList && premTermList.length) { for (let p in premTermList) { if (premTermList[p].default) { planDetail.inputConfig.premTerm = premTermList[p].value; break; } } } planDetail.inputConfig.canEditPremTerm = false; planDetail.inputConfig.premTermList = premTermList; let planInfo = _.find(quotation.plans, p => p.covCode === planDetail.covCode); if (polTermList.length === 1) { planInfo.policyTerm = polTermList[0].value; } else if (planInfo && !polTermList.find((opt) => opt.value === planInfo.policyTerm)) { planInfo.policyTerm = null; } if (premTermList.length === 1) { planInfo.premTerm = premTermList[0].value; } else if (planInfo && !premTermList.find((opt) => opt.value === planInfo.premTerm)) { planInfo.premTerm = null; } }}",
        "saFunc": "",
        "validAfterCalcFunc": "function(quotation, planInfo, planDetail) {/*UNBN validAfterCalcFunc*/ var round = function(number, precision) { var factor = Math.pow(10, precision); return Math.round(number * factor) / factor; }; var paddingZeroStr = function(number) { if (number < 10 && number >= 0) { return '0' + number; } else if (number < 0) { return '00'; } else { return number; } }; var defaultArr = ['ESP']; if (defaultArr.indexOf(quotation.baseProductCode) > -1 && quotation && quotation.plans && quotation.plans.length) { if (planInfo.policyTerm) { var planCode; if (planInfo.policyTerm.indexOf('TA') > -1) { planCode = 'UNB' + paddingZeroStr(Number.parseInt(planInfo.policyTerm) + quotation.iAge); } else { planCode = paddingZeroStr(Number.parseInt(planInfo.policyTerm)) + 'UNBN'; } planInfo.planCode = planCode; } if (!quotation.plans[0].premium) { planInfo.premium = planInfo.yearPrem = planInfo.halfYearPrem = planInfo.quarterPrem = planInfo.monthPrem = quotation.plans[0].premium; } if (planInfo.premium) { planInfo.policyTermYr = Number.parseInt(planInfo.policyTerm); if (planInfo.premTerm === 'SP') { planInfo.premTermYr = 1; } else { planInfo.premTermYr = Number.parseInt(planInfo.premTerm); } } } else if (quotation && quotation.plans && quotation.plans.length && quotation.plans[0].policyTerm) { if (planInfo.policyTerm) { var planCode; if (quotation.plans[0].policyTerm.indexOf('TA') > -1) { var selectedPolicyTermVal = paddingZeroStr(Number.parseInt(planInfo.policyTerm)); if (planInfo.policyTerm.indexOf('TA') > -1) { planCode = 'UNB' + selectedPolicyTermVal; } else { planCode = selectedPolicyTermVal + 'UNBN'; } } else { planCode = paddingZeroStr(Number.parseInt(quotation.plans[0].policyTerm)) + 'UNB'; } planInfo.planCode = planCode; } if (planInfo.premium) { planInfo.policyTermYr = planInfo.policyTerm.endsWith('_YR') ? Number.parseInt(planInfo.policyTerm) : Number.parseInt(planInfo.policyTerm) - quotation.iAge; if (planInfo.premTerm === 'SP') { planInfo.premTermYr = 1; } else if (planInfo.premTerm.endsWith('_YR')) { planInfo.premTermYr = Number.parseInt(planInfo.premTerm); } else { planInfo.premTermYr = Number.parseInt(planInfo.premTerm) - quotation.iAge; } } }}",
        "validBeforeCalcFunc": "",
        "validQuotFunc": "",
        "willValidQuotFunc": ""
    },
    "genderInd": "*",
    "insuredAgeDesc": {},
    "isMasterData": true,
    "jointLives": "N",
    "keyProdFeatures": {
        "en": "Premium Waiver (UN)",
        "zh-Hant": "Premium Waiver (UN)"
    },
    "lastUpdatedTime": "2018-09-03T09:09:00.176Z",
    "levelPrem": {},
    "licence": [
        ""
    ],
    "payMethodsDesc": {},
    "payModeDesc": {},
    "payModes": [
        {
            "covMonth": 12,
            "default": "",
            "factor": 1,
            "mode": "A",
            "operator": "M"
        },
        {
            "covMonth": 6,
            "default": "",
            "factor": 0.51,
            "mode": "S",
            "operator": "M"
        },
        {
            "covMonth": 3,
            "default": "",
            "factor": 0.26,
            "mode": "Q",
            "operator": "M"
        },
        {
            "covMonth": 1,
            "default": "",
            "factor": 0.0875,
            "mode": "M",
            "operator": "M"
        },
        {
            "covMonth": 0,
            "default": "",
            "factor": 1,
            "mode": "L",
            "operator": "M"
        }
    ],
    "paymentMethods": [
        "cash",
        "crCard"
    ],
    "planInd": "R",
    "polMatSameAsPremMat": "N",
    "polMaturities": [],
    "polTermDesc": {},
    "polTermInd": "N",
    "polTermRule": "na",
    "policyMatSameAsBasic": "N",
    "premMatSameAsBasic": "N",
    "premMatSameAsPolMat": "N",
    "premMaturities": [],
    "premTermDesc": {},
    "premTermInd": "N",
    "premTermRule": "na",
    "premType": "L",
    "prodFeature": {},
    "prod_summary": 941168,
    "productCategory": "protectionOnly",
    "productLine": "CIT",
    "rates": {
        "commRates": {
            "RP_AGENCY": {
                "5": [
                    0.8747,
                    0.4196,
                    0.0835,
                    0.0334,
                    0.0334,
                    0,
                    0
                ],
                "6": [
                    0.8747,
                    0.4196,
                    0.0835,
                    0.0334,
                    0.0334,
                    0.0334,
                    0
                ],
                "10": [
                    1.1663,
                    0.6153,
                    0.0835,
                    0.0334,
                    0.0334,
                    0.0334,
                    0
                ],
                "15": [
                    1.3121,
                    0.6629,
                    0.0835,
                    0.0334,
                    0.0334,
                    0.0334,
                    0
                ],
                "20": [
                    1.3121,
                    0.6629,
                    0.0835,
                    0.0334,
                    0.0334,
                    0.0334,
                    0
                ],
                "25": [
                    1.3121,
                    0.6629,
                    0.0835,
                    0.0334,
                    0.0334,
                    0.0334,
                    0
                ]
            },
            "RP_BROKER": {
                "5": [
                    0.823,
                    0.2879,
                    0.0609,
                    0.0332,
                    0.0332,
                    0,
                    0
                ],
                "6": [
                    0.8463,
                    0.2879,
                    0.0609,
                    0.0332,
                    0.0332,
                    0.0332,
                    0
                ],
                "10": [
                    1.0209,
                    0.3322,
                    0.1661,
                    0.0442,
                    0.0442,
                    0.0387,
                    0
                ],
                "15": [
                    1.0559,
                    0.3543,
                    0.1661,
                    0.0553,
                    0.0553,
                    0.0498,
                    0
                ],
                "20": [
                    1.0559,
                    0.3543,
                    0.1661,
                    0.0553,
                    0.0553,
                    0.0498,
                    0
                ],
                "25": [
                    1.0559,
                    0.3543,
                    0.1661,
                    0.0553,
                    0.0553,
                    0.0498,
                    0
                ]
            },
            "RP_DIRECT": {
                "5": [
                    0.823,
                    0.2879,
                    0.0609,
                    0.0332,
                    0.0332,
                    0,
                    0
                ],
                "6": [
                    0.8463,
                    0.2879,
                    0.0609,
                    0.0332,
                    0.0332,
                    0.0332,
                    0
                ],
                "10": [
                    1.0209,
                    0.3322,
                    0.1661,
                    0.0442,
                    0.0442,
                    0.0387,
                    0
                ],
                "15": [
                    1.0559,
                    0.3543,
                    0.1661,
                    0.0553,
                    0.0553,
                    0.0498,
                    0
                ],
                "20": [
                    1.0559,
                    0.3543,
                    0.1661,
                    0.0553,
                    0.0553,
                    0.0498,
                    0
                ],
                "25": [
                    1.0559,
                    0.3543,
                    0.1661,
                    0.0553,
                    0.0553,
                    0.0498,
                    0
                ]
            },
            "RP_SINGPOST": {
                "5": [
                    0.4641,
                    0.0504,
                    0.0224,
                    0.0224,
                    0.0224,
                    0.0224,
                    0
                ],
                "6": [
                    0.4641,
                    0.0504,
                    0.0224,
                    0.0224,
                    0.0224,
                    0.0224,
                    0
                ],
                "10": [
                    0.5559,
                    0.1285,
                    0.0396,
                    0.0282,
                    0.0282,
                    0.0282,
                    0
                ],
                "15": [
                    0.6756,
                    0.1741,
                    0.0679,
                    0.0452,
                    0.0452,
                    0.0452,
                    0
                ],
                "20": [
                    0.6756,
                    0.1741,
                    0.0679,
                    0.0452,
                    0.0452,
                    0.0452,
                    0
                ],
                "25": [
                    0.6756,
                    0.1741,
                    0.0679,
                    0.0452,
                    0.0452,
                    0.0452,
                    0
                ]
            }
        },
        "premRate": {
            "UNBN_FNS": {
                "50": [
                    0.37,
                    0.39,
                    0.43,
                    0.47,
                    0.49,
                    0.52,
                    0.55,
                    0.58,
                    0.62,
                    0.66,
                    0.7,
                    0.74,
                    0.78,
                    0.83,
                    0.87,
                    0.92,
                    0.96,
                    0.99,
                    1.04,
                    1.09,
                    1.14,
                    1.18,
                    1.23,
                    1.31,
                    1.38,
                    1.47,
                    1.54,
                    1.62
                ]
            },
            "UNBN_FS": {
                "50": [
                    0.37,
                    0.39,
                    0.43,
                    0.47,
                    0.49,
                    0.52,
                    0.55,
                    0.58,
                    0.62,
                    0.66,
                    0.7,
                    0.74,
                    0.78,
                    0.83,
                    0.87,
                    0.92,
                    0.96,
                    0.99,
                    1.04,
                    1.09,
                    1.14,
                    1.18,
                    1.23,
                    1.31,
                    1.38,
                    1.47,
                    1.54,
                    1.62
                ]
            },
            "UNBN_MNS": {
                "50": [
                    0.37,
                    0.39,
                    0.43,
                    0.47,
                    0.49,
                    0.52,
                    0.55,
                    0.58,
                    0.62,
                    0.66,
                    0.7,
                    0.74,
                    0.78,
                    0.83,
                    0.87,
                    0.92,
                    0.96,
                    0.99,
                    1.04,
                    1.09,
                    1.14,
                    1.18,
                    1.23,
                    1.31,
                    1.38,
                    1.47,
                    1.54,
                    1.62
                ]
            },
            "UNBN_MS": {
                "50": [
                    0.37,
                    0.39,
                    0.43,
                    0.47,
                    0.49,
                    0.52,
                    0.55,
                    0.58,
                    0.62,
                    0.66,
                    0.7,
                    0.74,
                    0.78,
                    0.83,
                    0.87,
                    0.92,
                    0.96,
                    0.99,
                    1.04,
                    1.09,
                    1.14,
                    1.18,
                    1.23,
                    1.31,
                    1.38,
                    1.47,
                    1.54,
                    1.62
                ]
            },
            "UNB_FNS": {
                "5": [
                    0.24,
                    0.24,
                    0.25,
                    0.32,
                    0.38,
                    0.43,
                    0.48,
                    0.53,
                    0.57,
                    0.62,
                    0.65,
                    0.69,
                    0.73,
                    0.77,
                    0.81,
                    0.85,
                    0.89,
                    0.93,
                    0.98,
                    1.03,
                    1.08,
                    1.13,
                    1.18,
                    1.27,
                    1.36,
                    1.44,
                    1.53,
                    1.62
                ],
                "10": [
                    0.24,
                    0.25,
                    0.27,
                    0.33,
                    0.38,
                    0.43,
                    0.49,
                    0.54,
                    0.59,
                    0.63,
                    0.67,
                    0.71,
                    0.75,
                    0.8,
                    0.85,
                    0.89,
                    0.94,
                    0.98,
                    1.03,
                    1.08,
                    1.13,
                    1.18,
                    1.23,
                    1.31,
                    1.38,
                    1.47,
                    1.54,
                    1.62
                ],
                "15": [
                    0.27,
                    0.29,
                    0.3,
                    0.35,
                    0.4,
                    0.45,
                    0.5,
                    0.55,
                    0.6,
                    0.64,
                    0.69,
                    0.73,
                    0.77,
                    0.82,
                    0.87,
                    0.91,
                    0.96,
                    0.99,
                    1.04,
                    1.09,
                    1.14,
                    1.18,
                    1.23,
                    1.31,
                    1.38,
                    1.47,
                    1.54,
                    1.62
                ],
                "20": [
                    0.3,
                    0.33,
                    0.37,
                    0.4,
                    0.44,
                    0.48,
                    0.52,
                    0.57,
                    0.62,
                    0.65,
                    0.7,
                    0.74,
                    0.78,
                    0.83,
                    0.87,
                    0.92,
                    0.96,
                    0.99,
                    1.04,
                    1.09,
                    1.14,
                    1.18,
                    1.23,
                    1.31,
                    1.38,
                    1.47,
                    1.54,
                    1.62
                ],
                "25": [
                    0.35,
                    0.38,
                    0.42,
                    0.45,
                    0.48,
                    0.52,
                    0.55,
                    0.58,
                    0.62,
                    0.66,
                    0.7,
                    0.74,
                    0.78,
                    0.83,
                    0.87,
                    0.92,
                    0.96,
                    0.99,
                    1.04,
                    1.09,
                    1.14,
                    1.18,
                    1.23,
                    1.31,
                    1.38,
                    1.47,
                    1.54,
                    1.62
                ],
                "30": [
                    0.37,
                    0.39,
                    0.43,
                    0.47,
                    0.49,
                    0.52,
                    0.55,
                    0.58,
                    0.62,
                    0.66,
                    0.7,
                    0.74,
                    0.78,
                    0.83,
                    0.87,
                    0.92,
                    0.96,
                    0.99,
                    1.04,
                    1.09,
                    1.14,
                    1.18,
                    1.23,
                    1.31,
                    1.38,
                    1.47,
                    1.54,
                    1.62
                ]
            },
            "UNB_FS": {
                "5": [
                    0.24,
                    0.24,
                    0.25,
                    0.32,
                    0.38,
                    0.43,
                    0.48,
                    0.53,
                    0.57,
                    0.62,
                    0.65,
                    0.69,
                    0.73,
                    0.77,
                    0.81,
                    0.85,
                    0.89,
                    0.93,
                    0.98,
                    1.03,
                    1.08,
                    1.13,
                    1.18,
                    1.27,
                    1.36,
                    1.44,
                    1.53,
                    1.62
                ],
                "10": [
                    0.24,
                    0.25,
                    0.27,
                    0.33,
                    0.38,
                    0.43,
                    0.49,
                    0.54,
                    0.59,
                    0.63,
                    0.67,
                    0.71,
                    0.75,
                    0.8,
                    0.85,
                    0.89,
                    0.94,
                    0.98,
                    1.03,
                    1.08,
                    1.13,
                    1.18,
                    1.23,
                    1.31,
                    1.38,
                    1.47,
                    1.54,
                    1.62
                ],
                "15": [
                    0.27,
                    0.29,
                    0.3,
                    0.35,
                    0.4,
                    0.45,
                    0.5,
                    0.55,
                    0.6,
                    0.64,
                    0.69,
                    0.73,
                    0.77,
                    0.82,
                    0.87,
                    0.91,
                    0.96,
                    0.99,
                    1.04,
                    1.09,
                    1.14,
                    1.18,
                    1.23,
                    1.31,
                    1.38,
                    1.47,
                    1.54,
                    1.62
                ],
                "20": [
                    0.3,
                    0.33,
                    0.37,
                    0.4,
                    0.44,
                    0.48,
                    0.52,
                    0.57,
                    0.62,
                    0.65,
                    0.7,
                    0.74,
                    0.78,
                    0.83,
                    0.87,
                    0.92,
                    0.96,
                    0.99,
                    1.04,
                    1.09,
                    1.14,
                    1.18,
                    1.23,
                    1.31,
                    1.38,
                    1.47,
                    1.54,
                    1.62
                ],
                "25": [
                    0.35,
                    0.38,
                    0.42,
                    0.45,
                    0.48,
                    0.52,
                    0.55,
                    0.58,
                    0.62,
                    0.66,
                    0.7,
                    0.74,
                    0.78,
                    0.83,
                    0.87,
                    0.92,
                    0.96,
                    0.99,
                    1.04,
                    1.09,
                    1.14,
                    1.18,
                    1.23,
                    1.31,
                    1.38,
                    1.47,
                    1.54,
                    1.62
                ],
                "30": [
                    0.37,
                    0.39,
                    0.43,
                    0.47,
                    0.49,
                    0.52,
                    0.55,
                    0.58,
                    0.62,
                    0.66,
                    0.7,
                    0.74,
                    0.78,
                    0.83,
                    0.87,
                    0.92,
                    0.96,
                    0.99,
                    1.04,
                    1.09,
                    1.14,
                    1.18,
                    1.23,
                    1.31,
                    1.38,
                    1.47,
                    1.54,
                    1.62
                ]
            },
            "UNB_LOADING": "",
            "UNB_MNS": {
                "5": [
                    0.24,
                    0.24,
                    0.25,
                    0.32,
                    0.38,
                    0.43,
                    0.48,
                    0.53,
                    0.57,
                    0.62,
                    0.65,
                    0.69,
                    0.73,
                    0.77,
                    0.81,
                    0.85,
                    0.89,
                    0.93,
                    0.98,
                    1.03,
                    1.08,
                    1.13,
                    1.18,
                    1.27,
                    1.36,
                    1.44,
                    1.53,
                    1.62
                ],
                "10": [
                    0.24,
                    0.25,
                    0.27,
                    0.33,
                    0.38,
                    0.43,
                    0.49,
                    0.54,
                    0.59,
                    0.63,
                    0.67,
                    0.71,
                    0.75,
                    0.8,
                    0.85,
                    0.89,
                    0.94,
                    0.98,
                    1.03,
                    1.08,
                    1.13,
                    1.18,
                    1.23,
                    1.31,
                    1.38,
                    1.47,
                    1.54,
                    1.62
                ],
                "15": [
                    0.27,
                    0.29,
                    0.3,
                    0.35,
                    0.4,
                    0.45,
                    0.5,
                    0.55,
                    0.6,
                    0.64,
                    0.69,
                    0.73,
                    0.77,
                    0.82,
                    0.87,
                    0.91,
                    0.96,
                    0.99,
                    1.04,
                    1.09,
                    1.14,
                    1.18,
                    1.23,
                    1.31,
                    1.38,
                    1.47,
                    1.54,
                    1.62
                ],
                "20": [
                    0.3,
                    0.33,
                    0.37,
                    0.4,
                    0.44,
                    0.48,
                    0.52,
                    0.57,
                    0.62,
                    0.65,
                    0.7,
                    0.74,
                    0.78,
                    0.83,
                    0.87,
                    0.92,
                    0.96,
                    0.99,
                    1.04,
                    1.09,
                    1.14,
                    1.18,
                    1.23,
                    1.31,
                    1.38,
                    1.47,
                    1.54,
                    1.62
                ],
                "25": [
                    0.35,
                    0.38,
                    0.42,
                    0.45,
                    0.48,
                    0.52,
                    0.55,
                    0.58,
                    0.62,
                    0.66,
                    0.7,
                    0.74,
                    0.78,
                    0.83,
                    0.87,
                    0.92,
                    0.96,
                    0.99,
                    1.04,
                    1.09,
                    1.14,
                    1.18,
                    1.23,
                    1.31,
                    1.38,
                    1.47,
                    1.54,
                    1.62
                ],
                "30": [
                    0.37,
                    0.39,
                    0.43,
                    0.47,
                    0.49,
                    0.52,
                    0.55,
                    0.58,
                    0.62,
                    0.66,
                    0.7,
                    0.74,
                    0.78,
                    0.83,
                    0.87,
                    0.92,
                    0.96,
                    0.99,
                    1.04,
                    1.09,
                    1.14,
                    1.18,
                    1.23,
                    1.31,
                    1.38,
                    1.47,
                    1.54,
                    1.62
                ]
            },
            "UNB_MS": {
                "5": [
                    0.24,
                    0.24,
                    0.25,
                    0.32,
                    0.38,
                    0.43,
                    0.48,
                    0.53,
                    0.57,
                    0.62,
                    0.65,
                    0.69,
                    0.73,
                    0.77,
                    0.81,
                    0.85,
                    0.89,
                    0.93,
                    0.98,
                    1.03,
                    1.08,
                    1.13,
                    1.18,
                    1.27,
                    1.36,
                    1.44,
                    1.53,
                    1.62
                ],
                "10": [
                    0.24,
                    0.25,
                    0.27,
                    0.33,
                    0.38,
                    0.43,
                    0.49,
                    0.54,
                    0.59,
                    0.63,
                    0.67,
                    0.71,
                    0.75,
                    0.8,
                    0.85,
                    0.89,
                    0.94,
                    0.98,
                    1.03,
                    1.08,
                    1.13,
                    1.18,
                    1.23,
                    1.31,
                    1.38,
                    1.47,
                    1.54,
                    1.62
                ],
                "15": [
                    0.27,
                    0.29,
                    0.3,
                    0.35,
                    0.4,
                    0.45,
                    0.5,
                    0.55,
                    0.6,
                    0.64,
                    0.69,
                    0.73,
                    0.77,
                    0.82,
                    0.87,
                    0.91,
                    0.96,
                    0.99,
                    1.04,
                    1.09,
                    1.14,
                    1.18,
                    1.23,
                    1.31,
                    1.38,
                    1.47,
                    1.54,
                    1.62
                ],
                "20": [
                    0.3,
                    0.33,
                    0.37,
                    0.4,
                    0.44,
                    0.48,
                    0.52,
                    0.57,
                    0.62,
                    0.65,
                    0.7,
                    0.74,
                    0.78,
                    0.83,
                    0.87,
                    0.92,
                    0.96,
                    0.99,
                    1.04,
                    1.09,
                    1.14,
                    1.18,
                    1.23,
                    1.31,
                    1.38,
                    1.47,
                    1.54,
                    1.62
                ],
                "25": [
                    0.35,
                    0.38,
                    0.42,
                    0.45,
                    0.48,
                    0.52,
                    0.55,
                    0.58,
                    0.62,
                    0.66,
                    0.7,
                    0.74,
                    0.78,
                    0.83,
                    0.87,
                    0.92,
                    0.96,
                    0.99,
                    1.04,
                    1.09,
                    1.14,
                    1.18,
                    1.23,
                    1.31,
                    1.38,
                    1.47,
                    1.54,
                    1.62
                ],
                "30": [
                    0.37,
                    0.39,
                    0.43,
                    0.47,
                    0.49,
                    0.52,
                    0.55,
                    0.58,
                    0.62,
                    0.66,
                    0.7,
                    0.74,
                    0.78,
                    0.83,
                    0.87,
                    0.92,
                    0.96,
                    0.99,
                    1.04,
                    1.09,
                    1.14,
                    1.18,
                    1.23,
                    1.31,
                    1.38,
                    1.47,
                    1.54,
                    1.62
                ]
            },
            "UNB_SUBSTANDARD_LOADING": {
                "1": 1,
                "2": 1.18,
                "3": 1.35,
                "4": 1.53,
                "5": 1.7
            }
        },
        "substdCls": {
            "R52": {
                "ALL": 2
            },
            "R54": {
                "T120": 2
            }
        }
    },
    "ref_no": "UNBN",
    "releaseDate": "2018-05-16 16:37:59",
    "remarks": {
        "en": "Premium Waiver (UN)",
        "zh-Hant": "Premium Waiver (UN)"
    },
    "smokeInd": "*",
    "status": "A",
    "task_desc": "Premium Waiver (UN)",
    "type": "product",
    "upd": "HOCKIN.TSUI  on 02 Mar 2018 17:30:05",
    "updatedBy": "mandy",
    "version": 1,
    "wholeLifeInd": "N"
}