{
    "allowBackdate": "N",
    "budgetRules": [
        "SP"
    ],
    "classInd": "N",
    "coexist": [],
    "compCode": "08",
    "covCode": "AWICA",
    "covName": {
        "en": "AXA Wealth Invest (Cash/SRS)",
        "zh-Hant": "INSPIRE™ Duo"
    },
    "ctyGroup": [
        "*"
    ],
    "currencies": [
        {
            "ccy": [
                "SGD"
            ],
            "country": "*"
        }
    ],
    "dealerGroup": [
        "AGENCY",
        "BROKER",
        "SYNERGY",
        "FUSION",
        "DIRECT",
        "SINGPOST"
    ],
    "dynPdfInd": "N",
    "effDate": "2017-07-27 02:49:11",
    "entryAge": [
        {
            "country": "*",
            "imaxAge": 60,
            "imaxAgeUnit": "nearestAge",
            "iminAge": 1,
            "iminAgeUnit": "month",
            "omaxAge": 60,
            "omaxAgeUnit": "nearestAge",
            "ominAge": 18,
            "ominAgeUnit": "year",
            "sameAsOwner": "N"
        }
    ],
    "expDate": "2118-07-27 02:48:13",
    "formulas": {
        "calcQuotFunc": "",
        "illustrateFunc": "function (quotation, planInfo, planDetails, extraPara) {var dealerGroup = quotation.agent.dealerGroup;var premium = quotation.premium;var salesCharges = quotation.policyOptions.singlePremSalesCharge;var tableKey = -1;if(dealerGroup === 'AGENCY' || dealerGroup === 'SYNERGY' ) tableKey = 'AGENCY';else if(dealerGroup === 'BROKER' || dealerGroup === 'FUSION' ) tableKey = 'BROKER';else if(dealerGroup === 'SINGPOST') tableKey = 'SINGPOST';else if(dealerGroup === 'DIRECT' ) tableKey = 'DIRECT';var covCode = planInfo.covCode;var illustaion = {};illustaion.sumInsured = quotation.sumInsured;if (tableKey !== -1) illustaion.tdc = planDetails[covCode].rates.TDC[tableKey][salesCharges][premium<10000?0:1];return illustaion;}",
        "polTermsFunc": "function (planDetail, quotation) { var policyTermList = null; var foundDefault = false; if (planDetail.polMaturities) { policyTermList = []; for (var p in planDetail.polMaturities) { var mat = planDetail.polMaturities[p]; if (!mat.country || mat.country == '*' || mat.country == quotation.residence && mat.minTerm && mat.maxTerm) { var interval = mat.interval || 1; for (var m = mat.minTerm; m <= mat.maxTerm && (!mat.maxAge || !quotation.iAge || (m + quotation.iAge) <= mat.maxAge) && (!mat.ownerMaxAge || !quotation.pAge || (m + quotation.pAge) <= mat.ownerMaxAge); m += interval) { foundDefault = foundDefault || (mat.default === m); policyTermList.push({ \"value\": m+\"\", \"title\": m+(quotation.iAge?\"(@\"+(quotation.iAge+m)+\")\":\"\"), \"default\": mat.default === m }); } if (mat.default === 0) { policyTermList[0].default = true; } else if (mat.default === 999 || !foundDefault) { policyTermList[policyTermList.length - 1].default = true; } } } } else if (planDetail.wholeLifeInd && planDetail.wholeLifeInd == 'Y' && planDetail.wholeLifeAge) { quotation.plans[0].policyTerm = \"999\"; return [{ \"value\": \"999\", \"title\": \"To Age \" + planDetail.wholeLifeAge, \"default\": true }]; } return policyTermList; }",
        "premFunc": "function (quotation, planInfo, planDetail) {return planInfo.premium ; }",
        "premTermsFunc": "function (planDetail, quotation) {var premTermList = null; var foundDefault = false; if (planDetail.premMaturities) { premTermList = []; for (var p in planDetail.premMaturities) { var mat = planDetail.premMaturities[p]; if (!mat.country || mat.country == '*' || mat.country == quotation.residence && mat.minTerm && mat.maxTerm) { var interval = mat.interval || 1; for (var m = mat.minTerm; m <= mat.maxTerm && (!mat.maxAge || !quotation.iAge || (m + quotation.iAge) <= mat.maxAge) && (!mat.ownerMaxAge || !quotation.pAge || (m + quotation.pAge) <= mat.ownerMaxAge); m += interval) { foundDefault |= (mat.default === m); premTermList.push({ \"value\" : m + \"\", \"title\" : \"Single Premium\", \"default\" : mat.default === m }); } if (mat.default === 0) { premTermList[0].default = true; } else if (mat.default === 999 || !foundDefault) { premTermList[premTermList.length - 1].default = true; } } } } quotation.plans[0].premTerm = \"1\"; return premTermList; }",
        "prepareAttachableRider": "",
        "prepareClassConfig": "",
        "preparePolicyOptions": "function(planDetail, quotation, planDetails) {var policyOptions = []; var spliceFunc = function (po, ids){ for(var h = 0; h < ids.length; h++){ var id = ids[h]; for (var i in po.options) { var opt = po.options[i]; if (opt.value == id) { po.options.splice(i,1); break; } } } }; for (var p in planDetail.policyOptions) { var po = JSON.parse(JSON.stringify(planDetail.policyOptions[p])); if (po.type == 'datepicker' || (po.type == 'text' && (po.subType == 'currency' || po.subType == 'number'))) { if (po.max || po.max === 0) { po.max = parseInt(po.max, 10); } if (po.min || po.min === 0) { po.min = parseInt(po.min, 10); } } if (po.type == 'picker' && po.options) { if (!quotation.policyOptions[po.id] && po.value) { for (var i in po.options) { var opt = po.options[i]; if (opt.value == po.value) { quotation.policyOptions[po.id] = po.value; break; } } } if (!quotation.policyOptions[po.id] && po.options.length) { if (po.value == '999') { quotation.policyOptions[po.id] = po.options[po.options.length-1].value; } else { quotation.policyOptions[po.id] = null; } } } else { if (!quotation.policyOptions[po.id] && (po.value || po.value === 0 || po.value === '')) { if (po.type == 'text' && (po.subType == 'currency' || po.subType == 'number')) { quotation.policyOptions[po.id] = parseFloat(po.value); } else { quotation.policyOptions[po.id] = po.value; } } } var options = po.options; var id = po.id; var dealerGroup = quotation.agent?quotation.agent.dealerGroup:null; var paymentMethod = quotation.policyOptions.paymentMethod; var quotVal = quotation.policyOptions[id]; if(id === 'paymentMethod'){ if(quotation.sameAs === 'Y'){ if(21 > quotation.iAge || quotation.iAge > 58){ var ids = [\"cpfisoa\", \"cpfissa\", \"srs\"]; spliceFunc(po, ids); } }else{ quotation.policyOptions[id]='cash'; po.options = _.filter(po.options, opt=>opt.value === 'cash'); } var alertMsg = \"The CPF prevailing interest rates are: CPF OA: 2.5% (for balances above the non-investible $20,000), CPF SA: 4% (for balances above the non-investible $40,000).\\n \\nIt is a requirement to complete the Self-Awareness Questionnaire (SAQ) before any investment could be done using the CPFIS. \\nIf SAQ is not done, please login via CPF website with your SingPass to complete the Self-Awareness Questionnaire (SAQ) before proceeding.\"; po.alertOnValue = { cpfissa : alertMsg, cpfisoa : alertMsg }; po.clearFunds=\"Y\"; } if(id === 'singlePremSalesCharge'){ if(dealerGroup === 'SINGPOST' || dealerGroup === 'DIRECT'){ quotation.policyOptions[id]='3'; spliceFunc(po, [\"0\",\"1\", \"2\", \"4\", \"5\"]); } }else if (id === 'serviceFee'){ if(dealerGroup === 'AGENCY' || dealerGroup === 'BROKER' || dealerGroup === 'FUSION' || dealerGroup === 'SYNERGY'){ if(paymentMethod == 'cpfisoa' || paymentMethod == 'cpfissa'){ if(Number(quotVal)>0) quotation.policyOptions[id]=null; spliceFunc(po, [\"0.25\", \"0.50\", \"0.75\"]); } }else if(dealerGroup === 'SINGPOST' || dealerGroup === 'DIRECT'){ quotation.policyOptions[id]='0'; spliceFunc(po, [\"0.25\", \"0.50\", \"0.75\"]); } }else if (id === 'rspSalesCharges'){ quotation.policyOptions[id] = quotation.policyOptions.singlePremSalesCharge? quotation.policyOptions.singlePremSalesCharge+'%' : '-'; }else if (id === 'rspSelect'){ if((quotation.iAge <=60 && paymentMethod ==='cash')|| (quotation.iAge <=58 && (paymentMethod ==='cpfisoa' || paymentMethod ==='cpfissa' || paymentMethod ==='srs' ))){ po.disable=\"N\"; } } if (id === 'rspAmount' || id === 'rspPayFreq' ){ var isCheck = quotation.policyOptions.rspSelect; po.disable=isCheck?\"N\":\"Y\"; po.mandatory=isCheck?\"Y\":\"N\"; if(!isCheck) quotation.policyOptions[id] = null; } if (id === 'rspAmount'){ var min = 0; var rspPayFreq = quotation.policyOptions.rspPayFreq; if(rspPayFreq === 'annual') min = 1200; else if(rspPayFreq === 'semiAnnual') min = 600; else if(rspPayFreq === 'quarterly') min = 300; po.hintMsg = 'Minimum RSP Amount is $'+min; if(po.mandatory===\"Y\" && quotation.policyOptions[id] !==null && !isNaN(quotation.policyOptions[id]) ){ var rspAmt = math.number(quotation.policyOptions[id]); var factor = math.number(po.factor? po.factor : 1); var errorMsg = null; if(rspAmt % factor !== 0 ) quotation.policyOptions[id] = math.number(math.multiply(math.floor(math.divide(math.bignumber(rspAmt), factor)), factor)); if(rspAmt < min) quotation.policyOptions[id] = math.number(min); } } policyOptions.push(po); } planDetail.inputConfig.policyOptions = policyOptions; return planDetail;}",
        "prepareSAPremConfig": "",
        "prepareTermConfig": "",
        "saFunc": "function (quotation, planInfo, planDetail) {function trunc (value, position) { var sign = value <0 ?-1:1; if (!position) position = 0; var scale = math.pow(10, position); return math.multiply(sign, math.bignumber(math.divide(math.floor(math.multiply(math.abs(value), scale)), scale))); }var isp = planInfo.premium ? math.bignumber(planInfo.premium) : 0;var rsp = quotation.policyOptions.rspAmount ? math.bignumber(quotation.policyOptions.rspAmount) : 0; for(var i = 0; i< quotation.plans.length; i++){ var plan = quotation.plans[i]; if(plan.covCode == planInfo.covCode){ plan.premRate = math.number(1.01); break; } }var sumAssured = math.multiply (math.bignumber(1.01) , math.add(isp , rsp));return Math.round(math.number(sumAssured));}",
        "validAfterCalcFunc": "function (quotation, planInfo, planDetail) { var planCodeMap=planDetail.planCodeMapping; var paymentMethod = quotation.policyOptions.paymentMethod; var idx = (planInfo.premium < 10000)?0:1; if(planCodeMap && planCodeMap[paymentMethod] && planCodeMap[paymentMethod][idx]){ planInfo.planCode = planCodeMap[paymentMethod][idx]; } if(planInfo.calcBy){ var premium = math.number(quotation.plans[0].premium); if (planDetail.inputConfig && planDetail.inputConfig.premlim) { let min = planDetail.inputConfig.premlim.min; if ( min && min > premium ) { var err = { covCode:planInfo.covCode, msgPara:[], code:'' }; err.msgPara.push( getCurrency(min,'$', 2)); err.code = 'js.err.invalid_premlim_min'; err.msgPara.push(premium); quotDriver.context.addError(err); } } } }",
        "validBeforeCalcFunc": "function (quotation, planInfo, planDetails) { var premium = quotation.plans[0].premium; if(planInfo.calcBy === 'premium' && premium !== null && premium !== undefined){ if (planDetails[planInfo.covCode].inputConfig && planDetails[planInfo.covCode].inputConfig.premlim) { quotation.plans[0].premium = premium ? Math.floor( premium / 1) * 1 : 0; let min = planDetails[planInfo.covCode].inputConfig.premlim.min; if ( min && min > premium ) { quotation.plans[0].premium = min; } } } }",
        "validQuotFunc": "",
        "willValidQuotFunc": "function (quotation, planInfo, planDetails) { planInfo.policyTerm = \"999\"; quotation.plans[0].policyTerm = \"999\"; planInfo.premTerm = \"1\"; quotation.plans[0].premTerm = \"1\"; planInfo.paymentMode = \"L\"; quotation.plans[0].paymentMode = \"L\"; }"
    },
    "fundCode": "asd",
    "fundInd": "Y",
    "fundList": [
        "AEMD",
        "AGHY",
        "ALVE",
        "AUTR",
        "APEF",
        "PUS1",
        "PUS2",
        "PUSF",
        "AFBF",
        "AFEF",
        "AMAB",
        "FEMF",
        "FERE",
        "FGHY",
        "FGIB",
        "BCHI",
        "BGAL",
        "BGEI",
        "BLAT",
        "BWEN",
        "BWGO",
        "BWMF",
        "BWHS",
        "FGFS",
        "AISI",
        "FEGR",
        "FGSM",
        "TIND",
        "FK2A",
        "FMGD",
        "FTEC",
        "FUSD",
        "FDSA",
        "FDSB",
        "FEFF",
        "GSEM",
        "GSIB",
        "NHAF",
        "IACD",
        "IJEC",
        "IKOR",
        "IPEQ",
        "HAPP",
        "HGCE",
        "HGPE",
        "HGTE",
        "HJEQ",
        "HPEA",
        "HGLA",
        "JBRA",
        "JGCH",
        "JIND",
        "JINO",
        "JMRS",
        "JMRU",
        "LSEA",
        "LAOP",
        "LGBO",
        "MAAF",
        "MAGC",
        "NLSM",
        "NBUS",
        "PALC",
        "PEMD",
        "PPBR",
        "PSEC",
        "PEEU",
        "PGEN",
        "PBAS",
        "PPSF",
        "SAGR",
        "SAIF",
        "SGEM",
        "SGEA",
        "SQGQ",
        "STAI",
        "SAPP",
        "SMA3",
        "SMA5",
        "SMA7",
        "SSFI",
        "SSTR",
        "TCHI",
        "TGBO",
        "TGTR",
        "TLAT",
        "TSGE",
        "UABO",
        "UEMB",
        "USGD",
        "USBF",
        "WFEM",
        "HGEM",
        "NJHC"
    ],
    "fund_info_booklet": 3278260,
    "genderInd": "*",
    "gstInd": "N",
    "illustrationColumns": [],
    "isPolTermHide": "N",
    "isPremTermHide": "N",
    "payModes": [
        {
            "covMonth": 1,
            "default": "Y",
            "factor": 1,
            "mode": "L",
            "operator": "M"
        }
    ],
    "planCodeMapping": {
        "cash": [
            "INCAR",
            "INCAR"
        ],
        "cpfisoa": [
            "INOAR",
            "INOAR"
        ],
        "cpfissa": [
            "INSAR",
            "INSAR"
        ],
        "srs": [
            "INSRR",
            "INSRR"
        ]
    },
    "planInd": "B",
    "polTermInd": "Y",
    "polTermRemarkSymbol": "",
    "policyOptions": [
        {
            "calcRef": "N",
            "disable": "N",
            "groupID": "basic",
            "id": "paymentMethod",
            "mandatory": "Y",
            "options": [
                {
                    "title": {
                        "en": "Cash"
                    },
                    "value": "cash"
                },
                {
                    "title": {
                        "en": "SRS"
                    },
                    "value": "srs"
                }
            ],
            "title": {
                "en": "Payment Method"
            },
            "type": "picker",
            "value": ""
        },
        {
            "calcRef": "N",
            "disable": "N",
            "groupID": "basic",
            "id": "singlePremSalesCharge",
            "mandatory": "Y",
            "options": [
                {
                    "title": {
                        "en": "5%"
                    },
                    "value": "5"
                },
                {
                    "title": {
                        "en": "4%"
                    },
                    "value": "4"
                },
                {
                    "title": {
                        "en": "3%"
                    },
                    "value": "3"
                },
                {
                    "title": {
                        "en": "2%"
                    },
                    "value": "2"
                },
                {
                    "title": {
                        "en": "1%"
                    },
                    "value": "1"
                }
            ],
            "title": {
                "en": "Single Premium Sales Charge"
            },
            "type": "picker",
            "value": ""
        },
        {
            "calcRef": "N",
            "disable": "Y",
            "groupID": "rsp",
            "id": "rspSelect",
            "mandatory": "N",
            "title": {
                "en": "Recurring Single Premium (RSP)"
            },
            "type": "checkbox"
        },
        {
            "calcRef": "N",
            "disable": "Y",
            "groupID": "rsp",
            "id": "rspPayFreq",
            "mandatory": "N",
            "options": [
                {
                    "title": {
                        "en": "Annual"
                    },
                    "value": "annual"
                },
                {
                    "title": {
                        "en": "Semi-Annual"
                    },
                    "value": "semiAnnual"
                },
                {
                    "title": {
                        "en": "Quarterly"
                    },
                    "value": "quarterly"
                }
            ],
            "title": {
                "en": "RSP Payment Frequency",
                "zh-Hant": ""
            },
            "type": "picker",
            "value": ""
        },
        {
            "calcRef": "N",
            "disable": "Y",
            "factor": 50,
            "groupID": "rsp",
            "id": "rspAmount",
            "mandatory": "N",
            "max": "",
            "maxLength": 10,
            "min": 0,
            "subType": "currency",
            "title": {
                "en": "RSP Amount"
            },
            "type": "text",
            "value": ""
        },
        {
            "calcRef": "N",
            "disable": "Y",
            "factor": 1,
            "groupID": "rsp",
            "id": "rspSalesCharges",
            "mandatory": "N",
            "max": "",
            "maxLength": 1,
            "min": "",
            "subType": "0",
            "title": {
                "en": "Sales Charges"
            },
            "type": "text",
            "value": ""
        }
    ],
    "premInput": [
        {
            "ccy": "SGD",
            "decimal": 0,
            "factor": 1
        }
    ],
    "premInputInd": "Y",
    "premMatSameAsPolMat": "N",
    "premMaturities": [
        {
            "country": "*",
            "default": 1,
            "interval": 1,
            "maxAge": 99,
            "maxTerm": 1,
            "minTerm": 1,
            "ownerMaxAge": 99,
            "sameAsOwner": "Y"
        }
    ],
    "premPostfix": {},
    "premTermInd": "Y",
    "premTermRemarkSymbol": "",
    "premTermRule": "0",
    "premType": "L",
    "premlim": [
        {
            "ageFr": "0",
            "ageTo": "99",
            "class": "*",
            "country": "*",
            "limits": [
                {
                    "ccy": "SGD",
                    "max": 0,
                    "min": 10000,
                    "payMode": "L"
                }
            ]
        }
    ],
    "prodFeature": {
        "en": "Product Features English"
    },
    "prod_summary": 231816,
    "productCategory": "ilp",
    "productLine": "IL",
    "productVersion": "2.0",
    "projection": [],
    "rates": {
        "TDC": {
            "AGENCY": {
                "0": [
                    0,
                    0
                ],
                "1": [
                    0,
                    0.0048
                ],
                "2": [
                    0.002,
                    0.0164
                ],
                "3": [
                    0.0202,
                    0.0279
                ],
                "4": [
                    0.0292,
                    0.0372
                ],
                "5": [
                    0.0443,
                    0.0465
                ]
            },
            "BROKER": {
                "0": [
                    0,
                    0
                ],
                "1": [
                    0,
                    0.0025
                ],
                "2": [
                    0.002,
                    0.0139
                ],
                "3": [
                    0.0189,
                    0.0253
                ],
                "4": [
                    0.0231,
                    0.0366
                ],
                "5": [
                    0.0357,
                    0.048
                ]
            },
            "DIRECT": {
                "3": [
                    0.0027,
                    0.0236
                ]
            },
            "SINGPOST": {
                "3": [
                    0.0253,
                    0.028
                ]
            }
        },
        "premRate": ""
    },
    "releaseDate": "2018-10-26 01:51:54",
    "remarks": {
        "en": ""
    },
    "reportTemplate": [
        {
            "covCode": "0",
            "desc": "",
            "pdfCode": "AWICA_Cover",
            "resetPaging": "N"
        },
        {
            "covCode": "0",
            "desc": "",
            "pdfCode": "AWICA_MainBI",
            "resetPaging": "N"
        },
        {
            "covCode": "0",
            "desc": "",
            "pdfCode": "AWICA_ProdSummary",
            "resetPaging": "N"
        }
    ],
    "riderList": [],
    "saInput": [
        {
            "ccy": "SGD",
            "decimal": 2,
            "factor": 1
        }
    ],
    "saInputInd": "N",
    "saScale": "",
    "smokeInd": "*",
    "status": "A",
    "supportIllustration": "N",
    "thumbnail3": 408746,
    "topUpAllocInd": "Y",
    "type": "product",
    "version": 2,
    "wholeLifeAge": 99,
    "wholeLifeInd": "Y"
}