{
    "compCode": "08",
    "expDate": "2100-04-18 02:16:04",
    "footer": {
        "en": "<p></p>",
        "zh-Hant": "<p></p>"
    },
    "formulas": {
        "prepareReportData": ""
    },
    "header": {
        "en": "<p></p>",
        "zh-Hant": "<p></p>"
    },
    "launchDate": "2018-04-09 04:11:38",
    "pdfCode": "RHP2_PROD_SUMMARY",
    "pdfName": {
        "en": "RHP2 Product Summary",
        "zh-Hant": "RHP Product Summary",
        "zh-tw": "RHP Product Summary"
    },
    "releaseDate": "2020-02-14 10:22:41",
    "remarks": {
        "en": "RHP2 Product Summary",
        "zh-tw": "RHP Prod Summary"
    },
    "status": "A",
    "style": ".pt10{font-size:10pt;}#last-sup-page-num[href]::after{content:target-counter(-ro-attr(href url),page);}#last-second-sup-page-num[href]::after{content:target-counter(-ro-attr(href url),page);}.foot{font-size:9pt;text-align:center;}",
    "template": {
        "en": [
            "<div>\n\n<xsl:if test=\"*/basicPlan/hasPetRider ='1'\">\n<div id=\"pageACK\">\n\t<table class=\"w100\">\n\t\t<thead>\n\t\t\t<tr>\n\t\t\t\t<th colspan=\"4\" style=\"text-align: center; width: 100%; padding-bottom: 10px;\"><strong>ACKNOWLEDGEMENT</strong></th>\n\t\t\t</tr>\n\t\t</thead>\n\t\t\n\t\t<tbody>\n\t\t\t<tr>\n\t\t\t\t<td>\n\t\t\t\t\t<p style=\"font-size: 10pt\">\n\t\t\t\t\tIf you have answered \"Yes\" to any of the questions under \n\t\t\t\t\t\"Medical Information of Life Assured\" in the Proposal Form:</p>\n\t\t\t\t\t\n\t\t\t\t\t<p style=\"font-size: 10pt\">1. We reserve the right to decline \n\t\t\t\t\tthe application for PremiumEraser Total rider; </p>\n\t\t\t\t\t\n\t\t\t\t\t<p style=\"font-size: 10pt\">2. If we decline the application \n\t\t\t\t\tfor PremiumEraser Total rider, we will offer You\n\t\t\t\t\t<xsl:value-of select=\"*/cover/plansAck[1]/name\"/> with annual premium of \n\t\t\t\t\t$<xsl:value-of select=\"*/basicPlan/aPremiumTotalAck\"/> for\n\t\t\t\t\t<xsl:value-of select=\"*/common/paymentTerm\"/> only.</p>\n\t\t\t\t\t\n\t\t\t\t\t<p style=\"font-size: 10pt\">3. If we decline the application \n\t\t\t\t\tfor PremiumEraser Total rider, the Policy Illustration for\n\t\t\t\t\t<xsl:value-of select=\"*/cover/plansAck[1]/name\"/> with annual premium of \n\t\t\t\t\t$<xsl:value-of select=\"*/basicPlan/aPremiumTotalAck\"/> for\n\t\t\t\t\t<xsl:value-of select=\"*/common/paymentTerm\"/> will be applicable from page 2 to page \n\t\t\t\t\t<span href=\"#last-second-sup-page\" id=\"last-second-sup-page-num\" />. \n\t\t\t\t\tSupplementary Illustration for PremiumEraser Total rider on page \n\t\t\t\t\t<span href=\"#last-sup-page\" id=\"last-sup-page-num\"/> \n\t\t\t\t\twill no longer be applicable. </p>\n\t\t\t\t\t\n\t\t\t\t\t<br/>\n\t\t\t\t\t\n\t\t\t\t\t<div style=\"font-size: 10pt; margin: 4pt 0pt;\">\n\t\t\t\t\t\tThe revised portion of “Your Plan” and “Your Premium” in page 1 will be as follows:\n\t\t\t\t\t</div>\n\t\t\t\t\t\n\t\t\t\t\t<table class=\"w100\" style=\"font-size: 10pt;\">\n\t\t\t\t\t\t<colgroup>\n\t\t\t\t\t\t\t<col style=\"width:30%\" />\n\t\t\t\t\t\t\t<col style=\"width:20%\" />\n\t\t\t\t\t\t\t<col style=\"width:20%\" />\n\t\t\t\t\t\t\t<col style=\"width:30%\" />\n\t\t\t\t\t\t</colgroup>\n\t\t\t\n\t\t\t\t\t\t<thead>\n\t\t\t\t\t\t\t<tr>\n\t\t\t\t\t\t\t\t<th colspan=\"4\" class=\"tleft font13 b\">Your Plan</th>\n\t\t\t\t\t\t\t</tr>\n\t\t\t\t\t\t\t<tr>\n\t\t\t\t\t\t\t\t<th class=\"tleft pd4left0 font13 b\">Plan Name</th>\n\t\t\t\t\t\t\t\t<th class=\"tleft pd4left0 font13 b\">Policy Term</th>\n\t\t\t\t\t\t\t\t<th class=\"tleft pd4left0 font13 b\">Payment Term</th>\n\t\t\t\t\t\t\t\t<th class=\"tright pd4left0 font13 b\">Guaranteed Annual Retirement\n\t\t\t\t\t\t\t\t\t<br/>Income/Benefit</th>\n\t\t\t\t\t\t\t</tr>\n\t\t\t\t\t\t</thead>\n\t\t\t\t\t\t\n\t\t\t\t\t\t<tbody>\n\t\t\t\t\t\t\t<xsl:for-each select=\"*/cover/plansAck\">\n\t\t\t\t\t\t\t\t<tr>\n\t\t\t\t\t\t\t\t\t<td class=\"tleft pd4left0 font13\" style=\"vertical-align:top;\">\n\t\t\t\t\t\t\t\t\t\t<xsl:value-of select=\"name\" />\n\t\t\t\t\t\t\t\t\t</td>\n\n\t\t\t\t\t\t\t\t\t<td class=\"tleft pd4left0 font13\" style=\"vertical-align:top;\">\n\t\t\t\t\t\t\t\t\t\t<xsl:value-of select=\"polTermDesc\" />\n\t\t\t\t\t\t\t\t\t</td>\n\n\t\t\t\t\t\t\t\t\t<td class=\"tleft pd4left0 font13\" style=\"vertical-align:top;\">\n\t\t\t\t\t\t\t\t\t\t<xsl:value-of select=\"premTermDesc\" />\n\t\t\t\t\t\t\t\t\t</td>\n\t\t\t\t\t\t\t\t\t\n\t\t\t\t\t\t\t\t\t<td class=\"tright pd4left0 font13\" style=\"vertical-align:top;\">\n\t\t\t\t\t\t\t\t\t\t<xsl:value-of select=\"retireIncome\" />\n\t\t\t\t\t\t\t\t\t\t\n\t\t\t\t\t\t\t\t\t\t<xsl:if test=\"position() = 2\"> *\n\t\t\t\t\t\t\t\t\t\t</xsl:if>\n\t\t\t\t\t\t\t\t\t</td>\n\t\t\t\t\t\t\t\t</tr>\n\t\t\t\t\t\t\t</xsl:for-each>\n\t\t\t\t\t\t</tbody>\n\t\t\t\t\t</table>\n\t\t\t\t\t<br/>\n\t\t\t\t\t\n\t\t\t\t\t<table style=\"width: 100% \">\n\t\t\t\t\t\t<colgroup>\n\t\t\t\t\t\t\t<col style=\"width:30%\"/>\n\t\t\t\t\t\t\t<col style=\"width:17.5%\"/>\n\t\t\t\t\t\t\t<col style=\"width:17.5%\"/>\n\t\t\t\t\t\t\t<col style=\"width:17.5%\"/>\n\t\t\t\t\t\t\t<col style=\"width:17.5%\"/>\n\t\t\t\t\t\t</colgroup>\n\t\t\n\t\t\t\t\t\t<xsl:choose>\n\t\t\t\t\t\t\t<xsl:when test=\"*/cover/premTerm = '1'\">\n\t\t\t\t\t\t\t\t<thead>\n\t\t\t\t\t\t\t\t\t<tr>\n\t\t\t\t\t\t\t\t\t\t<th colspan=\"5\" class=\"tleft font13 b\">Your Premium</th>\n\t\t\t\t\t\t\t\t\t</tr>\n\t\t\t\t\t\t\t\t\t<tr>\n\t\t\t\t\t\t\t\t\t\t<th class=\"pd4left0 font13 b tleft\">Plan Name</th>\n\t\t\t\t\t\t\t\t\t\t<th class=\"pd4left0 font13 b tright\"></th>\n\t\t\t\t\t\t\t\t\t\t<th class=\"pd4left0 font13 b tright\"></th>\n\t\t\t\t\t\t\t\t\t\t<th class=\"pd4left0 font13 b tright\"></th>\n\t\t\t\t\t\t\t\t\t\t<th class=\"pd4left0 font13 b tright\">Single<br/>Premium</th>\n\t\t\t\t\t\t\t\t\t</tr>\n\t\t\t\t\t\t\t\t</thead>\n\t\t\t\t\t\t\t\t\t\n\t\t\t\t\t\t\t\t<xsl:for-each select=\"*/cover/plansAck\">\n\t\t\t\t\t\t\t\t\t<tr>\n\t\t\t\t\t\t\t\t\t\t<td class=\"tleft pd4left0 font13\"><xsl:value-of select=\"name\" /></td>\n\t\t\t\t\t\t\t\t\t\t<td class=\"pd4left0 font13 tright\"></td>\n\t\t\t\t\t\t\t\t\t\t<td class=\"pd4left0 font13 tright\"></td>\n\t\t\t\t\t\t\t\t\t\t<td class=\"pd4left0 font13 tright\"></td>\n\t\t\t\t\t\t\t\t\t\t<td class=\"pd4left0 font13 tright\"><xsl:value-of select=\"singlePremium\" /></td>\n\t\t\t\t\t\t\t\t\t</tr>\n\t\t\t\t\t\t\t\t</xsl:for-each>\n\t\t\t\t\t\t\t\t\t\n\t\t\t\t\t\t\t\t<tr><td colspan = \"5\"><br/></td></tr>\n\t\t\t\t\t\t\t\t\n\t\t\t\t\t\t\t\t<tr>\n\t\t\t\t\t\t\t\t\t<td class=\"pd4left0 font13 tleft b\">Total Premium</td>\n\t\t\t\t\t\t\t\t\t<td class=\"pd4left0 font13 tright\"></td>\n\t\t\t\t\t\t\t\t\t<td class=\"pd4left0 font13 tright\"></td>\n\t\t\t\t\t\t\t\t\t<td class=\"pd4left0 font13 tright\"></td>\t\t\t\t\t\n\t\t\t\t\t\t\t\t\t<td class=\"pd4left0 font13 tright b\"><xsl:value-of select=\"*/basicPlan/singlePremTotal\" /></td>\n\t\t\t\t\t\t\t\t</tr>\n\t\t\t\t\t\t\t\t\n\t\t\t\t\t\t\t</xsl:when>\n\t\t\t\t\t\t\n\t\t\t\t\t\t\t<xsl:otherwise>\n\t\t\t\t\t\t\t\t<thead>\n\t\t\t\t\t\t\t\t\t<tr>\n\t\t\t\t\t\t\t\t\t\t<th colspan=\"5\" class=\"tleft font13 b\">Your Premium</th>\n\t\t\t\t\t\t\t\t\t</tr>\n\t\t\t\t\t\t\t\t\t <tr>\n\t\t\t\t\t\t\t\t\t\t<th class=\"pd4left0 font13 b tleft\">Plan Name</th>\n\t\t\t\t\t\t\t\t\t\t<th class=\"pd4left0 font13 b tright\">Annual<br/>Premium</th>\n\t\t\t\t\t\t\t\t\t\t<th class=\"pd4left0 font13 b tright\">Semi-Annual<br/>Premium</th>\n\t\t\t\t\t\t\t\t\t\t<th class=\"pd4left0 font13 b tright\">Quarterly<br/>Premium</th>\n\t\t\t\t\t\t\t\t\t\t<th class=\"pd4left0 font13 b tright\">Monthly<br/>Premium</th>\n\t\t\t\t\t\t\t\t\t</tr>\n\t\t\t\t\t\t\t\t</thead>\n\t\t\t\t\t\t\t\t\n\t\t\t\t\t\t\t\t\t<xsl:for-each select=\"*/cover/plansAck\">\n\t\t\t\t\t\t\t\t\t\t<tr>\n\t\t\t\t\t\t\t\t\t\t\t<td class=\"tleft pd4left0 font13\"><xsl:value-of select=\"name\" /></td>\n\t\t\t\t\t\t\t\t\t\t\t<td class=\"pd4left0 font13 tright\" style=\"vertical-align:top;\"><xsl:value-of select=\"aPremium\"/></td>\n\t\t\t\t\t\t\t\t\t\t\t<td class=\"pd4left0 font13 tright\" style=\"vertical-align:top;\"><xsl:value-of select=\"sPremium\" /></td>\n\t\t\t\t\t\t\t\t\t\t\t<td class=\"pd4left0 font13 tright\" style=\"vertical-align:top;\"><xsl:value-of select=\"qPremium\" /></td>\n\t\t\t\t\t\t\t\t\t\t\t<td class=\"pd4left0 font13 tright\" style=\"vertical-align:top;\"><xsl:value-of select=\"mPremium\" /></td>\n\t\t\t\t\t\t\t\t\t\t</tr>\n\t\t\t\t\t\t\t\t\t</xsl:for-each>\n\t\t\t\t\t\t\t\t\t\n\t\t\t\t\t\t\t\t\t<tr><td colspan = \"5\"><br/></td></tr>\n\t\t\t\t\t\t\t\t\t\n\t\t\t\t\t\t\t\t\t<tr>\n\t\t\t\t\t\t\t\t\t\t<td class=\"pd4left0 font13 tleft b\">Total Premium</td>\n\t\t\t\t\t\t\t\t\t\t<td class=\"pd4left0 font13 tright b\"><xsl:value-of select=\"*/basicPlan/aPremiumTotalAck\" /></td>\n\t\t\t\t\t\t\t\t\t\t<td class=\"pd4left0 font13 tright b\"><xsl:value-of select=\"*/basicPlan/sPremiumTotalAck\" /></td>\n\t\t\t\t\t\t\t\t\t\t<td class=\"pd4left0 font13 tright b\"><xsl:value-of select=\"*/basicPlan/qPremiumTotalAck\" /></td>\n\t\t\t\t\t\t\t\t\t\t<td class=\"pd4left0 font13 tright b\"><xsl:value-of select=\"*/basicPlan/mPremiumTotalAck\" /></td>\n\t\t\t\t\t\t\t\t\t</tr>\n\t\t\t\t\t\t\n\t\t\t\t\t\t\t\t</xsl:otherwise>\n\t\t\t\t\t\t</xsl:choose>\n\t\t\t\t\t</table>\n\t\t\t\t\t\t\n\t\t\t\t\t<br/>\n\t\t\t\t\t<div class=\"pt10\">*Total and Permanent Disability Multiplier Rider pays out a lump sum of 5 times first guaranteed annual retirement income.</div>\n\t\t\t\t</td>\n\t\t\t</tr>\n\t\t</tbody>\n\t</table>\n\t\n</div>\n</xsl:if>\n\n\n<div id=\"pagePS\">\n\t<xsl:if test=\"*/basicPlan/hasPetRider ='1'\">\n\t\t<xsl:attribute name=\"class\">\n\t\t  <xsl:value-of select=\"'pagebreak'\"/>\n\t\t</xsl:attribute>\n\t</xsl:if>\n\t\n\t<table class=\"w100\">\n\t\t<thead>\n\t\t\t<tr>\n\t\t\t\t<th colspan=\"4\" style=\"text-align: center; width: 100%; padding-bottom: 10px;\"><strong>ACKNOWLEDGEMENT</strong></th>\n\t\t\t</tr>\n\t\t</thead>\n\t\t<tbody>\n\t\t\t<tr>\n\t\t\t\t<td>\n\t\t\t\t\t<div class=\"b u underline pt10\">Presented to:</div>\n\t\t\t\t\t\n\t\t\t\t\t<br/>\n\t\t\t\t\t<table style=\"w100\">\n\t\t\t\t\t\t<colgroup>\n\t\t\t\t\t\t\t<col style=\"width:23%\" />\n\t\t\t\t\t\t\t<col style=\"width:7%\" />\n\t\t\t\t\t\t\t<col style=\"width:70%\" />\n\t\t\t\t\t\t</colgroup>\n\t\t\t\t\t\t\n\t\t\t\t\t\t<xsl:if test=\"*/cover/sameAs='N'\">\n\t\t\t\t\t\t\t<tr>\n\t\t\t\t\t\t\t\t<td><span class=\"pt10\">Name of Proposer</span></td>\n\t\t\t\t\t\t\t\t<td><span class=\"pt10\">:</span></td>\n\t\t\t\t\t\t\t\t<td><span class=\"pt10\"><xsl:value-of select=\"*/cover/proposer/name\"/></span></td>\n\t\t\t\t\t\t\t</tr>\n\t\t\t\t\t\t</xsl:if>\n\t\t\t\t\t\t<tr>\n\t\t\t\t\t\t\t<td><span class=\"pt10\">Name of Life Assured</span></td>\n\t\t\t\t\t\t\t<td><span class=\"pt10\">:</span></td>\n\t\t\t\t\t\t\t<td><span class=\"pt10\"><xsl:value-of select=\"*/cover/insured/name\"/></span></td>\n\t\t\t\t\t\t</tr>\n\t\t\t\t\t</table>\n\t\t\t\t\t\n\t\t\t\t\t<br/>\n\t\t\t\t\t<div class=\"b u underline pt10\">Your Plan and Rider(s), if any:</div>\n\t\t\t\t\t<br/>\n\t\t\t\t\t<xsl:for-each select=\"*/cover/plans\">\n\t\t\t\t\t\t<span class=\"pt10\"><xsl:value-of select=\"name\"/></span>\n\t\t\t\t\t\t<br/>\n\t\t\t\t\t</xsl:for-each>\n\t\t\t\t\t\n\t\t\t\t\t<br/>\n\t\t\t\t\t<div class=\"b u underline pt10\">Client(s) Acknowledgement: </div>\n\t\t\t\t\t\n\t\t\t\t\t<table class=\"w100\">\n\t\t\t\t\t\t<colgroup>\n\t\t\t\t\t\t\t<col style=\"width:3%\" />\n\t\t\t\t\t\t\t<col style=\"width:97%\" />\n\t\t\t\t\t\t</colgroup>\n\t\t\t\t\t\t\n\t\t\t\t\t\t<tr><td><br/></td></tr>\n\t\t\t\t\t\t\n\t\t\t\t\t\t<tr>\n\t\t\t\t\t\t\t<td style = \"vertical-align:top\">1.</td>\n\t\t\t\t\t\t\t<td>\n\t\t\t\t\t\t\tI / We confirm that I / We have received all pages of the Policy Illustration for the basic plan and/or all riders listed above, where applicable.\n\t\t\t\t\t\t\t</td>\n\t\t\t\t\t\t</tr>\n\t\t\t\t\t\t\n\t\t\t\t\t\t<tr><td><br/></td></tr>\n\t\t\t\t\t\t\n\t\t\t\t\t\t<tr>\n\t\t\t\t\t\t\t<td style = \"vertical-align:top\">2.</td>\n\t\t\t\t\t\t\t<td>\n\t\t\t\t\t\t\tI / We confirm that I / We have received all pages of the Product Summary for the basic plan and/or riders listed above, where applicable, and that the terms and conditions of the policy as set out in the Product Summary have been explained to me and that I understand the features of the policy and the  applicable fees and charges.\n\t\t\t\t\t\t\t</td>\n\t\t\t\t\t\t</tr>\n\t\t\t\t\t\t\t\n\t\t\t\t\t</table>\n\t\t\t\t</td>\n\t\t\t</tr>\n\t\t</tbody>\n\t</table>\n\n\t<xsl:if test=\"not(*/mainInfo/quickQuote='Y')\">\n\t\t<div class=\"global_prodSumm\" style=\"position:absolute; bottom: 0px;\">\n\t\t\t<div style=\"width: 100%;\">\n\t\t\t\t<table style=\"text-align: left; table-layout: fixed; width: 100%; font-size: 10pt; margin: 0 auto;\">\n\t\t\t\t\t<tbody>\n\t\t\t\t\t\t<tr style=\"color: white;\">\n\t\t\t\t\t\t\t<td style=\"padding-left: 50px;\">\n\t\t\t\t\t\t\t\t<div style=\"border-bottom: solid 1px black; width: 80%;\">ADVISOR_SIGNATURE</div>\n\t\t\t\t\t\t\t</td>\n\t\t\t\t\t\t\t<td style=\"padding-left: 50px;\">\n\t\t\t\t\t\t\t\t<div style=\"border-bottom: solid 1px  black; width: 80%;\">PROPOSER_SIGNATURE</div>\n\t\t\t\t\t\t\t</td>\n\t\t\t\t\t\t</tr>\n\t\t\t\t\t\t<tr>\n\t\t\t\t\t\t\t<td style=\"padding-left: 50px; padding-top: 10px;\">Adviser's Signature</td>\n\t\t\t\t\t\t\t<td style=\"padding-left: 50px; padding-top: 10px;\">Proposer's Signature</td>\n\t\t\t\t\t\t</tr>\n\t\t\t\t\t\t<tr>\n\t\t\t\t\t\t\t<td style=\"padding-left: 50px;\">Date:</td>\n\t\t\t\t\t\t\t<td style=\"padding-left: 50px;\">Date:</td>\n\t\t\t\t\t\t</tr>\n\t\t\t\t\t</tbody>\n\t\t\t\t</table>\n\t\t\t</div>\n\t\t</div>\n\t</xsl:if>\n</div>\n</div>"
        ],
        "zh-Hant": []
    },
    "type": "pdfTemplate",
    "version": 1
}