{
    "compCode": "08",
    "expDate": "2047-02-01 08:14:40",
    "footer": {
        "en": "\n<div class=\"global_intro\">\n<xsl:if test=\"*/mainInfo/quickQuote='Y'\">\n<table style=\"text-align: left; table-layout: fixed; width: 100%; font-size: 10pt; margin: 0 auto;\">\n<tbody>\n<tr style=\"color: white;\">\n<td style=\"padding-left: 50px;\">\n<div style=\"border-bottom: solid 1px black; width: 80%;\">1</div>\n</td>\n<td style=\"padding-left: 50px;\">\n<div style=\"border-bottom: solid 1px black; width: 80%;\">2</div>\n</td>\n</tr>\n<tr>\n<td style=\"padding-left: 50px; padding-top: 3px;\">Adviser's Signature</td>\n<td style=\"padding-left: 50px; padding-top: 3px;\">Proposer's Signature</td>\n</tr>\n<tr>\n<td style=\"padding-left: 50px;\">Date:</td>\n<td style=\"padding-left: 50px;\">Date:</td>\n</tr>\n</tbody>\n</table>\n</xsl:if>\n<table style=\"width: 100%; font-size: 10pt;\">\n<tbody>\n<tr>\n<td style=\"width: 49.8018%;\"><strong>Page [[@PAGE_NO]] of [[@TOTAL_PAGE]]</strong></td>\n<td style=\"text-align: right; width: 46.1982%;\">Release Version <xsl:value-of select=\"*/releaseVersion\"/></td>\n</tr>\n</tbody>\n</table>\n<p></p>\n<div class=\"foot\">\n<div style=\"text-align: center;\"><strong><xsl:value-of select=\"*/footer/compName\"/></strong> (Co. Reg. No. <xsl:value-of select=\"*/footer/compRegNo\"/>)</div>\n<div style=\"text-align: center;\"><xsl:value-of select=\"*/footer/compAddr\"/> | Tel: <xsl:value-of select=\"*/footer/compTel\"/> | Email: <xsl:value-of select=\"*/footer/customerCareEmail\"/> | <xsl:value-of select=\"*/footer/compWeb\"/></div>\n</div>\n</div>",
        "zh-Hant": "<p></p>"
    },
    "formulas": {
        "prepareReportData": "function(quotation, planInfo, planDetails, extraPara) {var basicPlan = quotation.plans[0]; var hasSpTopUp = quotation.policyOptions.topUpSelect; var hasRspTopUp = quotation.policyOptions.rspSelect; var hasWithdrawal = quotation.policyOptions.wdSelect; var company = extraPara.company; var illust = extraPara.illustrations[planInfo.covCode]; var getSmokingDesc = function(value){ return value == \"N\"? \"Non-Smoker\": \"Smoker\"; }; var getGenderDesc = function(value){ return value == \"M\"? \"Male\": \"Female\"; }; var getCurrencyDesc = function(value,decimals){ return quotation.ccy + ' ' + getCurrency(value, '', decimals); }; return { footer: { compName: company.compName, compRegNo: company.compRegNo, compAddr: company.compAddr, compAddr2: company.compAddr2, compTel: company.compTel, compFax: company.compFax, compWeb: company.compWeb, sysdate: new Date(extraPara.systemDate).format(extraPara.dateFormat), planCode: basicPlan.planCode, releaseVersion: \"1\", customerCareEmail: company.customerCareEmail }, proposer: { name: quotation.pFullName, gender: getGenderDesc(quotation.pGender), dob: new Date(quotation.pDob).format(extraPara.dateFormat), age: quotation.pAge, smoking: getSmokingDesc(quotation.pSmoke) }, insured: { name: quotation.iFullName, gender: getGenderDesc(quotation.iGender), dob: new Date(quotation.iDob).format(extraPara.dateFormat), age: quotation.iAge, smoking: getSmokingDesc(quotation.iSmoke) }, cover: { sameAs: quotation.sameAs, riskCommenDate: new Date(quotation.riskCommenDate).format(extraPara.dateFormat), proposer: { name: quotation.pFullName, gender: getGenderDesc(quotation.pGender), dob: new Date(quotation.pDob).format(extraPara.dateFormat), age: quotation.pAge, smoking: getSmokingDesc(quotation.pSmoke) }, insured: { name: quotation.iFullName, gender: getGenderDesc(quotation.iGender), dob: new Date(quotation.iDob).format(extraPara.dateFormat), age: quotation.iAge, smoking: getSmokingDesc(quotation.iSmoke) }, genDate: new Date(extraPara.systemDate).format(extraPara.dateFormat), plans: quotation.plans.map(function(plan,minInvPeriod) { return { name: plan.covName.en, polTermDesc: plan.polTermDesc, premTermDesc: plan.premTermDesc, mip: minInvPeriod }; }), funds: quotation.fund.funds.map(function(fund) { var fRsp = (quotation.policyOptions.rspAmount || 0) * fund.alloc / 100; return { name: fund.fundName.en, code: fund.fundCode, alloc: fund.alloc + '%', topUpAlloc: hasSpTopUp ? fund.topUpAlloc + '%' : '-', premium: getCurrency(basicPlan.premium * fund.alloc / 100, '', 2), annualPremium: getCurrency(basicPlan.yearPrem * fund.alloc / 100, '', 2), rsp: getCurrency(fRsp, '', 2), annualRsp: getCurrency(fRsp * 12, '', 2), topUp: getCurrency((quotation.policyOptions.topUpAmt || 0) * fund.topUpAlloc / 100, '', 2) }; }), withdrawal: { value: hasWithdrawal? getCurrency(quotation.policyOptions.wdAmount, '', 2): \"N/A\", from: hasWithdrawal? quotation.policyOptions.wdFromAge: \"N/A\", to: hasWithdrawal? quotation.policyOptions.wdToAge: \"N/A\" } }, };}"
    },
    "header": {
        "en": "<table style=\"width: 100%;\">\n<tbody>\n<tr>\n<td><div class=\"awt-intro-logo\"></div></td>\n<td style=\"float: right; width: 200px;\"></td>\n</tr>\n</tbody>\n</table>\n<p></p>",
        "zh-Hant": "<p></p>"
    },
    "launchDate": "2018-02-01 08:14:16",
    "overlay": {
        "en": ""
    },
    "pdfCode": "AWTR_INTRO_IMPORT_NOTES",
    "pdfName": {
        "en": "AWTR Introduction and Important Notes",
        "zh-Hant": "AWT Introduction and Important Notes",
        "zh-tw": "AWT Introduction and Important Notes"
    },
    "releaseDate": "2020-02-18 03:45:35",
    "remarks": {
        "en": "AWTR Introduction and Important Notes"
    },
    "status": "A",
    "style": ".notbreak{page-break-inside:avoid;}.vtop{vertical-align:top;}.pd8{padding:8px;}.vpd2{padding-top:2px;padding-bottom:2px;}.hpd2{padding:0 2px;}.b{font-weight:bold;}.u{text-decoration:underline;}.vpd4{padding-top:4px;padding-bottom:4px;}.hpd4{padding:0 4px;}.pd2left0{padding:4px 4px 4px 0;}.pd2right0{padding:4px 0 4px 4px;}.pd4left0{padding:4px 4px 4px 0;}.pd4top0left0{padding:0 4px 4px 0;}.pd4right0{padding:4px 0 4px 4px;}.pd4top0right0{padding:0 0 4px 4px;}.w100{width:100%;}.w24p{width:24px;}.hr{width:100%;height:1pt;background:black;}div{text-align:justify;font-size:10pt;}.mtop8{margin-top:8px;}.bgblack{background:black;}.tcwhite{color:white;}.tdCol{height:13px;vertical-align:middle;text-align:center;}.txtCenterH{text-align:center;}td{position:relative;}.tBorder{position:aboslute;left:0;right:0;top:-1px;height:1px;background:black;}.bBorder{position:aboslute;left:0;right:0;bottom:-1px;height:1px;background:black;}.cover-margin{margin:24px;}.intro-img{height:50px;}.awt-intro-logo{background-image:<img@awt_intro-logo-img>;width:50px;height:50px;background-repeat:round;margin-top:0;float:left;}.awt-intro-barcode{background-image:<img@awt_intro-barcode-img>;width:192px;height:47px;background-repeat:round;margin-top:0;float:right;}.agentTableTitle1{width:22%;height:13px;}.agentTableTitle2{width:22%;height:13px;}.agentTableValue{width:36%;height:13px;}.detailTable{width:100%;font-size:10pt;}.detailTableTitle{width:16%;height:13px;}.detailTableTitle2{width:22%;height:13px;}.detailTableTitleRsp{width:20%;height:13px;}.detailTableValueRsp{width:38%;height:13px;}.detailTableValue{width:42%;height:13px;}.planName{width:40%;height:13px;}.planNumberPlan{width:28%;height:13px;}.planNumberPremium{width:35%;height:13px;text-align:left;}.fundName{width:40%;height:13px;}.fundAlloc{width:35%;height:13px;text-align:right;}.fundCode{width:25%;height:13px;text-align:right;}.global_intro{font-size:10pt;}.sectionSpace{height:10px;}.tleft{text-align:left;}.tright{text-align:right;}.font13{font-size:13px;}.link{color:blue;text-decoration:underline;}.foot{font-size:9pt;text-align:center;}.foot div{font-size:inherit;text-align:inherit;}",
    "template": {
        "en": [
            "<div class=\"global_main\">\n\n      <table class=\"w100\">\n         <colgroup>\n            <col style=\"width:30%\" />\n            <col style=\"width:32%\" />\n            <col style=\"width:7%;\" />\n            <col style=\"width:31%\" />\n         </colgroup>\n         <thead>\n            <tr>                    <th colspan=\"4\" style=\"text-align: center; padding-bottom: 10px; font-size: 10pt;\"> <strong>MAIN POLICY ILLUSTRATION</strong> </th>                </tr>\n            <tr>\n               <th colspan=\"2\" class=\"vtop vpd2 b tleft\">\n                  <span>Proposal on the life of: </span> \n                  <span>\n                     <xsl:value-of select=\"*/cover/insured/name\"/>\n                  </span>\n               </th>\n               <th class=\"vtop vpd2 b tleft\"> <span>Date</span> </th>\n               <th class=\"vtop vpd2 tleft\">\n                  <span>\n                     : \n                     <xsl:value-of select=\"*/cover/genDate\"/>\n                  </span>\n               </th>\n            </tr>\n            <tr style=\"border-bottom: solid 1pt black\">                    \n            <th colspan=\"2\" class=\"vtop vpd2 b tleft\">\n               <span>Gender: </span> \n               <span>\n                  <xsl:value-of select=\"*/cover/insured/gender\"/>\n                  (\n                  <xsl:value-of select=\"*/cover/insured/smoking\"/>\n                  ) \n               </span>\n            </th>\n            <th class=\"vtop vpd2 b tleft\"> <span>Age</span> </th>\n            <th class=\"vtop vpd2 tleft\">\n               <span>\n                  : \n                  <xsl:value-of select=\"*/cover/insured/age\"/>\n                  (As at \n                  <xsl:value-of select=\"*//cover/genDate\"/>\n                  ) \n               </span>\n            </th>\n            </tr> \n         </thead>\n      </table>\n      <p> <strong>INTRODUCTION</strong> </p>\n      <p></p>\n      <p>AXA Insurance Pte Ltd believes that it is important that you fully appreciate the benefits of your Policy. You should also understand how the cost of your insurance cover and the expenses of administration and sales affect the benefits that you will receive.</p>\n      <p>The illustration that follows shows how the value of your Policy progresses over time and the sum(s) that would be payable. The methods used to derive the values shown follow guidelines established by the Life Insurance Association, Singapore, to ensure that a fair and consistent approach is used in preparing this illustration.</p>\n      <p>As buying a life insurance policy is a long-term commitment, an early termination of the policy usually involves high costs and the surrender value, if any, that is payable to you may be zero or less than the total premiums paid. You are required to disclose all material facts to this policy truthfully in the proposal form, otherwise your policy issued may be void.</p>\n      <p>If you need clarification please do not hesitate to ask your Financial Adviser.</p>\n      <p>This policy is protected under the Policy Owners’ Protection Scheme which is administered by the Singapore Deposit Insurance Corporation (SDIC). Coverage for your policy is automatic and no further action is required from you. For more information on the types of benefits that are covered under the scheme as well as the limits of coverage, where applicable, please contact AXA Insurance Pte Ltd or visit the GIA/LIA or SDIC web-sites (<a class=\"link\" herf=\"www.gia.org.sg\">www.gia.org.sg</a> or <a class=\"link\" herf=\"www.lia.org.sg\">www.lia.org.sg</a> or <a class=\"link\" herf=\"www.sdic.org.sg\">www.sdic.org.sg</a>).</p>\n   </div>\n",
            "<div class=\"global_main\">\n    <table class=\"w100\">\n       <colgroup>\n          <col style=\"width:30%\" />\n          <col style=\"width:32%\" />\n          <col style=\"width:7%;\" />\n          <col style=\"width:31%\" />\n       </colgroup>\n       <thead>\n          <tr>                    <th colspan=\"4\" style=\"text-align: center; padding-bottom: 10px; font-size: 10pt;\"> <strong>MAIN POLICY ILLUSTRATION</strong> </th>                </tr>\n          <tr>\n             <th colspan=\"2\" class=\"vtop vpd2 b tleft\">\n                <span>Proposal on the life of: </span> \n                <span>\n                   <xsl:value-of select=\"*/cover/insured/name\"/>\n                </span>\n             </th>\n             <th class=\"vtop vpd2 b tleft\"> <span>Date</span> </th>\n             <th class=\"vtop vpd2 tleft\">\n                <span>\n                   : \n                   <xsl:value-of select=\"*/cover/genDate\"/>\n                </span>\n             </th>\n          </tr>\n          <tr style=\"border-bottom: solid 1pt black\">                    \n          <th colspan=\"2\" class=\"vtop vpd2 b tleft\">\n             <span>Gender: </span> \n             <span>\n                <xsl:value-of select=\"*/cover/insured/gender\"/>\n                (\n                <xsl:value-of select=\"*/cover/insured/smoking\"/>\n                ) \n             </span>\n          </th>\n          <th class=\"vtop vpd2 b tleft\"> <span>Age</span> </th>\n          <th class=\"vtop vpd2 tleft\">\n             <span>\n                : \n                <xsl:value-of select=\"*/cover/insured/age\"/>\n                (As at \n                <xsl:value-of select=\"*//cover/genDate\"/>\n                ) \n             </span>\n          </th>\n          </tr> \n       </thead>\n    </table>\n    <p> <strong>IMPORTANT NOTES </strong> </p>\n    <table class=\"w100\" style=\"font-size: 10pt; font-family: 'Source Sans Pro'; text-align: justify;\">                                    \n    <colgroup>\n       <col style=\"width:3%\" />\n       <col style=\"width:97%\" />\n    </colgroup>\n    <tr>\n       <td class=\"vtop\">1.</td>\n       <td>The illustration is based on the illustrated investment returns of 4.0% p.a. and 8.0% p.a. The two rates of returns are purely for illustrative purposes. The actual rate may be higher or lower. The actual benefits payable will depend on the actual performance of the underlying assets of the fund(s). The performance of the fund(s) is/are not guaranteed and the surrender value may be less than the capital invested. <br /> <br /> </td>\n    </tr>\n    <tr>\n       <td class=\"vtop\">2.</td>\n       <td>The quotation is applicable to standard life. <br /> <br /> </td>\n    </tr>\n    <tr>\n       <td class=\"vtop\">3.</td>\n       <td>The quotation is for illustrative purposes only and is not a contract of assurance. The precise terms and conditions of this/these plan(s) are specified in the Policy contract.\n          <br /> <br /> </td>\n    </tr>\n    <tr>\n       <td class=\"vtop\">4.</td>\n       <td>Figures shown in the main illustration tables assume that no withdrawal of funds have been made during the term of the Policy. <br /> <br /> </td>\n    </tr>\n    <tr>\n       <td class=\"vtop\">5.</td>\n       <td>Please note the lapsation and termination clauses in the product summary and Policy contract.  <br /> <br /> </td>\n    </tr>\n    <tr>\n       <td class=\"vtop\">6.</td>\n       <td>All figures quoted are based on the selected Policy currency.<br /> <br /> </td>\n    </tr>\n    <tr>\n       <td class=\"vtop\">7.</td>\n       <td>Figures shown in the illustration tables assume: <br /></td>\n    </tr>\n    <tr>\n        <td class=\"vtop\"></td>\n        <td><b>*</b> Payment of Start-up Bonus (if any); and  <br /> </td>\n    </tr>\n    <tr>\n        <td class=\"vtop\"></td>\n        <td><b>*</b> payment of Power-up Bonus (if any);  <br /> </td>\n    </tr>\n    <tr>\n        <td class=\"vtop\"></td>\n        <td><b>*</b> payment of Loyalty Bonus ( if any); and  <br /><br /> </td>\n    </tr>\n    <tr>\n       <td class=\"vtop\">8.</td>\n       <td>For the avoidance of doubt, the figures shown for the Non-guaranteed Surrender Values in the last year of the Minimum Investment Period (\"MIP\") does not take into account the applicable Surrender Charges (the Early Encashment Charges) for the Policy, as it is assumed that there will be no surrender in that particular year. However, please note that in the event you do surrender the Policy at any time before the end of the MIP, we will levy Surrender Charges on the Policy payout. <br /> <br /> </td>\n    </tr>\n    <tr>\n       <td class=\"vtop\">9.</td>\n       <td>All other figures in the Policy illustration for Non-guaranteed Surrender Values have already taken into account the Surrender Charges for the Policy if the Policy is surrendered at any time before the end of the MIP. <br /> <br /> </td>\n    </tr>\n    <tr>\n       <td class=\"vtop\">10.</td>\n       <td>The illustrated Account Value under different illustrated investment rates of return may or may not be sufficient to carry out your requested Regular Withdrawal amount (if any) throughout the requested Regular Withdrawal duration. Please refer to the Supplementary Illustration (Regular Withdrawal) page for more details of how long the Account Value may sustain your requested Regular Withdrawal. <br /> <br /> </td>\n    </tr>\n     <tr>\n       <td class=\"vtop\">11.</td>\n       <td>Please note that charges for the basic plan are not guaranteed. These charges may be adjusted based on future experience. <br /> <br /> </td>\n    </tr>\n    </table>    \n\n</div>"
        ],
        "zh-Hant": []
    },
    "type": "pdfTemplate",
    "version": 2
}