{
    "allowBackdate": "Y",
    "budgetRules": [
        "RP",
        "SP"
    ],
    "compCode": "08",
    "covCode": "ESR",
    "covName": {
        "en": "Enhanced Benefit Rider",
        "zh-Hant": "Enhanced Benefit Rider"
    },
    "ctyGroup": [
        "*"
    ],
    "currencies": [
        {
            "ccy": [
                "SGD"
            ],
            "country": "*"
        }
    ],
    "dealerGroup": [
        "AGENCY",
        "DIRECT",
        "SINGPOST",
        "BROKER",
        "FUSION",
        "SYNERGY"
    ],
    "effDate": "2018-03-15 02:55:30",
    "entryAge": [],
    "expDate": "2118-07-26 16:00:00",
    "formulas": {
        "calcQuotFunc": "function (quotation, planInfo, planDetails) {var planDetail = planDetails[planInfo.covCode]; var basicPlanDetail = planDetails[quotation.plans[0].covCode]; if (quotation.plans[0] && quotation.plans[0].premTerm) { planInfo.premTerm = quotation.plans[0].premTerm; } if (quotation.plans[0] && quotation.plans[0].policyTerm) { planInfo.policyTerm = quotation.plans[0].policyTerm; } if (quotation.plans[0].premium) { quotCalc.calcPlanPrem(quotation, planInfo, planDetails); }}",
        "getPlanCodeMapping": "function (planInfo) {if (planInfo.premTerm < 10 ) { return '0' + planInfo.premTerm + 'ESR' + planInfo.policyTerm; } else { return planInfo.premTerm + 'ESR' + planInfo.policyTerm; }}",
        "getPremRate": "function (quotation, planInfo, planDetail, age) {var rateKey; if (planInfo.premTerm === 5) { var rates = planDetail.rates.premRate['TPD_5']; } else if (planInfo.premTerm === 10) { var rates = planDetail.rates.premRate['TPD_10']; } return rates[Number.parseInt(planInfo.policyTerm)][age] || 0;}",
        "illustrateFunc": "",
        "polTermsFunc": "",
        "premFunc": "function (quotation, planInfo, planDetail) {/** Enhanced Benefit Rider Prem Func*/ var roundDown = function (value, digit) { var scale = math.pow(10, digit); return math.divide(math.floor(math.multiply(value, scale)), scale); }; var numberTrunc = function (value, digit) { value = value.toString(); if (value.indexOf('.') === -1) { return Number.parseInt(value); } else { value = value.substr(0, value.indexOf('.') + digit + 1); return Number.parseFloat(value); } }; var premium = null; var sumInsured = quotation.plans[0].sumInsured || 0; if (planInfo.premTerm && sumInsured) { var premRate = math.bignumber(runFunc(planDetail.formulas.getPremRate, quotation, planInfo, planDetail, quotation.iAge)); var lsd = math.bignumber(runFunc(planDetail.formulas.getLSD, planDetail, sumInsured, planInfo.premTerm)); premRate = premRate; var prem = math.divide(numberTrunc(math.multiply(premRate, sumInsured), 2), 1000); var modalFactor = 1; for (var p in planDetail.payModes) { if (planDetail.payModes[p].mode === quotation.paymentMode) { modalFactor = planDetail.payModes[p].factor; } } prem = numberTrunc(math.multiply(prem, math.bignumber(modalFactor)), 2); premium = math.number(prem); } return premium;}",
        "premTermsFunc": "",
        "prepareClassConfig": "",
        "prepareSAPremConfig": "",
        "prepareTermConfig": "function (planDetail, quotation, planDetails) {let basicDetail = planDetails[quotation.baseProductCode]; let polTermList = basicDetail.inputConfig.policyTermList; let premTermList = basicDetail.inputConfig.premTermList; planDetail.inputConfig.canEditPolicyTerm = false; planDetail.inputConfig.policyTermList = polTermList; planDetail.inputConfig.canEditPremTerm = false; planDetail.inputConfig.premTermList = premTermList; if (basicDetail && basicDetail.policyTerm) { planDetail.policyTerm = basicDetail.policyTerm; } else { planDetail.policyTerm = null; } if (basicDetail && basicDetail.premTerm) { planDetail.premTerm = basicDetail.premTerm; } else { planDetail.premTerm = null; } }",
        "saFunc": "",
        "validAfterCalcFunc": "function(quotation, planInfo, planDetail) { /**ESR validAfterCalcFunc*/ quotValid.validateMandatoryFields(quotation, planInfo, planDetail); if (planInfo.calcBy) { var totalPrem = 0; for (var i = 0; i < quotation.plans.length; i++) { var plan = quotation.plans[i]; if (plan.premium) { totalPrem = math.add(totalPrem, math.bignumber(plan.premium)); } } totalPrem = math.number(totalPrem); if (planDetail.inputConfig && planDetail.inputConfig.premlim) { let min = planDetail.inputConfig.premlim.min; if (min && min > totalPrem) { var err = { covCode: planInfo.covCode, msgPara: [], code: '' }; err.msgPara.push(getCurrency(min, '$', 2)); err.code = 'js.err.invalid_premlim_min'; err.msgPara.push(totalPrem); quotDriver.context.addError(err); } } } var planCodeMap = quotDriver.runFunc(planDetail.formulas.getPlanCodeMapping, planInfo); if (planInfo.policyTerm) { planInfo.planCode = planCodeMap; } if (typeof quotation.plans[0].sumInsured != 'undefined') { planInfo.sumInsured = quotation.plans[0].sumInsured; } if (!planInfo.sumInsured) { planInfo.premium = planInfo.yearPrem = planInfo.halfYearPrem = planInfo.quarterPrem = planInfo.monthPrem = planInfo.sumInsured; }}",
        "validBeforeCalcFunc": "",
        "validQuotFunc": "",
        "willValidQuotFunc": ""
    },
    "genderInd": "*",
    "payModes": [
        {
            "covMonth": 12,
            "default": "Y",
            "factor": 1,
            "mode": "A",
            "operator": "M"
        },
        {
            "covMonth": 6,
            "default": "",
            "factor": 0.51,
            "mode": "S",
            "operator": "M"
        },
        {
            "covMonth": 3,
            "default": "",
            "factor": 0.26,
            "mode": "Q",
            "operator": "M"
        },
        {
            "covMonth": 1,
            "default": "",
            "factor": 0.0875,
            "mode": "M",
            "operator": "M"
        }
    ],
    "planInd": "R",
    "prodFeature": {},
    "productCategory": "cv",
    "productLine": "WLE",
    "rates": {
        "premRate": {
            "TPD_10": {
                "15": [
                    1.69,
                    1.69,
                    1.69,
                    1.69,
                    1.69,
                    1.69,
                    1.69,
                    1.69,
                    1.69,
                    1.69,
                    1.69,
                    1.69,
                    1.69,
                    1.69,
                    1.69,
                    1.69,
                    1.69,
                    1.69,
                    1.69,
                    1.69,
                    1.69,
                    1.69,
                    1.69,
                    1.69,
                    1.69,
                    1.69,
                    1.69,
                    1.69,
                    1.69,
                    1.69,
                    1.69,
                    1.69,
                    1.69,
                    1.69,
                    1.69,
                    1.69,
                    1.69,
                    1.69,
                    1.69,
                    1.69,
                    1.69,
                    1.69,
                    1.69,
                    1.69,
                    1.69,
                    1.69,
                    1.69,
                    1.69,
                    1.69,
                    1.69,
                    1.69,
                    1.69,
                    1.69,
                    1.69,
                    1.69,
                    1.69,
                    1.69,
                    1.69,
                    1.69,
                    1.69,
                    1.69
                ],
                "16": [
                    1.66,
                    1.66,
                    1.66,
                    1.66,
                    1.66,
                    1.66,
                    1.66,
                    1.66,
                    1.66,
                    1.66,
                    1.66,
                    1.66,
                    1.66,
                    1.66,
                    1.66,
                    1.66,
                    1.66,
                    1.66,
                    1.66,
                    1.66,
                    1.66,
                    1.66,
                    1.66,
                    1.66,
                    1.66,
                    1.66,
                    1.66,
                    1.66,
                    1.66,
                    1.66,
                    1.66,
                    1.66,
                    1.66,
                    1.66,
                    1.66,
                    1.66,
                    1.66,
                    1.66,
                    1.66,
                    1.66,
                    1.66,
                    1.66,
                    1.66,
                    1.66,
                    1.66,
                    1.66,
                    1.66,
                    1.66,
                    1.66,
                    1.66,
                    1.66,
                    1.66,
                    1.66,
                    1.66,
                    1.66,
                    1.66,
                    1.66,
                    1.66,
                    1.66,
                    1.66,
                    1.66
                ],
                "17": [
                    1.62,
                    1.62,
                    1.62,
                    1.62,
                    1.62,
                    1.62,
                    1.62,
                    1.62,
                    1.62,
                    1.62,
                    1.62,
                    1.62,
                    1.62,
                    1.62,
                    1.62,
                    1.62,
                    1.62,
                    1.62,
                    1.62,
                    1.62,
                    1.62,
                    1.62,
                    1.62,
                    1.62,
                    1.62,
                    1.62,
                    1.62,
                    1.62,
                    1.62,
                    1.62,
                    1.62,
                    1.62,
                    1.62,
                    1.62,
                    1.62,
                    1.62,
                    1.62,
                    1.62,
                    1.62,
                    1.62,
                    1.62,
                    1.62,
                    1.62,
                    1.62,
                    1.62,
                    1.62,
                    1.62,
                    1.62,
                    1.62,
                    1.62,
                    1.62,
                    1.62,
                    1.62,
                    1.62,
                    1.62,
                    1.62,
                    1.62,
                    1.62,
                    1.62,
                    1.62,
                    1.62
                ],
                "18": [
                    1.59,
                    1.59,
                    1.59,
                    1.59,
                    1.59,
                    1.59,
                    1.59,
                    1.59,
                    1.59,
                    1.59,
                    1.59,
                    1.59,
                    1.59,
                    1.59,
                    1.59,
                    1.59,
                    1.59,
                    1.59,
                    1.59,
                    1.59,
                    1.59,
                    1.59,
                    1.59,
                    1.59,
                    1.59,
                    1.59,
                    1.59,
                    1.59,
                    1.59,
                    1.59,
                    1.59,
                    1.59,
                    1.59,
                    1.59,
                    1.59,
                    1.59,
                    1.59,
                    1.59,
                    1.59,
                    1.59,
                    1.59,
                    1.59,
                    1.59,
                    1.59,
                    1.59,
                    1.59,
                    1.59,
                    1.59,
                    1.59,
                    1.59,
                    1.59,
                    1.59,
                    1.59,
                    1.59,
                    1.59,
                    1.59,
                    1.59,
                    1.59,
                    1.59,
                    1.59,
                    1.59
                ],
                "19": [
                    1.55,
                    1.55,
                    1.55,
                    1.55,
                    1.55,
                    1.55,
                    1.55,
                    1.55,
                    1.55,
                    1.55,
                    1.55,
                    1.55,
                    1.55,
                    1.55,
                    1.55,
                    1.55,
                    1.55,
                    1.55,
                    1.55,
                    1.55,
                    1.55,
                    1.55,
                    1.55,
                    1.55,
                    1.55,
                    1.55,
                    1.55,
                    1.55,
                    1.55,
                    1.55,
                    1.55,
                    1.55,
                    1.55,
                    1.55,
                    1.55,
                    1.55,
                    1.55,
                    1.55,
                    1.55,
                    1.55,
                    1.55,
                    1.55,
                    1.55,
                    1.55,
                    1.55,
                    1.55,
                    1.55,
                    1.55,
                    1.55,
                    1.55,
                    1.55,
                    1.55,
                    1.55,
                    1.55,
                    1.55,
                    1.55,
                    1.55,
                    1.55,
                    1.55,
                    1.55,
                    1.55
                ],
                "20": [
                    1.52,
                    1.52,
                    1.52,
                    1.52,
                    1.52,
                    1.52,
                    1.52,
                    1.52,
                    1.52,
                    1.52,
                    1.52,
                    1.52,
                    1.52,
                    1.52,
                    1.52,
                    1.52,
                    1.52,
                    1.52,
                    1.52,
                    1.52,
                    1.52,
                    1.52,
                    1.52,
                    1.52,
                    1.52,
                    1.52,
                    1.52,
                    1.52,
                    1.52,
                    1.52,
                    1.52,
                    1.52,
                    1.52,
                    1.52,
                    1.52,
                    1.52,
                    1.52,
                    1.52,
                    1.52,
                    1.52,
                    1.52,
                    1.52,
                    1.52,
                    1.52,
                    1.52,
                    1.52,
                    1.52,
                    1.52,
                    1.52,
                    1.52,
                    1.52,
                    1.52,
                    1.52,
                    1.52,
                    1.52,
                    1.52,
                    1.52,
                    1.52,
                    1.52,
                    1.52,
                    1.52
                ],
                "21": [
                    1.52,
                    1.52,
                    1.52,
                    1.52,
                    1.52,
                    1.52,
                    1.52,
                    1.52,
                    1.52,
                    1.52,
                    1.52,
                    1.52,
                    1.52,
                    1.52,
                    1.52,
                    1.52,
                    1.52,
                    1.52,
                    1.52,
                    1.52,
                    1.52,
                    1.52,
                    1.52,
                    1.52,
                    1.52,
                    1.52,
                    1.52,
                    1.52,
                    1.52,
                    1.52,
                    1.52,
                    1.52,
                    1.52,
                    1.52,
                    1.52,
                    1.52,
                    1.52,
                    1.52,
                    1.52,
                    1.52,
                    1.52,
                    1.52,
                    1.52,
                    1.52,
                    1.52,
                    1.52,
                    1.52,
                    1.52,
                    1.52,
                    1.52,
                    1.52,
                    1.52,
                    1.52,
                    1.52,
                    1.52,
                    1.52,
                    1.52,
                    1.52,
                    1.52,
                    1.52,
                    1.52
                ],
                "22": [
                    1.51,
                    1.51,
                    1.51,
                    1.51,
                    1.51,
                    1.51,
                    1.51,
                    1.51,
                    1.51,
                    1.51,
                    1.51,
                    1.51,
                    1.51,
                    1.51,
                    1.51,
                    1.51,
                    1.51,
                    1.51,
                    1.51,
                    1.51,
                    1.51,
                    1.51,
                    1.51,
                    1.51,
                    1.51,
                    1.51,
                    1.51,
                    1.51,
                    1.51,
                    1.51,
                    1.51,
                    1.51,
                    1.51,
                    1.51,
                    1.51,
                    1.51,
                    1.51,
                    1.51,
                    1.51,
                    1.51,
                    1.51,
                    1.51,
                    1.51,
                    1.51,
                    1.51,
                    1.51,
                    1.51,
                    1.51,
                    1.51,
                    1.51,
                    1.51,
                    1.51,
                    1.51,
                    1.51,
                    1.51,
                    1.51,
                    1.51,
                    1.51,
                    1.51,
                    1.51,
                    1.51
                ],
                "23": [
                    1.51,
                    1.51,
                    1.51,
                    1.51,
                    1.51,
                    1.51,
                    1.51,
                    1.51,
                    1.51,
                    1.51,
                    1.51,
                    1.51,
                    1.51,
                    1.51,
                    1.51,
                    1.51,
                    1.51,
                    1.51,
                    1.51,
                    1.51,
                    1.51,
                    1.51,
                    1.51,
                    1.51,
                    1.51,
                    1.51,
                    1.51,
                    1.51,
                    1.51,
                    1.51,
                    1.51,
                    1.51,
                    1.51,
                    1.51,
                    1.51,
                    1.51,
                    1.51,
                    1.51,
                    1.51,
                    1.51,
                    1.51,
                    1.51,
                    1.51,
                    1.51,
                    1.51,
                    1.51,
                    1.51,
                    1.51,
                    1.51,
                    1.51,
                    1.51,
                    1.51,
                    1.51,
                    1.51,
                    1.51,
                    1.51,
                    1.51,
                    1.51,
                    1.51,
                    1.51,
                    1.51
                ],
                "24": [
                    1.5,
                    1.5,
                    1.5,
                    1.5,
                    1.5,
                    1.5,
                    1.5,
                    1.5,
                    1.5,
                    1.5,
                    1.5,
                    1.5,
                    1.5,
                    1.5,
                    1.5,
                    1.5,
                    1.5,
                    1.5,
                    1.5,
                    1.5,
                    1.5,
                    1.5,
                    1.5,
                    1.5,
                    1.5,
                    1.5,
                    1.5,
                    1.5,
                    1.5,
                    1.5,
                    1.5,
                    1.5,
                    1.5,
                    1.5,
                    1.5,
                    1.5,
                    1.5,
                    1.5,
                    1.5,
                    1.5,
                    1.5,
                    1.5,
                    1.5,
                    1.5,
                    1.5,
                    1.5,
                    1.5,
                    1.5,
                    1.5,
                    1.5,
                    1.5,
                    1.5,
                    1.5,
                    1.5,
                    1.5,
                    1.5,
                    1.5,
                    1.5,
                    1.5,
                    1.5,
                    1.5
                ],
                "25": [
                    1.49,
                    1.49,
                    1.49,
                    1.49,
                    1.49,
                    1.49,
                    1.49,
                    1.49,
                    1.49,
                    1.49,
                    1.49,
                    1.49,
                    1.49,
                    1.49,
                    1.49,
                    1.49,
                    1.49,
                    1.49,
                    1.49,
                    1.49,
                    1.49,
                    1.49,
                    1.49,
                    1.49,
                    1.49,
                    1.49,
                    1.49,
                    1.49,
                    1.49,
                    1.49,
                    1.49,
                    1.49,
                    1.49,
                    1.49,
                    1.49,
                    1.49,
                    1.49,
                    1.49,
                    1.49,
                    1.49,
                    1.49,
                    1.49,
                    1.49,
                    1.49,
                    1.49,
                    1.49,
                    1.49,
                    1.49,
                    1.49,
                    1.49,
                    1.49,
                    1.49,
                    1.49,
                    1.49,
                    1.49,
                    1.49,
                    1.49,
                    1.49,
                    1.49,
                    1.49,
                    1.49
                ]
            },
            "TPD_5": {
                "10": [
                    4.03,
                    4.03,
                    4.03,
                    4.03,
                    4.03,
                    4.03,
                    4.03,
                    4.03,
                    4.03,
                    4.03,
                    4.03,
                    4.03,
                    4.03,
                    4.03,
                    4.03,
                    4.03,
                    4.03,
                    4.03,
                    4.03,
                    4.03,
                    4.03,
                    4.03,
                    4.03,
                    4.03,
                    4.03,
                    4.03,
                    4.03,
                    4.03,
                    4.03,
                    4.03,
                    4.03,
                    4.03,
                    4.03,
                    4.03,
                    4.03,
                    4.03,
                    4.03,
                    4.03,
                    4.03,
                    4.03,
                    4.03,
                    4.03,
                    4.03,
                    4.03,
                    4.03,
                    4.03,
                    4.03,
                    4.03,
                    4.03,
                    4.03,
                    4.03,
                    4.03,
                    4.03,
                    4.03,
                    4.03,
                    4.03,
                    4.03,
                    4.03,
                    4.03,
                    4.03,
                    4.03
                ],
                "11": [
                    3.9,
                    3.9,
                    3.9,
                    3.9,
                    3.9,
                    3.9,
                    3.9,
                    3.9,
                    3.9,
                    3.9,
                    3.9,
                    3.9,
                    3.9,
                    3.9,
                    3.9,
                    3.9,
                    3.9,
                    3.9,
                    3.9,
                    3.9,
                    3.9,
                    3.9,
                    3.9,
                    3.9,
                    3.9,
                    3.9,
                    3.9,
                    3.9,
                    3.9,
                    3.9,
                    3.9,
                    3.9,
                    3.9,
                    3.9,
                    3.9,
                    3.9,
                    3.9,
                    3.9,
                    3.9,
                    3.9,
                    3.9,
                    3.9,
                    3.9,
                    3.9,
                    3.9,
                    3.9,
                    3.9,
                    3.9,
                    3.9,
                    3.9,
                    3.9,
                    3.9,
                    3.9,
                    3.9,
                    3.9,
                    3.9,
                    3.9,
                    3.9,
                    3.9,
                    3.9,
                    3.9
                ],
                "12": [
                    3.78,
                    3.78,
                    3.78,
                    3.78,
                    3.78,
                    3.78,
                    3.78,
                    3.78,
                    3.78,
                    3.78,
                    3.78,
                    3.78,
                    3.78,
                    3.78,
                    3.78,
                    3.78,
                    3.78,
                    3.78,
                    3.78,
                    3.78,
                    3.78,
                    3.78,
                    3.78,
                    3.78,
                    3.78,
                    3.78,
                    3.78,
                    3.78,
                    3.78,
                    3.78,
                    3.78,
                    3.78,
                    3.78,
                    3.78,
                    3.78,
                    3.78,
                    3.78,
                    3.78,
                    3.78,
                    3.78,
                    3.78,
                    3.78,
                    3.78,
                    3.78,
                    3.78,
                    3.78,
                    3.78,
                    3.78,
                    3.78,
                    3.78,
                    3.78,
                    3.78,
                    3.78,
                    3.78,
                    3.78,
                    3.78,
                    3.78,
                    3.78,
                    3.78,
                    3.78,
                    3.78
                ],
                "13": [
                    3.65,
                    3.65,
                    3.65,
                    3.65,
                    3.65,
                    3.65,
                    3.65,
                    3.65,
                    3.65,
                    3.65,
                    3.65,
                    3.65,
                    3.65,
                    3.65,
                    3.65,
                    3.65,
                    3.65,
                    3.65,
                    3.65,
                    3.65,
                    3.65,
                    3.65,
                    3.65,
                    3.65,
                    3.65,
                    3.65,
                    3.65,
                    3.65,
                    3.65,
                    3.65,
                    3.65,
                    3.65,
                    3.65,
                    3.65,
                    3.65,
                    3.65,
                    3.65,
                    3.65,
                    3.65,
                    3.65,
                    3.65,
                    3.65,
                    3.65,
                    3.65,
                    3.65,
                    3.65,
                    3.65,
                    3.65,
                    3.65,
                    3.65,
                    3.65,
                    3.65,
                    3.65,
                    3.65,
                    3.65,
                    3.65,
                    3.65,
                    3.65,
                    3.65,
                    3.65,
                    3.65
                ],
                "14": [
                    3.52,
                    3.52,
                    3.52,
                    3.52,
                    3.52,
                    3.52,
                    3.52,
                    3.52,
                    3.52,
                    3.52,
                    3.52,
                    3.52,
                    3.52,
                    3.52,
                    3.52,
                    3.52,
                    3.52,
                    3.52,
                    3.52,
                    3.52,
                    3.52,
                    3.52,
                    3.52,
                    3.52,
                    3.52,
                    3.52,
                    3.52,
                    3.52,
                    3.52,
                    3.52,
                    3.52,
                    3.52,
                    3.52,
                    3.52,
                    3.52,
                    3.52,
                    3.52,
                    3.52,
                    3.52,
                    3.52,
                    3.52,
                    3.52,
                    3.52,
                    3.52,
                    3.52,
                    3.52,
                    3.52,
                    3.52,
                    3.52,
                    3.52,
                    3.52,
                    3.52,
                    3.52,
                    3.52,
                    3.52,
                    3.52,
                    3.52,
                    3.52,
                    3.52,
                    3.52,
                    3.52
                ],
                "15": [
                    3.42,
                    3.42,
                    3.42,
                    3.42,
                    3.42,
                    3.42,
                    3.42,
                    3.42,
                    3.42,
                    3.42,
                    3.42,
                    3.42,
                    3.42,
                    3.42,
                    3.42,
                    3.42,
                    3.42,
                    3.42,
                    3.42,
                    3.42,
                    3.42,
                    3.42,
                    3.42,
                    3.42,
                    3.42,
                    3.42,
                    3.42,
                    3.42,
                    3.42,
                    3.42,
                    3.42,
                    3.42,
                    3.42,
                    3.42,
                    3.42,
                    3.42,
                    3.42,
                    3.42,
                    3.42,
                    3.42,
                    3.42,
                    3.42,
                    3.42,
                    3.42,
                    3.42,
                    3.42,
                    3.42,
                    3.42,
                    3.42,
                    3.42,
                    3.42,
                    3.42,
                    3.42,
                    3.42,
                    3.42,
                    3.42,
                    3.42,
                    3.42,
                    3.42,
                    3.42,
                    3.42
                ],
                "16": [
                    3.36,
                    3.36,
                    3.36,
                    3.36,
                    3.36,
                    3.36,
                    3.36,
                    3.36,
                    3.36,
                    3.36,
                    3.36,
                    3.36,
                    3.36,
                    3.36,
                    3.36,
                    3.36,
                    3.36,
                    3.36,
                    3.36,
                    3.36,
                    3.36,
                    3.36,
                    3.36,
                    3.36,
                    3.36,
                    3.36,
                    3.36,
                    3.36,
                    3.36,
                    3.36,
                    3.36,
                    3.36,
                    3.36,
                    3.36,
                    3.36,
                    3.36,
                    3.36,
                    3.36,
                    3.36,
                    3.36,
                    3.36,
                    3.36,
                    3.36,
                    3.36,
                    3.36,
                    3.36,
                    3.36,
                    3.36,
                    3.36,
                    3.36,
                    3.36,
                    3.36,
                    3.36,
                    3.36,
                    3.36,
                    3.36,
                    3.36,
                    3.36,
                    3.36,
                    3.36,
                    3.36
                ],
                "17": [
                    3.29,
                    3.29,
                    3.29,
                    3.29,
                    3.29,
                    3.29,
                    3.29,
                    3.29,
                    3.29,
                    3.29,
                    3.29,
                    3.29,
                    3.29,
                    3.29,
                    3.29,
                    3.29,
                    3.29,
                    3.29,
                    3.29,
                    3.29,
                    3.29,
                    3.29,
                    3.29,
                    3.29,
                    3.29,
                    3.29,
                    3.29,
                    3.29,
                    3.29,
                    3.29,
                    3.29,
                    3.29,
                    3.29,
                    3.29,
                    3.29,
                    3.29,
                    3.29,
                    3.29,
                    3.29,
                    3.29,
                    3.29,
                    3.29,
                    3.29,
                    3.29,
                    3.29,
                    3.29,
                    3.29,
                    3.29,
                    3.29,
                    3.29,
                    3.29,
                    3.29,
                    3.29,
                    3.29,
                    3.29,
                    3.29,
                    3.29,
                    3.29,
                    3.29,
                    3.29,
                    3.29
                ],
                "18": [
                    3.23,
                    3.23,
                    3.23,
                    3.23,
                    3.23,
                    3.23,
                    3.23,
                    3.23,
                    3.23,
                    3.23,
                    3.23,
                    3.23,
                    3.23,
                    3.23,
                    3.23,
                    3.23,
                    3.23,
                    3.23,
                    3.23,
                    3.23,
                    3.23,
                    3.23,
                    3.23,
                    3.23,
                    3.23,
                    3.23,
                    3.23,
                    3.23,
                    3.23,
                    3.23,
                    3.23,
                    3.23,
                    3.23,
                    3.23,
                    3.23,
                    3.23,
                    3.23,
                    3.23,
                    3.23,
                    3.23,
                    3.23,
                    3.23,
                    3.23,
                    3.23,
                    3.23,
                    3.23,
                    3.23,
                    3.23,
                    3.23,
                    3.23,
                    3.23,
                    3.23,
                    3.23,
                    3.23,
                    3.23,
                    3.23,
                    3.23,
                    3.23,
                    3.23,
                    3.23,
                    3.23
                ],
                "19": [
                    3.17,
                    3.17,
                    3.17,
                    3.17,
                    3.17,
                    3.17,
                    3.17,
                    3.17,
                    3.17,
                    3.17,
                    3.17,
                    3.17,
                    3.17,
                    3.17,
                    3.17,
                    3.17,
                    3.17,
                    3.17,
                    3.17,
                    3.17,
                    3.17,
                    3.17,
                    3.17,
                    3.17,
                    3.17,
                    3.17,
                    3.17,
                    3.17,
                    3.17,
                    3.17,
                    3.17,
                    3.17,
                    3.17,
                    3.17,
                    3.17,
                    3.17,
                    3.17,
                    3.17,
                    3.17,
                    3.17,
                    3.17,
                    3.17,
                    3.17,
                    3.17,
                    3.17,
                    3.17,
                    3.17,
                    3.17,
                    3.17,
                    3.17,
                    3.17,
                    3.17,
                    3.17,
                    3.17,
                    3.17,
                    3.17,
                    3.17,
                    3.17,
                    3.17,
                    3.17,
                    3.17
                ],
                "20": [
                    3.11,
                    3.11,
                    3.11,
                    3.11,
                    3.11,
                    3.11,
                    3.11,
                    3.11,
                    3.11,
                    3.11,
                    3.11,
                    3.11,
                    3.11,
                    3.11,
                    3.11,
                    3.11,
                    3.11,
                    3.11,
                    3.11,
                    3.11,
                    3.11,
                    3.11,
                    3.11,
                    3.11,
                    3.11,
                    3.11,
                    3.11,
                    3.11,
                    3.11,
                    3.11,
                    3.11,
                    3.11,
                    3.11,
                    3.11,
                    3.11,
                    3.11,
                    3.11,
                    3.11,
                    3.11,
                    3.11,
                    3.11,
                    3.11,
                    3.11,
                    3.11,
                    3.11,
                    3.11,
                    3.11,
                    3.11,
                    3.11,
                    3.11,
                    3.11,
                    3.11,
                    3.11,
                    3.11,
                    3.11,
                    3.11,
                    3.11,
                    3.11,
                    3.11,
                    3.11,
                    3.11
                ],
                "21": [
                    3.05,
                    3.05,
                    3.05,
                    3.05,
                    3.05,
                    3.05,
                    3.05,
                    3.05,
                    3.05,
                    3.05,
                    3.05,
                    3.05,
                    3.05,
                    3.05,
                    3.05,
                    3.05,
                    3.05,
                    3.05,
                    3.05,
                    3.05,
                    3.05,
                    3.05,
                    3.05,
                    3.05,
                    3.05,
                    3.05,
                    3.05,
                    3.05,
                    3.05,
                    3.05,
                    3.05,
                    3.05,
                    3.05,
                    3.05,
                    3.05,
                    3.05,
                    3.05,
                    3.05,
                    3.05,
                    3.05,
                    3.05,
                    3.05,
                    3.05,
                    3.05,
                    3.05,
                    3.05,
                    3.05,
                    3.05,
                    3.05,
                    3.05,
                    3.05,
                    3.05,
                    3.05,
                    3.05,
                    3.05,
                    3.05,
                    3.05,
                    3.05,
                    3.05,
                    3.05,
                    3.05
                ],
                "22": [
                    3,
                    3,
                    3,
                    3,
                    3,
                    3,
                    3,
                    3,
                    3,
                    3,
                    3,
                    3,
                    3,
                    3,
                    3,
                    3,
                    3,
                    3,
                    3,
                    3,
                    3,
                    3,
                    3,
                    3,
                    3,
                    3,
                    3,
                    3,
                    3,
                    3,
                    3,
                    3,
                    3,
                    3,
                    3,
                    3,
                    3,
                    3,
                    3,
                    3,
                    3,
                    3,
                    3,
                    3,
                    3,
                    3,
                    3,
                    3,
                    3,
                    3,
                    3,
                    3,
                    3,
                    3,
                    3,
                    3,
                    3,
                    3,
                    3,
                    3,
                    3
                ],
                "23": [
                    2.94,
                    2.94,
                    2.94,
                    2.94,
                    2.94,
                    2.94,
                    2.94,
                    2.94,
                    2.94,
                    2.94,
                    2.94,
                    2.94,
                    2.94,
                    2.94,
                    2.94,
                    2.94,
                    2.94,
                    2.94,
                    2.94,
                    2.94,
                    2.94,
                    2.94,
                    2.94,
                    2.94,
                    2.94,
                    2.94,
                    2.94,
                    2.94,
                    2.94,
                    2.94,
                    2.94,
                    2.94,
                    2.94,
                    2.94,
                    2.94,
                    2.94,
                    2.94,
                    2.94,
                    2.94,
                    2.94,
                    2.94,
                    2.94,
                    2.94,
                    2.94,
                    2.94,
                    2.94,
                    2.94,
                    2.94,
                    2.94,
                    2.94,
                    2.94,
                    2.94,
                    2.94,
                    2.94,
                    2.94,
                    2.94,
                    2.94,
                    2.94,
                    2.94,
                    2.94,
                    2.94
                ],
                "24": [
                    2.88,
                    2.88,
                    2.88,
                    2.88,
                    2.88,
                    2.88,
                    2.88,
                    2.88,
                    2.88,
                    2.88,
                    2.88,
                    2.88,
                    2.88,
                    2.88,
                    2.88,
                    2.88,
                    2.88,
                    2.88,
                    2.88,
                    2.88,
                    2.88,
                    2.88,
                    2.88,
                    2.88,
                    2.88,
                    2.88,
                    2.88,
                    2.88,
                    2.88,
                    2.88,
                    2.88,
                    2.88,
                    2.88,
                    2.88,
                    2.88,
                    2.88,
                    2.88,
                    2.88,
                    2.88,
                    2.88,
                    2.88,
                    2.88,
                    2.88,
                    2.88,
                    2.88,
                    2.88,
                    2.88,
                    2.88,
                    2.88,
                    2.88,
                    2.88,
                    2.88,
                    2.88,
                    2.88,
                    2.88,
                    2.88,
                    2.88,
                    2.88,
                    2.88,
                    2.88,
                    2.88
                ],
                "25": [
                    2.82,
                    2.82,
                    2.82,
                    2.82,
                    2.82,
                    2.82,
                    2.82,
                    2.82,
                    2.82,
                    2.82,
                    2.82,
                    2.82,
                    2.82,
                    2.82,
                    2.82,
                    2.82,
                    2.82,
                    2.82,
                    2.82,
                    2.82,
                    2.82,
                    2.82,
                    2.82,
                    2.82,
                    2.82,
                    2.82,
                    2.82,
                    2.82,
                    2.82,
                    2.82,
                    2.82,
                    2.82,
                    2.82,
                    2.82,
                    2.82,
                    2.82,
                    2.82,
                    2.82,
                    2.82,
                    2.82,
                    2.82,
                    2.82,
                    2.82,
                    2.82,
                    2.82,
                    2.82,
                    2.82,
                    2.82,
                    2.82,
                    2.82,
                    2.82,
                    2.82,
                    2.82,
                    2.82,
                    2.82,
                    2.82,
                    2.82,
                    2.82,
                    2.82,
                    2.82,
                    2.82
                ]
            }
        }
    },
    "releaseDate": "2018-07-30 02:20:49",
    "remarks": {
        "en": "Enhanced Benefit Rider",
        "zh-Hant": "Enhanced Benefit Rider"
    },
    "saInput": [
        {
            "ccy": "SGD",
            "decimal": 0,
            "factor": 0
        }
    ],
    "saInputInd": "N",
    "saPostfix": {},
    "saRule": "na",
    "saScale": "",
    "saViewInd": "Y",
    "smokeInd": "*",
    "status": "A",
    "type": "product",
    "version": 2
}