{
    "compCode": "08",
    "expDate": "2047-05-19 11:04:36",
    "footer": {
        "en": "<div class=\"global_MPI\">\n<xsl:if test=\"*/mainInfo/quickQuote='Y'\">\n<table style=\"text-align: left; table-layout: fixed; width: 100%; font-size: 10pt; margin: 0 auto;\">\n<tbody>\n<tr style=\"color: white;\">\n<td style=\"padding-left: 50px;\">\n<div style=\"border-bottom: solid 1px black; width: 80%;\">1</div>\n</td>\n<td style=\"padding-left: 50px;\">\n<div style=\"border-bottom: solid 1px black; width: 80%;\">2</div>\n</td>\n</tr>\n<tr>\n<td style=\"padding-left: 50px; padding-top: 10px;\">Adviser's Signature</td>\n<td style=\"padding-left: 50px; padding-top: 10px;\">Proposer's Signature</td>\n</tr>\n<tr>\n<td style=\"padding-left: 50px;\">Date:</td>\n<td style=\"padding-left: 50px;\">Date:</td>\n</tr>\n</tbody>\n</table>\n</xsl:if>\n<br/>\n<table style=\"width: 100%; font-size: 10pt;\">\n<tbody>\n<tr>\n<td style=\"width: 49.8018%;\"><strong>Page [[@PAGE_NO]] of [[@TOTAL_PAGE]]</strong></td>\n<td style=\"text-align: right; width: 46.1982%;\">Release Version\n<xsl:value-of select=\"*/releaseVersion\"/>\n</td>\n</tr>\n</tbody>\n</table>\n<p></p>\n<div>\n<xsl:value-of select=\"*/planCodes\"/>\n</div>\n<div class=\"foot\">\n<div style=\"text-align: center;\"><strong><xsl:value-of select=\"*/compName\"/></strong> (Co. Reg. No. <xsl:value-of select=\"*/compRegNo\"/>)</div>\n<div style=\"text-align: center;\"><xsl:value-of select=\"*/compAddr\"/> | Tel: <xsl:value-of select=\"*/compTel\"/> | Email: <xsl:value-of select=\"*/customerCareEmail\"/> | <xsl:value-of select=\"*/compWeb\"/></div>\n</div>\n</div>",
        "zh-Hant": "<p></p>"
    },
    "formulas": {
        "prepareReportData": "function(quotation, planInfo, planDetails, extraPara) {/**prepareReportData MAIN BI*/ var trunc = function(value, position) { if (!position) position = 0; var scale = math.pow(10, position); return math.number(math.divide(math.floor(math.multiply(value, scale)), scale)); }; var numberTrunc = function (value, digit) { value = value.toString(); if (value.indexOf('.') === -1) { return Number.parseInt(value); } else { value = value.substr(0, value.indexOf('.') + digit + 1); return Number.parseFloat(value); } }; var round = function (value, position) { var scale = math.pow(10, position); return math.divide(math.round(math.multiply(value, scale)), scale); }; var paddingZeroRight = function (value) { value = value.toString(); if (value.indexOf('.') > -1) { var decimal = value.split('.'); if (decimal[1].length === 1) { decimal[1] = decimal[1] + '0'; return decimal[0] + '.' + decimal [1]; } else { return value; } } else { return value + '.00'; } }; var illustrations = extraPara.illustrations; let { compName, compRegNo, compAddr, compAddr2, compTel, compFax, compWeb, customerCareEmail } = extraPara.company; var retVal = { 'compName': compName, 'compRegNo': compRegNo, 'compAddr': compAddr, 'compAddr2': compAddr2, 'compTel': compTel, 'compFax': compFax, 'compWeb': compWeb, 'customerCareEmail': customerCareEmail }; retVal.headerName = quotation.sameAs == \"Y\" ? quotation.pFullName : quotation.iFullName; retVal.headerGender = (quotation.sameAs == \"Y\" ? quotation.pGender : quotation.iGender) == 'M' ? 'Male' : 'Female'; retVal.headerSmoke = (quotation.sameAs == \"Y\" ? quotation.pSmoke : quotation.iSmoke) == 'Y' ? 'Smoker' : 'Non-Smoker'; retVal.headerAge = quotation.sameAs == \"Y\" ? quotation.pAge : quotation.iAge; retVal.genDate = new Date(extraPara.systemDate).format(extraPara.dateFormat); retVal.backDate = new Date(quotation.riskCommenDate).format(extraPara.dateFormat); var basicPlan = quotation.plans[0]; var basicIllustrations = illustrations[basicPlan.covCode]; var premium = getCurrency(basicPlan.premium, '', 2); retVal.packagedPlanName = basicIllustrations.packagedPlanName; retVal.basicPlanName = basicIllustrations.baseProductNamePDF; retVal.paymentModeTitle = 'Single Premium'; retVal.polTermDesc = basicPlan.polTermDesc; retVal.premium = premium; var ccy = quotation.ccy; var polCcy = ''; var ccySyb = ''; if (ccy == 'SGD') { polCcy = 'Singapore Dollars'; ccySyb = 'S$'; } else if (ccy == 'USD') { polCcy = 'US Dollars'; ccySyb = 'US$'; } else if (ccy == 'ASD') { polCcy = 'Australian Dollars'; ccySyb = 'A$'; } else if (ccy == 'EUR') { polCcy = 'Euro'; ccySyb = '€'; } else if (ccy == 'GBP') { polCcy = 'British Pound'; ccySyb = '£'; } retVal.polCcy = polCcy; retVal.ccySyb = ccySyb; var benefits = []; _.each(basicIllustrations.benefitsSa, (benefit) => { benefits.push({ benefitsName: benefit.benefitsName, benefitsSA: getCurrency(benefit.benefitsSA, '', 0) }); }); retVal.benefits = benefits; var roundPremium = getCurrency(round(basicPlan.premium, 0), '', 0); var tdc = []; _.each(basicIllustrations.tdc, (curTdc) => { tdc.push({ policyYearAge: curTdc.policyYearAge, TotalBasicPremium: roundPremium, distributionCost: curTdc.distributionCost }); }); retVal.tdc = tdc; return retVal; }"
    },
    "header": {
        "en": "<div class=\"global_MPI\">\n<div style=\"flex-grow: 1;\"></div>\n<div class=\"logo\"></div>\n<div style=\"text-align: center; width: 100%; \">\n<strong>MAIN POLICY ILLUSTRATION </strong>\n<br/>\n<br/>\n<table class=\"headerProposerDetail\">\n<tbody>\n<tr>\n<td><strong>Proposal on the life of: <xsl:value-of select=\"*/headerName\"/></strong></td>\n<td><strong>Date</strong></td>\n<td><strong>: <xsl:value-of select=\"*/genDate\"/></strong></td>\n</tr>\n<tr>\n<td><strong>Gender: <xsl:value-of select=\"*/headerGender\"/> (<xsl:value-of select=\"*/headerSmoke\"/>)</strong></td>\n<td><strong>Age</strong></td>\n<td><strong>: <xsl:value-of select=\"*/headerAge\"/> (as at <xsl:value-of select=\"*/backDate\"/>)</strong></td>\n</tr>\n</tbody>\n</table>\n</div>\n</div>",
        "zh-Hant": "<p></p>"
    },
    "launchDate": "2017-05-19 11:04:29",
    "overlay": {
        "en": ""
    },
    "pdfCode": "PNP2_MPI_2",
    "pdfName": {
        "en": "PNP2_MPI_2",
        "zh-Hant": "SAV Main BI",
        "zh-tw": "SAV_MAIN_BI"
    },
    "releaseDate": "2020-02-19 10:12:22",
    "remarks": {
        "en": "Remarks",
        "zh-tw": ""
    },
    "status": "A",
    "style": ".global_MPI{font-size:10pt;}.logo{background:<img@PNP_logo_img>;width:50;height:50;background-repeat:round;margin-top:0;}.barcode{background:<img@PNP_barcode_img>;width:192;height:47;background-repeat:round;margin-top:0;}.headerProposerDetail{table-layout:fixed;width:100%;border-bottom:solid 1px;font-size:10pt;}.headerProposerDetail tr:last-child td{padding-bottom:10px;}.headerProposerDetail td:nth-child(1){width:67%;}.headerProposerDetail td:nth-child(2){width:7%;}.p2Table{width:100%;font-size:10pt;}.p2Table tr{height:13px;}.p2Table td:nth-child(1){width:25%;}.p2Table td:nth-child(2){width:75%;}.p3Table{table-layout:fixed;width:100%;border-bottom:solid 1px;font-size:10pt;}.p3Table tr{height:25px;}.p3Table tr:last-child td{padding-bottom:10px;}.p3Table td:nth-child(1){width:25%;}.p3Table td:nth-child(2){width:75%;}.p3Table2{width:100%;font-size:10pt;}.p3Table2 tr{height:25px;}.p3Table2 td:nth-child(1){width:35%;}.p3Table2 td:nth-child(2){width:65%;}.p4Table{table-layout:fixed;width:90%;font-size:10pt;text-align:center;}.p4Table tr:first-child{background-color:black;color:white;font-size:10pt;height:25px;}.p4Table tr:first-child td{font-weight:bold;}.p4Table tr:nth-child(2) td{vertical-align:top;font-weight:bold;}.p4Table tr:nth-child(2) td{vertical-align:top;}.foot{font-size:9pt;text-align:center;}",
    "template": {
        "en": [
            "<div class=\"global_MPI\">\n    <div class=\"divJustify\">\n        <p><b>INTRODUCTION</b></p>\n        <p>AXA Insurance Pte Ltd believes that it is important that you fully appreciate the benefits of your policy. You should also understand how the cost of your insurance cover and the expenses of administration and sales affect the benefits that you\n            will receive. </p>\n        <p>The illustration that follows shows how the value of your policy progresses over time and the sum(s) that would be payable. The methods used to derive the values shown follow guidelines established by the Life Insurance Association, Singapore,\n            to ensure that a fair and consistent approach is used in preparing this illustration. </p>\n        <p>As this product has no savings or investment feature, there is no cash value if the policy ends or if the policy is terminated prematurely. You are required to disclose all material facts to this policy truthfully in the proposal form, otherwise your policy issued may be void.</p>\n        <p>If you need clarification please do not hesitate to ask your financial adviser. </p>\n        <p>This policy is protected under the Policy Owners’ Protection Scheme which is administered by the Singapore Deposit Insurance Corporation (SDIC). Coverage for your policy is automatic and no further action is required from you. For more information on the types of benefits that are covered under the scheme as well as the limits of coverage, where applicable, please contact AXA Insurance Pte Ltd or visit the GIA/LIA or SDIC web-sites (<a href=\"www.gia.org.sg\">www.gia.org.sg</a> or <a href=\"www.lia.org.sg\">www.lia.org.sg</a> or <a href=\"www.sdic.org.sg\">www.sdic.org.sg</a>). </p>\n\n        <p><b>IMPORTANT NOTES </b></p>\n        <ol>\n            <li>The Single Premium quoted is based on non-smoker rates.</li>\n            <li>The Single Premium payable for smoker is dependent on underwriting decision.</li>\n            <li>The Death Benefit for Mother, Pregnancy Complications Benefit, Hospital Care Benefit on the Mother's life, will expire 30 days from the date of birth of the Child subject to the terms specified in the policy contract.</li>\n            <li>The maximum number of days cover under Hospital Care Benefit is 30 days.</li>\n            <li>The Congenital Illnesses Benefit and Hospital Care Benefit on the Child's life, will start from the birth of the Child.</li>\n            <li>This Policy Illustration is intended for illustrative purposes only. The terms and conditions are specified in the policy contract.</li>\n            <li>This quotation is applicable to standard life.</li>\n        </ol>\n    </div>\n</div>",
            "<div class=\"global_MPI\">\n    <div class=\"divJustify\">\n        <p><b>IMPORTANT NOTES </b></p>\n\n       <ol start=\"8\">\n            <li>\n                <xsl:value-of select=\"*/packagedPlanName\" /> consists of 2 plans - A selected Basic Plan* and\n                <xsl:value-of select=\"*/basicPlanName\" /> which is a single premium term plan.</li>\n            <li>Only the Policy Illustration for\n                <xsl:value-of select=\"*/basicPlanName\" /> is shown in here.</li>\n        </ol>\n\n        <p>* Please refer to our corporate website at <a href=\"www.axa.com.sg\">www.axa.com.sg</a> for the list of eligible Basic Plans under the\n            <xsl:value-of select=\"*/packagedPlanName\" /> package.</p>\n\n        <br/>\n\n        <div><b>Declaration</b></div>\n        <div>I / We confirm that I / We have received all pages of the following:</div>\n        <div>1. A copy of the Policy Illustration of\n            <xsl:value-of select=\"*/basicPlanName\" />.</div>\n        <div>2. A copy of the Policy Illustration of the selected Basic Plan and riders, if applicable.</div>\n        <div>3. A copy of the Product Summary of\n            <xsl:value-of select=\"*/packagedPlanName\" />.</div>\n        <div>4. A copy of the Product Summary of\n            <xsl:value-of select=\"*/basicPlanName\" />.</div>\n        <div>5. A copy of the Product Summary of the selected Basic Plan and riders, if applicable.</div>\n    </div>\n</div>",
            "<div class=\"global_MPI\">\n<br/>\n    <table class=\"p3Table\">\n        <tbody>\n            <tr>\n                <td>Basic Policy Plan</td>\n                <td>:\n                   <xsl:value-of select=\"*/basicPlanName\" />\n                </td>\n            </tr>\n            <tr>\n                <td>Policy Term</td>\n                <td>:\n                    <xsl:value-of select=\"*/polTermDesc\" />\n                </td>\n            </tr>\n            <tr>\n                <td>Single Premium</td>\n                <td>:\n                    <xsl:value-of select=\"*/premium\" />\n                </td>\n            </tr>\n            <tr>\n                <td>Policy Currency</td>\n                <td>:\n                    <xsl:value-of select=\"*/polCcy\" />\n                </td>\n            </tr>\n        </tbody>\n    </table>\n\n    <br/>\n\n    <table class=\"p3Table2\">\n        <tbody>\n            <tr>\n                <td><b>Benefits</b></td>\n                <td><b>Sum Assured/Benefit Amount</b></td>\n            </tr>\n\n            <xsl:for-each select=\"*/benefits\">\n                <tr>\n                    <td>\n                        <xsl:value-of select=\"benefitsName\" />\n                    </td>\n                    <td>\n                        <xsl:value-of select=\"benefitsSA\" />\n                    </td>\n                </tr>\n            </xsl:for-each>\n\n        </tbody>\n    </table>\n\n</div>",
            "<div class=\"global_MPI\">\n    <div class=\"divJustify\">\n        <p><b>TOTAL DISTRIBUTION COST</b></p>\n        <p><b>How much are you paying for distribution costs?</b></p>\n        <p>This table shows the total costs of distribution that AXA expects to incur in relation to your policy, including the cost of any financial advice provided to you.</p>\n    </div>\n    <table class=\"p4Table\">\n        <tbody>\n            <tr>\n                <td colspan=\"3\">TOTAL DISTRIBUTION COST</td>\n            </tr>\n            <tr>\n                <td>Policy Year</td>\n                <td>Total Premiums Paid To-date\n                    <br/>(\n                    <xsl:value-of select=\"*/ccySyb\" />)</td>\n                <td>Total Distribution Cost To-date\n                    <br/>(\n                    <xsl:value-of select=\"*/ccySyb\" />)</td>\n            </tr>\n            <xsl:for-each select=\"*/tdc\">\n                <tr>\n                    <td>\n                        <xsl:value-of select=\"policyYearAge\" /> </td>\n                    <td>\n                        <xsl:value-of select=\"TotalBasicPremium\" />\n                    </td>\n                    <td>\n                        <xsl:value-of select=\"distributionCost\" />\n                    </td>\n                </tr>\n            </xsl:for-each>\n        </tbody>\n    </table>\n    <div class=\"divJustify\">\n        <p><b>What does the last column represent?</b></p>\n        <ol>\n            <li>The Total Distribution Cost To-date is the sum of each year's expected distribution-related costs, without interest. Such costs include cash payments in the form of commission, costs of benefits and services paid to the distribution channel.</li>\n            <li>Please note that the Total Distribution Cost is not an additional cost to you; it has already been allowed for in calculating your premium.</li>\n            <li>You can obtain the Total Distribution Cost of each of the supplementary benefits (if applicable) from your Financial Adviser or its representatives.</li>\n        </ol>\n    </div>\n</div>"
        ],
        "zh-Hant": [
            "<p></p>"
        ]
    },
    "type": "pdfTemplate",
    "version": 2
}