{
    "allowBackdate": "Y",
    "budgetRules": [
        "SP",
        "SRS"
    ],
    "calcAgeMethod": "nearest",
    "classInd": "N",
    "coexist": [
        {
            "ageFr": "",
            "ageTo": "",
            "country": "*",
            "dealerGroup": "*",
            "groupA": [
                "PET_NPE",
                "UNBN_NPE",
                "WUN_NPE"
            ],
            "groupB": [
                "PET_NPE",
                "UNBN_NPE",
                "WUN_NPE"
            ],
            "shouldCoExist": "N"
        }
    ],
    "compCode": "08",
    "covCode": "SPEN",
    "covName": {
        "en": "AXA Quick Saver",
        "zh-Hant": "AXA RETIRE HAPPY PLUS"
    },
    "ctyGroup": [
        "*"
    ],
    "currencies": [
        {
            "ccy": [
                "SGD"
            ],
            "country": "*"
        }
    ],
    "dealerGroup": [
        "AGENCY",
        "SINGPOST",
        "DIRECT",
        "FUSION"
    ],
    "dynPdfInd": "N",
    "effDate": "2019-04-07 16:00:00",
    "entryAge": [
        {
            "country": "*",
            "imaxAge": 70,
            "imaxAgeUnit": "nearestAge",
            "iminAge": 1,
            "iminAgeUnit": "month",
            "omaxAge": 99,
            "omaxAgeUnit": "nearestAge",
            "ominAge": 18,
            "ominAgeUnit": "year",
            "sameAsOwner": "N"
        }
    ],
    "expDate": "2019-07-01 16:00:00",
    "formulas": {
        "calcQuotFunc": "",
        "getCommRates": "function(quotation, planInfo, planDetail) {var commRates = planDetail.rates.comm;var dealerGroup = quotation.agent.dealerGroup;var commRate = 0;if(dealerGroup === 'SINGPOST'){ commRate = commRates.SINGPOST[0];}else if(dealerGroup === 'AGENCY'){ commRate = commRates.Agency[0];}else if(dealerGroup === 'DIRECT'){ commRate = commRates.Direct[0];}else if(dealerGroup === 'FUSION'){ commRate = commRates.FUSION[0];}return commRate;}",
        "getExtraAttachments": "function (agent, quotation, planDetails) {/*var files = [];*/ /*files.push({ covCode: quotation.plans[0].covCode, fileId: 'prod_summary_1' }); var plan_length = quotation.plans.length; if (plan_length >= 2){ files.push({ covCode: quotation.plans[1].covCode, fileId: 'prod_summary_1' }); } var attachments = [{ id: 'prodSummary', label: 'Product Summary', fileName: 'product_summary.pdf', files: files }]; return attachments;*/}",
        "getIllustrateSummary": "",
        "getTabCvRates": "function (quotation, planInfo, planDetail, policyYear) {var tabcvRates = planDetail.rates.tabCv;var ref = quotation.plans[0].covCode + quotation.iGender + quotation.iAge;return tabcvRates[ref][policyYear] || 0;}",
        "getTabPremRates": "function (quotation, planInfo, planDetail) {var lookup = '';lookup = quotation.plans[0].covCode + 'S' + quotation.iGender + (quotation.iSmoke === 'Y' ? 'S' : 'NS');var rates = planDetail.rates.tabPrem;return rates[lookup][quotation.iAge] || 0;}",
        "illustrateFunc": "function(quotation, planInfo, planDetails, extraPara) {/** Annual Projections S */ var planDetail = planDetails[planInfo.covCode];var sumInsured = planInfo.sumInsured;var policyYear = [0];var laAge = [0];var nLaAge = [''];for (var i = 0; i < planInfo.policyTerm; i++) { policyYear[i] = i+1; laAge[i] = quotation.iAge+policyYear[i]; nLaAge[i] = policyYear[i] + '/' + laAge[i];}var totalPrem = [0];for (var i = 0; i < planInfo.policyTerm; i++) { var premRates = math.bignumber(runFunc(planDetail.formulas.getTabPremRates, quotation, planInfo, planDetail));/** return getTabPremRates()*/ totalPrem[i] = planInfo.premium * premRates / 1000; totalPrem[i] = Math.floor(totalPrem[i] * 100) / 100; }var svValue = [0];for (var i = 0; i < planInfo.policyTerm; i++) { var tabcvRates = math.bignumber(runFunc(planDetail.formulas.getTabCvRates, quotation, planInfo, planDetail, policyYear[i]));/** return getTabCvRates()*/ svValue[i] = planInfo.premium * tabcvRates / 1000.00; svValue[i] = Math.floor(svValue[i]);}var deathBenefit = [0];for (var i = 0; i < planInfo.policyTerm; i++) { if(sumInsured > svValue[i]){ deathBenefit[i] = sumInsured; }else{ deathBenefit[i] = svValue[i]; }}var tdcValue = [0];for (var i = 0; i < planInfo.policyTerm; i++) { var commRates = math.bignumber(runFunc(planDetail.formulas.getCommRates, quotation, planInfo, planDetail));/** return getCommRates()*/ tdcValue[i] = totalPrem[i] * commRates; tdcValue[i] = Math.floor(tdcValue[i] * 100) / 100;}/** Annual Projections E */ var illustration = [];for (var i = 0; i < planInfo.policyTerm; i++) { illustration.push({ nLaAge: nLaAge[i] ? nLaAge[i] : '', totalPrem: totalPrem[i] ? math.number(totalPrem[i]) : 0, deathBenefit: deathBenefit[i] ? math.number(deathBenefit[i]) : 0, svValue: svValue[i] ? math.number(svValue[i]) : 0, tdcValue: tdcValue[i] ? math.number(tdcValue[i]) : 0 });}return illustration;}",
        "polTermsFunc": "function (planDetail, quotation) {var policyTermList = []; var policyTerm = 3; var polTermDesc = ''; polTermDesc = policyTerm + ' Years'; /**Needed so that RHP policy term will appear in UI.*/ quotation.plans[0].policyTerm = policyTerm; policyTermList.push({ value: policyTerm, title: polTermDesc, default: true }); return policyTermList;}",
        "premFunc": "",
        "premTermsFunc": "function(planDetail, quotation) {var premTermsList = []; premTermsList.push({ value: 1, title: 'Single Premium', default: true }); return premTermsList;}",
        "prepareAttachableRider": "",
        "prepareClassConfig": "",
        "preparePolicyOptions": "",
        "prepareSAPremConfig": "function(planDetail, quotation, planDetails) {quotDriver.prepareAmountConfig(planDetail, quotation, planDetails);var premlim = [];premlim.push({ max: 200000, min: 10000, }); planDetail.inputConfig.premlim = premlim;var premium = quotation.plans[0].premium;if(premium !== undefined){ if(premium < 10000){ premium = 10000; }else if(premium > 200000){ premium = 200000; } if(premium % 100 !== 0){ premium = premium - (premium % 100) + 100; }}quotation.plans[0].premium = premium;planDetail.inputConfig.planInfoHintMsg = 'Premium amount must be from $10,000 - $200,000. Maximum Premium is subject to multiplier of bundled plan selected. Premium must be in multiples of 100.';}",
        "prepareTermConfig": "",
        "saFunc": "function (quotation, planInfo, planDetail) {var premium = planInfo.premium; var sumInsured = 1.01 * premium; planInfo.sumInsured = sumInsured; quotation.totYearPrem = premium; return sumInsured;}",
        "validAfterCalcFunc": "function(quotation, planInfo, planDetail) { quotValid.validateMandatoryFields(quotation, planInfo, planDetail); planInfo.planCode = \"03SPEN1\"; }",
        "validBeforeCalcFunc": "",
        "validQuotFunc": "",
        "willValidQuotFunc": ""
    },
    "fundInd": "N",
    "genderInd": "*",
    "gstInd": "N",
    "illustrationColumns": [
        {
            "id": "guaranteedDeathBenefit",
            "isRelatedToProjectionRate": "",
            "title": {
                "en": "Guaranteed Death Benefit"
            }
        },
        {
            "id": "totalPremiumPaidToDate",
            "isRelatedToProjectionRate": "",
            "title": {
                "en": "Total Premiums"
            }
        },
        {
            "id": "totalSurrenderValue",
            "isRelatedToProjectionRate": "Y",
            "title": {
                "en": "Total Surrender Value"
            }
        }
    ],
    "isPolTermHide": "N",
    "isPremTermHide": "N",
    "occupClassType": "na",
    "othSaInd": "N",
    "payModes": [
        {
            "covMonth": 1,
            "default": "Y",
            "factor": 1,
            "mode": "L",
            "operator": "M"
        }
    ],
    "planInd": "B",
    "polMaturities": [],
    "polTermInd": "N",
    "polTermRemarkSymbol": "",
    "policyOptions": [],
    "premInput": [
        {
            "ccy": "SGD",
            "decimal": 2,
            "factor": 100,
            "noOfDigit": ""
        }
    ],
    "premInputInd": "Y",
    "premMatSameAsPolMat": "N",
    "premMaturities": [],
    "premPostfix": {
        "en": ""
    },
    "premTermInd": "Y",
    "premTermRemarkSymbol": "",
    "premTermRule": "na",
    "premType": "L",
    "premlim": [],
    "prodFeature": {},
    "prod_summary": 221832,
    "prod_summary_1": 0,
    "prod_summary_2": 0,
    "productCategory": "protectionOnly",
    "productLine": "WLE",
    "productVersion": "2.0",
    "projection": [
        {
            "title": {
                "en": "3.25"
            }
        },
        {
            "title": {
                "en": "4.75"
            }
        }
    ],
    "rates": {
        "comm": {
            "Agency": [
                0.00236,
                0,
                0,
                0,
                0,
                0,
                0,
                0,
                0,
                0,
                0,
                0,
                0,
                0,
                0,
                0,
                0,
                0,
                0,
                0,
                0,
                0,
                0,
                0,
                0,
                0,
                0,
                0,
                0,
                0,
                0,
                0,
                0,
                0,
                0,
                0,
                0,
                0,
                0,
                0,
                0,
                0,
                0,
                0,
                0,
                0,
                0,
                0,
                0,
                0,
                0,
                0,
                0,
                0,
                0,
                0,
                0,
                0,
                0,
                0,
                0,
                0,
                0,
                0,
                0,
                0,
                0,
                0,
                0,
                0,
                0,
                0,
                0,
                0,
                0,
                0,
                0,
                0,
                0,
                0,
                0,
                0,
                0,
                0,
                0,
                0,
                0,
                0,
                0,
                0,
                0,
                0,
                0,
                0,
                0,
                0,
                0,
                0,
                0,
                0,
                0,
                0,
                0,
                0,
                0,
                0,
                0,
                0,
                0,
                0,
                0,
                0,
                0,
                0,
                0,
                0,
                0,
                0,
                0
            ],
            "Direct": [
                0.00236,
                0,
                0,
                0,
                0,
                0,
                0,
                0,
                0,
                0,
                0,
                0,
                0,
                0,
                0,
                0,
                0,
                0,
                0,
                0,
                0,
                0,
                0,
                0,
                0,
                0,
                0,
                0,
                0,
                0,
                0,
                0,
                0,
                0,
                0,
                0,
                0,
                0,
                0,
                0,
                0,
                0,
                0,
                0,
                0,
                0,
                0,
                0,
                0,
                0,
                0,
                0,
                0,
                0,
                0,
                0,
                0,
                0,
                0,
                0,
                0,
                0,
                0,
                0,
                0,
                0,
                0,
                0,
                0,
                0,
                0,
                0,
                0,
                0,
                0,
                0,
                0,
                0,
                0,
                0,
                0,
                0,
                0,
                0,
                0,
                0,
                0,
                0,
                0,
                0,
                0,
                0,
                0,
                0,
                0,
                0,
                0,
                0,
                0,
                0,
                0,
                0,
                0,
                0,
                0,
                0,
                0,
                0,
                0,
                0,
                0,
                0,
                0,
                0,
                0,
                0,
                0,
                0,
                0
            ],
            "FUSION": [
                0.00236,
                0,
                0,
                0,
                0,
                0,
                0,
                0,
                0,
                0,
                0,
                0,
                0,
                0,
                0,
                0,
                0,
                0,
                0,
                0,
                0,
                0,
                0,
                0,
                0,
                0,
                0,
                0,
                0,
                0,
                0,
                0,
                0,
                0,
                0,
                0,
                0,
                0,
                0,
                0,
                0,
                0,
                0,
                0,
                0,
                0,
                0,
                0,
                0,
                0,
                0,
                0,
                0,
                0,
                0,
                0,
                0,
                0,
                0,
                0,
                0,
                0,
                0,
                0,
                0,
                0,
                0,
                0,
                0,
                0,
                0,
                0,
                0,
                0,
                0,
                0,
                0,
                0,
                0,
                0,
                0,
                0,
                0,
                0,
                0,
                0,
                0,
                0,
                0,
                0,
                0,
                0,
                0,
                0,
                0,
                0,
                0,
                0,
                0,
                0,
                0,
                0,
                0,
                0,
                0,
                0,
                0,
                0,
                0,
                0,
                0,
                0,
                0,
                0,
                0,
                0,
                0,
                0,
                0
            ],
            "SINGPOST": [
                0.00236,
                0,
                0,
                0,
                0,
                0,
                0,
                0,
                0,
                0,
                0,
                0,
                0,
                0,
                0,
                0,
                0,
                0,
                0,
                0,
                0,
                0,
                0,
                0,
                0,
                0,
                0,
                0,
                0,
                0,
                0,
                0,
                0,
                0,
                0,
                0,
                0,
                0,
                0,
                0,
                0,
                0,
                0,
                0,
                0,
                0,
                0,
                0,
                0,
                0,
                0,
                0,
                0,
                0,
                0,
                0,
                0,
                0,
                0,
                0,
                0,
                0,
                0,
                0,
                0,
                0,
                0,
                0,
                0,
                0,
                0,
                0,
                0,
                0,
                0,
                0,
                0,
                0,
                0,
                0,
                0,
                0,
                0,
                0,
                0,
                0,
                0,
                0,
                0,
                0,
                0,
                0,
                0,
                0,
                0,
                0,
                0,
                0,
                0,
                0,
                0,
                0,
                0,
                0,
                0,
                0,
                0,
                0,
                0,
                0,
                0,
                0,
                0,
                0,
                0,
                0,
                0,
                0,
                0
            ]
        },
        "tabCv": {
            "Ref": [
                0,
                1,
                2,
                3
            ],
            "SPENF0": [
                880,
                930,
                980,
                1076.8
            ],
            "SPENF1": [
                880,
                930,
                980,
                1076.8
            ],
            "SPENF10": [
                880,
                930,
                980,
                1076.8
            ],
            "SPENF11": [
                880,
                930,
                980,
                1076.8
            ],
            "SPENF12": [
                880,
                930,
                980,
                1076.8
            ],
            "SPENF13": [
                880,
                930,
                980,
                1076.8
            ],
            "SPENF14": [
                880,
                930,
                980,
                1076.8
            ],
            "SPENF15": [
                880,
                930,
                980,
                1076.8
            ],
            "SPENF16": [
                880,
                930,
                980,
                1076.8
            ],
            "SPENF17": [
                880,
                930,
                980,
                1076.8
            ],
            "SPENF18": [
                880,
                930,
                980,
                1076.8
            ],
            "SPENF19": [
                880,
                930,
                980,
                1076.8
            ],
            "SPENF2": [
                880,
                930,
                980,
                1076.8
            ],
            "SPENF20": [
                880,
                930,
                980,
                1076.8
            ],
            "SPENF21": [
                880,
                930,
                980,
                1076.8
            ],
            "SPENF22": [
                880,
                930,
                980,
                1076.8
            ],
            "SPENF23": [
                880,
                930,
                980,
                1076.8
            ],
            "SPENF24": [
                880,
                930,
                980,
                1076.8
            ],
            "SPENF25": [
                880,
                930,
                980,
                1076.8
            ],
            "SPENF26": [
                880,
                930,
                980,
                1076.8
            ],
            "SPENF27": [
                880,
                930,
                980,
                1076.8
            ],
            "SPENF28": [
                880,
                930,
                980,
                1076.8
            ],
            "SPENF29": [
                880,
                930,
                980,
                1076.8
            ],
            "SPENF3": [
                880,
                930,
                980,
                1076.8
            ],
            "SPENF30": [
                880,
                930,
                980,
                1076.8
            ],
            "SPENF31": [
                880,
                930,
                980,
                1076.8
            ],
            "SPENF32": [
                880,
                930,
                980,
                1076.8
            ],
            "SPENF33": [
                880,
                930,
                980,
                1076.8
            ],
            "SPENF34": [
                880,
                930,
                980,
                1076.8
            ],
            "SPENF35": [
                880,
                930,
                980,
                1076.8
            ],
            "SPENF36": [
                880,
                930,
                980,
                1076.8
            ],
            "SPENF37": [
                880,
                930,
                980,
                1076.8
            ],
            "SPENF38": [
                880,
                930,
                980,
                1076.8
            ],
            "SPENF39": [
                880,
                930,
                980,
                1076.8
            ],
            "SPENF4": [
                880,
                930,
                980,
                1076.8
            ],
            "SPENF40": [
                880,
                930,
                980,
                1076.8
            ],
            "SPENF41": [
                880,
                930,
                980,
                1076.8
            ],
            "SPENF42": [
                880,
                930,
                980,
                1076.8
            ],
            "SPENF43": [
                880,
                930,
                980,
                1076.8
            ],
            "SPENF44": [
                880,
                930,
                980,
                1076.8
            ],
            "SPENF45": [
                880,
                930,
                980,
                1076.8
            ],
            "SPENF46": [
                880,
                930,
                980,
                1076.8
            ],
            "SPENF47": [
                880,
                930,
                980,
                1076.8
            ],
            "SPENF48": [
                880,
                930,
                980,
                1076.8
            ],
            "SPENF49": [
                880,
                930,
                980,
                1076.8
            ],
            "SPENF5": [
                880,
                930,
                980,
                1076.8
            ],
            "SPENF50": [
                880,
                930,
                980,
                1076.8
            ],
            "SPENF51": [
                880,
                930,
                980,
                1076.8
            ],
            "SPENF52": [
                880,
                930,
                980,
                1076.8
            ],
            "SPENF53": [
                880,
                930,
                980,
                1076.8
            ],
            "SPENF54": [
                880,
                930,
                980,
                1076.8
            ],
            "SPENF55": [
                880,
                930,
                980,
                1076.8
            ],
            "SPENF56": [
                880,
                930,
                980,
                1076.8
            ],
            "SPENF57": [
                880,
                930,
                980,
                1076.8
            ],
            "SPENF58": [
                880,
                930,
                980,
                1076.8
            ],
            "SPENF59": [
                880,
                930,
                980,
                1076.8
            ],
            "SPENF6": [
                880,
                930,
                980,
                1076.8
            ],
            "SPENF60": [
                880,
                930,
                980,
                1076.8
            ],
            "SPENF61": [
                880,
                930,
                980,
                1076.8
            ],
            "SPENF62": [
                880,
                930,
                980,
                1076.8
            ],
            "SPENF63": [
                880,
                930,
                980,
                1076.8
            ],
            "SPENF64": [
                880,
                930,
                980,
                1076.8
            ],
            "SPENF65": [
                880,
                930,
                980,
                1076.8
            ],
            "SPENF66": [
                880,
                930,
                980,
                1076.8
            ],
            "SPENF67": [
                880,
                930,
                980,
                1076.8
            ],
            "SPENF68": [
                880,
                930,
                980,
                1076.8
            ],
            "SPENF69": [
                880,
                930,
                980,
                1076.8
            ],
            "SPENF7": [
                880,
                930,
                980,
                1076.8
            ],
            "SPENF70": [
                880,
                930,
                980,
                1076.8
            ],
            "SPENF8": [
                880,
                930,
                980,
                1076.8
            ],
            "SPENF9": [
                880,
                930,
                980,
                1076.8
            ],
            "SPENM0": [
                880,
                930,
                980,
                1076.8
            ],
            "SPENM1": [
                880,
                930,
                980,
                1076.8
            ],
            "SPENM10": [
                880,
                930,
                980,
                1076.8
            ],
            "SPENM11": [
                880,
                930,
                980,
                1076.8
            ],
            "SPENM12": [
                880,
                930,
                980,
                1076.8
            ],
            "SPENM13": [
                880,
                930,
                980,
                1076.8
            ],
            "SPENM14": [
                880,
                930,
                980,
                1076.8
            ],
            "SPENM15": [
                880,
                930,
                980,
                1076.8
            ],
            "SPENM16": [
                880,
                930,
                980,
                1076.8
            ],
            "SPENM17": [
                880,
                930,
                980,
                1076.8
            ],
            "SPENM18": [
                880,
                930,
                980,
                1076.8
            ],
            "SPENM19": [
                880,
                930,
                980,
                1076.8
            ],
            "SPENM2": [
                880,
                930,
                980,
                1076.8
            ],
            "SPENM20": [
                880,
                930,
                980,
                1076.8
            ],
            "SPENM21": [
                880,
                930,
                980,
                1076.8
            ],
            "SPENM22": [
                880,
                930,
                980,
                1076.8
            ],
            "SPENM23": [
                880,
                930,
                980,
                1076.8
            ],
            "SPENM24": [
                880,
                930,
                980,
                1076.8
            ],
            "SPENM25": [
                880,
                930,
                980,
                1076.8
            ],
            "SPENM26": [
                880,
                930,
                980,
                1076.8
            ],
            "SPENM27": [
                880,
                930,
                980,
                1076.8
            ],
            "SPENM28": [
                880,
                930,
                980,
                1076.8
            ],
            "SPENM29": [
                880,
                930,
                980,
                1076.8
            ],
            "SPENM3": [
                880,
                930,
                980,
                1076.8
            ],
            "SPENM30": [
                880,
                930,
                980,
                1076.8
            ],
            "SPENM31": [
                880,
                930,
                980,
                1076.8
            ],
            "SPENM32": [
                880,
                930,
                980,
                1076.8
            ],
            "SPENM33": [
                880,
                930,
                980,
                1076.8
            ],
            "SPENM34": [
                880,
                930,
                980,
                1076.8
            ],
            "SPENM35": [
                880,
                930,
                980,
                1076.8
            ],
            "SPENM36": [
                880,
                930,
                980,
                1076.8
            ],
            "SPENM37": [
                880,
                930,
                980,
                1076.8
            ],
            "SPENM38": [
                880,
                930,
                980,
                1076.8
            ],
            "SPENM39": [
                880,
                930,
                980,
                1076.8
            ],
            "SPENM4": [
                880,
                930,
                980,
                1076.8
            ],
            "SPENM40": [
                880,
                930,
                980,
                1076.8
            ],
            "SPENM41": [
                880,
                930,
                980,
                1076.8
            ],
            "SPENM42": [
                880,
                930,
                980,
                1076.8
            ],
            "SPENM43": [
                880,
                930,
                980,
                1076.8
            ],
            "SPENM44": [
                880,
                930,
                980,
                1076.8
            ],
            "SPENM45": [
                880,
                930,
                980,
                1076.8
            ],
            "SPENM46": [
                880,
                930,
                980,
                1076.8
            ],
            "SPENM47": [
                880,
                930,
                980,
                1076.8
            ],
            "SPENM48": [
                880,
                930,
                980,
                1076.8
            ],
            "SPENM49": [
                880,
                930,
                980,
                1076.8
            ],
            "SPENM5": [
                880,
                930,
                980,
                1076.8
            ],
            "SPENM50": [
                880,
                930,
                980,
                1076.8
            ],
            "SPENM51": [
                880,
                930,
                980,
                1076.8
            ],
            "SPENM52": [
                880,
                930,
                980,
                1076.8
            ],
            "SPENM53": [
                880,
                930,
                980,
                1076.8
            ],
            "SPENM54": [
                880,
                930,
                980,
                1076.8
            ],
            "SPENM55": [
                880,
                930,
                980,
                1076.8
            ],
            "SPENM56": [
                880,
                930,
                980,
                1076.8
            ],
            "SPENM57": [
                880,
                930,
                980,
                1076.8
            ],
            "SPENM58": [
                880,
                930,
                980,
                1076.8
            ],
            "SPENM59": [
                880,
                930,
                980,
                1076.8
            ],
            "SPENM6": [
                880,
                930,
                980,
                1076.8
            ],
            "SPENM60": [
                880,
                930,
                980,
                1076.8
            ],
            "SPENM61": [
                880,
                930,
                980,
                1076.8
            ],
            "SPENM62": [
                880,
                930,
                980,
                1076.8
            ],
            "SPENM63": [
                880,
                930,
                980,
                1076.8
            ],
            "SPENM64": [
                880,
                930,
                980,
                1076.8
            ],
            "SPENM65": [
                880,
                930,
                980,
                1076.8
            ],
            "SPENM66": [
                880,
                930,
                980,
                1076.8
            ],
            "SPENM67": [
                880,
                930,
                980,
                1076.8
            ],
            "SPENM68": [
                880,
                930,
                980,
                1076.8
            ],
            "SPENM69": [
                880,
                930,
                980,
                1076.8
            ],
            "SPENM7": [
                880,
                930,
                980,
                1076.8
            ],
            "SPENM70": [
                880,
                930,
                980,
                1076.8
            ],
            "SPENM8": [
                880,
                930,
                980,
                1076.8
            ],
            "SPENM9": [
                880,
                930,
                980,
                1076.8
            ]
        },
        "tabPrem": {
            "REF": [
                "RLL00",
                "RLL01",
                "RLL02",
                "RLL03",
                "RLL04",
                "RLL05",
                "RLL06",
                "RLL07",
                "RLL08",
                "RLL09",
                "RLL10",
                "RLL11",
                "RLL12",
                "RLL13",
                "RLL14",
                "RLL15",
                "RLL16",
                "RLL17",
                "RLL18",
                "RLL19",
                "RLL20",
                "RLL21",
                "RLL22",
                "RLL23",
                "RLL24",
                "RLL25",
                "RLL26",
                "RLL27",
                "RLL28",
                "RLL29",
                "RLL30",
                "RLL31",
                "RLL32",
                "RLL33",
                "RLL34",
                "RLL35",
                "RLL36",
                "RLL37",
                "RLL38",
                "RLL39",
                "RLL40",
                "RLL41",
                "RLL42",
                "RLL43",
                "RLL44",
                "RLL45",
                "RLL46",
                "RLL47",
                "RLL48",
                "RLL49",
                "RLL50",
                "RLL51",
                "RLL52",
                "RLL53",
                "RLL54",
                "RLL55",
                "RLL56",
                "RLL57",
                "RLL58",
                "RLL59",
                "RLL60",
                "RLL61",
                "RLL62",
                "RLL63",
                "RLL64",
                "RLL65",
                "RLL66",
                "RLL67",
                "RLL68",
                "RLL69",
                "RLL70"
            ],
            "SPENSFNS": [
                1000,
                1000,
                1000,
                1000,
                1000,
                1000,
                1000,
                1000,
                1000,
                1000,
                1000,
                1000,
                1000,
                1000,
                1000,
                1000,
                1000,
                1000,
                1000,
                1000,
                1000,
                1000,
                1000,
                1000,
                1000,
                1000,
                1000,
                1000,
                1000,
                1000,
                1000,
                1000,
                1000,
                1000,
                1000,
                1000,
                1000,
                1000,
                1000,
                1000,
                1000,
                1000,
                1000,
                1000,
                1000,
                1000,
                1000,
                1000,
                1000,
                1000,
                1000,
                1000,
                1000,
                1000,
                1000,
                1000,
                1000,
                1000,
                1000,
                1000,
                1000,
                1000,
                1000,
                1000,
                1000,
                1000,
                1000,
                1000,
                1000,
                1000,
                1000
            ],
            "SPENSFS": [
                1000,
                1000,
                1000,
                1000,
                1000,
                1000,
                1000,
                1000,
                1000,
                1000,
                1000,
                1000,
                1000,
                1000,
                1000,
                1000,
                1000,
                1000,
                1000,
                1000,
                1000,
                1000,
                1000,
                1000,
                1000,
                1000,
                1000,
                1000,
                1000,
                1000,
                1000,
                1000,
                1000,
                1000,
                1000,
                1000,
                1000,
                1000,
                1000,
                1000,
                1000,
                1000,
                1000,
                1000,
                1000,
                1000,
                1000,
                1000,
                1000,
                1000,
                1000,
                1000,
                1000,
                1000,
                1000,
                1000,
                1000,
                1000,
                1000,
                1000,
                1000,
                1000,
                1000,
                1000,
                1000,
                1000,
                1000,
                1000,
                1000,
                1000,
                1000
            ],
            "SPENSMNS": [
                1000,
                1000,
                1000,
                1000,
                1000,
                1000,
                1000,
                1000,
                1000,
                1000,
                1000,
                1000,
                1000,
                1000,
                1000,
                1000,
                1000,
                1000,
                1000,
                1000,
                1000,
                1000,
                1000,
                1000,
                1000,
                1000,
                1000,
                1000,
                1000,
                1000,
                1000,
                1000,
                1000,
                1000,
                1000,
                1000,
                1000,
                1000,
                1000,
                1000,
                1000,
                1000,
                1000,
                1000,
                1000,
                1000,
                1000,
                1000,
                1000,
                1000,
                1000,
                1000,
                1000,
                1000,
                1000,
                1000,
                1000,
                1000,
                1000,
                1000,
                1000,
                1000,
                1000,
                1000,
                1000,
                1000,
                1000,
                1000,
                1000,
                1000,
                1000
            ],
            "SPENSMS": [
                1000,
                1000,
                1000,
                1000,
                1000,
                1000,
                1000,
                1000,
                1000,
                1000,
                1000,
                1000,
                1000,
                1000,
                1000,
                1000,
                1000,
                1000,
                1000,
                1000,
                1000,
                1000,
                1000,
                1000,
                1000,
                1000,
                1000,
                1000,
                1000,
                1000,
                1000,
                1000,
                1000,
                1000,
                1000,
                1000,
                1000,
                1000,
                1000,
                1000,
                1000,
                1000,
                1000,
                1000,
                1000,
                1000,
                1000,
                1000,
                1000,
                1000,
                1000,
                1000,
                1000,
                1000,
                1000,
                1000,
                1000,
                1000,
                1000,
                1000,
                1000,
                1000,
                1000,
                1000,
                1000,
                1000,
                1000,
                1000,
                1000,
                1000,
                1000
            ]
        }
    },
    "releaseDate": "2019-05-22 09:24:25",
    "remarks": {
        "en": ""
    },
    "reportTemplate": [
        {
            "covCode": "0",
            "desc": "SPEN Cover Page",
            "pdfCode": "SPEN_COVER",
            "resetPaging": "N"
        },
        {
            "covCode": "0",
            "desc": "SPEN_FIRST_PAGE",
            "pdfCode": "SPEN_FIRST_PAGE",
            "resetPaging": "Y"
        },
        {
            "covCode": "0",
            "desc": "SPEN_Second_Page",
            "pdfCode": "SPEN_Second_Page",
            "resetPaging": "N"
        },
        {
            "covCode": "0",
            "desc": "SPEN_Third_Page",
            "pdfCode": "SPEN_Third_Page",
            "resetPaging": "N"
        },
        {
            "covCode": "0",
            "desc": "SPEN_Fourth_Page",
            "pdfCode": "SPEN_Fourth_Page",
            "resetPaging": "N"
        }
    ],
    "riderList": [],
    "saInput": [
        {
            "ccy": "SGD",
            "decimal": 0,
            "factor": 100,
            "noOfDigit": ""
        }
    ],
    "saInputInd": "N",
    "saPostfix": {},
    "saScale": 0,
    "saViewInd": "Y",
    "smokeInd": "*",
    "status": "A",
    "supportIllustration": "N",
    "thumbnail3": 378614,
    "type": "product",
    "version": 1,
    "wholeLifeInd": "N"
}