{
    "compCode": "08",
    "expDate": "2100-05-11 08:03:31",
    "footer": {
        "en": "<div class=\"global_main\">\n<table style=\"width: calc(100% - 50px); font-size: 10pt;\">\n<tbody>\n<tr>\n<td style=\"width: 50.8018%;text-align:right\"><strong>CONFIDENTIAL</strong></td>\n<td style=\"padding-left:50px;text-align: right; width: 35.1982%;\">\n<strong>Date: <xsl:value-of select=\"*/covfooter/genDate\"/></strong>\n</td>\n</tr>\n<tr>\n<td style=\"width: 50.8018%;\"><strong>Page [[@PAGE_NO]] of [[@TOTAL_PAGE]]</strong></td>\n<td style=\"padding-left:50px;text-align:right; width: 25.1982%;\">\n<strong>Release Version <xsl:value-of select=\"*/releaseVersion\"/></strong>\n</td>\n<td style=\"width: 80px; position: absolute; right:0 ; bottom:0;\">\n<div style=\"width: 80px; min-height: 1200px; background-color: #ffc000;\">\n<div style=\"\nfont-family: Calibri, Candara, Segoe, 'Segoe UI', Optima, Arial, sans-serif;\nfont-size: 19px;\nfont-weight: bold;\nposition: absolute;\ntop: 500px;\nleft: -400px;\ntransform: rotate(90deg)\ntranslateX(180px)\ntranslateY(-230px);\">\nCOVER PAGE FOR PARTICIPATING ENDOWMENT PLAN\n</div>\n</div>\n</td>\n</tr>\n</tbody>\n</table>\n</div>",
        "zh-Hant": "<p></p>"
    },
    "formulas": {
        "prepareReportData": ""
    },
    "header": {
        "en": "<div style=\"height: 8px;\"/>\n<table style=\"width: 100%;\">\n<tbody>\n<tr>\n<td><div class=\"logo\"/></td>\n</tr>\n</tbody>\n</table>",
        "zh-Hant": "<p></p>"
    },
    "launchDate": "2018-05-11 08:02:39",
    "overlay": {
        "en": ""
    },
    "pdfCode": "NEP_COVER_SECOND_PAGE",
    "pdfName": {
        "en": "NEP Cover Second Page",
        "zh-Hant": "RHP First Page",
        "zh-tw": "RHP First Page"
    },
    "releaseDate": "2018-12-06 06:04:01",
    "remarks": {
        "en": "NEP Cover Second Page"
    },
    "status": "A",
    "style": "",
    "template": {
        "en": [
            "\n<div style=\"position:relative;font-size:10pt\">\n    <div style=\"width: calc(100% - 30px);height: 100vh;\">\n        \n\t\t<hr style=\"display: block;height: 1px; border: 0; border-top: 2px solid #4A7EBB ; margin: 1em 0; padding: 0;\" />\n\t\t\n\t\t<p style=\"font-weight:bold;\">WHAT RETURNS CAN YOU EXPECT FROM THIS POLICY BASED ON THE ILLUSTRATED INVESTMENT RATES OF RETURN?</p>\n        <p>Based on the Illustrated Investment Rate of Return of \n\t\t<xsl:value-of select=\"*/covcommon/highIRR\"/>% p.a., \n\t\tyour total Illustrated Yield at maturity is \n\t\t<xsl:value-of select=\"*/covcommon/ytm_h\"/>%  p.a. \n\t\t</p>\n\t\t\n\t\t<p>Based on the Illustrated Investment Rate of Return of \n\t\t<xsl:value-of select=\" */covcommon/lowIRR\"/>% p.a., \n\t\tyour total Illustrated Yield at maturity is \n\t\t<xsl:value-of select=\" */covcommon/ytm_l\"/>% p.a. \n\t\t</p>\n\t\t\n\t\t<p>These returns are not guaranteed and do not represent the upper and \n\t\tlower limits of the returns you may receive. \n\t\t</p>\n\t\t\n\t\t<p>Please note that the guaranteed maturity benefit of your policy may be \n\t\tless than the total premiums paid.\n\t\t</p>\n\n\t\t<p>You can compare <xsl:value-of select=\"*/covcommon/ytm_h\"/>% and \n\t\t<xsl:value-of select=\"*/covcommon/ytm_l\"/>% Illustrated Yields at maturity with \n\t\tthe returns of Singapore Savings Bonds and Singapore Government Securities.  \n\t\tYou may refer to \n\t\t<a href=\"http://www.sgs.gov.sg/savingsbonds.aspx\">http://www.sgs.gov.sg/savingsbonds.aspx</a> \n\t\tand \n\t\t<a href=\"http://www.sgs.gov.sg/\">http://www.sgs.gov.sg/</a> \n\t\tfor more information on the returns of Singapore \n\t\tSavings Bonds and Singapore Government Securities. Please note that the \n\t\tIllustrated Yields at maturity have taken into account the cost of \n\t\tinsurance and expenses incurred.\n\t\t</p>\n        \n\t\t<p style=\"font-weight:bold;\">HOW HAS THE PARTICIPATING FUND PERFORMED OVER THE LAST FEW YEARS?</p>\n        <p>The historical investment rates of return (after deducting \n\t\tinvestment expenses) of the Participating Fund are shown below:\n\t\t</p>\n\t\t\n\t\t<table class=\"w100\" style=\"border-collapse:collapse;\">\n\t\t\t<colgroup>\n\t\t\t\t<col style=\"width:16%;\"/>\n\t\t\t\t<col style=\"width:10%;\"/>\n\t\t\t\t<col style=\"width:10%;\"/>\n\t\t\t\t<col style=\"width:10%;\"/>\n\t\t\t\t<col style=\"width:18%;\"/>\n\t\t\t\t<col style=\"width:18%;\"/>\n\t\t\t\t<col style=\"width:18%;\"/>\n\t\t\t</colgroup>\n\n\t\t\t<tr>\n\t\t\t\t<td style=\"border: solid 1px; padding: 3px 5px;text-align: center;\"></td>\n\t\t\t\t<td style=\"border: solid 1px; padding: 3px 5px;text-align: center;\"><xsl:value-of select=\"*/covcommon/year1_ir\"/></td>\n\t\t\t\t<td style=\"border: solid 1px; padding: 3px 5px;text-align: center;\"><xsl:value-of select=\"*/covcommon/year2_ir\"/></td>\n\t\t\t\t<td style=\"border: solid 1px; padding: 3px 5px;text-align: center;\"><xsl:value-of select=\"*/covcommon/year3_ir\"/></td>\n\t\t\t\t<td style=\"border: solid 1px; padding: 3px 5px;text-align: center;\">Averaged over<br/>the last 3 years</td>\n\t\t\t\t<td style=\"border: solid 1px; padding: 3px 5px;text-align: center;\">Averaged over<br/>the last 5 years</td>\n\t\t\t\t<td style=\"border: solid 1px; padding: 3px 5px;text-align: center;\">Averaged over<br/>the last 10 years</td>\n\t\t\t</tr>\n\t\t\t\n\t\t\t<tr>\n\t\t\t\t<td style=\"border: solid 1px; padding: 3px 5px;\">Investment Returns</td>\n\t\t\t\t<td style=\"border: solid 1px; padding: 3px 5px;text-align: center;\"><xsl:value-of select=\"*/covcommon/ir_year1\"/>%</td>\n\t\t\t\t<td style=\"border: solid 1px; padding: 3px 5px;text-align: center;\"><xsl:value-of select=\"*/covcommon/ir_year2\"/>%</td>\n\t\t\t\t<td style=\"border: solid 1px; padding: 3px 5px;text-align: center;\"><xsl:value-of select=\"*/covcommon/ir_year3\"/>%</td>\n\t\t\t\t<td style=\"border: solid 1px; padding: 3px 5px;text-align: center;\"><xsl:value-of select=\"*/covcommon/ir_ave3\"/>%</td>\n\t\t\t\t<td style=\"border: solid 1px; padding: 3px 5px;text-align: center;\"><xsl:value-of select=\"*/covcommon/ir_ave5\"/>%</td>\n\t\t\t\t<td style=\"border: solid 1px; padding: 3px 5px;text-align: center;\"><xsl:value-of select=\"*/covcommon/ir_ave10\"/>%</td>\n\t\t\t</tr>\n\t\t</table>\n\t\t\n\t\t<p>Please note that historical performance may not be indicative of \n\t\tfuture performance. \n\t\t</p>\n\t\t\n\t\t<p>Changes in the economic and investment environment may affect the \n\t\tinvestment performance of the Participating Fund and the bonuses or \n\t\tdividends that you may receive. \n\t\t</p>\n\t\t\n\t\t<p style=\"font-weight:bold;\">HOW WILL EXPENSES INCURRED BY THE PARTICIPATING FUND AFFECT YOU?</p>\n\t\t<p>The expenses incurred by the Participating Fund include investment, \n\t\tmanagement, distribution, tax and other expenses.  The Total Expense \n\t\tRatio is the proportion of total expenses incurred by the \n\t\tParticipating Fund to the assets of the Participating Fund.  \n\t\tThe level of expenses incurred may affect the bonuses or dividends \n\t\tyou may receive. </p>\n<xsl:if test=\"*/mainInfo/quickQuote='Y'\">\n        <div style=\"position:absolute;bottom: -60px;width:calc(100% - 50px);\">\n            <table style=\"text-align: left; table-layout: fixed; width: 100%; font-size: 10pt; margin: 0 auto;\">\n                <tbody>\n                    <tr style=\"color: white;\">\n                        <td style=\"padding-left: 50px;\">\n                            <div style=\"border-bottom: solid 1px black; width: 80%;\">1</div>\n                        </td>\n                        <td style=\"padding-left: 50px;\">\n                            <div style=\"border-bottom: solid 1px black; width: 80%;\">2</div>\n                        </td>\n                    </tr>\n                    <tr>\n                        <td style=\"padding-left: 50px; padding-top: 10px;\">Adviser's Signature</td>\n                        <td style=\"padding-left: 50px; padding-top: 10px;\">Proposer's Signature</td>\n                    </tr>\n                    <tr>\n                        <td style=\"padding-left: 50px;\">Date:</td>\n                        <td style=\"padding-left: 50px;\">Date:</td>\n                    </tr>\n                </tbody>\n            </table>\n        </div>\n\t\t</xsl:if>\t\n    </div>\n\n\n\n</div>",
            "\n<div style=\"position:relative;font-size:10pt\">\n    <div style=\"width: calc(100% - 30px);height: 100vh;\">\n\n\t\t<hr style=\"display: block;height: 1px; border: 0; border-top: 2px solid #4A7EBB ; margin: 1em 0; padding: 0;\" />\n\t\t\n\t\t<p style=\"font-weight:bold;\">WHAT IS THE TOTAL EXPENSE RATIO OF THE PARTICIPATING FUND OVER THE LAST FEW YEARS?</p>\n        <p>The  historical expense ratios of the Participating Fund are shown below:</p>\n\t\t\n\t\t<table class=\"w100\" style=\"border-collapse:collapse;text-align: left;\">\n\t\t\t<colgroup>\n\t\t\t\t<col style=\"width:14%;\"/>\n\t\t\t\t<col style=\"width:10%;\"/>\n\t\t\t\t<col style=\"width:10%;\"/>\n\t\t\t\t<col style=\"width:10%;\"/>\n\t\t\t\t<col style=\"width:18%;\"/>\n\t\t\t\t<col style=\"width:18%;\"/>\n\t\t\t\t<col style=\"width:18%;\"/>\n\t\t\t</colgroup>\n\n\t\t\t<tr>\n\t\t\t\t<td style=\"border: solid 1px; padding: 3px 5px;\"></td>\n\t\t\t\t<td style=\"border: solid 1px; padding: 3px 5px;text-align: center;\"><xsl:value-of select=\"*/covcommon/year1_ter\"/></td>\n\t\t\t\t<td style=\"border: solid 1px; padding: 3px 5px;text-align: center;\"><xsl:value-of select=\"*/covcommon/year2_ter\"/></td>\n\t\t\t\t<td style=\"border: solid 1px; padding: 3px 5px;text-align: center;\"><xsl:value-of select=\"*/covcommon/year3_ter\"/></td>\n\t\t\t\t<td style=\"border: solid 1px; padding: 3px 5px;text-align: center;\">Averaged over<br/>the last 3 years</td>\n\t\t\t\t<td style=\"border: solid 1px; padding: 3px 5px;text-align: center;\">Averaged over<br/>the last 5 years</td>\n\t\t\t\t<td style=\"border: solid 1px; padding: 3px 5px;text-align: center;\">Averaged over<br/>the last 10 years</td>\n\t\t\t</tr>\n\t\t\t\n\t\t\t<tr>\n\t\t\t\t<td style=\"border: solid 1px; padding: 3px 5px;\">Total Expense Ratio</td>\n\t\t\t\t<td style=\"border: solid 1px; padding: 3px 5px;text-align: center;\"><xsl:value-of select=\"*/covcommon/ter_year1\"/>%</td>\n\t\t\t\t<td style=\"border: solid 1px; padding: 3px 5px;text-align: center;\"><xsl:value-of select=\"*/covcommon/ter_year2\"/>%</td>\n\t\t\t\t<td style=\"border: solid 1px; padding: 3px 5px;text-align: center;\"><xsl:value-of select=\"*/covcommon/ter_year3\"/>%</td>\n\t\t\t\t<td style=\"border: solid 1px; padding: 3px 5px;text-align: center;\"><xsl:value-of select=\"*/covcommon/ter_ave3\"/>%</td>\n\t\t\t\t<td style=\"border: solid 1px; padding: 3px 5px;text-align: center;\"><xsl:value-of select=\"*/covcommon/ter_ave5\"/>%</td>\n\t\t\t\t<td style=\"border: solid 1px; padding: 3px 5px;text-align: center;\"><xsl:value-of select=\"*/covcommon/ter_ave10\"/>%</td>\n\t\t\t</tr>\n\t\t</table>\n\n\t\t<p>Please note that historical expense ratios may not be indicative of \n\t\tfuture expense ratios.\n\t\t</p>\t\t\n\n        \n\t\t<p style=\"font-weight:bold;\">HOW MUCH WILL YOU NEED TO PAY FOR ADVICE?</p>\n\t\t<p>The total distribution cost of this product is the amount that you will \n\t\tpay for advice and for other distribution related expenses.  It includes \n\t\tcash payments in the form of commissions and benefits paid to the \n\t\tfinancial advisory firm and its representative(s) who have provided you \n\t\twith financial advice.  This is not an additional cost to you as it has \n\t\tbeen included in the premiums payable for this plan.\n\t\t</p>\n\t\t\n\t\t<p>The Total Distribution Cost for this plan is \n\t\t<xsl:value-of select=\" */covcommon/basicTDC\"/> as \n\t\tshown in the Policy Illustration.  This makes up \n\t\t<xsl:value-of select=\" */covcommon/TDCPercent\"/>% of \n\t\tthe total premiums payable.\n\t\t</p>\n        \n\t\t<p style=\"font-weight:bold;\">WHAT HAPPENS IF YOU SURRENDER YOUR POLICY EARLY?</p>\n        <p>As buying a life insurance policy is a long-term commitment, an early \n\t\ttermination of the policy usually involves high costs and the surrender \n\t\tvalue, if any, that is payable to you may be zero or less than the total premiums paid.  \n\t\t</p>\n\t\t\n\t\t\n\t\t<p style=\"font-weight:bold;\">OTHER IMPORTANT INFORMATION</p>\n        <p>After purchasing a life insurance policy, the insurer will give you \n\t\tat least 14 days from the date you receive the policy documents to be \n\t\tsure that you want to keep the policy. If the insurer posts or emails \n\t\tthe policy to you, the 14 days will start seven days from the date of \n\t\tposting or emailing.\n\t\t</p>\n\t\t\n\t\t<p>\n\t\tDuring this time, if you choose to cancel the policy, the insurer will \n\t\trefund you the premiums you have paid, less any medical fees and other \n\t\texpenses such as payments for medical check-ups and medical reports \n\t\tincurred by the insurer.\n\t\t</p>\n\t\t\n\t\t<p>\n\t\tcompareFIRST is an online portal that enables you to easily compare the \n\t\tpremiums and features of  life insurance products available to the retail \n\t\tmarket in Singapore.  compareFIRST empowers you to make informed decisions \n\t\twhen purchasing life insurance products.  You can access the portal at \n\t\t<a href = \"www.comparefirst.sg\">www.comparefirst.sg</a>  before making a \n\t\tlife insurance purchase.  You can also find out more about life insurance \n\t\tproducts at <a href = \"www.moneysense.gov.sg\">www.moneysense.gov.sg</a>.\n\t\t</p>\t\n\t\t\n\t\t\t<div style=\"position:absolute;bottom: -80px;width:calc(100% - 50px);\">\n\t\t\t\t<table style=\"text-align: left; table-layout: fixed; width: 100%; font-size: 10pt; margin: 0 auto;\">\n\t\t\t\t\t<tbody>\n\t\t\t\t\t\t<tr style=\"color: white;\">\n\t\t\t\t\t\t\t<td style=\"padding-left: 50px;\">\n\t\t\t\t\t\t\t\t<div style=\"border-bottom: solid 1px black; width: 80%;\">ADVISOR_SIGNATURE</div>\n\t\t\t\t\t\t\t</td>\n\t\t\t\t\t\t\t<td style=\"padding-left: 50px;\">\n\t\t\t\t\t\t\t\t<div style=\"border-bottom: solid 1px black; width: 80%;\">PROPOSER_SIGNATURE</div>\n\t\t\t\t\t\t\t</td>\n\t\t\t\t\t\t</tr>\n\t\t\t\t\t\t<tr>\n\t\t\t\t\t\t\t<td style=\"padding-left: 50px; padding-top: 10px;\">Adviser's Signature</td>\n\t\t\t\t\t\t\t<td style=\"padding-left: 50px; padding-top: 10px;\">Proposer's Signature</td>\n\t\t\t\t\t\t</tr>\n\t\t\t\t\t\t<tr>\n\t\t\t\t\t\t\t<td style=\"padding-left: 50px;\">Date:</td>\n\t\t\t\t\t\t\t<td style=\"padding-left: 50px;\">Date:</td>\n\t\t\t\t\t\t</tr>\n\t\t\t\t\t</tbody>\n\t\t\t\t</table>\n\t\t\t</div>\n    </div>\n\n</div>\n\n"
        ],
        "zh-Hant": []
    },
    "type": "pdfTemplate",
    "version": 1
}