{
    "compCode": "08",
    "expDate": "2047-02-12 09:44:45",
    "footer": {
        "en": "<p></p>",
        "zh-Hant": "<p></p>"
    },
    "formulas": {
        "prepareReportData": ""
    },
    "header": {
        "en": "\n<table style=\"width: 100%;\">\n<tbody>\n<tr>\n<td><div class=\"pul-intro-logo\"></div></td>\n<td style=\"float: right; width: 200px;\"></td>\n</tr>\n</tbody>\n</table>",
        "zh-Hant": "<p></p>"
    },
    "launchDate": "2018-01-30 16:00:00",
    "overlay": {
        "en": ""
    },
    "pdfCode": "PUL_PRODUCT_SUMMARY",
    "pdfName": {
        "en": "PUL Product Summary",
        "zh-Hant": "PUL Product Summary",
        "zh-tw": "PUL Product Summary"
    },
    "releaseDate": "2020-02-18 04:09:08",
    "remarks": {
        "en": "PUL Product Summary",
        "zh-tw": "PUL Product Summary"
    },
    "status": "A",
    "style": ".foot{font-size:9pt;text-align:center;}.foot div{font-size:inherit;text-align:inherit;}",
    "template": {
        "en": [
            "<div style=\"text-align: center; width: 100%; paddingtop: 10px;\"><strong>ACKNOWLEDGEMENT</strong></div>\n<br/>\n<div class=\"b u\">Presented to:</div>\n<br/>\n<table class=\"w100\">\n    <xsl:if test=\"*/cover/sameAs='N'\">\n        <tr>\n            <td class=\"vtop\">\n                <div class=\"vpd8\">Name of Proposer</div>\n            </td>\n            <td class=\"vtop\">\n                <div class=\"vpd8\">:\n                    <xsl:value-of select=\"*/cover/proposer/name\" />\n                </div>\n            </td>\n        </tr>\n    </xsl:if>\n    <tr>\n        <td class=\"vtop\" style=\"width: 25%;\">\n            <div class=\"vpd8\">Name of Life Assured </div>\n        </td>\n        <td class=\"vtop\">\n            <div class=\"vpd8\">:\n                <xsl:value-of select=\"*/cover/insured/name\" />\n            </div>\n        </td>\n    </tr>\n</table>\n<div class=\"sectionSpace\" />\n<div class=\"b u\">Your Plan and Rider(s), if any:</div>\n<xsl:for-each select=\"*/cover/plans\">\n    <div>\n        <xsl:value-of select=\"name\" />\n    </div>\n</xsl:for-each>\n<br/>\n<div class=\"b u\">Client(s) Acknowledgement:</div>\n<br/>\n<table class=\"w100\">\n    <tr>\n        <td class=\"vtop w24\" style=\"width: 20px;\">1.   </td>\n        <td class=\"vtop\">\n            <div>I / We confirm that I / We have received all pages of the Policy Illustration for the basic plan and/or all riders listed above, where applicable.</div>\n            <br/>\n        </td>\n    </tr>\n    <tr>\n        <td class=\"vtop w24 \" style=\"width: 20px;\">2.   </td>\n        <td class=\"vtop\">\n            <div>I / We confirm that I / We have received all pages of the Product Summary for the basic plan and/or riders listed above, where applicable, and Product Highlight Sheet(s) of the selected fund(s) (applicable only to investment-linked plan).</div>\n            <br/>\n        </td>\n    </tr>\n    <tr>\n        <td class=\"vtop w24\" style=\"width: 20px;\">3.   </td>\n        <td class=\"vtop\">\n            <div>The terms and conditions of the policy as set out in the Product Summary and Product Highlight Sheet(s) have been explained to me / Us and that I / We understand the features of the policy and the applicable fees and charges.</div>\n            <br/>\n        </td>\n    </tr>\n</table>\n\n\n\n<xsl:if test=\"not(*/mainInfo/quickQuote='Y')\">\n    <div class=\"global_prodSumm\" style=\"position:absolute; bottom: 0px;\">\n        <div style=\"width: 100%;\">\n            <table style=\"text-align: left; table-layout: fixed; width: 100%; font-size: 10pt; margin: 0 auto;\">\n                <tbody>\n                    <tr style=\"color: white;\">\n                        <td style=\"padding-left: 50px;\">\n                            <div style=\"border-bottom: solid 1px black; width: 80%;\">ADVISOR_SIGNATURE</div>\n                        </td>\n                        <td style=\"padding-left: 50px;\">\n                            <div style=\"border-bottom: solid 1px  black; width: 80%;\">PROPOSER_SIGNATURE</div>\n                        </td>\n                    </tr>\n                    <tr>\n                        <td style=\"padding-left: 50px; padding-top: 10px;\">Adviser's Signature</td>\n                        <td style=\"padding-left: 50px; padding-top: 10px;\">Proposer's Signature</td>\n                    </tr>\n                    <tr>\n                        <td style=\"padding-left: 50px;\">Date:</td>\n                        <td style=\"padding-left: 50px;\">Date:</td>\n                    </tr>\n                </tbody>\n            </table>\n        </div>\n    </div>\n</xsl:if>\n"
        ],
        "zh-Hant": []
    },
    "type": "pdfTemplate",
    "version": 3
}