{
    "compCode": "08",
    "expDate": "2100-03-27 07:03:43",
    "footer": {
        "en": "",
        "zh-Hant": "<p></p>"
    },
    "formulas": {
        "prepareReportData": ""
    },
    "header": {
        "en": "",
        "zh-Hant": "<p></p>"
    },
    "launchDate": "2018-03-27 06:52:19",
    "pdfCode": "RHP_INTRO_IMPORT_NOTES",
    "pdfName": {
        "en": "RHP Introduction and Important Notes",
        "zh-Hant": "RHP Introduction and Important Notes",
        "zh-tw": "RHP Introduction and Important Notes"
    },
    "releaseDate": "2018-12-11 02:30:08",
    "remarks": {
        "en": "RHP Important Notes"
    },
    "status": "A",
    "style": ".underlineheader{text-decoration:underline;}ol.numbercount{list-style-type:decimal;}a{text-decoration:underline blue;}.pdleft20{padding-left:20px;}.alignleft{text-align:left;}",
    "template": {
        "en": [
            "<div class=\"global_main\">\n\n\n    <table class=\"w100\">\n        <colgroup>\n            <col style=\"width:26%\"/>\n            <col style=\"width:32%\"/>\n            <col style=\"width:7%;\"/>\n            <col style=\"width:35%\"/>\n        </colgroup>\n        \n        <thead>\n            <tr>\n                <th colspan=\"4\" style=\"text-align: center; width: 100%; padding-bottom: 10px;\">\n                    <strong>MAIN POLICY ILLUSTRATION</strong>\n                </th>\n            </tr>\n            \n            <tr>\n                <th colspan=\"2\" class=\"vtop b tleft\">\n                    <span>Proposal on the life of: </span>\n                    <span><xsl:value-of select=\"*/cover/insured/name\"/></span>\n                </th>\n                \n                <th class=\"vtop b tleft\">\n                    <span>Date</span>\n                </th>\n                <th class=\"vtop tleft\">\n                    <span>:\n                        <xsl:value-of select=\"*/cover/genDate\"/>\n                    </span>\n                </th>\n            </tr>\n            \n            <tr style=\"border-bottom: solid 1pt black\">\n                <th colspan=\"2\" class=\"vtop b tleft\">\n                    <span>Gender: </span>\n                    <span>\n                        <xsl:value-of select=\"*/cover/insured/gender\"/> \n                        (<xsl:value-of select=\"*/cover/insured/smoking\"/>)\n                    </span>\n                </th>\n                <th class=\"vtop b tleft\">\n                    <span>Age</span>\n                </th>\n                <th class=\"vtop tleft\">\n                    <span>:\n                        <xsl:value-of select=\"*/cover/insured/age\"/> (As At\n                        <xsl:value-of select=\"*/cover/riskCommenDate\"/>)\n                    </span>\n                </th>\n            </tr>\n        </thead>\n\n        <tbody>\n            <tr>\n                <td colspan=\"4\">\n                    <div id=\"page1\">\n                        <p class=\"underlineheader \">INTRODUCTION</p>\n\n                        <p>\n\n                        <br/> \n                        AXA Insurance Pte Ltd believes that it is important \n                        that you fully appreciate the benefits of your policy. \n                        You should also understand how the cost of your insurance \n                        cover and the expenses of administration and sales affect\n                        the benefits that you will receive.\n\n\n                        <br/><br/> \n                        The illustration that follows shows how the \n                        value of your policy progresses over time and the sum(s) \n                        that would be payable. The methods used to derive \n                        the values shown follow guidelines established by \n                        the Life Insurance Association, Singapore, to ensure \n                        that a fair and consistent approach is used in \n                        preparing this illustration.\n\n                        <br/><br/> \n                        Please note that your policy provides a \n                        combination of (1) guaranteed benefits and (2) \n                        non-guaranteed benefits in the form of bonuses &#47; cash \n                        dividends. The bonus rates &#47; dividend scales used \n                        in this illustration are not guaranteed and may vary \n                        according to the performance of the Participating Fund.\n\n                        <br/><br/> \n                        As buying a life insurance policy is a long-term commitment, an early termination of the policy usually involves high costs and the surrender value, if any, that is payable to you may be zero or less than the total premiums paid.\n\n                        <br/><br/> \n                        If you need clarification please do not \n                        hesitate to ask your financial adviser.\n\n                        <br/><br/> \n                        This Policy is protected under the Policy \n                        Owners&#39; Protection Scheme which is administered \n                        by the Singapore Deposit Insurance Corporation (SDIC). \n                        Coverage for your policy is automatic and no further \n                        action is required from you. For more information on \n                        the types of benefits that are covered under the \n                        scheme as well as the limits of coverage, where \n                        applicable, please contact AXA Insurance Pte Ltd or \n                        visit the LIA or SDIC web-sites \n                        (<a href=\"www.lia.org.sg\">www.lia.org.sg</a>                            \n                        or <a href=\"www.sdic.org.sg\">www.sdic.org.sg</a>).\n\n\n                        <br/><br/>\n\n                        </p>\n\n                        <p class=\"underlineheader \">IMPORTANT NOTES</p>\n\n                        \n                        <table class=\"w100\">\n                            <colgroup>\n                                <col style=\"width:3%\" />\n                                <col style=\"width:97%\" />\n                            </colgroup>\n                        \n                            <tr>\n                                <td style = \"vertical-align:top\">1.</td>\n                                <td>\n                                This Policy Illustration is intended for illustrative \n                                purposes only. The terms and conditions are \n                                specified in the policy contract.\n                                </td>\n                            </tr>\n                            \n                            <tr><td><br/></td></tr>\n                            \n                            <tr>\n                                <td>2.</td>\n                                <td>\n                                The quotation is applicable to standard life.\n                                </td>\n                            </tr>\n<xsl:if test=\"*/common/paymentTerm !='Single Premium' \">\n                                               <tr><td><br/></td></tr>\n\t\t\t\t                <tr>\n\t\t\t\t                    <td style=\"vertical-align:top;\">3.</td>\n\t\t\t\t                    <td style=\"vertical-align:top;\"><div>Please note that the premium rate(s) for the following plan(s) is / are non-guaranteed. These rate(s) may be adjusted based on future experience.\n\t\t\t\t                        </div>\n\t\t\t\t                    </td>\n\t\t\t\t                </tr> \n\t\t\t\t                <tr>\n\t\t\t\t                    <td colspan=\"2\">\n\t\t\t\t                        <br/>\n\t\t\t\t                    </td>\n\t\t\t\t                </tr>\n\t\t\t\t                <tr>\n\t\t\t\t                    <td></td>\n\t\t\t\t                    <td><div><span>-</span><span class=\"alignleft pdleft20\">PremiumEraser Total</span></div></td>\n\t\t\t\t                </tr>\n\t\t\t\t                <tr>\n\t\t\t\t                    <td></td>\n\t\t\t\t                    <td><div><span>-</span><span class=\"alignleft pdleft20\">Premium Waiver (UN)</span></div></td>\n\t\t\t\t                </tr>\n\t\t\t\t                <tr>\n\t\t\t\t                    <td></td>\n\t\t\t\t                    <td><div><span>-</span><span class=\"alignleft pdleft20\">Premium Waiver (CIUN) </span></div></td>\n\t\t\t\t                </tr>\n\t\t\t\t            </xsl:if>\n                        </table>\n\n\n                    </div>\n                </td>\n            </tr>\n        </tbody>\n    </table>\n\n</div>"
        ],
        "zh-Hant": []
    },
    "type": "pdfTemplate",
    "version": 3
}