{
    "allowBackdate": "Y",
    "benlim": [
        {
            "ageFr": "0",
            "ageTo": "100",
            "class": "*",
            "country": "*",
            "limits": [
                {
                    "ccy": "SGD",
                    "max": 150000,
                    "min": 25000,
                    "payMode": "A"
                },
                {
                    "ccy": "SGD",
                    "max": 150000,
                    "min": 25000,
                    "payMode": "S"
                },
                {
                    "ccy": "SGD",
                    "max": 150000,
                    "min": 25000,
                    "payMode": "Q"
                },
                {
                    "ccy": "SGD",
                    "max": 150000,
                    "min": 25000,
                    "payMode": "M"
                }
            ]
        }
    ],
    "budgetRules": [
        "RP"
    ],
    "compCode": "08",
    "covCode": "HIM",
    "covName": {
        "en": "AXA CritiCare for Him",
        "zh-Hant": "AXA CritiCare for Him"
    },
    "ctyGroup": [
        "*"
    ],
    "currencies": [
        {
            "ccy": [
                "SGD"
            ],
            "country": "*"
        }
    ],
    "dealerGroup": [
        "SINGPOST",
        "BROKER",
        "AGENCY",
        "DIRECT",
        "FUSION",
        "SYNERGY"
    ],
    "dynPdfInd": "N",
    "effDate": "2018-04-18 16:00:00",
    "entryAge": [
        {
            "country": "*",
            "imaxAge": 60,
            "imaxAgeUnit": "nearestAge",
            "iminAge": 18,
            "iminAgeUnit": "year",
            "omaxAge": 99,
            "omaxAgeUnit": "nearestAge",
            "ominAge": 18,
            "ominAgeUnit": "year",
            "sameAsOwner": ""
        }
    ],
    "expDate": "2118-07-26 16:00:00",
    "formulas": {
        "calcQuotFunc": "",
        "getCommRates": "function (quotation, planInfo, planDetail) {var rateKey; switch (quotation.dealerGroup) { case 'SYNERGY': rateKey = 'AGENCY'; break; case 'FUSION': rateKey = 'BROKER'; break; default: rateKey = quotation.dealerGroup; } var rateTable = planDetail.rates.commRate[rateKey]; var commRates; if (rateTable) { var maxTerm = 0; var lookupYr = Number.parseInt(planInfo.policyTermYr); _.each(rateTable, (rates, key) => { var rateTerm = Number(key); if (lookupYr >= rateTerm && rateTerm > maxTerm) { commRates = rates; maxTerm = rateTerm; } }); } return commRates || []; }",
        "getExtraAttachments": "",
        "getIllustrateSummary": "",
        "getLsd": "function (planDetail, sumInsured) {var lsdMap = [ { sumInsured: 25000, lsd: 0 }, { sumInsured: 50000, lsd: 0.08 }, { sumInsured: 100000, lsd: 0.16 } ]; var mapping = _.findLast(lsdMap, m => sumInsured >= m.sumInsured); if (mapping) { return mapping.lsd; } return 0; }",
        "getPremRate": "function (quotation, planInfo, planDetail, age) {var rateKey = 'GS' + Number.parseInt(planInfo.policyTerm) + 'S' + quotation.iGender + (quotation.iSmoke === 'Y' ? 'S' : 'NS');return planDetail.rates.premRate[rateKey][age];}",
        "illustrateFunc": "function (quotation, planInfo, planDetails, extraPara) {var roundDown = function (value, digit) { var scale = math.pow(10, digit); return math.divide(math.floor(math.multiply(value, scale)), scale); }; var planDetail = planDetails[planInfo.covCode]; var sumInsured = math.bignumber(planInfo.sumInsured); var renew = planInfo.policyTerm.indexOf('YR') > -1; var renewYr = 0; var illYrs; if (renew) { renewYr = Number.parseInt(planInfo.policyTerm); illYrs = (Math.floor((60 - quotation.iAge) / renewYr) + 1) * renewYr; } else { illYrs = 65 - quotation.iAge; } var commRates = runFunc(planDetail.formulas.getCommRates, quotation, planInfo, planDetail); var totYearPrems = [0]; var totComms = [0]; for (var i = 1; i <= illYrs; i++) { var rateAge = quotation.iAge; if (renew) { rateAge = quotation.iAge + Math.floor((i - 1) / renewYr) * renewYr; } var premRate = math.bignumber(runFunc(planDetail.formulas.getPremRate, quotation, planInfo, planDetail, rateAge)); var premBeforeLsd = roundDown(math.multiply(premRate, sumInsured, 0.001), 2); var lsd = runFunc(planDetail.formulas.getLsd, planDetail, sumInsured); var premAfterLsd = math.subtract(premBeforeLsd, roundDown(math.multiply(premRate, sumInsured, 0.001, lsd), 2)); var substdCls = planDetail.rates.substdCls[quotation.iResidence]; var emLoading = substdCls === '1B' ? math.bignumber(0.5) : 0; var residenceLoading = math.round(math.multiply(math.divide(premAfterLsd, sumInsured), emLoading, 1000), 2); premAfterLsd = math.add(premAfterLsd, roundDown(math.multiply(residenceLoading, sumInsured, 0.001), 2)); var yearPrem = premAfterLsd; totYearPrems.push(math.add(totYearPrems[i - 1], yearPrem)); var tdcYr = renew ? i % renewYr : i; var commRate = commRates[tdcYr - 1] || 0; var comm = roundDown(math.multiply(yearPrem, math.bignumber(commRate)), 2); totComms.push(math.add(totComms[i - 1], comm)); } var illustration = []; for (var i = 1; i <= illYrs; i++) { illustration.push({ totYearPrem: Math.floor(math.number(totYearPrems[i])), tdc: Math.floor(math.number(totComms[i])), gtdDB: 10000, cibReset: planInfo.sumInsured * 1.5, cib: planInfo.sumInsured, surgery: planInfo.sumInsured, reconstructSurgery: planInfo.sumInsured, supportBenefit: 25000 }); } var bieannialMap = [ { sumInsured: 25000, bieannial: 100 }, { sumInsured: 50000, bieannial: 200 }, { sumInsured: 100000, bieannial: 400 } ]; var mapping = _.findLast(bieannialMap, m => sumInsured >= m.sumInsured); var bieannialAmt = mapping ? mapping.bieannial : 0; var illu = illustration[0]; illu.bieannialPolAmt = bieannialAmt * Math.round(planInfo.policyTermYr / 2) - bieannialAmt; illu.childCov = 5000; var wp = math.multiply(math.bignumber(planInfo.yearPrem), 6); illu.wp = Math.round(math.number(wp)); illu.totalBenefit = Math.round(math.number(math.add(wp, illu.cibReset, illu.surgery, illu.reconstructSurgery, illu.supportBenefit, illu.bieannialPolAmt, illu.childCov, illu.gtdDB))); return illustration;}",
        "polTermsFunc": "function (planDetail, quotation) {var options = [];if (quotation.iAge <= 55) { options.push({ value: '10_YR', title: '10 Years' });}if (quotation.iAge <= 45) { options.push({ value: '20_YR', title: '20 Years' });}options.push({ value: '65_TA', title: 'To Age 65'});return options;}",
        "premFunc": "function (quotation, planInfo, planDetail) {var roundDown = function (value, digit) { var scale = math.pow(10, digit); return math.divide(math.floor(math.multiply(value, scale)), scale); }; var premium = null; var sumInsured = planInfo.sumInsured; if (planInfo.premTerm && sumInsured) { var premRate = math.bignumber(runFunc(planDetail.formulas.getPremRate, quotation, planInfo, planDetail, quotation.iAge)); var premBeforeLsd = roundDown(math.multiply(premRate, sumInsured, 0.001), 2); var lsd = runFunc(planDetail.formulas.getLsd, planDetail, sumInsured); var premAfterLsd = math.subtract(premBeforeLsd, roundDown(math.multiply(premRate, sumInsured, 0.001, lsd), 2)); var substdCls = planDetail.rates.substdCls[quotation.iResidence]; var emLoading = substdCls === '1B' ? math.bignumber(0.5) : 0; var residenceLoading = math.round(math.multiply(math.divide(premAfterLsd, sumInsured), emLoading, 1000), 2); premAfterLsd = math.add(premAfterLsd, roundDown(math.multiply(residenceLoading, sumInsured, 0.001), 2)); var modalFactor = 1; for (var p in planDetail.payModes) { if (planDetail.payModes[p].mode === quotation.paymentMode) { modalFactor = planDetail.payModes[p].factor; } } var prem = roundDown(math.multiply(premAfterLsd, modalFactor), 2); premium = math.number(prem); } return premium; }",
        "premTermsFunc": "function (planDetail, quotation) {return [ { value: '10_YR', title: '10 Years' }, { value: '20_YR', title: '20 Years' }, { value: '65_TA', title: 'To Age 65'}];}",
        "prepareAttachableRider": "",
        "prepareClassConfig": "",
        "preparePolicyOptions": "",
        "prepareSAPremConfig": "",
        "prepareTermConfig": "function (planDetail, quotation, planDetails) {planDetail.inputConfig.canEditPolicyTerm = true;planDetail.inputConfig.policyTermList = quotDriver.runFunc(planDetail.formulas.polTermsFunc, planDetail, quotation);planDetail.inputConfig.canEditPremTerm = false;planDetail.inputConfig.premTermList = quotDriver.runFunc(planDetail.formulas.premTermsFunc, planDetail, quotation);const plan = _.find(quotation.plans, p => p.covCode === planDetail.covCode);if (plan) { plan.premTerm = plan.policyTerm;}}",
        "saFunc": "",
        "validAfterCalcFunc": "function (quotation, planInfo, planDetail) {quotValid.validatePlanAfterCalc(quotation, planInfo, planDetail); if (planInfo.premium) { if (planInfo.policyTerm.indexOf('YR') > -1) { planInfo.planCode = Number.parseInt(planInfo.policyTerm) + 'HIM'; planInfo.policyTermYr = Number.parseInt(planInfo.policyTerm); planInfo.premTermYr = Number.parseInt(planInfo.premTerm); } else { planInfo.planCode = 'HIM' + Number.parseInt(planInfo.policyTerm); planInfo.policyTermYr = Number.parseInt(planInfo.policyTerm) - quotation.iAge; planInfo.premTermYr = Number.parseInt(planInfo.premTerm) - quotation.iAge; } } else { planInfo.planCode = null; }}",
        "validBeforeCalcFunc": "",
        "validQuotFunc": "",
        "willValidQuotFunc": ""
    },
    "genderInd": "M",
    "payModes": [
        {
            "covMonth": 12,
            "default": "N",
            "factor": 1,
            "mode": "A",
            "operator": "M"
        },
        {
            "covMonth": 6,
            "default": "",
            "factor": 0.51,
            "mode": "S",
            "operator": "M"
        },
        {
            "covMonth": 3,
            "default": "",
            "factor": 0.26,
            "mode": "Q",
            "operator": "M"
        },
        {
            "covMonth": 1,
            "default": "",
            "factor": 0.0875,
            "mode": "M",
            "operator": "M"
        }
    ],
    "planInd": "B",
    "prodFeature": {},
    "prod_summary": 99952,
    "productCategory": "protectionOnly",
    "productLine": "CIT",
    "productVersion": "2.0",
    "rates": {
        "commRate": {
            "AGENCY": {
                "5": [
                    0.8767,
                    0.5122,
                    0.2508,
                    0.2508,
                    0.2508,
                    0,
                    0,
                    0,
                    0,
                    0,
                    0
                ],
                "6": [
                    0.8767,
                    0.5122,
                    0.2508,
                    0.2508,
                    0.2508,
                    0.2508,
                    0,
                    0,
                    0,
                    0,
                    0
                ],
                "10": [
                    1.1689,
                    0.6272,
                    0.2508,
                    0.2508,
                    0.2508,
                    0.2508,
                    0,
                    0,
                    0,
                    0,
                    0
                ],
                "20": [
                    1.315,
                    0.6428,
                    0.3345,
                    0.2508,
                    0.2508,
                    0.2508,
                    0,
                    0,
                    0,
                    0,
                    0
                ],
                "25": [
                    1.315,
                    0.6428,
                    0.3345,
                    0.2508,
                    0.2508,
                    0.2508,
                    0,
                    0,
                    0,
                    0,
                    0
                ]
            },
            "BROKER": {
                "5": [
                    0.7881,
                    0.2214,
                    0.1328,
                    0.0332,
                    0.0332,
                    0,
                    0,
                    0,
                    0,
                    0,
                    0
                ],
                "6": [
                    0.8347,
                    0.2214,
                    0.1328,
                    0.0332,
                    0.0332,
                    0.0332,
                    0,
                    0,
                    0,
                    0,
                    0
                ],
                "10": [
                    1.1373,
                    0.4429,
                    0.2214,
                    0.0332,
                    0.0332,
                    0.0332,
                    0,
                    0,
                    0,
                    0,
                    0
                ],
                "20": [
                    1.1373,
                    0.4429,
                    0.2214,
                    0.0332,
                    0.0332,
                    0.0332,
                    0,
                    0,
                    0,
                    0,
                    0
                ],
                "25": [
                    1.1723,
                    0.5537,
                    0.2214,
                    0.0332,
                    0.0332,
                    0.0332,
                    0,
                    0,
                    0,
                    0,
                    0
                ]
            },
            "DIRECT": {
                "5": [
                    0.2989,
                    0.0645,
                    0.0258,
                    0.0129,
                    0.0129,
                    0,
                    0,
                    0,
                    0,
                    0,
                    0
                ],
                "6": [
                    0.3667,
                    0.1032,
                    0.0645,
                    0.0258,
                    0.0129,
                    0.0129,
                    0,
                    0,
                    0,
                    0,
                    0
                ],
                "10": [
                    0.5025,
                    0.1936,
                    0.1291,
                    0.0258,
                    0.0129,
                    0.0129,
                    0,
                    0,
                    0,
                    0,
                    0
                ],
                "20": [
                    0.5703,
                    0.2194,
                    0.1291,
                    0.0258,
                    0.0129,
                    0.0129,
                    0,
                    0,
                    0,
                    0,
                    0
                ],
                "25": [
                    0.7061,
                    0.3227,
                    0.1291,
                    0.0258,
                    0.0129,
                    0.0129,
                    0,
                    0,
                    0,
                    0,
                    0
                ]
            },
            "SINGPOST": {
                "5": [
                    0.4195,
                    0.1415,
                    0.1415,
                    0.0656,
                    0.0656,
                    0,
                    0,
                    0,
                    0,
                    0,
                    0
                ],
                "6": [
                    0.4195,
                    0.1415,
                    0.1415,
                    0.0656,
                    0.0656,
                    0.0656,
                    0,
                    0,
                    0,
                    0,
                    0
                ],
                "10": [
                    0.7229,
                    0.283,
                    0.1794,
                    0.0656,
                    0.0656,
                    0.0656,
                    0,
                    0,
                    0,
                    0,
                    0
                ],
                "20": [
                    0.7229,
                    0.283,
                    0.1794,
                    0.0656,
                    0.0656,
                    0.0656,
                    0,
                    0,
                    0,
                    0,
                    0
                ],
                "25": [
                    1.106,
                    0.3866,
                    0.2553,
                    0.0656,
                    0.0656,
                    0.0656,
                    0,
                    0,
                    0,
                    0,
                    0
                ]
            }
        },
        "premRate": {
            "GS10SFNS": [
                0,
                0,
                0,
                0,
                0,
                0,
                0,
                0,
                0,
                0,
                0,
                0,
                0,
                0,
                0,
                0,
                0,
                0,
                11,
                11,
                11,
                11,
                11,
                11,
                11.1,
                11.2,
                11.5,
                11.8,
                12.1,
                12.6,
                13.1,
                14.3,
                15.5,
                17,
                18.5,
                20,
                21,
                22,
                22.5,
                23,
                23.5,
                23.8,
                24.1,
                25.4,
                25.7,
                26,
                27,
                28,
                29.5,
                31.5,
                33.5,
                36,
                38,
                40,
                42,
                44,
                46,
                48,
                50,
                52,
                54,
                0,
                0,
                0,
                0,
                0,
                0,
                0,
                0,
                0,
                0,
                0,
                0,
                0,
                0,
                0,
                0,
                0,
                0,
                0,
                0,
                0,
                0,
                0,
                0,
                0,
                0,
                0,
                0,
                0,
                0,
                0,
                0,
                0,
                0,
                0,
                0,
                0,
                0,
                0,
                0
            ],
            "GS10SFS": [
                0,
                0,
                0,
                0,
                0,
                0,
                0,
                0,
                0,
                0,
                0,
                0,
                0,
                0,
                0,
                0,
                0,
                0,
                14.3,
                14.3,
                14.3,
                14.3,
                14.3,
                14.3,
                14.43,
                14.56,
                14.95,
                15.34,
                15.73,
                16.38,
                17.03,
                19.16,
                20.77,
                22.78,
                24.79,
                26.8,
                28.14,
                29.48,
                30.15,
                30.82,
                31.49,
                32.84,
                33.26,
                35.05,
                35.47,
                35.88,
                37.8,
                39.2,
                41.3,
                44.1,
                46.9,
                50.4,
                53.2,
                56,
                58.8,
                61.6,
                64.4,
                67.2,
                70,
                72.8,
                75.6,
                0,
                0,
                0,
                0,
                0,
                0,
                0,
                0,
                0,
                0,
                0,
                0,
                0,
                0,
                0,
                0,
                0,
                0,
                0,
                0,
                0,
                0,
                0,
                0,
                0,
                0,
                0,
                0,
                0,
                0,
                0,
                0,
                0,
                0,
                0,
                0,
                0,
                0,
                0,
                0
            ],
            "GS10SMNS": [
                0,
                0,
                0,
                0,
                0,
                0,
                0,
                0,
                0,
                0,
                0,
                0,
                0,
                0,
                0,
                0,
                0,
                0,
                9.6,
                9.6,
                9.6,
                10.1,
                10.1,
                10.1,
                10.1,
                10.6,
                10.6,
                10.6,
                10.6,
                10.6,
                11.3,
                11.3,
                11.3,
                11.3,
                11.3,
                11.6,
                11.6,
                11.6,
                11.8,
                11.8,
                11.8,
                12.5,
                12.5,
                12.5,
                13,
                13,
                14,
                15,
                16,
                17,
                18,
                20,
                21.5,
                23.5,
                25.5,
                26.5,
                28.5,
                30.5,
                32.5,
                34.5,
                36.5,
                0,
                0,
                0,
                0,
                0,
                0,
                0,
                0,
                0,
                0,
                0,
                0,
                0,
                0,
                0,
                0,
                0,
                0,
                0,
                0,
                0,
                0,
                0,
                0,
                0,
                0,
                0,
                0,
                0,
                0,
                0,
                0,
                0,
                0,
                0,
                0,
                0,
                0,
                0,
                0
            ],
            "GS10SMS": [
                0,
                0,
                0,
                0,
                0,
                0,
                0,
                0,
                0,
                0,
                0,
                0,
                0,
                0,
                0,
                0,
                0,
                0,
                11.52,
                11.52,
                11.52,
                12.12,
                12.12,
                12.12,
                12.12,
                13.25,
                13.25,
                13.25,
                13.25,
                13.25,
                14.69,
                14.69,
                14.69,
                14.69,
                14.69,
                15.66,
                15.66,
                15.66,
                15.93,
                15.93,
                17.7,
                18.75,
                18.75,
                18.75,
                19.5,
                19.5,
                21,
                22.5,
                24,
                25.5,
                27,
                30,
                32.25,
                35.25,
                38.25,
                39.75,
                42.75,
                45.75,
                48.75,
                51.75,
                54.75,
                0,
                0,
                0,
                0,
                0,
                0,
                0,
                0,
                0,
                0,
                0,
                0,
                0,
                0,
                0,
                0,
                0,
                0,
                0,
                0,
                0,
                0,
                0,
                0,
                0,
                0,
                0,
                0,
                0,
                0,
                0,
                0,
                0,
                0,
                0,
                0,
                0,
                0,
                0,
                0
            ],
            "GS20SFNS": [
                0,
                0,
                0,
                0,
                0,
                0,
                0,
                0,
                0,
                0,
                0,
                0,
                0,
                0,
                0,
                0,
                0,
                0,
                11.5,
                11.7,
                12,
                12.5,
                13,
                13.5,
                14,
                14.5,
                15,
                15.5,
                16,
                16.5,
                17.5,
                18.5,
                19.5,
                20.5,
                21.5,
                22,
                22.5,
                23,
                23.5,
                24.5,
                25.5,
                26.2,
                26.4,
                26.6,
                26.8,
                26.8,
                27.5,
                28.5,
                30,
                32,
                34,
                36,
                38,
                40,
                42,
                44,
                46,
                48,
                50,
                52,
                54,
                0,
                0,
                0,
                0,
                0,
                0,
                0,
                0,
                0,
                0,
                0,
                0,
                0,
                0,
                0,
                0,
                0,
                0,
                0,
                0,
                0,
                0,
                0,
                0,
                0,
                0,
                0,
                0,
                0,
                0,
                0,
                0,
                0,
                0,
                0,
                0,
                0,
                0,
                0,
                0
            ],
            "GS20SFS": [
                0,
                0,
                0,
                0,
                0,
                0,
                0,
                0,
                0,
                0,
                0,
                0,
                0,
                0,
                0,
                0,
                0,
                0,
                14.95,
                15.21,
                15.6,
                16.25,
                16.9,
                17.55,
                18.2,
                18.85,
                19.5,
                20.15,
                20.8,
                21.45,
                22.75,
                24.79,
                26.13,
                27.47,
                28.81,
                29.48,
                30.15,
                30.82,
                31.49,
                32.83,
                34.17,
                36.16,
                36.43,
                36.71,
                36.98,
                36.98,
                38.5,
                39.9,
                42,
                44.8,
                47.6,
                50.4,
                53.2,
                56,
                58.8,
                61.6,
                64.4,
                67.2,
                70,
                72.8,
                75.6,
                0,
                0,
                0,
                0,
                0,
                0,
                0,
                0,
                0,
                0,
                0,
                0,
                0,
                0,
                0,
                0,
                0,
                0,
                0,
                0,
                0,
                0,
                0,
                0,
                0,
                0,
                0,
                0,
                0,
                0,
                0,
                0,
                0,
                0,
                0,
                0,
                0,
                0,
                0,
                0
            ],
            "GS20SMNS": [
                0,
                0,
                0,
                0,
                0,
                0,
                0,
                0,
                0,
                0,
                0,
                0,
                0,
                0,
                0,
                0,
                0,
                0,
                10,
                10,
                10,
                10.5,
                10.5,
                10.5,
                10.5,
                11,
                11,
                11,
                11,
                11,
                11.5,
                11.5,
                11.5,
                11.5,
                11.5,
                11.8,
                11.8,
                11.8,
                12,
                12,
                12,
                13,
                13,
                13,
                13.5,
                13.5,
                14.5,
                15.5,
                16.5,
                17.5,
                18.5,
                20,
                21.5,
                23.5,
                25.5,
                26.5,
                28.5,
                30.5,
                32.5,
                34.5,
                36.5,
                0,
                0,
                0,
                0,
                0,
                0,
                0,
                0,
                0,
                0,
                0,
                0,
                0,
                0,
                0,
                0,
                0,
                0,
                0,
                0,
                0,
                0,
                0,
                0,
                0,
                0,
                0,
                0,
                0,
                0,
                0,
                0,
                0,
                0,
                0,
                0,
                0,
                0,
                0,
                0
            ],
            "GS20SMS": [
                0,
                0,
                0,
                0,
                0,
                0,
                0,
                0,
                0,
                0,
                0,
                0,
                0,
                0,
                0,
                0,
                0,
                0,
                12,
                12,
                12,
                12.6,
                12.6,
                12.6,
                12.6,
                13.75,
                13.75,
                13.75,
                13.75,
                13.75,
                14.95,
                14.95,
                14.95,
                14.95,
                14.95,
                15.93,
                15.93,
                15.93,
                16.2,
                16.2,
                18,
                19.5,
                19.5,
                19.5,
                20.25,
                20.25,
                21.75,
                23.25,
                24.75,
                26.25,
                27.75,
                30,
                32.25,
                35.25,
                38.25,
                39.75,
                42.75,
                45.75,
                48.75,
                51.75,
                54.75,
                0,
                0,
                0,
                0,
                0,
                0,
                0,
                0,
                0,
                0,
                0,
                0,
                0,
                0,
                0,
                0,
                0,
                0,
                0,
                0,
                0,
                0,
                0,
                0,
                0,
                0,
                0,
                0,
                0,
                0,
                0,
                0,
                0,
                0,
                0,
                0,
                0,
                0,
                0,
                0
            ],
            "GS65SFNS": [
                0,
                0,
                0,
                0,
                0,
                0,
                0,
                0,
                0,
                0,
                0,
                0,
                0,
                0,
                0,
                0,
                0,
                0,
                17,
                17,
                17,
                17.5,
                17.5,
                17.5,
                17.5,
                18,
                18,
                18,
                19,
                19,
                19.6,
                20,
                20.5,
                21.5,
                22,
                22.5,
                23,
                23.5,
                24,
                25,
                26,
                26.2,
                26.4,
                26.6,
                26.8,
                26.8,
                27.5,
                28.5,
                30,
                32,
                34,
                36,
                38,
                40,
                42,
                44,
                46,
                48,
                50,
                52,
                54,
                0,
                0,
                0,
                0,
                0,
                0,
                0,
                0,
                0,
                0,
                0,
                0,
                0,
                0,
                0,
                0,
                0,
                0,
                0,
                0,
                0,
                0,
                0,
                0,
                0,
                0,
                0,
                0,
                0,
                0,
                0,
                0,
                0,
                0,
                0,
                0,
                0,
                0,
                0,
                0
            ],
            "GS65SFS": [
                0,
                0,
                0,
                0,
                0,
                0,
                0,
                0,
                0,
                0,
                0,
                0,
                0,
                0,
                0,
                0,
                0,
                0,
                22.1,
                22.1,
                22.1,
                22.75,
                22.75,
                22.75,
                22.75,
                23.4,
                23.4,
                23.4,
                24.7,
                24.7,
                25.48,
                26.8,
                27.47,
                28.81,
                29.48,
                30.15,
                30.82,
                31.49,
                32.16,
                33.5,
                34.84,
                36.16,
                36.43,
                36.71,
                36.98,
                36.98,
                38.5,
                39.9,
                42,
                44.8,
                47.6,
                50.4,
                53.2,
                56,
                58.8,
                61.6,
                64.4,
                67.2,
                70,
                72.8,
                75.6,
                0,
                0,
                0,
                0,
                0,
                0,
                0,
                0,
                0,
                0,
                0,
                0,
                0,
                0,
                0,
                0,
                0,
                0,
                0,
                0,
                0,
                0,
                0,
                0,
                0,
                0,
                0,
                0,
                0,
                0,
                0,
                0,
                0,
                0,
                0,
                0,
                0,
                0,
                0,
                0
            ],
            "GS65SMNS": [
                0,
                0,
                0,
                0,
                0,
                0,
                0,
                0,
                0,
                0,
                0,
                0,
                0,
                0,
                0,
                0,
                0,
                0,
                11.5,
                11.5,
                11.5,
                11.5,
                11.5,
                11.5,
                11.5,
                11.8,
                11.8,
                11.8,
                11.8,
                11.8,
                12,
                12,
                12,
                12,
                12,
                12.2,
                12.2,
                12.2,
                12.5,
                12.5,
                12.5,
                13,
                13,
                13,
                13.5,
                13.5,
                14.5,
                15.5,
                16.5,
                17.5,
                18.5,
                20,
                21.5,
                23.5,
                25.5,
                26.5,
                28.5,
                30.5,
                32.5,
                34.5,
                36.5,
                0,
                0,
                0,
                0,
                0,
                0,
                0,
                0,
                0,
                0,
                0,
                0,
                0,
                0,
                0,
                0,
                0,
                0,
                0,
                0,
                0,
                0,
                0,
                0,
                0,
                0,
                0,
                0,
                0,
                0,
                0,
                0,
                0,
                0,
                0,
                0,
                0,
                0,
                0,
                0
            ],
            "GS65SMS": [
                0,
                0,
                0,
                0,
                0,
                0,
                0,
                0,
                0,
                0,
                0,
                0,
                0,
                0,
                0,
                0,
                0,
                0,
                13.8,
                13.8,
                13.8,
                13.8,
                13.8,
                13.8,
                13.8,
                14.75,
                14.75,
                14.75,
                14.75,
                14.75,
                15.6,
                15.6,
                15.6,
                15.6,
                15.6,
                16.47,
                16.47,
                16.47,
                16.88,
                16.88,
                18.75,
                19.5,
                19.5,
                19.5,
                20.25,
                20.25,
                21.75,
                23.25,
                24.75,
                26.25,
                27.75,
                30,
                32.25,
                35.25,
                38.25,
                39.75,
                42.75,
                45.75,
                48.75,
                51.75,
                54.75,
                0,
                0,
                0,
                0,
                0,
                0,
                0,
                0,
                0,
                0,
                0,
                0,
                0,
                0,
                0,
                0,
                0,
                0,
                0,
                0,
                0,
                0,
                0,
                0,
                0,
                0,
                0,
                0,
                0,
                0,
                0,
                0,
                0,
                0,
                0,
                0,
                0,
                0,
                0,
                0
            ]
        },
        "substdCls": {
            "R51": "1B",
            "R53": "1B",
            "R54": "1B"
        }
    },
    "releaseDate": "2018-07-30 02:53:25",
    "remarks": {
        "en": ""
    },
    "reportTemplate": [
        {
            "covCode": "0",
            "desc": "",
            "pdfCode": "HIM_COVER_FAIR",
            "resetPaging": "N",
            "seq": 100
        },
        {
            "covCode": "0",
            "desc": "",
            "pdfCode": "COMMON_COVER",
            "resetPaging": "Y",
            "seq": 200
        },
        {
            "covCode": "0",
            "desc": "",
            "pdfCode": "HIM_MAIN_BI",
            "seq": 300
        },
        {
            "covCode": "0",
            "desc": "",
            "pdfCode": "HIM_PROD_SUMMARY",
            "seq": 400
        }
    ],
    "riderList": [],
    "saInput": [
        {
            "ccy": "SGD",
            "decimal": 0,
            "factor": 1000
        }
    ],
    "saInputInd": "Y",
    "saPostfix": {},
    "saScale": "",
    "saViewInd": "Y",
    "smokeInd": "*",
    "status": "A",
    "thumbnail3": 453358,
    "type": "product",
    "version": 2
}