{
    "allowBackdate": "N",
    "budgetRules": [
        "RP",
        "SP"
    ],
    "calcAgeMethod": "na",
    "classInd": "N",
    "compCode": "08",
    "covCode": "PET_NPE",
    "covName": {
        "en": "PremiumEraser Total",
        "zh-Hant": "PremiumEraser Total"
    },
    "ctyGroup": [
        "*"
    ],
    "currencies": [
        {
            "ccy": [
                "SGD"
            ],
            "country": "*"
        }
    ],
    "dealerGroup": [
        "BROKER",
        "AGENCY",
        "SYNERGY",
        "FUSION",
        "SINGPOST",
        "DIRECT"
    ],
    "effDate": "2017-05-17 07:59:53",
    "entryAge": [
        {
            "country": "*",
            "imaxAge": 60,
            "imaxAgeUnit": "nearestAge",
            "iminAge": 18,
            "iminAgeUnit": "nearestAge",
            "omaxAge": 0,
            "omaxAgeUnit": "0",
            "ominAge": 0,
            "ominAgeUnit": "0",
            "sameAsOwner": ""
        }
    ],
    "expDate": "2118-07-26 16:00:00",
    "formulas": {
        "calcQuotFunc": "function(quotation, planInfo, planDetails) { var planDetail = planDetails[planInfo.covCode]; var rates = planDetail.rates; var petRates = rates.PET_RATE; var sumAssuredPET = quotation.annualPremium; var premTrem = parseInt(quotation.plans[1].premTerm); var ref=''; var plancode=''; if(premTrem <10){ ref = '0'+premTrem + 'WOP' + quotation.iGender + quotation.iSmoke ; plancode='0'+premTrem + 'WOP'; }else { ref = premTrem + 'WOP' + quotation.iGender + quotation.iSmoke ; plancode=premTrem + 'WOP'; } var getRate=function(ref,index,Rates){ var tempRates = Rates[ref]; if (tempRates === null){ return 0; } return tempRates[index]; }; var trunc = function(value, position) { if(!value) { return null; } if (!position) { position = 0; } var sign = value < 0 ? -1 : 1; var scale = math.pow(10, position); return math.multiply(sign, math.divide(math.floor(math.multiply(math.abs(value), scale)), scale)); }; function calculateRiderPremiumPET(curPlanInfo){ var petRate = getRate(ref,quotation.iAge,petRates); var temp = trunc(math.divide(math.multiply(math.bignumber(petRate),math.bignumber(sumAssuredPET)), math.bignumber(100)),2); /* Math.floor(petRate * sumAssuredPET * 100)/100; TRUNCATE to 2 decimal places*/ var annualPremium = temp; curPlanInfo.sumAssured = sumAssuredPET; curPlanInfo.yearPrem = math.number(annualPremium); curPlanInfo.halfYearPrem = math.number(trunc(math.multiply(math.bignumber(annualPremium),math.bignumber(0.51)),2)); /** Math.floor(annualPremium * 0.51 * 100)/100; */ curPlanInfo.quarterPrem = math.number(trunc(math.multiply(math.bignumber(annualPremium),math.bignumber(0.26)),2));/** Math.floor(annualPremium * 0.26 * 100)/100;*/ curPlanInfo.monthPrem = math.number(trunc(math.multiply(math.bignumber(annualPremium),math.bignumber(0.0875)),2));/** Math.floor(annualPremium * 0.0875 * 100)/100;*/ quotation.totYearPrem += curPlanInfo.yearPrem; quotation.totHalfyearPrem += curPlanInfo.halfYearPrem; quotation.totQuarterPrem += curPlanInfo.quarterPrem; quotation.totMonthPrem += curPlanInfo.monthPrem; switch (quotation.paymentMode){ case 'A': { curPlanInfo.premium = curPlanInfo.yearPrem; quotation.premium += curPlanInfo.yearPrem; break;} case 'S': { curPlanInfo.premium = curPlanInfo.halfYearPrem; quotation.premium += curPlanInfo.halfYearPrem; break;} case 'Q': { curPlanInfo.premium = curPlanInfo.quarterPrem; quotation.premium += curPlanInfo.quarterPrem; break;} case 'M': { curPlanInfo.premium = curPlanInfo.monthPrem; quotation.premium += curPlanInfo.monthPrem; break;} default: { curPlanInfo.premium = curPlanInfo.yearPrem; quotation.premium += curPlanInfo.yearPrem; break;} } curPlanInfo.planCode=plancode; } calculateRiderPremiumPET(planInfo); }",
        "illustrateFunc": "function(quotation, planInfo, planDetails, extraPara) {var planDetail = planDetails[planInfo.covCode];var rates = planDetail.rates;var dealerGroup = quotation.agent.dealerGroup;var payoutTerm = parseInt(quotation.policyOptions.payoutTerm);var getChannel = function() { var mappedChannel = dealerGroup; if (dealerGroup === 'SYNERGY') { mappedChannel = 'AGENCY'; } else if (dealerGroup === 'FUSION') { mappedChannel = 'BROKER'; } return mappedChannel;};var trunc = function(value, position) { if(!value) { return null; } if (!position) { position = 0; } var sign = value < 0 ? -1 : 1; var scale = math.pow(10, position); return math.multiply(sign, math.divide(math.floor(math.multiply(math.abs(value), scale)), scale)); };var convertBignumberToReadable = function(data) { for (var row in data) { for (var col in data[row]) { if (typeof(data[row][col]) !== 'string') { data[row][col] = math.number(data[row][col]); } } }};var channel = getChannel();var MAX_POLICY_YEAR = 100;var commissionTable = rates.commission[channel];var calcIllustration = function(illustration) { var sustainTestResult = true; var rawData = []; var defaultRawData = { policyYear: 0, accumPremium: math.bignumber(0), tdc: math.bignumber(0) }; rawData.push(Object.assign({}, defaultRawData)); for (var year = 1; year <= MAX_POLICY_YEAR; year ++) { var currData = Object.assign({}, defaultRawData); var prevData = rawData[year - 1]; currData.policyYear = year; var currPrem = math.bignumber(year <= planInfo.premTerm ? planInfo.yearPrem : 0); currData.accumPremium = math.add(currPrem, prevData.accumPremium); var commissionPolicyYrIndex = commissionTable.policyYear.indexOf(year); if (commissionPolicyYrIndex < 0) { commissionPolicyYrIndex = commissionTable.policyYear.length - 1; } var commissionPermTermIndex = 0; var commissionTableKeys = Object.keys(commissionTable); for (var i = 0; i < commissionTableKeys.length; i ++) { var key = commissionTableKeys[i]; if (key !== 'policyYear') { var commissionPremTerm = parseInt(key); if (planInfo.premTerm >= commissionPremTerm) { commissionPermTermIndex = i; } } } var commissionKey = commissionTableKeys[commissionPermTermIndex]; var comm = math.bignumber(commissionTable[commissionKey][commissionPolicyYrIndex]); var currTdc = math.bignumber(year <= planInfo.premTerm ? math.multiply(comm, planInfo.yearPrem) : 0); currData.tdc = math.add(trunc(currTdc, 2), prevData.tdc); var illData = illustration[year - 1]; illData.policyYear = currData.policyYear; illData.accumPremium = currData.accumPremium; illData.tdc = currData.tdc; rawData.push(currData); } convertBignumberToReadable(rawData); return sustainTestResult;};var illustration = [];var illustrationData = { policyYear: 0, accumPremium: 0, tdc: 0};for (var y = 0; y < MAX_POLICY_YEAR; y ++) { illustration.push(Object.assign({}, JSON.parse(JSON.stringify(illustrationData))));}calcIllustration(illustration);return illustration;}",
        "polTermsFunc": "function(planDetail, quotation) { var policyTermList = []; if (quotation.plans[0].premTerm === undefined){ return null; } var premiumTerm = quotation.plans[0].premTerm; policyTermList.push({ value: premiumTerm, title: premiumTerm + 'Years', default: true }); quotation.plans[1].policyTerm = premiumTerm; return policyTermList;}",
        "premFunc": "",
        "premTermsFunc": "",
        "prepareClassConfig": "",
        "prepareSAPremConfig": "",
        "prepareTermConfig": "",
        "saFunc": "",
        "validBeforeCalcFunc": "",
        "validQuotFunc": "",
        "willValidQuotFunc": ""
    },
    "genderInd": "*",
    "othSaInd": "N",
    "payModes": [
        {
            "covMonth": 12,
            "default": "N",
            "factor": 1,
            "mode": "A",
            "operator": "M"
        },
        {
            "covMonth": 6,
            "default": "",
            "factor": 0.51,
            "mode": "S",
            "operator": "M"
        },
        {
            "covMonth": 4,
            "default": "",
            "factor": 0.26,
            "mode": "Q",
            "operator": "M"
        },
        {
            "covMonth": 1,
            "default": "",
            "factor": 0.0875,
            "mode": "M",
            "operator": "M"
        }
    ],
    "planCodeMapping": {
        "": [
            "5WOP",
            "5",
            "6WOP",
            "6",
            "7WOP",
            "7",
            "8WOP",
            "8",
            "9WOP",
            "9",
            "10WOP",
            "10",
            "11WOP",
            "11",
            "12WOP",
            "12",
            "13WOP",
            "13",
            "14WOP",
            "14",
            "15WOP",
            "15",
            "16WOP",
            "16",
            "17WOP",
            "17",
            "18WOP",
            "18",
            "19WOP",
            "19",
            "20WOP",
            "20",
            "21WOP",
            "21",
            "22WOP",
            "22",
            "23WOP",
            "23",
            "24WOP",
            "24"
        ]
    },
    "planInd": "R",
    "polMatSameAsPremMat": "N",
    "polMaturities": [],
    "polTermInd": "N",
    "polTermRule": "0",
    "policyMatSameAsBasic": "N",
    "premInput": [
        {
            "ccy": "SGD",
            "decimal": 2,
            "factor": 0
        }
    ],
    "premInputInd": "N",
    "premMatSameAsBasic": "N",
    "premMatSameAsPolMat": "Y",
    "premPostfix": {},
    "premTermInd": "N",
    "premTermRule": "BT",
    "prodFeature": {
        "en": "Product Features"
    },
    "prod_summary": 0,
    "prod_summary_1": 138428,
    "productCategory": "cv",
    "productLine": "WLE",
    "rates": {
        "PET_RATE": {
            "05WOPFN": [
                0,
                0,
                0,
                0,
                0,
                0,
                0,
                0,
                0,
                0,
                0,
                0,
                0,
                0,
                0,
                0,
                0.11,
                0.14,
                0.17,
                0.21,
                0.24,
                0.3,
                0.37,
                0.4,
                0.45,
                0.5,
                0.51,
                0.48,
                0.5,
                0.47,
                0.45,
                0.43,
                0.48,
                0.5,
                0.58,
                0.72,
                0.83,
                0.91,
                1.02,
                1.16,
                1.29,
                1.48,
                1.65,
                1.85,
                2.03,
                2.22,
                2.43,
                2.68,
                3,
                3.28,
                3.57,
                3.94,
                4.46,
                4.99,
                5.46,
                5.98,
                6.64,
                7.52,
                8.33,
                8.99,
                9.72,
                0,
                0,
                0,
                0,
                0,
                0,
                0,
                0,
                0,
                0,
                0,
                0,
                0,
                0,
                0,
                0,
                0,
                0,
                0,
                0,
                0,
                0,
                0,
                0,
                0,
                0,
                0,
                0,
                0,
                0,
                0,
                0,
                0,
                0,
                0,
                0,
                0,
                0,
                0,
                0,
                0,
                0,
                0,
                0,
                0,
                0,
                0,
                0,
                0,
                0,
                0,
                0,
                0,
                0,
                0,
                0,
                0,
                0
            ],
            "05WOPFY": [
                0,
                0,
                0,
                0,
                0,
                0,
                0,
                0,
                0,
                0,
                0,
                0,
                0,
                0,
                0,
                0,
                0.14,
                0.2,
                0.26,
                0.31,
                0.38,
                0.46,
                0.58,
                0.65,
                0.7,
                0.75,
                0.78,
                0.77,
                0.74,
                0.73,
                0.69,
                0.66,
                0.72,
                0.79,
                0.9,
                1.11,
                1.26,
                1.38,
                1.52,
                1.71,
                1.92,
                2.24,
                2.49,
                2.8,
                3.1,
                3.42,
                3.8,
                4.3,
                4.83,
                5.37,
                5.86,
                6.47,
                7.23,
                8.02,
                8.68,
                9.4,
                10.5,
                11.61,
                12.96,
                14,
                15.2,
                0,
                0,
                0,
                0,
                0,
                0,
                0,
                0,
                0,
                0,
                0,
                0,
                0,
                0,
                0,
                0,
                0,
                0,
                0,
                0,
                0,
                0,
                0,
                0,
                0,
                0,
                0,
                0,
                0,
                0,
                0,
                0,
                0,
                0,
                0,
                0,
                0,
                0,
                0,
                0,
                0,
                0,
                0,
                0,
                0,
                0,
                0,
                0,
                0,
                0,
                0,
                0,
                0,
                0,
                0,
                0,
                0,
                0
            ],
            "05WOPMN": [
                0,
                0,
                0,
                0,
                0,
                0,
                0,
                0,
                0,
                0,
                0,
                0,
                0,
                0,
                0,
                0,
                0.07,
                0.09,
                0.12,
                0.15,
                0.18,
                0.22,
                0.26,
                0.27,
                0.3,
                0.33,
                0.33,
                0.31,
                0.32,
                0.28,
                0.29,
                0.27,
                0.28,
                0.26,
                0.36,
                0.46,
                0.41,
                0.39,
                0.46,
                0.64,
                0.83,
                0.82,
                0.83,
                0.89,
                1.2,
                1.56,
                1.64,
                1.81,
                2,
                2.42,
                3.06,
                3.64,
                4.2,
                4.75,
                5.42,
                6.05,
                7.22,
                8.38,
                9.43,
                10.29,
                11.22,
                0,
                0,
                0,
                0,
                0,
                0,
                0,
                0,
                0,
                0,
                0,
                0,
                0,
                0,
                0,
                0,
                0,
                0,
                0,
                0,
                0,
                0,
                0,
                0,
                0,
                0,
                0,
                0,
                0,
                0,
                0,
                0,
                0,
                0,
                0,
                0,
                0,
                0,
                0,
                0,
                0,
                0,
                0,
                0,
                0,
                0,
                0,
                0,
                0,
                0,
                0,
                0,
                0,
                0,
                0,
                0,
                0,
                0
            ],
            "05WOPMY": [
                0,
                0,
                0,
                0,
                0,
                0,
                0,
                0,
                0,
                0,
                0,
                0,
                0,
                0,
                0,
                0,
                0.1,
                0.13,
                0.17,
                0.2,
                0.26,
                0.33,
                0.39,
                0.43,
                0.48,
                0.5,
                0.5,
                0.5,
                0.48,
                0.44,
                0.45,
                0.41,
                0.41,
                0.41,
                0.55,
                0.7,
                0.66,
                0.62,
                0.67,
                0.94,
                1.2,
                1.17,
                1.15,
                1.29,
                1.79,
                2.39,
                2.58,
                2.87,
                3.25,
                4.02,
                5.09,
                5.94,
                6.76,
                7.57,
                8.59,
                9.53,
                11.57,
                13.36,
                15.08,
                16.39,
                17.89,
                0,
                0,
                0,
                0,
                0,
                0,
                0,
                0,
                0,
                0,
                0,
                0,
                0,
                0,
                0,
                0,
                0,
                0,
                0,
                0,
                0,
                0,
                0,
                0,
                0,
                0,
                0,
                0,
                0,
                0,
                0,
                0,
                0,
                0,
                0,
                0,
                0,
                0,
                0,
                0,
                0,
                0,
                0,
                0,
                0,
                0,
                0,
                0,
                0,
                0,
                0,
                0,
                0,
                0,
                0,
                0,
                0,
                0
            ],
            "10WOPFN": [
                0,
                0,
                0,
                0,
                0,
                0,
                0,
                0,
                0,
                0,
                0,
                0,
                0,
                0,
                0,
                0,
                0.31,
                0.35,
                0.39,
                0.44,
                0.48,
                0.53,
                0.57,
                0.62,
                0.67,
                0.73,
                0.77,
                0.83,
                0.9,
                0.96,
                1.02,
                1.11,
                1.25,
                1.37,
                1.52,
                1.71,
                1.91,
                2.11,
                2.34,
                2.58,
                2.84,
                3.13,
                3.46,
                3.82,
                4.19,
                4.59,
                4.99,
                5.51,
                6.09,
                6.66,
                7.29,
                7.92,
                8.75,
                9.63,
                10.54,
                11.51,
                12.49,
                13.69,
                15.02,
                16.42,
                17.88,
                0,
                0,
                0,
                0,
                0,
                0,
                0,
                0,
                0,
                0,
                0,
                0,
                0,
                0,
                0,
                0,
                0,
                0,
                0,
                0,
                0,
                0,
                0,
                0,
                0,
                0,
                0,
                0,
                0,
                0,
                0,
                0,
                0,
                0,
                0,
                0,
                0,
                0,
                0,
                0,
                0,
                0,
                0,
                0,
                0,
                0,
                0,
                0,
                0,
                0,
                0,
                0,
                0,
                0,
                0,
                0,
                0,
                0
            ],
            "10WOPFY": [
                0,
                0,
                0,
                0,
                0,
                0,
                0,
                0,
                0,
                0,
                0,
                0,
                0,
                0,
                0,
                0,
                0.46,
                0.54,
                0.61,
                0.68,
                0.76,
                0.82,
                0.9,
                0.97,
                1.06,
                1.13,
                1.21,
                1.31,
                1.4,
                1.51,
                1.6,
                1.75,
                1.95,
                2.16,
                2.39,
                2.68,
                3,
                3.33,
                3.68,
                4.06,
                4.47,
                4.96,
                5.49,
                6.07,
                6.66,
                7.31,
                7.98,
                8.84,
                9.76,
                10.71,
                11.71,
                12.74,
                14.01,
                15.42,
                16.87,
                18.42,
                20.02,
                21.89,
                24.12,
                26.44,
                28.9,
                0,
                0,
                0,
                0,
                0,
                0,
                0,
                0,
                0,
                0,
                0,
                0,
                0,
                0,
                0,
                0,
                0,
                0,
                0,
                0,
                0,
                0,
                0,
                0,
                0,
                0,
                0,
                0,
                0,
                0,
                0,
                0,
                0,
                0,
                0,
                0,
                0,
                0,
                0,
                0,
                0,
                0,
                0,
                0,
                0,
                0,
                0,
                0,
                0,
                0,
                0,
                0,
                0,
                0,
                0,
                0,
                0,
                0
            ],
            "10WOPMN": [
                0,
                0,
                0,
                0,
                0,
                0,
                0,
                0,
                0,
                0,
                0,
                0,
                0,
                0,
                0,
                0,
                0.21,
                0.24,
                0.26,
                0.3,
                0.34,
                0.36,
                0.39,
                0.42,
                0.46,
                0.49,
                0.53,
                0.56,
                0.61,
                0.65,
                0.7,
                0.77,
                0.87,
                0.96,
                1.1,
                1.26,
                1.4,
                1.57,
                1.78,
                2.06,
                2.34,
                2.65,
                2.98,
                3.32,
                3.79,
                4.32,
                4.84,
                5.43,
                6.03,
                6.76,
                7.63,
                8.54,
                9.5,
                10.51,
                11.62,
                12.79,
                14.1,
                15.55,
                17.17,
                18.79,
                20.57,
                0,
                0,
                0,
                0,
                0,
                0,
                0,
                0,
                0,
                0,
                0,
                0,
                0,
                0,
                0,
                0,
                0,
                0,
                0,
                0,
                0,
                0,
                0,
                0,
                0,
                0,
                0,
                0,
                0,
                0,
                0,
                0,
                0,
                0,
                0,
                0,
                0,
                0,
                0,
                0,
                0,
                0,
                0,
                0,
                0,
                0,
                0,
                0,
                0,
                0,
                0,
                0,
                0,
                0,
                0,
                0,
                0,
                0
            ],
            "10WOPMY": [
                0,
                0,
                0,
                0,
                0,
                0,
                0,
                0,
                0,
                0,
                0,
                0,
                0,
                0,
                0,
                0,
                0.32,
                0.36,
                0.41,
                0.46,
                0.51,
                0.56,
                0.61,
                0.66,
                0.72,
                0.76,
                0.82,
                0.89,
                0.96,
                1.02,
                1.1,
                1.22,
                1.37,
                1.52,
                1.74,
                1.97,
                2.23,
                2.5,
                2.82,
                3.25,
                3.69,
                4.19,
                4.7,
                5.31,
                6.09,
                6.93,
                7.83,
                8.78,
                9.78,
                11.02,
                12.43,
                13.92,
                15.5,
                17.14,
                18.96,
                20.89,
                23.16,
                25.62,
                28.35,
                31.14,
                34.15,
                0,
                0,
                0,
                0,
                0,
                0,
                0,
                0,
                0,
                0,
                0,
                0,
                0,
                0,
                0,
                0,
                0,
                0,
                0,
                0,
                0,
                0,
                0,
                0,
                0,
                0,
                0,
                0,
                0,
                0,
                0,
                0,
                0,
                0,
                0,
                0,
                0,
                0,
                0,
                0,
                0,
                0,
                0,
                0,
                0,
                0,
                0,
                0,
                0,
                0,
                0,
                0,
                0,
                0,
                0,
                0,
                0,
                0
            ],
            "15WOPFN": [
                0,
                0,
                0,
                0,
                0,
                0,
                0,
                0,
                0,
                0,
                0,
                0,
                0,
                0,
                0,
                0,
                0.53,
                0.57,
                0.62,
                0.67,
                0.73,
                0.77,
                0.83,
                0.9,
                0.96,
                1.02,
                1.09,
                1.23,
                1.37,
                1.51,
                1.67,
                1.87,
                2.1,
                2.34,
                2.58,
                2.84,
                3.12,
                3.46,
                3.82,
                4.19,
                4.59,
                4.99,
                5.51,
                6.09,
                6.66,
                7.29,
                7.92,
                8.75,
                9.63,
                10.54,
                11.51,
                12.49,
                13.69,
                15.02,
                16.42,
                17.88,
                19.41,
                21.02,
                23.03,
                25.23,
                27.45,
                0,
                0,
                0,
                0,
                0,
                0,
                0,
                0,
                0,
                0,
                0,
                0,
                0,
                0,
                0,
                0,
                0,
                0,
                0,
                0,
                0,
                0,
                0,
                0,
                0,
                0,
                0,
                0,
                0,
                0,
                0,
                0,
                0,
                0,
                0,
                0,
                0,
                0,
                0,
                0,
                0,
                0,
                0,
                0,
                0,
                0,
                0,
                0,
                0,
                0,
                0,
                0,
                0,
                0,
                0,
                0,
                0,
                0
            ],
            "15WOPFY": [
                0,
                0,
                0,
                0,
                0,
                0,
                0,
                0,
                0,
                0,
                0,
                0,
                0,
                0,
                0,
                0,
                0.82,
                0.9,
                0.97,
                1.06,
                1.13,
                1.21,
                1.31,
                1.4,
                1.51,
                1.6,
                1.72,
                1.94,
                2.16,
                2.39,
                2.63,
                2.95,
                3.31,
                3.68,
                4.06,
                4.46,
                4.94,
                5.49,
                6.07,
                6.66,
                7.31,
                7.97,
                8.84,
                9.76,
                10.71,
                11.71,
                12.74,
                14.01,
                15.42,
                16.87,
                18.42,
                20.02,
                21.89,
                24.12,
                26.44,
                28.9,
                31.44,
                34.25,
                37.67,
                41.41,
                45.22,
                0,
                0,
                0,
                0,
                0,
                0,
                0,
                0,
                0,
                0,
                0,
                0,
                0,
                0,
                0,
                0,
                0,
                0,
                0,
                0,
                0,
                0,
                0,
                0,
                0,
                0,
                0,
                0,
                0,
                0,
                0,
                0,
                0,
                0,
                0,
                0,
                0,
                0,
                0,
                0,
                0,
                0,
                0,
                0,
                0,
                0,
                0,
                0,
                0,
                0,
                0,
                0,
                0,
                0,
                0,
                0,
                0,
                0
            ],
            "15WOPMN": [
                0,
                0,
                0,
                0,
                0,
                0,
                0,
                0,
                0,
                0,
                0,
                0,
                0,
                0,
                0,
                0,
                0.36,
                0.39,
                0.42,
                0.46,
                0.49,
                0.53,
                0.56,
                0.61,
                0.65,
                0.7,
                0.76,
                0.86,
                0.96,
                1.07,
                1.17,
                1.35,
                1.55,
                1.75,
                1.95,
                2.17,
                2.53,
                2.91,
                3.29,
                3.67,
                4.08,
                4.71,
                5.37,
                6.02,
                6.68,
                7.41,
                8.39,
                9.45,
                10.51,
                11.62,
                12.79,
                14.1,
                15.55,
                17.17,
                18.79,
                20.57,
                22.33,
                24.25,
                26.57,
                29.06,
                31.66,
                0,
                0,
                0,
                0,
                0,
                0,
                0,
                0,
                0,
                0,
                0,
                0,
                0,
                0,
                0,
                0,
                0,
                0,
                0,
                0,
                0,
                0,
                0,
                0,
                0,
                0,
                0,
                0,
                0,
                0,
                0,
                0,
                0,
                0,
                0,
                0,
                0,
                0,
                0,
                0,
                0,
                0,
                0,
                0,
                0,
                0,
                0,
                0,
                0,
                0,
                0,
                0,
                0,
                0,
                0,
                0,
                0,
                0
            ],
            "15WOPMY": [
                0,
                0,
                0,
                0,
                0,
                0,
                0,
                0,
                0,
                0,
                0,
                0,
                0,
                0,
                0,
                0,
                0.56,
                0.61,
                0.66,
                0.72,
                0.76,
                0.82,
                0.89,
                0.96,
                1.02,
                1.09,
                1.2,
                1.36,
                1.52,
                1.69,
                1.87,
                2.14,
                2.46,
                2.78,
                3.09,
                3.45,
                4,
                4.6,
                5.21,
                5.81,
                6.49,
                7.53,
                8.64,
                9.75,
                10.86,
                12.03,
                13.7,
                15.42,
                17.14,
                18.96,
                20.87,
                23.11,
                25.62,
                28.35,
                31.14,
                34.15,
                37.22,
                40.72,
                44.78,
                49.29,
                53.84,
                0,
                0,
                0,
                0,
                0,
                0,
                0,
                0,
                0,
                0,
                0,
                0,
                0,
                0,
                0,
                0,
                0,
                0,
                0,
                0,
                0,
                0,
                0,
                0,
                0,
                0,
                0,
                0,
                0,
                0,
                0,
                0,
                0,
                0,
                0,
                0,
                0,
                0,
                0,
                0,
                0,
                0,
                0,
                0,
                0,
                0,
                0,
                0,
                0,
                0,
                0,
                0,
                0,
                0,
                0,
                0,
                0,
                0
            ],
            "20WOPFN": [
                0,
                0,
                0,
                0,
                0,
                0,
                0,
                0,
                0,
                0,
                0,
                0,
                0,
                0,
                0,
                0,
                0.77,
                0.83,
                0.9,
                0.96,
                1.02,
                1.09,
                1.15,
                1.25,
                1.36,
                1.47,
                1.67,
                1.89,
                2.1,
                2.31,
                2.52,
                2.87,
                3.21,
                3.56,
                3.89,
                4.24,
                4.76,
                5.28,
                5.79,
                6.31,
                6.85,
                7.61,
                8.39,
                9.18,
                9.99,
                10.86,
                11.98,
                13.2,
                14.43,
                15.69,
                17.02,
                18.74,
                20.59,
                22.46,
                24.45,
                26.49,
                29.04,
                31.9,
                34.84,
                38.01,
                41.27,
                0,
                0,
                0,
                0,
                0,
                0,
                0,
                0,
                0,
                0,
                0,
                0,
                0,
                0,
                0,
                0,
                0,
                0,
                0,
                0,
                0,
                0,
                0,
                0,
                0,
                0,
                0,
                0,
                0,
                0,
                0,
                0,
                0,
                0,
                0,
                0,
                0,
                0,
                0,
                0,
                0,
                0,
                0,
                0,
                0,
                0,
                0,
                0,
                0,
                0,
                0,
                0,
                0,
                0,
                0,
                0,
                0,
                0
            ],
            "20WOPFY": [
                0,
                0,
                0,
                0,
                0,
                0,
                0,
                0,
                0,
                0,
                0,
                0,
                0,
                0,
                0,
                0,
                1.21,
                1.31,
                1.4,
                1.51,
                1.6,
                1.71,
                1.79,
                1.95,
                2.13,
                2.32,
                2.64,
                2.98,
                3.31,
                3.65,
                3.99,
                4.53,
                5.07,
                5.61,
                6.15,
                6.69,
                7.53,
                8.39,
                9.24,
                10.09,
                10.95,
                12.2,
                13.46,
                14.72,
                16,
                17.37,
                19.23,
                21.21,
                23.2,
                25.24,
                27.41,
                30.28,
                33.4,
                36.5,
                39.85,
                43.26,
                47.68,
                52.65,
                57.71,
                63.23,
                68.84,
                0,
                0,
                0,
                0,
                0,
                0,
                0,
                0,
                0,
                0,
                0,
                0,
                0,
                0,
                0,
                0,
                0,
                0,
                0,
                0,
                0,
                0,
                0,
                0,
                0,
                0,
                0,
                0,
                0,
                0,
                0,
                0,
                0,
                0,
                0,
                0,
                0,
                0,
                0,
                0,
                0,
                0,
                0,
                0,
                0,
                0,
                0,
                0,
                0,
                0,
                0,
                0,
                0,
                0,
                0,
                0,
                0,
                0
            ],
            "20WOPMN": [
                0,
                0,
                0,
                0,
                0,
                0,
                0,
                0,
                0,
                0,
                0,
                0,
                0,
                0,
                0,
                0,
                0.53,
                0.56,
                0.61,
                0.65,
                0.7,
                0.74,
                0.78,
                0.87,
                0.95,
                1.03,
                1.18,
                1.34,
                1.5,
                1.66,
                1.82,
                2.12,
                2.44,
                2.75,
                3.06,
                3.38,
                3.96,
                4.55,
                5.13,
                5.71,
                6.3,
                7.31,
                8.32,
                9.32,
                10.32,
                11.33,
                12.91,
                14.49,
                16.06,
                17.63,
                19.21,
                21.43,
                23.65,
                25.86,
                28.21,
                30.64,
                33.58,
                36.85,
                40.39,
                44.03,
                47.96,
                0,
                0,
                0,
                0,
                0,
                0,
                0,
                0,
                0,
                0,
                0,
                0,
                0,
                0,
                0,
                0,
                0,
                0,
                0,
                0,
                0,
                0,
                0,
                0,
                0,
                0,
                0,
                0,
                0,
                0,
                0,
                0,
                0,
                0,
                0,
                0,
                0,
                0,
                0,
                0,
                0,
                0,
                0,
                0,
                0,
                0,
                0,
                0,
                0,
                0,
                0,
                0,
                0,
                0,
                0,
                0,
                0,
                0
            ],
            "20WOPMY": [
                0,
                0,
                0,
                0,
                0,
                0,
                0,
                0,
                0,
                0,
                0,
                0,
                0,
                0,
                0,
                0,
                0.82,
                0.89,
                0.96,
                1.02,
                1.09,
                1.16,
                1.25,
                1.37,
                1.5,
                1.64,
                1.87,
                2.13,
                2.38,
                2.63,
                2.88,
                3.39,
                3.88,
                4.38,
                4.88,
                5.37,
                6.32,
                7.27,
                8.22,
                9.17,
                10.12,
                11.78,
                13.42,
                15.08,
                16.73,
                18.38,
                21,
                23.62,
                26.24,
                28.86,
                31.48,
                35.37,
                39.28,
                43.18,
                47.24,
                51.54,
                56.98,
                62.95,
                69.31,
                76.03,
                83.11,
                0,
                0,
                0,
                0,
                0,
                0,
                0,
                0,
                0,
                0,
                0,
                0,
                0,
                0,
                0,
                0,
                0,
                0,
                0,
                0,
                0,
                0,
                0,
                0,
                0,
                0,
                0,
                0,
                0,
                0,
                0,
                0,
                0,
                0,
                0,
                0,
                0,
                0,
                0,
                0,
                0,
                0,
                0,
                0,
                0,
                0,
                0,
                0,
                0,
                0,
                0,
                0,
                0,
                0,
                0,
                0,
                0,
                0
            ],
            "25WOPFN": [
                0,
                0,
                0,
                0,
                0,
                0,
                0,
                0,
                0,
                0,
                0,
                0,
                0,
                0,
                0,
                0,
                1.09,
                1.15,
                1.19,
                1.26,
                1.31,
                1.47,
                1.64,
                1.79,
                1.97,
                2.13,
                2.43,
                2.73,
                3.04,
                3.33,
                3.64,
                4.14,
                4.62,
                5.12,
                5.61,
                6.12,
                6.84,
                7.58,
                8.3,
                9.03,
                9.76,
                10.92,
                12.08,
                13.24,
                14.4,
                15.55,
                17.3,
                19.03,
                20.76,
                22.49,
                24.22,
                26.95,
                29.68,
                32.43,
                35.16,
                37.9,
                42.28,
                46.66,
                51.03,
                55.41,
                59.79,
                0,
                0,
                0,
                0,
                0,
                0,
                0,
                0,
                0,
                0,
                0,
                0,
                0,
                0,
                0,
                0,
                0,
                0,
                0,
                0,
                0,
                0,
                0,
                0,
                0,
                0,
                0,
                0,
                0,
                0,
                0,
                0,
                0,
                0,
                0,
                0,
                0,
                0,
                0,
                0,
                0,
                0,
                0,
                0,
                0,
                0,
                0,
                0,
                0,
                0,
                0,
                0,
                0,
                0,
                0,
                0,
                0,
                0
            ],
            "25WOPFY": [
                0,
                0,
                0,
                0,
                0,
                0,
                0,
                0,
                0,
                0,
                0,
                0,
                0,
                0,
                0,
                0,
                1.71,
                1.79,
                1.88,
                1.97,
                2.06,
                2.31,
                2.57,
                2.83,
                3.08,
                3.35,
                3.82,
                4.3,
                4.78,
                5.26,
                5.74,
                6.51,
                7.28,
                8.04,
                8.82,
                9.59,
                10.78,
                11.98,
                13.18,
                14.37,
                15.56,
                17.4,
                19.24,
                21.07,
                22.91,
                24.75,
                27.65,
                30.55,
                33.45,
                36.35,
                39.25,
                43.91,
                48.56,
                53.21,
                57.87,
                62.52,
                70.25,
                77.98,
                85.71,
                93.44,
                101.16,
                0,
                0,
                0,
                0,
                0,
                0,
                0,
                0,
                0,
                0,
                0,
                0,
                0,
                0,
                0,
                0,
                0,
                0,
                0,
                0,
                0,
                0,
                0,
                0,
                0,
                0,
                0,
                0,
                0,
                0,
                0,
                0,
                0,
                0,
                0,
                0,
                0,
                0,
                0,
                0,
                0,
                0,
                0,
                0,
                0,
                0,
                0,
                0,
                0,
                0,
                0,
                0,
                0,
                0,
                0,
                0,
                0,
                0
            ],
            "25WOPMN": [
                0,
                0,
                0,
                0,
                0,
                0,
                0,
                0,
                0,
                0,
                0,
                0,
                0,
                0,
                0,
                0,
                0.74,
                0.77,
                0.82,
                0.86,
                0.91,
                1.03,
                1.15,
                1.27,
                1.38,
                1.51,
                1.75,
                1.97,
                2.22,
                2.46,
                2.68,
                3.14,
                3.6,
                4.06,
                4.52,
                4.97,
                5.84,
                6.7,
                7.56,
                8.42,
                9.29,
                10.69,
                12.09,
                13.51,
                14.91,
                16.32,
                18.58,
                20.84,
                23.1,
                25.35,
                27.62,
                30.93,
                34.24,
                37.56,
                40.88,
                44.19,
                49.37,
                54.54,
                59.72,
                64.89,
                70.07,
                0,
                0,
                0,
                0,
                0,
                0,
                0,
                0,
                0,
                0,
                0,
                0,
                0,
                0,
                0,
                0,
                0,
                0,
                0,
                0,
                0,
                0,
                0,
                0,
                0,
                0,
                0,
                0,
                0,
                0,
                0,
                0,
                0,
                0,
                0,
                0,
                0,
                0,
                0,
                0,
                0,
                0,
                0,
                0,
                0,
                0,
                0,
                0,
                0,
                0,
                0,
                0,
                0,
                0,
                0,
                0,
                0,
                0
            ],
            "25WOPMY": [
                0,
                0,
                0,
                0,
                0,
                0,
                0,
                0,
                0,
                0,
                0,
                0,
                0,
                0,
                0,
                0,
                1.16,
                1.22,
                1.29,
                1.36,
                1.44,
                1.63,
                1.82,
                2.01,
                2.2,
                2.39,
                2.76,
                3.14,
                3.51,
                3.89,
                4.27,
                5.01,
                5.74,
                6.48,
                7.21,
                7.94,
                9.3,
                10.67,
                12.02,
                13.38,
                14.73,
                17.11,
                19.46,
                21.83,
                24.2,
                26.56,
                30.39,
                34.23,
                38.07,
                41.91,
                45.75,
                51.64,
                57.55,
                63.45,
                69.34,
                75.25,
                84.96,
                94.67,
                104.38,
                114.09,
                123.81,
                0,
                0,
                0,
                0,
                0,
                0,
                0,
                0,
                0,
                0,
                0,
                0,
                0,
                0,
                0,
                0,
                0,
                0,
                0,
                0,
                0,
                0,
                0,
                0,
                0,
                0,
                0,
                0,
                0,
                0,
                0,
                0,
                0,
                0,
                0,
                0,
                0,
                0,
                0,
                0,
                0,
                0,
                0,
                0,
                0,
                0,
                0,
                0,
                0,
                0,
                0,
                0,
                0,
                0,
                0,
                0,
                0,
                0
            ],
            "30WOPFN": [
                0,
                0,
                0,
                0,
                0,
                0,
                0,
                0,
                0,
                0,
                0,
                0,
                0,
                0,
                0,
                0,
                1.41,
                1.47,
                1.48,
                1.56,
                1.6,
                1.86,
                2.13,
                2.34,
                2.58,
                2.78,
                3.19,
                3.57,
                3.98,
                4.35,
                4.76,
                5.41,
                6.03,
                6.69,
                7.33,
                7.99,
                8.93,
                9.88,
                10.81,
                11.75,
                12.68,
                14.23,
                15.76,
                17.3,
                18.8,
                20.25,
                22.61,
                24.85,
                27.08,
                29.28,
                31.41,
                35.17,
                38.78,
                42.41,
                45.87,
                49.31,
                55.52,
                61.42,
                67.22,
                72.81,
                78.31,
                0,
                0,
                0,
                0,
                0,
                0,
                0,
                0,
                0,
                0,
                0,
                0,
                0,
                0,
                0,
                0,
                0,
                0,
                0,
                0,
                0,
                0,
                0,
                0,
                0,
                0,
                0,
                0,
                0,
                0,
                0,
                0,
                0,
                0,
                0,
                0,
                0,
                0,
                0,
                0,
                0,
                0,
                0,
                0,
                0,
                0,
                0,
                0,
                0,
                0,
                0,
                0,
                0,
                0,
                0,
                0,
                0,
                0
            ],
            "30WOPFY": [
                0,
                0,
                0,
                0,
                0,
                0,
                0,
                0,
                0,
                0,
                0,
                0,
                0,
                0,
                0,
                0,
                2.21,
                2.28,
                2.37,
                2.42,
                2.51,
                2.91,
                3.34,
                3.71,
                4.04,
                4.38,
                5.01,
                5.63,
                6.24,
                6.87,
                7.5,
                8.48,
                9.49,
                10.48,
                11.48,
                12.49,
                14.03,
                15.58,
                17.12,
                18.65,
                20.17,
                22.6,
                25.02,
                27.41,
                29.83,
                32.13,
                36.08,
                39.89,
                43.71,
                47.45,
                51.09,
                57.54,
                63.72,
                69.92,
                75.88,
                81.77,
                92.82,
                103.3,
                113.71,
                123.65,
                133.49,
                0,
                0,
                0,
                0,
                0,
                0,
                0,
                0,
                0,
                0,
                0,
                0,
                0,
                0,
                0,
                0,
                0,
                0,
                0,
                0,
                0,
                0,
                0,
                0,
                0,
                0,
                0,
                0,
                0,
                0,
                0,
                0,
                0,
                0,
                0,
                0,
                0,
                0,
                0,
                0,
                0,
                0,
                0,
                0,
                0,
                0,
                0,
                0,
                0,
                0,
                0,
                0,
                0,
                0,
                0,
                0,
                0,
                0
            ],
            "30WOPMN": [
                0,
                0,
                0,
                0,
                0,
                0,
                0,
                0,
                0,
                0,
                0,
                0,
                0,
                0,
                0,
                0,
                0.95,
                0.98,
                1.03,
                1.08,
                1.12,
                1.32,
                1.51,
                1.67,
                1.82,
                1.99,
                2.31,
                2.61,
                2.94,
                3.26,
                3.55,
                4.16,
                4.77,
                5.37,
                5.99,
                6.56,
                7.73,
                8.85,
                9.99,
                11.12,
                12.29,
                14.08,
                15.87,
                17.71,
                19.51,
                21.3,
                24.25,
                27.19,
                30.13,
                33.08,
                36.03,
                40.43,
                44.84,
                49.27,
                53.54,
                57.74,
                65.16,
                72.23,
                79.06,
                85.75,
                92.18,
                0,
                0,
                0,
                0,
                0,
                0,
                0,
                0,
                0,
                0,
                0,
                0,
                0,
                0,
                0,
                0,
                0,
                0,
                0,
                0,
                0,
                0,
                0,
                0,
                0,
                0,
                0,
                0,
                0,
                0,
                0,
                0,
                0,
                0,
                0,
                0,
                0,
                0,
                0,
                0,
                0,
                0,
                0,
                0,
                0,
                0,
                0,
                0,
                0,
                0,
                0,
                0,
                0,
                0,
                0,
                0,
                0,
                0
            ],
            "30WOPMY": [
                0,
                0,
                0,
                0,
                0,
                0,
                0,
                0,
                0,
                0,
                0,
                0,
                0,
                0,
                0,
                0,
                1.49,
                1.55,
                1.63,
                1.69,
                1.78,
                2.1,
                2.39,
                2.66,
                2.9,
                3.15,
                3.64,
                4.15,
                4.65,
                5.14,
                5.65,
                6.62,
                7.61,
                8.58,
                9.54,
                10.52,
                12.29,
                14.06,
                15.82,
                17.58,
                19.35,
                22.44,
                25.51,
                28.58,
                31.66,
                34.74,
                39.79,
                44.84,
                49.91,
                54.95,
                60.01,
                67.91,
                75.81,
                83.71,
                91.45,
                98.95,
                112.94,
                126.38,
                139.45,
                152.14,
                164.5,
                0,
                0,
                0,
                0,
                0,
                0,
                0,
                0,
                0,
                0,
                0,
                0,
                0,
                0,
                0,
                0,
                0,
                0,
                0,
                0,
                0,
                0,
                0,
                0,
                0,
                0,
                0,
                0,
                0,
                0,
                0,
                0,
                0,
                0,
                0,
                0,
                0,
                0,
                0,
                0,
                0,
                0,
                0,
                0,
                0,
                0,
                0,
                0,
                0,
                0,
                0,
                0,
                0,
                0,
                0,
                0,
                0,
                0
            ],
            "REF": [
                "RLL00",
                "RLL01",
                "RLL02",
                "RLL03",
                "RLL04",
                "RLL05",
                "RLL06",
                "RLL07",
                "RLL08",
                "RLL09",
                "RLL10",
                "RLL11",
                "RLL12",
                "RLL13",
                "RLL14",
                "RLL15",
                "RLL16",
                "RLL17",
                "RLL18",
                "RLL19",
                "RLL20",
                "RLL21",
                "RLL22",
                "RLL23",
                "RLL24",
                "RLL25",
                "RLL26",
                "RLL27",
                "RLL28",
                "RLL29",
                "RLL30",
                "RLL31",
                "RLL32",
                "RLL33",
                "RLL34",
                "RLL35",
                "RLL36",
                "RLL37",
                "RLL38",
                "RLL39",
                "RLL40",
                "RLL41",
                "RLL42",
                "RLL43",
                "RLL44",
                "RLL45",
                "RLL46",
                "RLL47",
                "RLL48",
                "RLL49",
                "RLL50",
                "RLL51",
                "RLL52",
                "RLL53",
                "RLL54",
                "RLL55",
                "RLL56",
                "RLL57",
                "RLL58",
                "RLL59",
                "RLL60",
                "RLL61",
                "RLL62",
                "RLL63",
                "RLL64",
                "RLL65",
                "RLL66",
                "RLL67",
                "RLL68",
                "RLL69",
                "RLL70",
                "RLL71",
                "RLL72",
                "RLL73",
                "RLL74",
                "RLL75",
                "RLL76",
                "RLL77",
                "RLL78",
                "RLL79",
                "RLL80",
                "RLL81",
                "RLL82",
                "RLL83",
                "RLL84",
                "RLL85",
                "RLL86",
                "RLL87",
                "RLL88",
                "RLL89",
                "RLL90",
                "RLL91",
                "RLL92",
                "RLL93",
                "RLL94",
                "RLL95",
                "RLL96",
                "RLL97",
                "RLL98",
                "RLL99",
                "RLW00",
                "RLW01",
                "RLW02",
                "RLW03",
                "RLW04",
                "RLW05",
                "RLW06",
                "RLW07",
                "RLW08",
                "RLW09",
                "RLW10",
                "RLW11",
                "RLW12",
                "RLW13",
                "RLW14",
                "RLW15",
                "RLW16",
                "RLW17",
                "RLW18"
            ]
        },
        "commission": {
            "AGENCY": {
                "1": [
                    0,
                    0,
                    0,
                    0,
                    0,
                    0,
                    0,
                    0,
                    0,
                    0,
                    0,
                    0
                ],
                "5": [
                    0.8665,
                    0.4564,
                    0.0501,
                    0.0501,
                    0.0501,
                    0,
                    0,
                    0,
                    0,
                    0,
                    0,
                    0
                ],
                "10": [
                    0.8665,
                    0.4564,
                    0.0501,
                    0.0501,
                    0.0501,
                    0.0501,
                    0,
                    0,
                    0,
                    0,
                    0,
                    0
                ],
                "15": [
                    1.1554,
                    0.6532,
                    0.0669,
                    0.0669,
                    0.0669,
                    0.0669,
                    0,
                    0,
                    0,
                    0,
                    0,
                    0
                ],
                "20": [
                    1.2998,
                    0.6679,
                    0.0836,
                    0.0836,
                    0.0836,
                    0.0836,
                    0,
                    0,
                    0,
                    0,
                    0,
                    0
                ],
                "25": [
                    1.2998,
                    0.6679,
                    0.0836,
                    0.0836,
                    0.0836,
                    0.0836,
                    0,
                    0,
                    0,
                    0,
                    0,
                    0
                ],
                "policyYear": [
                    1,
                    2,
                    3,
                    4,
                    5,
                    6,
                    7,
                    8,
                    9,
                    10,
                    11,
                    0
                ]
            },
            "BROKER": {
                "1": [
                    0,
                    0,
                    0,
                    0,
                    0,
                    0,
                    0,
                    0,
                    0,
                    0,
                    0
                ],
                "5": [
                    0.5162,
                    0.1661,
                    0.1107,
                    0.0332,
                    0.0332,
                    0,
                    0,
                    0,
                    0,
                    0,
                    0
                ],
                "10": [
                    0.5744,
                    0.1661,
                    0.1107,
                    0.0332,
                    0.0332,
                    0.0332,
                    0,
                    0,
                    0,
                    0,
                    0
                ],
                "15": [
                    0.8072,
                    0.3322,
                    0.1107,
                    0.0553,
                    0.0553,
                    0.0553,
                    0,
                    0,
                    0,
                    0,
                    0
                ],
                "20": [
                    0.8655,
                    0.3322,
                    0.1107,
                    0.0553,
                    0.0553,
                    0.0553,
                    0,
                    0,
                    0,
                    0,
                    0
                ],
                "25": [
                    0.9237,
                    0.3876,
                    0.1107,
                    0.0553,
                    0.0553,
                    0.0553,
                    0,
                    0,
                    0,
                    0,
                    0
                ],
                "policyYear": [
                    1,
                    2,
                    3,
                    4,
                    5,
                    6,
                    7,
                    8,
                    9,
                    10,
                    11
                ]
            },
            "DIRECT": {
                "1": [
                    0,
                    0,
                    0,
                    0,
                    0,
                    0,
                    0,
                    0,
                    0,
                    0,
                    0,
                    0
                ],
                "5": [
                    0.1122,
                    0.0346,
                    0.0231,
                    0.0115,
                    0.0115,
                    0,
                    0,
                    0,
                    0,
                    0,
                    0,
                    0
                ],
                "10": [
                    0.2693,
                    0.0924,
                    0.0346,
                    0.0231,
                    0.0231,
                    0.0231,
                    0,
                    0,
                    0,
                    0,
                    0,
                    0
                ],
                "15": [
                    0.4489,
                    0.1386,
                    0.0577,
                    0.0346,
                    0.0346,
                    0.0346,
                    0,
                    0,
                    0,
                    0,
                    0,
                    0
                ],
                "20": [
                    0.4489,
                    0.1386,
                    0.0577,
                    0.0346,
                    0.0346,
                    0.0346,
                    0,
                    0,
                    0,
                    0,
                    0,
                    0
                ],
                "25": [
                    0.4489,
                    0.1386,
                    0.0577,
                    0.0346,
                    0.0346,
                    0.0346,
                    0,
                    0,
                    0,
                    0,
                    0
                ],
                "policyYear": [
                    1,
                    2,
                    3,
                    4,
                    5,
                    6,
                    7,
                    8,
                    9,
                    10,
                    11,
                    0
                ]
            },
            "SINGPOST": {
                "1": [
                    0.0055,
                    0,
                    0,
                    0,
                    0,
                    0,
                    0,
                    0,
                    0,
                    0,
                    0,
                    0
                ],
                "5": [
                    0.3988,
                    0.0504,
                    0.0224,
                    0.0224,
                    0.0224,
                    0,
                    0,
                    0,
                    0,
                    0,
                    0,
                    0
                ],
                "10": [
                    0.4906,
                    0.1285,
                    0.0396,
                    0.0282,
                    0.0282,
                    0.0282,
                    0,
                    0,
                    0,
                    0,
                    0,
                    0
                ],
                "15": [
                    0.6103,
                    0.1741,
                    0.0679,
                    0.0452,
                    0.0452,
                    0.0452,
                    0,
                    0,
                    0,
                    0,
                    0,
                    0
                ],
                "20": [
                    0.6103,
                    0.1741,
                    0.0679,
                    0.0452,
                    0.0452,
                    0.0452,
                    0,
                    0,
                    0,
                    0,
                    0,
                    0
                ],
                "25": [
                    0.6103,
                    0.1741,
                    0.0679,
                    0.0452,
                    0.0452,
                    0.0452,
                    0,
                    0,
                    0,
                    0,
                    0,
                    0
                ],
                "policyYear": [
                    1,
                    2,
                    3,
                    4,
                    5,
                    6,
                    7,
                    8,
                    9,
                    10,
                    11,
                    0
                ]
            }
        }
    },
    "releaseDate": "2018-09-30 06:17:05",
    "remarks": {
        "en": "Remarks"
    },
    "saInput": [
        {
            "ccy": "SGD",
            "decimal": 2,
            "factor": 0
        }
    ],
    "saInputInd": "N",
    "saPostfix": {},
    "saRule": "na",
    "saScale": 0,
    "saViewInd": "N",
    "smokeInd": "*",
    "status": "A",
    "type": "product",
    "version": 1,
    "wholeLifeInd": "N"
}