{
    "allowBackdate": "N",
    "budgetRules": [
        "RP",
        "SP"
    ],
    "calcAgeMethod": "nearest",
    "classInd": "N",
    "compCode": "08",
    "covCode": "UNBN_NPE",
    "covName": {
        "en": "Premium Waiver (UN)",
        "zh-Hant": "Premium Waiver (UN)"
    },
    "ctyGroup": [
        "*"
    ],
    "currencies": [
        {
            "ccy": [
                "SGD"
            ],
            "country": "*"
        }
    ],
    "dealerGroup": [
        "AGENCY",
        "DIRECT",
        "SINGPOST",
        "BROKER",
        "FUSION",
        "SYNERGY"
    ],
    "effDate": "2016-08-23 16:00:00",
    "entryAge": [
        {
            "country": "*",
            "imaxAge": 45,
            "imaxAgeUnit": "nearestAge",
            "iminAge": 18,
            "iminAgeUnit": "year",
            "omaxAge": 0,
            "omaxAgeUnit": "na",
            "ominAge": 0,
            "ominAgeUnit": "na",
            "sameAsOwner": ""
        }
    ],
    "expDate": "2118-07-26 16:00:00",
    "formulas": {
        "calcQuotFunc": "function(quotation, planInfo, planDetails) { var planDetail = planDetails[planInfo.covCode]; var rates = planDetail.rates; var unRates = rates.PWUN_RATE; /*var sumAssuredUN = quotation.annualPremium;*/ var sumAssuredUN; if (quotation && quotation.plans && quotation.plans[0] && quotation.plans[0].calcBy === 'premium') { sumAssuredUN = quotation.annualPremiumBSA; } else { sumAssuredUN = quotation.annualPremium; } var premTrem = parseInt(quotation.plans[1].premTerm); var policyTerm = parseInt(quotation.plans[1].policyTerm); var ref=''; var plancode =''; if(policyTerm ===50){ ref = 'UNB50'+ quotation.iGender + quotation.iSmoke ; plancode = 'UNB50'; }else if(premTrem <10){ ref = '0'+premTrem + 'UNBN' + quotation.iGender + quotation.iSmoke ; plancode = '0'+premTrem + 'UNBN'; }else { var tempPremTerm = (premTrem == 30) ? 25 : premTrem; ref = tempPremTerm + 'UNBN' + quotation.iGender + quotation.iSmoke ; plancode = premTrem + 'UNBN'; } var getRate=function(ref,index,Rates){ var tempRates = Rates[ref]; if (tempRates === null){ return 0; } return tempRates[index]; }; var trunc = function(value, position) { if(!value) { return null; } if (!position) { position = 0; } var sign = value < 0 ? -1 : 1; var scale = math.pow(10, position); return math.multiply(sign, math.divide(math.floor(math.multiply(math.abs(value), scale)), scale)); }; function calculateRiderPremiumWaiverUN(curPlanInfo){ var unRate = getRate(ref,quotation.iAge,unRates); var temp = trunc(math.divide(math.multiply(math.bignumber(unRate),math.bignumber(sumAssuredUN)), math.bignumber(100)),2); /* Math.floor(unRate * sumAssuredUN * 100)/100; TRUNCATE to 2 decimal places*/ var annualPremium = temp; /** Update planInfo curPlanInfo.planCode = planCode;*/ curPlanInfo.sumAssured = sumAssuredUN; /** curPlanInfo.policyTerm = policyTerm; curPlanInfo.polTermDesc = polTermDesc; curPlanInfo.premTerm = premTerm; curPlanInfo.premTermDesc = premTerm + ' Years'; */ curPlanInfo.yearPrem = math.number(annualPremium); curPlanInfo.halfYearPrem = math.number(trunc(math.multiply(math.bignumber(annualPremium),math.bignumber(0.51)),2)); /** Math.floor(annualPremium * 0.51 * 100)/100;*/ curPlanInfo.quarterPrem = math.number(trunc(math.multiply(math.bignumber(annualPremium),math.bignumber(0.26)),2)); /**Math.floor(annualPremium * 0.26 * 100)/100;*/ curPlanInfo.monthPrem = math.number(trunc(math.multiply(math.bignumber(annualPremium),math.bignumber(0.0875)),2)); /**Math.floor(annualPremium * 0.0875 * 100)/100;*/ quotation.totYearPrem += curPlanInfo.yearPrem; quotation.totHalfyearPrem += curPlanInfo.halfYearPrem; quotation.totQuarterPrem += curPlanInfo.quarterPrem; quotation.totMonthPrem += curPlanInfo.monthPrem; switch (quotation.paymentMode){ case 'A': { curPlanInfo.premium = curPlanInfo.yearPrem; quotation.premium += curPlanInfo.yearPrem; break;} case 'S': { curPlanInfo.premium = curPlanInfo.halfYearPrem; quotation.premium += curPlanInfo.halfYearPrem; break;} case 'Q': { curPlanInfo.premium = curPlanInfo.quarterPrem; quotation.premium += curPlanInfo.quarterPrem; break;} case 'M': { curPlanInfo.premium = curPlanInfo.monthPrem; quotation.premium += curPlanInfo.monthPrem; break;} default: { curPlanInfo.premium = curPlanInfo.yearPrem; quotation.premium += curPlanInfo.yearPrem; break;} } curPlanInfo.planCode=plancode; } calculateRiderPremiumWaiverUN(planInfo); }",
        "illustrateFunc": "function(quotation, planInfo, planDetails, extraPara) {var planDetail = planDetails[planInfo.covCode];var rates = planDetail.rates;var dealerGroup = quotation.agent.dealerGroup;var payoutTerm = parseInt(quotation.policyOptions.payoutTerm);var getChannel = function() { var mappedChannel = dealerGroup; if (dealerGroup === 'SYNERGY') { mappedChannel = 'AGENCY'; } else if (dealerGroup === 'FUSION') { mappedChannel = 'BROKER'; } else if (dealerGroup === 'DIRECT') { mappedChannel = 'DIRECT'; } else if (dealerGroup === 'SINGPOST') { mappedChannel = 'SINGPOST'; } return mappedChannel;};var trunc = function(value, position) { if(!value) { return null; } if (!position) { position = 0; } var sign = value < 0 ? -1 : 1; var scale = math.pow(10, position); return math.multiply(sign, math.divide(math.floor(math.multiply(math.abs(value), scale)), scale)); };var convertBignumberToReadable = function(data) { for (var row in data) { for (var col in data[row]) { if (typeof(data[row][col]) !== 'string') { data[row][col] = math.number(data[row][col]); } } }};var channel = getChannel();var MAX_POLICY_YEAR = 100;var commissionTable = rates.commission[channel];var calcIllustration = function(illustration) { var sustainTestResult = true; var rawData = []; var defaultRawData = { policyYear: 0, accumPremium: math.bignumber(0), tdc: math.bignumber(0) }; rawData.push(Object.assign({}, defaultRawData)); for (var year = 1; year <= MAX_POLICY_YEAR; year ++) { var currData = Object.assign({}, defaultRawData); var prevData = rawData[year - 1]; currData.policyYear = year; var currPrem = math.bignumber(year <= planInfo.premTerm ? planInfo.yearPrem : 0); currData.accumPremium = math.add(currPrem, prevData.accumPremium); var commissionPolicyYrIndex = commissionTable.policyYear.indexOf(year); if (commissionPolicyYrIndex < 0) { commissionPolicyYrIndex = commissionTable.policyYear.length - 1; } var commissionPermTermIndex = 0; var commissionTableKeys = Object.keys(commissionTable); for (var i = 0; i < commissionTableKeys.length; i ++) { var key = commissionTableKeys[i]; if (key !== 'policyYear') { var commissionPremTerm = parseInt(key); if (planInfo.premTerm >= commissionPremTerm) { commissionPermTermIndex = i; } } } var commissionKey = commissionTableKeys[commissionPermTermIndex]; var comm = math.bignumber(commissionTable[commissionKey][commissionPolicyYrIndex]); var currTdc = math.bignumber(year <= planInfo.premTerm ? math.multiply(comm, planInfo.yearPrem) : 0); currData.tdc = math.add(trunc(currTdc, 2), prevData.tdc); var illData = illustration[year - 1]; illData.policyYear = currData.policyYear; illData.accumPremium = currData.accumPremium; illData.tdc = currData.tdc; rawData.push(currData); } convertBignumberToReadable(rawData); return sustainTestResult;};var illustration = [];var illustrationData = { policyYear: 0, accumPremium: 0, tdc: 0};for (var y = 0; y < MAX_POLICY_YEAR; y ++) { illustration.push(Object.assign({}, JSON.parse(JSON.stringify(illustrationData))));}calcIllustration(illustration);return illustration;}",
        "polTermsFunc": "function(planDetail, quotation) {/*polTermUNNPE*/ var policyTermList = []; if (quotation.plans[0].premTerm === undefined){ return null; } var premiumTerm = quotation.plans[0].premTerm; var testAge = 50 - premiumTerm; var policyTerm = 0; var polTermDesc = ''; if(premiumTerm === 30){ if(quotation.iAge <= 25){ policyTerm = 25; polTermDesc = policyTerm + ' Years'; }else{ policyTerm = 50; polTermDesc = 'To Age 50'; } }else if (quotation.iAge <= testAge){ policyTerm = premiumTerm; polTermDesc = policyTerm + ' Years'; }else if (quotation.iAge > testAge){ policyTerm = 50; polTermDesc = 'To Age 50'; } policyTermList.push({ value: policyTerm, title: polTermDesc, default: true }); quotation.plans[1].policyTerm = policyTerm; return policyTermList;}",
        "premFunc": "",
        "premTermsFunc": "function(planDetail, quotation) {/*UNNPEpremTermsFunc*/ var premTermsList = []; if (quotation.plans[0].premTerm === undefined){ return null; } var premiumTerm = quotation.plans[0].premTerm; var testAge = 50 - premiumTerm; var policyTerm = 0; if(premiumTerm === 30){ if(quotation.iAge <= 25){ policyTerm = 25; }else{ policyTerm = 50; } }else if (quotation.iAge <= testAge){ policyTerm = premiumTerm; }else if (quotation.iAge > testAge){ policyTerm = 50; } var riderpremTerm = 0; if(policyTerm===50){ riderpremTerm = 50-quotation.iAge; }else{ riderpremTerm = policyTerm; } premTermsList.push({ value: riderpremTerm, title: riderpremTerm + ' Years', default: true }); quotation.plans[1].premTerm = riderpremTerm; return premTermsList;}",
        "prepareClassConfig": "",
        "prepareSAPremConfig": "",
        "prepareTermConfig": "",
        "saFunc": "",
        "validAfterCalcFunc": "",
        "validBeforeCalcFunc": "",
        "validQuotFunc": "",
        "willValidQuotFunc": ""
    },
    "genderInd": "*",
    "othSaInd": "N",
    "payModes": [
        {
            "covMonth": 12,
            "default": "",
            "factor": 1,
            "mode": "A",
            "operator": "M"
        },
        {
            "covMonth": 6,
            "default": "",
            "factor": 0.51,
            "mode": "S",
            "operator": "M"
        },
        {
            "covMonth": 3,
            "default": "",
            "factor": 0.26,
            "mode": "Q",
            "operator": "M"
        },
        {
            "covMonth": 1,
            "default": "",
            "factor": 0.0875,
            "mode": "M",
            "operator": "M"
        }
    ],
    "planInd": "R",
    "polMatSameAsPremMat": "N",
    "polMaturities": [],
    "polTermInd": "N",
    "polTermRule": "na",
    "policyMatSameAsBasic": "N",
    "premInput": [
        {
            "ccy": "SGD",
            "decimal": 2,
            "factor": 0
        }
    ],
    "premInputInd": "N",
    "premMatSameAsBasic": "N",
    "premMatSameAsPolMat": "N",
    "premMaturities": [],
    "premPostfix": {},
    "premTermInd": "N",
    "premTermRule": "na",
    "premType": "L",
    "prodFeature": {},
    "prod_summary": 941168,
    "prod_summary_1": 941168,
    "productCategory": "protectionOnly",
    "productLine": "CIT",
    "rates": {
        "PWUN_RATE": {
            "05UNBNFN": [
                0,
                0,
                0,
                0,
                0,
                0,
                0,
                0,
                0,
                0,
                0,
                0,
                0,
                0,
                0,
                0,
                0,
                0,
                0.24,
                0.24,
                0.25,
                0.32,
                0.38,
                0.43,
                0.48,
                0.53,
                0.57,
                0.62,
                0.65,
                0.69,
                0.73,
                0.77,
                0.81,
                0.85,
                0.89,
                0.93,
                0.98,
                1.03,
                1.08,
                1.13,
                1.18,
                1.27,
                1.36,
                1.44,
                1.53,
                1.62,
                1.3,
                0.98,
                0.65,
                0.33,
                0,
                0,
                0,
                0,
                0,
                0,
                0,
                0,
                0,
                0,
                0,
                0,
                0,
                0,
                0,
                0,
                0,
                0,
                0,
                0,
                0,
                0,
                0,
                0,
                0,
                0,
                0,
                0,
                0,
                0,
                0,
                0,
                0,
                0,
                0,
                0,
                0,
                0,
                0,
                0,
                0,
                0,
                0,
                0,
                0,
                0,
                0,
                0,
                0,
                0,
                0,
                0,
                0,
                0,
                0,
                0,
                0,
                0,
                0,
                0,
                0,
                0,
                0,
                0,
                0,
                0,
                0,
                0,
                0
            ],
            "05UNBNFY": [
                0,
                0,
                0,
                0,
                0,
                0,
                0,
                0,
                0,
                0,
                0,
                0,
                0,
                0,
                0,
                0,
                0,
                0,
                0.24,
                0.24,
                0.25,
                0.32,
                0.38,
                0.43,
                0.48,
                0.53,
                0.57,
                0.62,
                0.65,
                0.69,
                0.73,
                0.77,
                0.81,
                0.85,
                0.89,
                0.93,
                0.98,
                1.03,
                1.08,
                1.13,
                1.18,
                1.27,
                1.36,
                1.44,
                1.53,
                1.62,
                1.3,
                0.98,
                0.65,
                0.33,
                0,
                0,
                0,
                0,
                0,
                0,
                0,
                0,
                0,
                0,
                0,
                0,
                0,
                0,
                0,
                0,
                0,
                0,
                0,
                0,
                0,
                0,
                0,
                0,
                0,
                0,
                0,
                0,
                0,
                0,
                0,
                0,
                0,
                0,
                0,
                0,
                0,
                0,
                0,
                0,
                0,
                0,
                0,
                0,
                0,
                0,
                0,
                0,
                0,
                0,
                0,
                0,
                0,
                0,
                0,
                0,
                0,
                0,
                0,
                0,
                0,
                0,
                0,
                0,
                0,
                0,
                0,
                0,
                0
            ],
            "05UNBNMN": [
                0,
                0,
                0,
                0,
                0,
                0,
                0,
                0,
                0,
                0,
                0,
                0,
                0,
                0,
                0,
                0,
                0,
                0,
                0.24,
                0.24,
                0.25,
                0.32,
                0.38,
                0.43,
                0.48,
                0.53,
                0.57,
                0.62,
                0.65,
                0.69,
                0.73,
                0.77,
                0.81,
                0.85,
                0.89,
                0.93,
                0.98,
                1.03,
                1.08,
                1.13,
                1.18,
                1.27,
                1.36,
                1.44,
                1.53,
                1.62,
                1.3,
                0.98,
                0.65,
                0.33,
                0,
                0,
                0,
                0,
                0,
                0,
                0,
                0,
                0,
                0,
                0,
                0,
                0,
                0,
                0,
                0,
                0,
                0,
                0,
                0,
                0,
                0,
                0,
                0,
                0,
                0,
                0,
                0,
                0,
                0,
                0,
                0,
                0,
                0,
                0,
                0,
                0,
                0,
                0,
                0,
                0,
                0,
                0,
                0,
                0,
                0,
                0,
                0,
                0,
                0,
                0,
                0,
                0,
                0,
                0,
                0,
                0,
                0,
                0,
                0,
                0,
                0,
                0,
                0,
                0,
                0,
                0,
                0,
                0
            ],
            "05UNBNMY": [
                0,
                0,
                0,
                0,
                0,
                0,
                0,
                0,
                0,
                0,
                0,
                0,
                0,
                0,
                0,
                0,
                0,
                0,
                0.24,
                0.24,
                0.25,
                0.32,
                0.38,
                0.43,
                0.48,
                0.53,
                0.57,
                0.62,
                0.65,
                0.69,
                0.73,
                0.77,
                0.81,
                0.85,
                0.89,
                0.93,
                0.98,
                1.03,
                1.08,
                1.13,
                1.18,
                1.27,
                1.36,
                1.44,
                1.53,
                1.62,
                1.3,
                0.98,
                0.65,
                0.33,
                0,
                0,
                0,
                0,
                0,
                0,
                0,
                0,
                0,
                0,
                0,
                0,
                0,
                0,
                0,
                0,
                0,
                0,
                0,
                0,
                0,
                0,
                0,
                0,
                0,
                0,
                0,
                0,
                0,
                0,
                0,
                0,
                0,
                0,
                0,
                0,
                0,
                0,
                0,
                0,
                0,
                0,
                0,
                0,
                0,
                0,
                0,
                0,
                0,
                0,
                0,
                0,
                0,
                0,
                0,
                0,
                0,
                0,
                0,
                0,
                0,
                0,
                0,
                0,
                0,
                0,
                0,
                0,
                0
            ],
            "10UNBNFN": [
                0,
                0,
                0,
                0,
                0,
                0,
                0,
                0,
                0,
                0,
                0,
                0,
                0,
                0,
                0,
                0,
                0,
                0,
                0.24,
                0.25,
                0.27,
                0.33,
                0.38,
                0.43,
                0.49,
                0.54,
                0.59,
                0.63,
                0.67,
                0.71,
                0.75,
                0.8,
                0.85,
                0.89,
                0.94,
                0.98,
                1.03,
                1.08,
                1.13,
                1.18,
                1.23,
                1.31,
                1.38,
                1.47,
                1.54,
                1.62,
                1.3,
                0.98,
                0.65,
                0.33,
                0,
                0,
                0,
                0,
                0,
                0,
                0,
                0,
                0,
                0,
                0,
                0,
                0,
                0,
                0,
                0,
                0,
                0,
                0,
                0,
                0,
                0,
                0,
                0,
                0,
                0,
                0,
                0,
                0,
                0,
                0,
                0,
                0,
                0,
                0,
                0,
                0,
                0,
                0,
                0,
                0,
                0,
                0,
                0,
                0,
                0,
                0,
                0,
                0,
                0,
                0,
                0,
                0,
                0,
                0,
                0,
                0,
                0,
                0,
                0,
                0,
                0,
                0,
                0,
                0,
                0,
                0,
                0,
                0
            ],
            "10UNBNFY": [
                0,
                0,
                0,
                0,
                0,
                0,
                0,
                0,
                0,
                0,
                0,
                0,
                0,
                0,
                0,
                0,
                0,
                0,
                0.24,
                0.25,
                0.27,
                0.33,
                0.38,
                0.43,
                0.49,
                0.54,
                0.59,
                0.63,
                0.67,
                0.71,
                0.75,
                0.8,
                0.85,
                0.89,
                0.94,
                0.98,
                1.03,
                1.08,
                1.13,
                1.18,
                1.23,
                1.31,
                1.38,
                1.47,
                1.54,
                1.62,
                1.3,
                0.98,
                0.65,
                0.33,
                0,
                0,
                0,
                0,
                0,
                0,
                0,
                0,
                0,
                0,
                0,
                0,
                0,
                0,
                0,
                0,
                0,
                0,
                0,
                0,
                0,
                0,
                0,
                0,
                0,
                0,
                0,
                0,
                0,
                0,
                0,
                0,
                0,
                0,
                0,
                0,
                0,
                0,
                0,
                0,
                0,
                0,
                0,
                0,
                0,
                0,
                0,
                0,
                0,
                0,
                0,
                0,
                0,
                0,
                0,
                0,
                0,
                0,
                0,
                0,
                0,
                0,
                0,
                0,
                0,
                0,
                0,
                0,
                0
            ],
            "10UNBNMN": [
                0,
                0,
                0,
                0,
                0,
                0,
                0,
                0,
                0,
                0,
                0,
                0,
                0,
                0,
                0,
                0,
                0,
                0,
                0.24,
                0.25,
                0.27,
                0.33,
                0.38,
                0.43,
                0.49,
                0.54,
                0.59,
                0.63,
                0.67,
                0.71,
                0.75,
                0.8,
                0.85,
                0.89,
                0.94,
                0.98,
                1.03,
                1.08,
                1.13,
                1.18,
                1.23,
                1.31,
                1.38,
                1.47,
                1.54,
                1.62,
                1.3,
                0.98,
                0.65,
                0.33,
                0,
                0,
                0,
                0,
                0,
                0,
                0,
                0,
                0,
                0,
                0,
                0,
                0,
                0,
                0,
                0,
                0,
                0,
                0,
                0,
                0,
                0,
                0,
                0,
                0,
                0,
                0,
                0,
                0,
                0,
                0,
                0,
                0,
                0,
                0,
                0,
                0,
                0,
                0,
                0,
                0,
                0,
                0,
                0,
                0,
                0,
                0,
                0,
                0,
                0,
                0,
                0,
                0,
                0,
                0,
                0,
                0,
                0,
                0,
                0,
                0,
                0,
                0,
                0,
                0,
                0,
                0,
                0,
                0
            ],
            "10UNBNMY": [
                0,
                0,
                0,
                0,
                0,
                0,
                0,
                0,
                0,
                0,
                0,
                0,
                0,
                0,
                0,
                0,
                0,
                0,
                0.24,
                0.25,
                0.27,
                0.33,
                0.38,
                0.43,
                0.49,
                0.54,
                0.59,
                0.63,
                0.67,
                0.71,
                0.75,
                0.8,
                0.85,
                0.89,
                0.94,
                0.98,
                1.03,
                1.08,
                1.13,
                1.18,
                1.23,
                1.31,
                1.38,
                1.47,
                1.54,
                1.62,
                1.3,
                0.98,
                0.65,
                0.33,
                0,
                0,
                0,
                0,
                0,
                0,
                0,
                0,
                0,
                0,
                0,
                0,
                0,
                0,
                0,
                0,
                0,
                0,
                0,
                0,
                0,
                0,
                0,
                0,
                0,
                0,
                0,
                0,
                0,
                0,
                0,
                0,
                0,
                0,
                0,
                0,
                0,
                0,
                0,
                0,
                0,
                0,
                0,
                0,
                0,
                0,
                0,
                0,
                0,
                0,
                0,
                0,
                0,
                0,
                0,
                0,
                0,
                0,
                0,
                0,
                0,
                0,
                0,
                0,
                0,
                0,
                0,
                0,
                0
            ],
            "15UNBNFN": [
                0,
                0,
                0,
                0,
                0,
                0,
                0,
                0,
                0,
                0,
                0,
                0,
                0,
                0,
                0,
                0,
                0,
                0,
                0.27,
                0.29,
                0.3,
                0.35,
                0.4,
                0.45,
                0.5,
                0.55,
                0.6,
                0.64,
                0.69,
                0.73,
                0.77,
                0.82,
                0.87,
                0.91,
                0.96,
                0.99,
                1.04,
                1.09,
                1.14,
                1.18,
                1.23,
                1.31,
                1.38,
                1.47,
                1.54,
                1.62,
                1.3,
                0.98,
                0.65,
                0.33,
                0,
                0,
                0,
                0,
                0,
                0,
                0,
                0,
                0,
                0,
                0,
                0,
                0,
                0,
                0,
                0,
                0,
                0,
                0,
                0,
                0,
                0,
                0,
                0,
                0,
                0,
                0,
                0,
                0,
                0,
                0,
                0,
                0,
                0,
                0,
                0,
                0,
                0,
                0,
                0,
                0,
                0,
                0,
                0,
                0,
                0,
                0,
                0,
                0,
                0,
                0,
                0,
                0,
                0,
                0,
                0,
                0,
                0,
                0,
                0,
                0,
                0,
                0,
                0,
                0,
                0,
                0,
                0,
                0
            ],
            "15UNBNFY": [
                0,
                0,
                0,
                0,
                0,
                0,
                0,
                0,
                0,
                0,
                0,
                0,
                0,
                0,
                0,
                0,
                0,
                0,
                0.27,
                0.29,
                0.3,
                0.35,
                0.4,
                0.45,
                0.5,
                0.55,
                0.6,
                0.64,
                0.69,
                0.73,
                0.77,
                0.82,
                0.87,
                0.91,
                0.96,
                0.99,
                1.04,
                1.09,
                1.14,
                1.18,
                1.23,
                1.31,
                1.38,
                1.47,
                1.54,
                1.62,
                1.3,
                0.98,
                0.65,
                0.33,
                0,
                0,
                0,
                0,
                0,
                0,
                0,
                0,
                0,
                0,
                0,
                0,
                0,
                0,
                0,
                0,
                0,
                0,
                0,
                0,
                0,
                0,
                0,
                0,
                0,
                0,
                0,
                0,
                0,
                0,
                0,
                0,
                0,
                0,
                0,
                0,
                0,
                0,
                0,
                0,
                0,
                0,
                0,
                0,
                0,
                0,
                0,
                0,
                0,
                0,
                0,
                0,
                0,
                0,
                0,
                0,
                0,
                0,
                0,
                0,
                0,
                0,
                0,
                0,
                0,
                0,
                0,
                0,
                0
            ],
            "15UNBNMN": [
                0,
                0,
                0,
                0,
                0,
                0,
                0,
                0,
                0,
                0,
                0,
                0,
                0,
                0,
                0,
                0,
                0,
                0,
                0.27,
                0.29,
                0.3,
                0.35,
                0.4,
                0.45,
                0.5,
                0.55,
                0.6,
                0.64,
                0.69,
                0.73,
                0.77,
                0.82,
                0.87,
                0.91,
                0.96,
                0.99,
                1.04,
                1.09,
                1.14,
                1.18,
                1.23,
                1.31,
                1.38,
                1.47,
                1.54,
                1.62,
                1.3,
                0.98,
                0.65,
                0.33,
                0,
                0,
                0,
                0,
                0,
                0,
                0,
                0,
                0,
                0,
                0,
                0,
                0,
                0,
                0,
                0,
                0,
                0,
                0,
                0,
                0,
                0,
                0,
                0,
                0,
                0,
                0,
                0,
                0,
                0,
                0,
                0,
                0,
                0,
                0,
                0,
                0,
                0,
                0,
                0,
                0,
                0,
                0,
                0,
                0,
                0,
                0,
                0,
                0,
                0,
                0,
                0,
                0,
                0,
                0,
                0,
                0,
                0,
                0,
                0,
                0,
                0,
                0,
                0,
                0,
                0,
                0,
                0,
                0
            ],
            "15UNBNMY": [
                0,
                0,
                0,
                0,
                0,
                0,
                0,
                0,
                0,
                0,
                0,
                0,
                0,
                0,
                0,
                0,
                0,
                0,
                0.27,
                0.29,
                0.3,
                0.35,
                0.4,
                0.45,
                0.5,
                0.55,
                0.6,
                0.64,
                0.69,
                0.73,
                0.77,
                0.82,
                0.87,
                0.91,
                0.96,
                0.99,
                1.04,
                1.09,
                1.14,
                1.18,
                1.23,
                1.31,
                1.38,
                1.47,
                1.54,
                1.62,
                1.3,
                0.98,
                0.65,
                0.33,
                0,
                0,
                0,
                0,
                0,
                0,
                0,
                0,
                0,
                0,
                0,
                0,
                0,
                0,
                0,
                0,
                0,
                0,
                0,
                0,
                0,
                0,
                0,
                0,
                0,
                0,
                0,
                0,
                0,
                0,
                0,
                0,
                0,
                0,
                0,
                0,
                0,
                0,
                0,
                0,
                0,
                0,
                0,
                0,
                0,
                0,
                0,
                0,
                0,
                0,
                0,
                0,
                0,
                0,
                0,
                0,
                0,
                0,
                0,
                0,
                0,
                0,
                0,
                0,
                0,
                0,
                0,
                0,
                0
            ],
            "20UNBNFN": [
                0,
                0,
                0,
                0,
                0,
                0,
                0,
                0,
                0,
                0,
                0,
                0,
                0,
                0,
                0,
                0,
                0,
                0,
                0.3,
                0.33,
                0.37,
                0.4,
                0.44,
                0.48,
                0.52,
                0.57,
                0.62,
                0.65,
                0.7,
                0.74,
                0.78,
                0.83,
                0.87,
                0.92,
                0.96,
                0.99,
                1.04,
                1.09,
                1.14,
                1.18,
                1.23,
                1.31,
                1.38,
                1.47,
                1.54,
                1.62,
                1.3,
                0.98,
                0.65,
                0.33,
                0,
                0,
                0,
                0,
                0,
                0,
                0,
                0,
                0,
                0,
                0,
                0,
                0,
                0,
                0,
                0,
                0,
                0,
                0,
                0,
                0,
                0,
                0,
                0,
                0,
                0,
                0,
                0,
                0,
                0,
                0,
                0,
                0,
                0,
                0,
                0,
                0,
                0,
                0,
                0,
                0,
                0,
                0,
                0,
                0,
                0,
                0,
                0,
                0,
                0,
                0,
                0,
                0,
                0,
                0,
                0,
                0,
                0,
                0,
                0,
                0,
                0,
                0,
                0,
                0,
                0,
                0,
                0,
                0
            ],
            "20UNBNFY": [
                0,
                0,
                0,
                0,
                0,
                0,
                0,
                0,
                0,
                0,
                0,
                0,
                0,
                0,
                0,
                0,
                0,
                0,
                0.3,
                0.33,
                0.37,
                0.4,
                0.44,
                0.48,
                0.52,
                0.57,
                0.62,
                0.65,
                0.7,
                0.74,
                0.78,
                0.83,
                0.87,
                0.92,
                0.96,
                0.99,
                1.04,
                1.09,
                1.14,
                1.18,
                1.23,
                1.31,
                1.38,
                1.47,
                1.54,
                1.62,
                1.3,
                0.98,
                0.65,
                0.33,
                0,
                0,
                0,
                0,
                0,
                0,
                0,
                0,
                0,
                0,
                0,
                0,
                0,
                0,
                0,
                0,
                0,
                0,
                0,
                0,
                0,
                0,
                0,
                0,
                0,
                0,
                0,
                0,
                0,
                0,
                0,
                0,
                0,
                0,
                0,
                0,
                0,
                0,
                0,
                0,
                0,
                0,
                0,
                0,
                0,
                0,
                0,
                0,
                0,
                0,
                0,
                0,
                0,
                0,
                0,
                0,
                0,
                0,
                0,
                0,
                0,
                0,
                0,
                0,
                0,
                0,
                0,
                0,
                0
            ],
            "20UNBNMN": [
                0,
                0,
                0,
                0,
                0,
                0,
                0,
                0,
                0,
                0,
                0,
                0,
                0,
                0,
                0,
                0,
                0,
                0,
                0.3,
                0.33,
                0.37,
                0.4,
                0.44,
                0.48,
                0.52,
                0.57,
                0.62,
                0.65,
                0.7,
                0.74,
                0.78,
                0.83,
                0.87,
                0.92,
                0.96,
                0.99,
                1.04,
                1.09,
                1.14,
                1.18,
                1.23,
                1.31,
                1.38,
                1.47,
                1.54,
                1.62,
                1.3,
                0.98,
                0.65,
                0.33,
                0,
                0,
                0,
                0,
                0,
                0,
                0,
                0,
                0,
                0,
                0,
                0,
                0,
                0,
                0,
                0,
                0,
                0,
                0,
                0,
                0,
                0,
                0,
                0,
                0,
                0,
                0,
                0,
                0,
                0,
                0,
                0,
                0,
                0,
                0,
                0,
                0,
                0,
                0,
                0,
                0,
                0,
                0,
                0,
                0,
                0,
                0,
                0,
                0,
                0,
                0,
                0,
                0,
                0,
                0,
                0,
                0,
                0,
                0,
                0,
                0,
                0,
                0,
                0,
                0,
                0,
                0,
                0,
                0
            ],
            "20UNBNMY": [
                0,
                0,
                0,
                0,
                0,
                0,
                0,
                0,
                0,
                0,
                0,
                0,
                0,
                0,
                0,
                0,
                0,
                0,
                0.3,
                0.33,
                0.37,
                0.4,
                0.44,
                0.48,
                0.52,
                0.57,
                0.62,
                0.65,
                0.7,
                0.74,
                0.78,
                0.83,
                0.87,
                0.92,
                0.96,
                0.99,
                1.04,
                1.09,
                1.14,
                1.18,
                1.23,
                1.31,
                1.38,
                1.47,
                1.54,
                1.62,
                1.3,
                0.98,
                0.65,
                0.33,
                0,
                0,
                0,
                0,
                0,
                0,
                0,
                0,
                0,
                0,
                0,
                0,
                0,
                0,
                0,
                0,
                0,
                0,
                0,
                0,
                0,
                0,
                0,
                0,
                0,
                0,
                0,
                0,
                0,
                0,
                0,
                0,
                0,
                0,
                0,
                0,
                0,
                0,
                0,
                0,
                0,
                0,
                0,
                0,
                0,
                0,
                0,
                0,
                0,
                0,
                0,
                0,
                0,
                0,
                0,
                0,
                0,
                0,
                0,
                0,
                0,
                0,
                0,
                0,
                0,
                0,
                0,
                0,
                0
            ],
            "25UNBNFN": [
                0,
                0,
                0,
                0,
                0,
                0,
                0,
                0,
                0,
                0,
                0,
                0,
                0,
                0,
                0,
                0,
                0,
                0,
                0.35,
                0.38,
                0.42,
                0.45,
                0.48,
                0.52,
                0.55,
                0.58,
                0.62,
                0.66,
                0.7,
                0.74,
                0.78,
                0.83,
                0.87,
                0.92,
                0.96,
                0.99,
                1.04,
                1.09,
                1.14,
                1.18,
                1.23,
                1.31,
                1.38,
                1.47,
                1.54,
                1.62,
                1.3,
                0.98,
                0.65,
                0.33,
                0,
                0,
                0,
                0,
                0,
                0,
                0,
                0,
                0,
                0,
                0,
                0,
                0,
                0,
                0,
                0,
                0,
                0,
                0,
                0,
                0,
                0,
                0,
                0,
                0,
                0,
                0,
                0,
                0,
                0,
                0,
                0,
                0,
                0,
                0,
                0,
                0,
                0,
                0,
                0,
                0,
                0,
                0,
                0,
                0,
                0,
                0,
                0,
                0,
                0,
                0,
                0,
                0,
                0,
                0,
                0,
                0,
                0,
                0,
                0,
                0,
                0,
                0,
                0,
                0,
                0,
                0,
                0,
                0
            ],
            "25UNBNFY": [
                0,
                0,
                0,
                0,
                0,
                0,
                0,
                0,
                0,
                0,
                0,
                0,
                0,
                0,
                0,
                0,
                0,
                0,
                0.35,
                0.38,
                0.42,
                0.45,
                0.48,
                0.52,
                0.55,
                0.58,
                0.62,
                0.66,
                0.7,
                0.74,
                0.78,
                0.83,
                0.87,
                0.92,
                0.96,
                0.99,
                1.04,
                1.09,
                1.14,
                1.18,
                1.23,
                1.31,
                1.38,
                1.47,
                1.54,
                1.62,
                1.3,
                0.98,
                0.65,
                0.33,
                0,
                0,
                0,
                0,
                0,
                0,
                0,
                0,
                0,
                0,
                0,
                0,
                0,
                0,
                0,
                0,
                0,
                0,
                0,
                0,
                0,
                0,
                0,
                0,
                0,
                0,
                0,
                0,
                0,
                0,
                0,
                0,
                0,
                0,
                0,
                0,
                0,
                0,
                0,
                0,
                0,
                0,
                0,
                0,
                0,
                0,
                0,
                0,
                0,
                0,
                0,
                0,
                0,
                0,
                0,
                0,
                0,
                0,
                0,
                0,
                0,
                0,
                0,
                0,
                0,
                0,
                0,
                0,
                0
            ],
            "25UNBNMN": [
                0,
                0,
                0,
                0,
                0,
                0,
                0,
                0,
                0,
                0,
                0,
                0,
                0,
                0,
                0,
                0,
                0,
                0,
                0.35,
                0.38,
                0.42,
                0.45,
                0.48,
                0.52,
                0.55,
                0.58,
                0.62,
                0.66,
                0.7,
                0.74,
                0.78,
                0.83,
                0.87,
                0.92,
                0.96,
                0.99,
                1.04,
                1.09,
                1.14,
                1.18,
                1.23,
                1.31,
                1.38,
                1.47,
                1.54,
                1.62,
                1.3,
                0.98,
                0.65,
                0.33,
                0,
                0,
                0,
                0,
                0,
                0,
                0,
                0,
                0,
                0,
                0,
                0,
                0,
                0,
                0,
                0,
                0,
                0,
                0,
                0,
                0,
                0,
                0,
                0,
                0,
                0,
                0,
                0,
                0,
                0,
                0,
                0,
                0,
                0,
                0,
                0,
                0,
                0,
                0,
                0,
                0,
                0,
                0,
                0,
                0,
                0,
                0,
                0,
                0,
                0,
                0,
                0,
                0,
                0,
                0,
                0,
                0,
                0,
                0,
                0,
                0,
                0,
                0,
                0,
                0,
                0,
                0,
                0,
                0
            ],
            "25UNBNMY": [
                0,
                0,
                0,
                0,
                0,
                0,
                0,
                0,
                0,
                0,
                0,
                0,
                0,
                0,
                0,
                0,
                0,
                0,
                0.35,
                0.38,
                0.42,
                0.45,
                0.48,
                0.52,
                0.55,
                0.58,
                0.62,
                0.66,
                0.7,
                0.74,
                0.78,
                0.83,
                0.87,
                0.92,
                0.96,
                0.99,
                1.04,
                1.09,
                1.14,
                1.18,
                1.23,
                1.31,
                1.38,
                1.47,
                1.54,
                1.62,
                1.3,
                0.98,
                0.65,
                0.33,
                0,
                0,
                0,
                0,
                0,
                0,
                0,
                0,
                0,
                0,
                0,
                0,
                0,
                0,
                0,
                0,
                0,
                0,
                0,
                0,
                0,
                0,
                0,
                0,
                0,
                0,
                0,
                0,
                0,
                0,
                0,
                0,
                0,
                0,
                0,
                0,
                0,
                0,
                0,
                0,
                0,
                0,
                0,
                0,
                0,
                0,
                0,
                0,
                0,
                0,
                0,
                0,
                0,
                0,
                0,
                0,
                0,
                0,
                0,
                0,
                0,
                0,
                0,
                0,
                0,
                0,
                0,
                0,
                0
            ],
            "Reference": [
                "RLL00",
                "RLL01",
                "RLL02",
                "RLL03",
                "RLL04",
                "RLL05",
                "RLL06",
                "RLL07",
                "RLL08",
                "RLL09",
                "RLL10",
                "RLL11",
                "RLL12",
                "RLL13",
                "RLL14",
                "RLL15",
                "RLL16",
                "RLL17",
                "RLL18",
                "RLL19",
                "RLL20",
                "RLL21",
                "RLL22",
                "RLL23",
                "RLL24",
                "RLL25",
                "RLL26",
                "RLL27",
                "RLL28",
                "RLL29",
                "RLL30",
                "RLL31",
                "RLL32",
                "RLL33",
                "RLL34",
                "RLL35",
                "RLL36",
                "RLL37",
                "RLL38",
                "RLL39",
                "RLL40",
                "RLL41",
                "RLL42",
                "RLL43",
                "RLL44",
                "RLL45",
                "RLL46",
                "RLL47",
                "RLL48",
                "RLL49",
                "RLL50",
                "RLL51",
                "RLL52",
                "RLL53",
                "RLL54",
                "RLL55",
                "RLL56",
                "RLL57",
                "RLL58",
                "RLL59",
                "RLL60",
                "RLL61",
                "RLL62",
                "RLL63",
                "RLL64",
                "RLL65",
                "RLL66",
                "RLL67",
                "RLL68",
                "RLL69",
                "RLL70",
                "RLL71",
                "RLL72",
                "RLL73",
                "RLL74",
                "RLL75",
                "RLL76",
                "RLL77",
                "RLL78",
                "RLL79",
                "RLL80",
                "RLL81",
                "RLL82",
                "RLL83",
                "RLL84",
                "RLL85",
                "RLL86",
                "RLL87",
                "RLL88",
                "RLL89",
                "RLL90",
                "RLL91",
                "RLL92",
                "RLL93",
                "RLL94",
                "RLL95",
                "RLL96",
                "RLL97",
                "RLL98",
                "RLL99",
                "RLW00",
                "RLW01",
                "RLW02",
                "RLW03",
                "RLW04",
                "RLW05",
                "RLW06",
                "RLW07",
                "RLW08",
                "RLW09",
                "RLW10",
                "RLW11",
                "RLW12",
                "RLW13",
                "RLW14",
                "RLW15",
                "RLW16",
                "RLW17",
                "RLW18"
            ],
            "UNB50FN": [
                0,
                0,
                0,
                0,
                0,
                0,
                0,
                0,
                0,
                0,
                0,
                0,
                0,
                0,
                0,
                0,
                0,
                0,
                0.37,
                0.39,
                0.43,
                0.47,
                0.49,
                0.52,
                0.55,
                0.58,
                0.62,
                0.66,
                0.7,
                0.74,
                0.78,
                0.83,
                0.87,
                0.92,
                0.96,
                0.99,
                1.04,
                1.09,
                1.14,
                1.18,
                1.23,
                1.31,
                1.38,
                1.47,
                1.54,
                1.62,
                0,
                0,
                0,
                0,
                0,
                0,
                0,
                0,
                0,
                0,
                0,
                0,
                0,
                0,
                0,
                0,
                0,
                0,
                0,
                0,
                0,
                0,
                0,
                0,
                0,
                0,
                0,
                0,
                0,
                0,
                0,
                0,
                0,
                0,
                0,
                0,
                0,
                0,
                0,
                0,
                0,
                0,
                0,
                0,
                0,
                0,
                0,
                0,
                0,
                0,
                0,
                0,
                0,
                0,
                0,
                0,
                0,
                0,
                0,
                0,
                0,
                0,
                0,
                0,
                0,
                0,
                0,
                0,
                0,
                0,
                0,
                0,
                0
            ],
            "UNB50FY": [
                0,
                0,
                0,
                0,
                0,
                0,
                0,
                0,
                0,
                0,
                0,
                0,
                0,
                0,
                0,
                0,
                0,
                0,
                0.37,
                0.39,
                0.43,
                0.47,
                0.49,
                0.52,
                0.55,
                0.58,
                0.62,
                0.66,
                0.7,
                0.74,
                0.78,
                0.83,
                0.87,
                0.92,
                0.96,
                0.99,
                1.04,
                1.09,
                1.14,
                1.18,
                1.23,
                1.31,
                1.38,
                1.47,
                1.54,
                1.62,
                0,
                0,
                0,
                0,
                0,
                0,
                0,
                0,
                0,
                0,
                0,
                0,
                0,
                0,
                0,
                0,
                0,
                0,
                0,
                0,
                0,
                0,
                0,
                0,
                0,
                0,
                0,
                0,
                0,
                0,
                0,
                0,
                0,
                0,
                0,
                0,
                0,
                0,
                0,
                0,
                0,
                0,
                0,
                0,
                0,
                0,
                0,
                0,
                0,
                0,
                0,
                0,
                0,
                0,
                0,
                0,
                0,
                0,
                0,
                0,
                0,
                0,
                0,
                0,
                0,
                0,
                0,
                0,
                0,
                0,
                0,
                0,
                0
            ],
            "UNB50MN": [
                0,
                0,
                0,
                0,
                0,
                0,
                0,
                0,
                0,
                0,
                0,
                0,
                0,
                0,
                0,
                0,
                0,
                0,
                0.37,
                0.39,
                0.43,
                0.47,
                0.49,
                0.52,
                0.55,
                0.58,
                0.62,
                0.66,
                0.7,
                0.74,
                0.78,
                0.83,
                0.87,
                0.92,
                0.96,
                0.99,
                1.04,
                1.09,
                1.14,
                1.18,
                1.23,
                1.31,
                1.38,
                1.47,
                1.54,
                1.62,
                0,
                0,
                0,
                0,
                0,
                0,
                0,
                0,
                0,
                0,
                0,
                0,
                0,
                0,
                0,
                0,
                0,
                0,
                0,
                0,
                0,
                0,
                0,
                0,
                0,
                0,
                0,
                0,
                0,
                0,
                0,
                0,
                0,
                0,
                0,
                0,
                0,
                0,
                0,
                0,
                0,
                0,
                0,
                0,
                0,
                0,
                0,
                0,
                0,
                0,
                0,
                0,
                0,
                0,
                0,
                0,
                0,
                0,
                0,
                0,
                0,
                0,
                0,
                0,
                0,
                0,
                0,
                0,
                0,
                0,
                0,
                0,
                0
            ],
            "UNB50MY": [
                0,
                0,
                0,
                0,
                0,
                0,
                0,
                0,
                0,
                0,
                0,
                0,
                0,
                0,
                0,
                0,
                0,
                0,
                0.37,
                0.39,
                0.43,
                0.47,
                0.49,
                0.52,
                0.55,
                0.58,
                0.62,
                0.66,
                0.7,
                0.74,
                0.78,
                0.83,
                0.87,
                0.92,
                0.96,
                0.99,
                1.04,
                1.09,
                1.14,
                1.18,
                1.23,
                1.31,
                1.38,
                1.47,
                1.54,
                1.62,
                0,
                0,
                0,
                0,
                0,
                0,
                0,
                0,
                0,
                0,
                0,
                0,
                0,
                0,
                0,
                0,
                0,
                0,
                0,
                0,
                0,
                0,
                0,
                0,
                0,
                0,
                0,
                0,
                0,
                0,
                0,
                0,
                0,
                0,
                0,
                0,
                0,
                0,
                0,
                0,
                0,
                0,
                0,
                0,
                0,
                0,
                0,
                0,
                0,
                0,
                0,
                0,
                0,
                0,
                0,
                0,
                0,
                0,
                0,
                0,
                0,
                0,
                0,
                0,
                0,
                0,
                0,
                0,
                0,
                0,
                0,
                0,
                0
            ]
        },
        "commission": {
            "AGENCY": {
                "1": [
                    0,
                    0,
                    0,
                    0,
                    0,
                    0,
                    0,
                    0,
                    0,
                    0,
                    0,
                    0,
                    0,
                    0,
                    0,
                    0
                ],
                "5": [
                    0.8665,
                    0.423,
                    0.0836,
                    0.0334,
                    0.0334,
                    0.0334,
                    0,
                    0,
                    0,
                    0,
                    0,
                    0,
                    0,
                    0,
                    0,
                    0
                ],
                "10": [
                    1.1554,
                    0.6197,
                    0.0836,
                    0.0334,
                    0.0334,
                    0.0334,
                    0,
                    0,
                    0,
                    0,
                    0,
                    0,
                    0,
                    0,
                    0,
                    0
                ],
                "15": [
                    1.2998,
                    0.6679,
                    0.0836,
                    0.0334,
                    0.0334,
                    0.0334,
                    0,
                    0,
                    0,
                    0,
                    0,
                    0,
                    0,
                    0,
                    0,
                    0
                ],
                "20": [
                    1.2998,
                    0.6679,
                    0.0836,
                    0.0334,
                    0.0334,
                    0.0334,
                    0,
                    0,
                    0,
                    0,
                    0,
                    0,
                    0,
                    0,
                    0,
                    0
                ],
                "25": [
                    1.2998,
                    0.6679,
                    0.0836,
                    0.0334,
                    0.0334,
                    0.0334,
                    0,
                    0,
                    0,
                    0,
                    0,
                    0,
                    0,
                    0,
                    0,
                    0
                ],
                "policyYear": [
                    1,
                    2,
                    3,
                    4,
                    5,
                    6,
                    7,
                    8,
                    9,
                    10,
                    11,
                    0,
                    0,
                    0,
                    0,
                    0
                ]
            },
            "BROKER": {
                "1": [
                    0,
                    0,
                    0,
                    0,
                    0,
                    0,
                    0,
                    0,
                    0,
                    0,
                    0,
                    0,
                    0,
                    0,
                    0
                ],
                "5": [
                    0.6326,
                    0.2879,
                    0.0609,
                    0.0332,
                    0.0332,
                    0,
                    0,
                    0,
                    0,
                    0,
                    0,
                    0,
                    0,
                    0,
                    0
                ],
                "10": [
                    0.8305,
                    0.3322,
                    0.1661,
                    0.0442,
                    0.0442,
                    0.0387,
                    0,
                    0,
                    0,
                    0,
                    0,
                    0,
                    0,
                    0,
                    0
                ],
                "15": [
                    0.8655,
                    0.3543,
                    0.1661,
                    0.0553,
                    0.0553,
                    0.0498,
                    0,
                    0,
                    0,
                    0,
                    0,
                    0,
                    0,
                    0,
                    0
                ],
                "20": [
                    0.8655,
                    0.3543,
                    0.1661,
                    0.0553,
                    0.0553,
                    0.0498,
                    0,
                    0,
                    0,
                    0,
                    0,
                    0,
                    0,
                    0,
                    0
                ],
                "25": [
                    0.8655,
                    0.3543,
                    0.1661,
                    0.0553,
                    0.0553,
                    0.0498,
                    0,
                    0,
                    0,
                    0,
                    0,
                    0,
                    0,
                    0,
                    0
                ],
                "": [
                    0,
                    0,
                    0,
                    0,
                    0,
                    0,
                    0,
                    0,
                    0,
                    0,
                    0,
                    0,
                    0,
                    0
                ],
                "policyYear": [
                    1,
                    2,
                    3,
                    4,
                    5,
                    6,
                    7,
                    8,
                    9,
                    10,
                    11,
                    0,
                    0,
                    0,
                    0
                ]
            },
            "DIRECT": {
                "1": [
                    0,
                    0,
                    0,
                    0,
                    0,
                    0,
                    0,
                    0,
                    0,
                    0,
                    0,
                    0,
                    0,
                    0
                ],
                "5": [
                    0.1122,
                    0.0346,
                    0.0231,
                    0.0115,
                    0.0115,
                    0,
                    0,
                    0,
                    0,
                    0,
                    0,
                    0,
                    0,
                    0
                ],
                "10": [
                    0.2693,
                    0.0924,
                    0.0346,
                    0.0231,
                    0.0231,
                    0.0231,
                    0,
                    0,
                    0,
                    0,
                    0,
                    0,
                    0,
                    0
                ],
                "15": [
                    0.4489,
                    0.1386,
                    0.0577,
                    0.0346,
                    0.0346,
                    0.0346,
                    0,
                    0,
                    0,
                    0,
                    0,
                    0,
                    0,
                    0
                ],
                "20": [
                    0.4489,
                    0.1386,
                    0.0577,
                    0.0346,
                    0.0346,
                    0.0346,
                    0,
                    0,
                    0,
                    0,
                    0,
                    0,
                    0,
                    0
                ],
                "25": [
                    0.4489,
                    0.1386,
                    0.0577,
                    0.0346,
                    0.0346,
                    0.0346,
                    0,
                    0,
                    0,
                    0,
                    0,
                    0,
                    0,
                    0
                ],
                "": [
                    0,
                    0,
                    0,
                    0,
                    0,
                    0,
                    0,
                    0,
                    0,
                    0,
                    0,
                    0,
                    0
                ],
                "policyYear": [
                    1,
                    2,
                    3,
                    4,
                    5,
                    6,
                    7,
                    8,
                    9,
                    10,
                    11,
                    0,
                    0,
                    0
                ]
            },
            "SINGPOST": {
                "1": [
                    0.0046,
                    0,
                    0,
                    0,
                    0,
                    0,
                    0,
                    0,
                    0,
                    0,
                    0,
                    0,
                    0,
                    0,
                    0,
                    0,
                    0,
                    0
                ],
                "5": [
                    0.3988,
                    0.0504,
                    0.0224,
                    0.0224,
                    0.0224,
                    0.0224,
                    0,
                    0,
                    0,
                    0,
                    0,
                    0,
                    0,
                    0,
                    0,
                    0,
                    0,
                    0
                ],
                "10": [
                    0.4906,
                    0.1285,
                    0.0396,
                    0.0282,
                    0.0282,
                    0.0282,
                    0,
                    0,
                    0,
                    0,
                    0,
                    0,
                    0,
                    0,
                    0,
                    0,
                    0,
                    0
                ],
                "15": [
                    0.6103,
                    0.1741,
                    0.0679,
                    0.0452,
                    0.0452,
                    0.0452,
                    0,
                    0,
                    0,
                    0,
                    0,
                    0,
                    0,
                    0,
                    0,
                    0,
                    0,
                    0
                ],
                "20": [
                    0.6103,
                    0.1741,
                    0.0679,
                    0.0452,
                    0.0452,
                    0.0452,
                    0,
                    0,
                    0,
                    0,
                    0,
                    0,
                    0,
                    0,
                    0,
                    0,
                    0,
                    0
                ],
                "25": [
                    0.6103,
                    0.1741,
                    0.0679,
                    0.0452,
                    0.0452,
                    0.0452,
                    0,
                    0,
                    0,
                    0,
                    0,
                    0,
                    0,
                    0,
                    0,
                    0,
                    0,
                    0
                ],
                "policyYear": [
                    1,
                    2,
                    3,
                    4,
                    5,
                    6,
                    7,
                    8,
                    9,
                    10,
                    11,
                    0,
                    0,
                    0,
                    0,
                    0,
                    0,
                    0
                ]
            }
        }
    },
    "releaseDate": "2019-03-04 09:51:23",
    "remarks": {
        "en": "Premium Waiver (UN)",
        "zh-Hant": "Premium Waiver (UN)"
    },
    "saInput": [
        {
            "ccy": "SGD",
            "decimal": 0,
            "factor": 0
        }
    ],
    "saInputInd": "N",
    "saPostfix": {},
    "saRule": "na",
    "saScale": "",
    "saViewInd": "N",
    "smokeInd": "*",
    "status": "A",
    "type": "product",
    "version": 1,
    "wholeLifeInd": "N"
}