{
    "allowBackdate": "N",
    "budgetRules": [
        "RP",
        "SP"
    ],
    "calcAgeMethod": "nearest",
    "classInd": "N",
    "compCode": "08",
    "covCode": "WUN_NPE",
    "covName": {
        "en": "Premium Waiver (CIUN)",
        "zh-Hant": "Premium Waiver (CIUN)"
    },
    "ctyGroup": [
        "*"
    ],
    "currencies": [
        {
            "ccy": [
                "SGD"
            ],
            "country": "*"
        }
    ],
    "dealerGroup": [
        "AGENCY",
        "DIRECT",
        "SINGPOST",
        "BROKER",
        "FUSION",
        "SYNERGY"
    ],
    "effDate": "2016-08-23 16:00:00",
    "entryAge": [
        {
            "country": "*",
            "imaxAge": 45,
            "imaxAgeUnit": "nearestAge",
            "iminAge": 18,
            "iminAgeUnit": "year",
            "omaxAge": 0,
            "omaxAgeUnit": "na",
            "ominAge": 0,
            "ominAgeUnit": "na",
            "sameAsOwner": ""
        }
    ],
    "expDate": "2118-07-26 16:00:00",
    "formulas": {
        "calcQuotFunc": "function(quotation, planInfo, planDetails) { var planDetail = planDetails[planInfo.covCode]; var rates = planDetail.rates; var wunRates = rates.PWCIUN_RATE; var sumAssuredCIUN; if (quotation && quotation.plans && quotation.plans[0] && quotation.plans[0].calcBy === 'premium') { sumAssuredCIUN = quotation.annualPremiumBSA; } else { sumAssuredCIUN = quotation.annualPremium; } /** quotation.plans[0].premium;*/ var premTrem = parseInt(quotation.plans[1].premTerm); var ref=''; var plancode =''; if(premTrem <10){ ref = '0'+premTrem + 'WUN' + quotation.iGender + quotation.iSmoke ; plancode = '0'+premTrem + 'WUN'; }else { var tempPremTerm = (premTrem == 30) ? 25 : premTrem; ref = tempPremTerm + 'WUN' + quotation.iGender + quotation.iSmoke ; plancode = premTrem + 'WUN'; } var getRate=function(ref,index,Rates){ var tempRates = Rates[ref]; if (tempRates === null){ return 0; } return tempRates[index]; }; var trunc = function(value, position) { if(!value) { return null; } if (!position) { position = 0; } var sign = value < 0 ? -1 : 1; var scale = math.pow(10, position); return math.multiply(sign, math.divide(math.floor(math.multiply(math.abs(value), scale)), scale)); }; function calculateRiderPremiumWaiverCIUN(curPlanInfo){ var wunRate = getRate(ref,quotation.iAge,wunRates); var temp = trunc(math.divide(math.multiply(math.bignumber(wunRate),math.bignumber(sumAssuredCIUN)), math.bignumber(100)),2); /*Math.floor(wunRate * sumAssuredCIUN * 100)/100; TRUNCATE to 2 decimal places*/ var annualPremium = temp; curPlanInfo.sumAssured = sumAssuredCIUN; curPlanInfo.yearPrem = math.number(annualPremium); curPlanInfo.halfYearPrem = math.number(trunc(math.multiply(math.bignumber(annualPremium),math.bignumber(0.51)),2)); /** Math.floor(annualPremium * 0.51 * 100)/100;*/ curPlanInfo.quarterPrem = math.number(trunc(math.multiply(math.bignumber(annualPremium),math.bignumber(0.26)),2)); /** Math.floor(annualPremium * 0.26 * 100)/100;*/ curPlanInfo.monthPrem = math.number(trunc(math.multiply(math.bignumber(annualPremium),math.bignumber(0.0875)),2)); /** Math.floor(annualPremium * 0.0875 * 100)/100;*/ quotation.totYearPrem += curPlanInfo.yearPrem; quotation.totHalfyearPrem += curPlanInfo.halfYearPrem; quotation.totQuarterPrem += curPlanInfo.quarterPrem; quotation.totMonthPrem += curPlanInfo.monthPrem; switch (quotation.paymentMode){ case 'A': { curPlanInfo.premium = curPlanInfo.yearPrem; quotation.premium += curPlanInfo.yearPrem; break;} case 'S': { curPlanInfo.premium = curPlanInfo.halfYearPrem; quotation.premium += curPlanInfo.halfYearPrem; break;} case 'Q': { curPlanInfo.premium = curPlanInfo.quarterPrem; quotation.premium += curPlanInfo.quarterPrem; break;} case 'M': { curPlanInfo.premium = curPlanInfo.monthPrem; quotation.premium += curPlanInfo.monthPrem; break;} default: { curPlanInfo.premium = curPlanInfo.yearPrem; quotation.premium += curPlanInfo.yearPrem; break;} } curPlanInfo.planCode=plancode; } calculateRiderPremiumWaiverCIUN(planInfo); }",
        "illustrateFunc": "function(quotation, planInfo, planDetails, extraPara) {var planDetail = planDetails[planInfo.covCode];var rates = planDetail.rates;var dealerGroup = quotation.agent.dealerGroup;var payoutTerm = parseInt(quotation.policyOptions.payoutTerm);var getChannel = function() { var mappedChannel = dealerGroup; if (dealerGroup === 'SYNERGY') { mappedChannel = 'AGENCY'; } else if (dealerGroup === 'FUSION') { mappedChannel = 'BROKER'; } else if (dealerGroup === 'DIRECT') { mappedChannel = 'DIRECT'; } else if (dealerGroup === 'SINGPOST') { mappedChannel = 'SINGPOST'; } return mappedChannel;};var trunc = function(value, position) { if(!value) { return null; } if (!position) { position = 0; } var sign = value < 0 ? -1 : 1; var scale = math.pow(10, position); return math.multiply(sign, math.divide(math.floor(math.multiply(math.abs(value), scale)), scale)); };var convertBignumberToReadable = function(data) { for (var row in data) { for (var col in data[row]) { if (typeof(data[row][col]) !== 'string') { data[row][col] = math.number(data[row][col]); } } }};var channel = getChannel();var MAX_POLICY_YEAR = 100;var commissionTable = rates.commission[channel];var calcIllustration = function(illustration) { var sustainTestResult = true; var rawData = []; var defaultRawData = { policyYear: 0, accumPremium: math.bignumber(0), tdc: math.bignumber(0) }; rawData.push(Object.assign({}, defaultRawData)); for (var year = 1; year <= MAX_POLICY_YEAR; year ++) { var currData = Object.assign({}, defaultRawData); var prevData = rawData[year - 1]; currData.policyYear = year; var currPrem = math.bignumber(year <= planInfo.premTerm ? planInfo.yearPrem : 0); currData.accumPremium = math.add(currPrem, prevData.accumPremium); var commissionPolicyYrIndex = commissionTable.policyYear.indexOf(year); if (commissionPolicyYrIndex < 0) { commissionPolicyYrIndex = commissionTable.policyYear.length - 1; } var commissionPermTermIndex = 0; var commissionTableKeys = Object.keys(commissionTable); for (var i = 0; i < commissionTableKeys.length; i ++) { var key = commissionTableKeys[i]; if (key !== 'policyYear') { var commissionPremTerm = parseInt(key); if (planInfo.premTerm >= commissionPremTerm) { commissionPermTermIndex = i; } } } var commissionKey = commissionTableKeys[commissionPermTermIndex]; var comm = math.bignumber(commissionTable[commissionKey][commissionPolicyYrIndex]); var currTdc = math.bignumber(year <= planInfo.premTerm ? math.multiply(comm, planInfo.yearPrem) : 0); currData.tdc = math.add(trunc(currTdc, 2), prevData.tdc); var illData = illustration[year - 1]; illData.policyYear = currData.policyYear; illData.accumPremium = currData.accumPremium; illData.tdc = currData.tdc; rawData.push(currData); } convertBignumberToReadable(rawData); return sustainTestResult;};var illustration = [];var illustrationData = { policyYear: 0, accumPremium: 0, tdc: 0};for (var y = 0; y < MAX_POLICY_YEAR; y ++) { illustration.push(Object.assign({}, JSON.parse(JSON.stringify(illustrationData))));}calcIllustration(illustration);return illustration;}",
        "polTermsFunc": "function(planDetail, quotation) { var policyTermList = []; if (quotation.plans[0].premTerm === undefined){ return null; } var premiumTerm = quotation.plans[0].premTerm; var policyTerm = 0; var polTermDesc = ''; if(premiumTerm===30){ policyTerm = 25; polTermDesc = policyTerm + ' Years'; }else{ policyTerm = premiumTerm; polTermDesc = policyTerm + ' Years'; } policyTermList.push({ value: policyTerm, title: polTermDesc, default: true }); quotation.plans[1].policyTerm=policyTerm; return policyTermList;}",
        "premFunc": "",
        "premTermsFunc": "",
        "prepareClassConfig": "",
        "prepareSAPremConfig": "",
        "prepareTermConfig": "",
        "saFunc": "",
        "validAfterCalcFunc": "",
        "validBeforeCalcFunc": "",
        "validQuotFunc": "",
        "willValidQuotFunc": ""
    },
    "genderInd": "*",
    "othSaInd": "N",
    "payModes": [
        {
            "covMonth": 12,
            "default": "Y",
            "factor": 1,
            "mode": "A",
            "operator": "M"
        },
        {
            "covMonth": 6,
            "default": "N",
            "factor": 0.51,
            "mode": "S",
            "operator": "M"
        },
        {
            "covMonth": 4,
            "default": "N",
            "factor": 0.26,
            "mode": "Q",
            "operator": "M"
        },
        {
            "covMonth": 1,
            "default": "N",
            "factor": 0.0875,
            "mode": "M",
            "operator": "M"
        }
    ],
    "planInd": "R",
    "polMatSameAsPremMat": "N",
    "polMaturities": [],
    "polTermInd": "N",
    "polTermRule": "na",
    "policyMatSameAsBasic": "N",
    "premInput": [
        {
            "ccy": "SGD",
            "decimal": 2,
            "factor": 0
        }
    ],
    "premInputInd": "N",
    "premMatSameAsBasic": "N",
    "premMatSameAsPolMat": "Y",
    "premPostfix": {},
    "premTermInd": "N",
    "premTermRule": "BT",
    "premType": "L",
    "prodFeature": {},
    "prod_summary": 1461760,
    "prod_summary_1": 1461760,
    "productCategory": "protectionOnly",
    "productLine": "CIT",
    "rates": {
        "PWCIUN_RATE": {
            "05WUNFN": [
                0,
                0,
                0,
                0,
                0,
                0,
                0,
                0,
                0,
                0,
                0,
                0,
                0,
                0,
                0,
                0,
                0,
                0,
                0.46,
                0.49,
                0.54,
                0.66,
                0.76,
                0.86,
                0.96,
                1.06,
                1.15,
                1.25,
                1.33,
                1.43,
                1.53,
                1.62,
                1.72,
                1.84,
                1.94,
                2.05,
                2.2,
                2.4,
                2.58,
                2.8,
                3.06,
                3.37,
                3.68,
                4.01,
                4.37,
                4.74,
                4.74,
                4.78,
                4.85,
                4.93,
                5.04,
                5.48,
                6.05,
                6.69,
                7.32,
                8.01,
                8.7,
                9.61,
                10.58,
                11.58,
                12.65,
                0,
                0,
                0,
                0,
                0,
                0,
                0,
                0,
                0,
                0,
                0,
                0,
                0,
                0,
                0,
                0,
                0,
                0,
                0,
                0,
                0,
                0,
                0,
                0,
                0,
                0,
                0,
                0,
                0,
                0,
                0,
                0,
                0,
                0,
                0,
                0,
                0,
                0,
                0,
                0,
                0,
                0,
                0,
                0,
                0,
                0,
                0,
                0,
                0,
                0,
                0,
                0,
                0,
                0,
                0,
                0,
                0,
                0
            ],
            "05WUNFY": [
                0,
                0,
                0,
                0,
                0,
                0,
                0,
                0,
                0,
                0,
                0,
                0,
                0,
                0,
                0,
                0,
                0,
                0,
                0.58,
                0.63,
                0.7,
                0.83,
                0.97,
                1.1,
                1.23,
                1.36,
                1.47,
                1.61,
                1.72,
                1.85,
                1.97,
                2.1,
                2.25,
                2.39,
                2.55,
                2.69,
                2.9,
                3.17,
                3.45,
                3.76,
                4.13,
                4.57,
                5.02,
                5.48,
                5.99,
                6.53,
                6.75,
                7.01,
                7.32,
                7.65,
                8.03,
                8.77,
                9.71,
                10.72,
                11.77,
                12.87,
                14,
                15.4,
                16.95,
                18.54,
                20.24,
                0,
                0,
                0,
                0,
                0,
                0,
                0,
                0,
                0,
                0,
                0,
                0,
                0,
                0,
                0,
                0,
                0,
                0,
                0,
                0,
                0,
                0,
                0,
                0,
                0,
                0,
                0,
                0,
                0,
                0,
                0,
                0,
                0,
                0,
                0,
                0,
                0,
                0,
                0,
                0,
                0,
                0,
                0,
                0,
                0,
                0,
                0,
                0,
                0,
                0,
                0,
                0,
                0,
                0,
                0,
                0,
                0,
                0
            ],
            "05WUNMN": [
                0,
                0,
                0,
                0,
                0,
                0,
                0,
                0,
                0,
                0,
                0,
                0,
                0,
                0,
                0,
                0,
                0,
                0,
                0.4,
                0.42,
                0.46,
                0.55,
                0.64,
                0.72,
                0.81,
                0.9,
                0.97,
                1.05,
                1.11,
                1.19,
                1.27,
                1.35,
                1.43,
                1.52,
                1.6,
                1.7,
                1.83,
                1.99,
                2.13,
                2.34,
                2.56,
                2.81,
                3.09,
                3.4,
                3.79,
                4.19,
                4.21,
                4.25,
                4.3,
                4.5,
                4.75,
                5.32,
                5.97,
                6.63,
                7.43,
                8.38,
                9.39,
                10.44,
                11.55,
                12.77,
                14.05,
                0,
                0,
                0,
                0,
                0,
                0,
                0,
                0,
                0,
                0,
                0,
                0,
                0,
                0,
                0,
                0,
                0,
                0,
                0,
                0,
                0,
                0,
                0,
                0,
                0,
                0,
                0,
                0,
                0,
                0,
                0,
                0,
                0,
                0,
                0,
                0,
                0,
                0,
                0,
                0,
                0,
                0,
                0,
                0,
                0,
                0,
                0,
                0,
                0,
                0,
                0,
                0,
                0,
                0,
                0,
                0,
                0,
                0
            ],
            "05WUNMY": [
                0,
                0,
                0,
                0,
                0,
                0,
                0,
                0,
                0,
                0,
                0,
                0,
                0,
                0,
                0,
                0,
                0,
                0,
                0.47,
                0.5,
                0.55,
                0.67,
                0.78,
                0.88,
                0.98,
                1.09,
                1.18,
                1.29,
                1.37,
                1.48,
                1.57,
                1.67,
                1.79,
                1.9,
                2.01,
                2.14,
                2.32,
                2.53,
                2.75,
                3.04,
                3.35,
                3.72,
                4.11,
                4.54,
                5.1,
                5.68,
                5.9,
                6.15,
                6.48,
                7.02,
                7.62,
                8.6,
                9.65,
                10.75,
                12.11,
                13.66,
                15.3,
                17.03,
                18.84,
                20.84,
                22.96,
                0,
                0,
                0,
                0,
                0,
                0,
                0,
                0,
                0,
                0,
                0,
                0,
                0,
                0,
                0,
                0,
                0,
                0,
                0,
                0,
                0,
                0,
                0,
                0,
                0,
                0,
                0,
                0,
                0,
                0,
                0,
                0,
                0,
                0,
                0,
                0,
                0,
                0,
                0,
                0,
                0,
                0,
                0,
                0,
                0,
                0,
                0,
                0,
                0,
                0,
                0,
                0,
                0,
                0,
                0,
                0,
                0,
                0
            ],
            "10WUNFN": [
                0,
                0,
                0,
                0,
                0,
                0,
                0,
                0,
                0,
                0,
                0,
                0,
                0,
                0,
                0,
                0,
                0,
                0,
                0.67,
                0.73,
                0.8,
                0.91,
                1.01,
                1.11,
                1.23,
                1.34,
                1.44,
                1.54,
                1.66,
                1.76,
                1.87,
                2.02,
                2.22,
                2.39,
                2.61,
                2.86,
                3.13,
                3.4,
                3.7,
                4.02,
                4.35,
                4.75,
                5.18,
                5.67,
                6.14,
                6.66,
                6.78,
                7.03,
                7.34,
                7.65,
                8.01,
                8.7,
                9.61,
                10.58,
                11.58,
                12.65,
                13.72,
                15.04,
                16.51,
                18.04,
                19.65,
                0,
                0,
                0,
                0,
                0,
                0,
                0,
                0,
                0,
                0,
                0,
                0,
                0,
                0,
                0,
                0,
                0,
                0,
                0,
                0,
                0,
                0,
                0,
                0,
                0,
                0,
                0,
                0,
                0,
                0,
                0,
                0,
                0,
                0,
                0,
                0,
                0,
                0,
                0,
                0,
                0,
                0,
                0,
                0,
                0,
                0,
                0,
                0,
                0,
                0,
                0,
                0,
                0,
                0,
                0,
                0,
                0,
                0
            ],
            "10WUNFY": [
                0,
                0,
                0,
                0,
                0,
                0,
                0,
                0,
                0,
                0,
                0,
                0,
                0,
                0,
                0,
                0,
                0,
                0,
                0.91,
                1,
                1.1,
                1.23,
                1.37,
                1.5,
                1.65,
                1.78,
                1.92,
                2.07,
                2.21,
                2.37,
                2.51,
                2.72,
                2.99,
                3.26,
                3.57,
                3.93,
                4.33,
                4.74,
                5.17,
                5.64,
                6.14,
                6.76,
                7.41,
                8.14,
                8.86,
                9.65,
                10.07,
                10.69,
                11.37,
                12.1,
                12.87,
                14,
                15.4,
                16.95,
                18.54,
                20.24,
                22,
                24.06,
                26.51,
                29.06,
                31.76,
                0,
                0,
                0,
                0,
                0,
                0,
                0,
                0,
                0,
                0,
                0,
                0,
                0,
                0,
                0,
                0,
                0,
                0,
                0,
                0,
                0,
                0,
                0,
                0,
                0,
                0,
                0,
                0,
                0,
                0,
                0,
                0,
                0,
                0,
                0,
                0,
                0,
                0,
                0,
                0,
                0,
                0,
                0,
                0,
                0,
                0,
                0,
                0,
                0,
                0,
                0,
                0,
                0,
                0,
                0,
                0,
                0,
                0
            ],
            "10WUNMN": [
                0,
                0,
                0,
                0,
                0,
                0,
                0,
                0,
                0,
                0,
                0,
                0,
                0,
                0,
                0,
                0,
                0,
                0,
                0.53,
                0.58,
                0.64,
                0.73,
                0.81,
                0.89,
                0.99,
                1.08,
                1.17,
                1.25,
                1.34,
                1.42,
                1.52,
                1.65,
                1.81,
                1.94,
                2.15,
                2.36,
                2.57,
                2.81,
                3.09,
                3.44,
                3.8,
                4.22,
                4.65,
                5.12,
                5.71,
                6.37,
                6.62,
                6.95,
                7.28,
                7.76,
                8.38,
                9.39,
                10.44,
                11.55,
                12.77,
                14.05,
                15.49,
                17.09,
                18.87,
                20.65,
                22.6,
                0,
                0,
                0,
                0,
                0,
                0,
                0,
                0,
                0,
                0,
                0,
                0,
                0,
                0,
                0,
                0,
                0,
                0,
                0,
                0,
                0,
                0,
                0,
                0,
                0,
                0,
                0,
                0,
                0,
                0,
                0,
                0,
                0,
                0,
                0,
                0,
                0,
                0,
                0,
                0,
                0,
                0,
                0,
                0,
                0,
                0,
                0,
                0,
                0,
                0,
                0,
                0,
                0,
                0,
                0,
                0,
                0,
                0
            ],
            "10WUNMY": [
                0,
                0,
                0,
                0,
                0,
                0,
                0,
                0,
                0,
                0,
                0,
                0,
                0,
                0,
                0,
                0,
                0,
                0,
                0.69,
                0.75,
                0.83,
                0.94,
                1.05,
                1.15,
                1.28,
                1.38,
                1.49,
                1.61,
                1.72,
                1.83,
                1.96,
                2.14,
                2.35,
                2.56,
                2.85,
                3.15,
                3.48,
                3.83,
                4.23,
                4.75,
                5.29,
                5.91,
                6.55,
                7.3,
                8.23,
                9.24,
                9.9,
                10.63,
                11.4,
                12.44,
                13.66,
                15.3,
                17.03,
                18.84,
                20.84,
                22.96,
                25.45,
                28.15,
                31.15,
                34.22,
                37.53,
                0,
                0,
                0,
                0,
                0,
                0,
                0,
                0,
                0,
                0,
                0,
                0,
                0,
                0,
                0,
                0,
                0,
                0,
                0,
                0,
                0,
                0,
                0,
                0,
                0,
                0,
                0,
                0,
                0,
                0,
                0,
                0,
                0,
                0,
                0,
                0,
                0,
                0,
                0,
                0,
                0,
                0,
                0,
                0,
                0,
                0,
                0,
                0,
                0,
                0,
                0,
                0,
                0,
                0,
                0,
                0,
                0,
                0
            ],
            "15WUNFN": [
                0,
                0,
                0,
                0,
                0,
                0,
                0,
                0,
                0,
                0,
                0,
                0,
                0,
                0,
                0,
                0,
                0,
                0,
                0.95,
                1.03,
                1.1,
                1.2,
                1.31,
                1.44,
                1.55,
                1.67,
                1.8,
                1.99,
                2.19,
                2.39,
                2.6,
                2.88,
                3.18,
                3.48,
                3.8,
                4.11,
                4.47,
                4.89,
                5.34,
                5.78,
                6.27,
                6.79,
                7.43,
                8.16,
                8.86,
                9.63,
                10,
                10.59,
                11.23,
                11.91,
                12.65,
                13.72,
                15.04,
                16.51,
                18.04,
                19.65,
                21.33,
                23.1,
                25.31,
                27.73,
                30.17,
                0,
                0,
                0,
                0,
                0,
                0,
                0,
                0,
                0,
                0,
                0,
                0,
                0,
                0,
                0,
                0,
                0,
                0,
                0,
                0,
                0,
                0,
                0,
                0,
                0,
                0,
                0,
                0,
                0,
                0,
                0,
                0,
                0,
                0,
                0,
                0,
                0,
                0,
                0,
                0,
                0,
                0,
                0,
                0,
                0,
                0,
                0,
                0,
                0,
                0,
                0,
                0,
                0,
                0,
                0,
                0,
                0,
                0
            ],
            "15WUNFY": [
                0,
                0,
                0,
                0,
                0,
                0,
                0,
                0,
                0,
                0,
                0,
                0,
                0,
                0,
                0,
                0,
                0,
                0,
                1.34,
                1.45,
                1.54,
                1.68,
                1.84,
                1.99,
                2.16,
                2.31,
                2.49,
                2.77,
                3.06,
                3.36,
                3.66,
                4.06,
                4.51,
                4.95,
                5.42,
                5.89,
                6.47,
                7.12,
                7.81,
                8.5,
                9.26,
                10.07,
                11.09,
                12.19,
                13.31,
                14.49,
                15.3,
                16.38,
                17.6,
                18.87,
                20.24,
                22,
                24.06,
                26.51,
                29.06,
                31.76,
                34.55,
                37.64,
                41.4,
                45.51,
                49.69,
                0,
                0,
                0,
                0,
                0,
                0,
                0,
                0,
                0,
                0,
                0,
                0,
                0,
                0,
                0,
                0,
                0,
                0,
                0,
                0,
                0,
                0,
                0,
                0,
                0,
                0,
                0,
                0,
                0,
                0,
                0,
                0,
                0,
                0,
                0,
                0,
                0,
                0,
                0,
                0,
                0,
                0,
                0,
                0,
                0,
                0,
                0,
                0,
                0,
                0,
                0,
                0,
                0,
                0,
                0,
                0,
                0,
                0
            ],
            "15WUNMN": [
                0,
                0,
                0,
                0,
                0,
                0,
                0,
                0,
                0,
                0,
                0,
                0,
                0,
                0,
                0,
                0,
                0,
                0,
                0.73,
                0.79,
                0.84,
                0.93,
                1.02,
                1.12,
                1.21,
                1.32,
                1.44,
                1.59,
                1.74,
                1.91,
                2.06,
                2.3,
                2.57,
                2.83,
                3.1,
                3.37,
                3.82,
                4.29,
                4.75,
                5.21,
                5.71,
                6.49,
                7.28,
                8.09,
                8.88,
                9.76,
                10.52,
                11.36,
                12.2,
                13.1,
                14.05,
                15.49,
                17.09,
                18.87,
                20.65,
                22.6,
                24.54,
                26.65,
                29.2,
                31.93,
                34.79,
                0,
                0,
                0,
                0,
                0,
                0,
                0,
                0,
                0,
                0,
                0,
                0,
                0,
                0,
                0,
                0,
                0,
                0,
                0,
                0,
                0,
                0,
                0,
                0,
                0,
                0,
                0,
                0,
                0,
                0,
                0,
                0,
                0,
                0,
                0,
                0,
                0,
                0,
                0,
                0,
                0,
                0,
                0,
                0,
                0,
                0,
                0,
                0,
                0,
                0,
                0,
                0,
                0,
                0,
                0,
                0,
                0,
                0
            ],
            "15WUNMY": [
                0,
                0,
                0,
                0,
                0,
                0,
                0,
                0,
                0,
                0,
                0,
                0,
                0,
                0,
                0,
                0,
                0,
                0,
                0.99,
                1.08,
                1.14,
                1.25,
                1.38,
                1.5,
                1.62,
                1.75,
                1.92,
                2.13,
                2.36,
                2.59,
                2.82,
                3.17,
                3.57,
                3.96,
                4.36,
                4.78,
                5.44,
                6.15,
                6.87,
                7.57,
                8.36,
                9.58,
                10.87,
                12.18,
                13.47,
                14.84,
                16.35,
                17.92,
                19.49,
                21.17,
                22.93,
                25.4,
                28.15,
                31.15,
                34.22,
                37.53,
                40.9,
                44.75,
                49.21,
                54.16,
                59.17,
                0,
                0,
                0,
                0,
                0,
                0,
                0,
                0,
                0,
                0,
                0,
                0,
                0,
                0,
                0,
                0,
                0,
                0,
                0,
                0,
                0,
                0,
                0,
                0,
                0,
                0,
                0,
                0,
                0,
                0,
                0,
                0,
                0,
                0,
                0,
                0,
                0,
                0,
                0,
                0,
                0,
                0,
                0,
                0,
                0,
                0,
                0,
                0,
                0,
                0,
                0,
                0,
                0,
                0,
                0,
                0,
                0,
                0
            ],
            "20WUNFN": [
                0,
                0,
                0,
                0,
                0,
                0,
                0,
                0,
                0,
                0,
                0,
                0,
                0,
                0,
                0,
                0,
                0,
                0,
                1.29,
                1.38,
                1.49,
                1.6,
                1.7,
                1.85,
                2.01,
                2.19,
                2.46,
                2.73,
                3.01,
                3.28,
                3.55,
                3.98,
                4.4,
                4.83,
                5.24,
                5.65,
                6.27,
                6.89,
                7.5,
                8.11,
                8.76,
                9.67,
                10.6,
                11.56,
                12.52,
                13.55,
                14.47,
                15.49,
                16.51,
                17.57,
                18.7,
                20.59,
                22.63,
                24.68,
                26.87,
                29.11,
                31.91,
                35.05,
                38.29,
                41.77,
                45.35,
                0,
                0,
                0,
                0,
                0,
                0,
                0,
                0,
                0,
                0,
                0,
                0,
                0,
                0,
                0,
                0,
                0,
                0,
                0,
                0,
                0,
                0,
                0,
                0,
                0,
                0,
                0,
                0,
                0,
                0,
                0,
                0,
                0,
                0,
                0,
                0,
                0,
                0,
                0,
                0,
                0,
                0,
                0,
                0,
                0,
                0,
                0,
                0,
                0,
                0,
                0,
                0,
                0,
                0,
                0,
                0,
                0,
                0
            ],
            "20WUNFY": [
                0,
                0,
                0,
                0,
                0,
                0,
                0,
                0,
                0,
                0,
                0,
                0,
                0,
                0,
                0,
                0,
                0,
                0,
                1.84,
                1.99,
                2.13,
                2.28,
                2.41,
                2.62,
                2.86,
                3.12,
                3.52,
                3.92,
                4.34,
                4.75,
                5.16,
                5.81,
                6.44,
                7.08,
                7.72,
                8.34,
                9.32,
                10.31,
                11.29,
                12.27,
                13.26,
                14.72,
                16.17,
                17.65,
                19.12,
                20.71,
                22.43,
                24.29,
                26.14,
                28.07,
                30.12,
                33.27,
                36.7,
                40.11,
                43.79,
                47.54,
                52.4,
                57.86,
                63.42,
                69.48,
                75.65,
                0,
                0,
                0,
                0,
                0,
                0,
                0,
                0,
                0,
                0,
                0,
                0,
                0,
                0,
                0,
                0,
                0,
                0,
                0,
                0,
                0,
                0,
                0,
                0,
                0,
                0,
                0,
                0,
                0,
                0,
                0,
                0,
                0,
                0,
                0,
                0,
                0,
                0,
                0,
                0,
                0,
                0,
                0,
                0,
                0,
                0,
                0,
                0,
                0,
                0,
                0,
                0,
                0,
                0,
                0,
                0,
                0,
                0
            ],
            "20WUNMN": [
                0,
                0,
                0,
                0,
                0,
                0,
                0,
                0,
                0,
                0,
                0,
                0,
                0,
                0,
                0,
                0,
                0,
                0,
                0.97,
                1.04,
                1.14,
                1.21,
                1.3,
                1.44,
                1.56,
                1.7,
                1.92,
                2.12,
                2.35,
                2.56,
                2.78,
                3.16,
                3.55,
                3.94,
                4.32,
                4.7,
                5.39,
                6.09,
                6.78,
                7.46,
                8.15,
                9.34,
                10.52,
                11.71,
                12.88,
                14.07,
                15.49,
                16.9,
                18.3,
                19.7,
                21.11,
                23.55,
                25.99,
                28.42,
                31,
                33.67,
                36.9,
                40.49,
                44.38,
                48.39,
                52.7,
                0,
                0,
                0,
                0,
                0,
                0,
                0,
                0,
                0,
                0,
                0,
                0,
                0,
                0,
                0,
                0,
                0,
                0,
                0,
                0,
                0,
                0,
                0,
                0,
                0,
                0,
                0,
                0,
                0,
                0,
                0,
                0,
                0,
                0,
                0,
                0,
                0,
                0,
                0,
                0,
                0,
                0,
                0,
                0,
                0,
                0,
                0,
                0,
                0,
                0,
                0,
                0,
                0,
                0,
                0,
                0,
                0,
                0
            ],
            "20WUNMY": [
                0,
                0,
                0,
                0,
                0,
                0,
                0,
                0,
                0,
                0,
                0,
                0,
                0,
                0,
                0,
                0,
                0,
                0,
                1.35,
                1.45,
                1.57,
                1.67,
                1.81,
                1.98,
                2.17,
                2.37,
                2.68,
                2.99,
                3.31,
                3.63,
                3.95,
                4.55,
                5.13,
                5.73,
                6.32,
                6.89,
                7.98,
                9.08,
                10.17,
                11.26,
                12.35,
                14.25,
                16.13,
                18.04,
                19.93,
                21.82,
                24.38,
                26.94,
                29.48,
                32.04,
                34.59,
                38.87,
                43.17,
                47.45,
                51.91,
                56.64,
                62.61,
                69.18,
                76.16,
                83.55,
                91.33,
                0,
                0,
                0,
                0,
                0,
                0,
                0,
                0,
                0,
                0,
                0,
                0,
                0,
                0,
                0,
                0,
                0,
                0,
                0,
                0,
                0,
                0,
                0,
                0,
                0,
                0,
                0,
                0,
                0,
                0,
                0,
                0,
                0,
                0,
                0,
                0,
                0,
                0,
                0,
                0,
                0,
                0,
                0,
                0,
                0,
                0,
                0,
                0,
                0,
                0,
                0,
                0,
                0,
                0,
                0,
                0,
                0,
                0
            ],
            "25WUNFN": [
                0,
                0,
                0,
                0,
                0,
                0,
                0,
                0,
                0,
                0,
                0,
                0,
                0,
                0,
                0,
                0,
                0,
                0,
                1.66,
                1.76,
                1.86,
                2.07,
                2.28,
                2.49,
                2.71,
                2.92,
                3.29,
                3.66,
                4.04,
                4.4,
                4.78,
                5.38,
                5.95,
                6.55,
                7.13,
                7.71,
                8.56,
                9.42,
                10.26,
                11.1,
                11.96,
                13.31,
                14.65,
                16.02,
                17.36,
                18.71,
                20.31,
                21.89,
                23.46,
                25.04,
                26.61,
                29.62,
                32.62,
                35.64,
                38.64,
                41.65,
                46.46,
                51.27,
                56.08,
                60.89,
                65.7,
                73.14,
                79.52,
                87.48,
                96.25,
                105.89,
                125.96,
                140.39,
                156.48,
                174.41,
                290.17,
                355.11,
                429.48,
                514.9,
                603.26,
                0,
                0,
                0,
                0,
                0,
                0,
                0,
                0,
                0,
                0,
                0,
                0,
                0,
                0,
                0,
                0,
                0,
                0,
                0,
                0,
                0,
                0,
                0,
                0,
                0,
                0,
                0,
                0,
                0,
                0,
                0,
                0,
                0,
                0,
                0,
                0,
                0,
                0,
                0,
                0,
                0,
                0,
                0,
                0
            ],
            "25WUNFY": [
                0,
                0,
                0,
                0,
                0,
                0,
                0,
                0,
                0,
                0,
                0,
                0,
                0,
                0,
                0,
                0,
                0,
                0,
                2.42,
                2.54,
                2.68,
                2.99,
                3.3,
                3.63,
                3.94,
                4.26,
                4.82,
                5.39,
                5.95,
                6.52,
                7.09,
                7.98,
                8.87,
                9.76,
                10.65,
                11.53,
                12.89,
                14.26,
                15.62,
                16.97,
                18.33,
                20.43,
                22.52,
                24.62,
                26.72,
                28.82,
                31.69,
                34.55,
                37.41,
                40.27,
                43.13,
                48.25,
                53.36,
                58.47,
                63.59,
                68.7,
                77.2,
                85.69,
                94.19,
                102.68,
                111.17,
                126.66,
                133.48,
                146.27,
                160.27,
                175.62,
                211.76,
                235.76,
                262.49,
                292.26,
                470.09,
                555.72,
                643.26,
                744.59,
                861.89,
                0,
                0,
                0,
                0,
                0,
                0,
                0,
                0,
                0,
                0,
                0,
                0,
                0,
                0,
                0,
                0,
                0,
                0,
                0,
                0,
                0,
                0,
                0,
                0,
                0,
                0,
                0,
                0,
                0,
                0,
                0,
                0,
                0,
                0,
                0,
                0,
                0,
                0,
                0,
                0,
                0,
                0,
                0,
                0
            ],
            "25WUNMN": [
                0,
                0,
                0,
                0,
                0,
                0,
                0,
                0,
                0,
                0,
                0,
                0,
                0,
                0,
                0,
                0,
                0,
                0,
                1.25,
                1.33,
                1.42,
                1.58,
                1.74,
                1.92,
                2.07,
                2.24,
                2.54,
                2.83,
                3.14,
                3.44,
                3.73,
                4.28,
                4.83,
                5.38,
                5.93,
                6.45,
                7.46,
                8.45,
                9.45,
                10.43,
                11.44,
                13.06,
                14.67,
                16.32,
                17.93,
                19.55,
                21.72,
                23.88,
                26.03,
                28.19,
                30.35,
                33.99,
                37.63,
                41.28,
                44.92,
                48.56,
                54.25,
                59.93,
                65.63,
                71.31,
                77,
                87.76,
                93.51,
                103.05,
                113.56,
                125.15,
                156.01,
                175.5,
                197.42,
                222.07,
                377.83,
                468.83,
                552.51,
                651.12,
                767.33,
                0,
                0,
                0,
                0,
                0,
                0,
                0,
                0,
                0,
                0,
                0,
                0,
                0,
                0,
                0,
                0,
                0,
                0,
                0,
                0,
                0,
                0,
                0,
                0,
                0,
                0,
                0,
                0,
                0,
                0,
                0,
                0,
                0,
                0,
                0,
                0,
                0,
                0,
                0,
                0,
                0,
                0,
                0,
                0
            ],
            "25WUNMY": [
                0,
                0,
                0,
                0,
                0,
                0,
                0,
                0,
                0,
                0,
                0,
                0,
                0,
                0,
                0,
                0,
                0,
                0,
                1.77,
                1.87,
                2,
                2.24,
                2.48,
                2.73,
                2.97,
                3.21,
                3.65,
                4.11,
                4.56,
                5.01,
                5.47,
                6.33,
                7.18,
                8.04,
                8.88,
                9.72,
                11.26,
                12.81,
                14.35,
                15.88,
                17.42,
                20.11,
                22.77,
                25.46,
                28.13,
                30.81,
                34.7,
                38.6,
                42.49,
                46.38,
                50.27,
                56.75,
                63.24,
                69.72,
                76.2,
                82.69,
                93.36,
                104.03,
                114.7,
                125.37,
                136.05,
                152.31,
                165,
                181.71,
                200.11,
                220.37,
                256.98,
                285.71,
                317.66,
                353.17,
                630.14,
                798.9,
                938.39,
                1102.23,
                1294.68,
                0,
                0,
                0,
                0,
                0,
                0,
                0,
                0,
                0,
                0,
                0,
                0,
                0,
                0,
                0,
                0,
                0,
                0,
                0,
                0,
                0,
                0,
                0,
                0,
                0,
                0,
                0,
                0,
                0,
                0,
                0,
                0,
                0,
                0,
                0,
                0,
                0,
                0,
                0,
                0,
                0,
                0,
                0,
                0
            ],
            "REF": [
                "RLL00",
                "RLL01",
                "RLL02",
                "RLL03",
                "RLL04",
                "RLL05",
                "RLL06",
                "RLL07",
                "RLL08",
                "RLL09",
                "RLL10",
                "RLL11",
                "RLL12",
                "RLL13",
                "RLL14",
                "RLL15",
                "RLL16",
                "RLL17",
                "RLL18",
                "RLL19",
                "RLL20",
                "RLL21",
                "RLL22",
                "RLL23",
                "RLL24",
                "RLL25",
                "RLL26",
                "RLL27",
                "RLL28",
                "RLL29",
                "RLL30",
                "RLL31",
                "RLL32",
                "RLL33",
                "RLL34",
                "RLL35",
                "RLL36",
                "RLL37",
                "RLL38",
                "RLL39",
                "RLL40",
                "RLL41",
                "RLL42",
                "RLL43",
                "RLL44",
                "RLL45",
                "RLL46",
                "RLL47",
                "RLL48",
                "RLL49",
                "RLL50",
                "RLL51",
                "RLL52",
                "RLL53",
                "RLL54",
                "RLL55",
                "RLL56",
                "RLL57",
                "RLL58",
                "RLL59",
                "RLL60",
                "RLL61",
                "RLL62",
                "RLL63",
                "RLL64",
                "RLL65",
                "RLL66",
                "RLL67",
                "RLL68",
                "RLL69",
                "RLL70",
                "RLL71",
                "RLL72",
                "RLL73",
                "RLL74",
                "RLL75",
                "RLL76",
                "RLL77",
                "RLL78",
                "RLL79",
                "RLL80",
                "RLL81",
                "RLL82",
                "RLL83",
                "RLL84",
                "RLL85",
                "RLL86",
                "RLL87",
                "RLL88",
                "RLL89",
                "RLL90",
                "RLL91",
                "RLL92",
                "RLL93",
                "RLL94",
                "RLL95",
                "RLL96",
                "RLL97",
                "RLL98",
                "RLL99",
                "RLW00",
                "RLW01",
                "RLW02",
                "RLW03",
                "RLW04",
                "RLW05",
                "RLW06",
                "RLW07",
                "RLW08",
                "RLW09",
                "RLW10",
                "RLW11",
                "RLW12",
                "RLW13",
                "RLW14",
                "RLW15",
                "RLW16",
                "RLW17",
                "RLW18"
            ]
        },
        "commission": {
            "AGENCY": {
                "1": [
                    0,
                    0,
                    0,
                    0,
                    0,
                    0,
                    0,
                    0,
                    0,
                    0,
                    0,
                    0,
                    0,
                    0
                ],
                "5": [
                    0.8665,
                    0.423,
                    0.0836,
                    0.0334,
                    0.0334,
                    0.0334,
                    0,
                    0,
                    0,
                    0,
                    0,
                    0,
                    0,
                    0
                ],
                "10": [
                    1.1554,
                    0.6197,
                    0.0836,
                    0.0334,
                    0.0334,
                    0.0334,
                    0,
                    0,
                    0,
                    0,
                    0,
                    0,
                    0,
                    0
                ],
                "15": [
                    1.2998,
                    0.6679,
                    0.0836,
                    0.0334,
                    0.0334,
                    0.0334,
                    0,
                    0,
                    0,
                    0,
                    0,
                    0,
                    0,
                    0
                ],
                "20": [
                    1.2998,
                    0.6679,
                    0.0836,
                    0.0334,
                    0.0334,
                    0.0334,
                    0,
                    0,
                    0,
                    0,
                    0,
                    0,
                    0,
                    0
                ],
                "25": [
                    1.2998,
                    0.6679,
                    0.0836,
                    0.0334,
                    0.0334,
                    0.0334,
                    0,
                    0,
                    0,
                    0,
                    0,
                    0,
                    0,
                    0
                ],
                "policyYear": [
                    1,
                    2,
                    3,
                    4,
                    5,
                    6,
                    7,
                    8,
                    9,
                    10,
                    11,
                    0,
                    0,
                    0
                ]
            },
            "BROKER": {
                "1": [
                    0,
                    0,
                    0,
                    0,
                    0,
                    0,
                    0,
                    0,
                    0,
                    0,
                    0,
                    0,
                    0,
                    0
                ],
                "5": [
                    0.6326,
                    0.2879,
                    0.0609,
                    0.0332,
                    0.0332,
                    0,
                    0,
                    0,
                    0,
                    0,
                    0,
                    0,
                    0,
                    0
                ],
                "10": [
                    0.8305,
                    0.3322,
                    0.1661,
                    0.0442,
                    0.0442,
                    0.0387,
                    0,
                    0,
                    0,
                    0,
                    0,
                    0,
                    0,
                    0
                ],
                "15": [
                    0.8655,
                    0.3543,
                    0.1661,
                    0.0553,
                    0.0553,
                    0.0498,
                    0,
                    0,
                    0,
                    0,
                    0,
                    0,
                    0,
                    0
                ],
                "20": [
                    0.8655,
                    0.3543,
                    0.1661,
                    0.0553,
                    0.0553,
                    0.0498,
                    0,
                    0,
                    0,
                    0,
                    0,
                    0,
                    0,
                    0
                ],
                "25": [
                    0.8655,
                    0.3543,
                    0.1661,
                    0.0553,
                    0.0553,
                    0.0498,
                    0,
                    0,
                    0,
                    0,
                    0,
                    0,
                    0,
                    0
                ],
                "": [
                    0,
                    0,
                    0,
                    0,
                    0,
                    0,
                    0,
                    0,
                    0,
                    0,
                    0
                ],
                "policyYear": [
                    1,
                    2,
                    3,
                    4,
                    5,
                    6,
                    7,
                    8,
                    9,
                    10,
                    11,
                    0,
                    0,
                    0
                ]
            },
            "DIRECT": {
                "1": [
                    0,
                    0,
                    0,
                    0,
                    0,
                    0,
                    0,
                    0,
                    0,
                    0,
                    0,
                    0,
                    0,
                    0
                ],
                "5": [
                    0,
                    0,
                    0,
                    0,
                    0,
                    0,
                    0,
                    0,
                    0,
                    0,
                    0,
                    0,
                    0,
                    0
                ],
                "10": [
                    0.1122,
                    0.0346,
                    0.0231,
                    0.0115,
                    0.0115,
                    0,
                    0,
                    0,
                    0,
                    0,
                    0,
                    0,
                    0,
                    0
                ],
                "15": [
                    0.2693,
                    0.0924,
                    0.0346,
                    0.0231,
                    0.0231,
                    0.0231,
                    0,
                    0,
                    0,
                    0,
                    0,
                    0,
                    0,
                    0
                ],
                "20": [
                    0.4489,
                    0.1386,
                    0.0577,
                    0.0346,
                    0.0346,
                    0.0346,
                    0,
                    0,
                    0,
                    0,
                    0,
                    0,
                    0,
                    0
                ],
                "25": [
                    0.4489,
                    0.1386,
                    0.0577,
                    0.0346,
                    0.0346,
                    0.0346,
                    0,
                    0,
                    0,
                    0,
                    0,
                    0,
                    0,
                    0
                ],
                "": [
                    0,
                    0,
                    0,
                    0,
                    0,
                    0,
                    0,
                    0,
                    0,
                    0,
                    0,
                    0
                ],
                "policyYear": [
                    1,
                    2,
                    3,
                    4,
                    5,
                    6,
                    7,
                    8,
                    9,
                    10,
                    11,
                    0,
                    0,
                    0
                ]
            },
            "SINGPOST": {
                "1": [
                    0.0046,
                    0,
                    0,
                    0,
                    0,
                    0,
                    0,
                    0,
                    0,
                    0,
                    0,
                    0,
                    0
                ],
                "5": [
                    0.3988,
                    0.0504,
                    0.0224,
                    0.0224,
                    0.0224,
                    0.0224,
                    0,
                    0,
                    0,
                    0,
                    0,
                    0,
                    0
                ],
                "10": [
                    0.4906,
                    0.1285,
                    0.0396,
                    0.0282,
                    0.0282,
                    0.0282,
                    0,
                    0,
                    0,
                    0,
                    0,
                    0,
                    0
                ],
                "15": [
                    0.6103,
                    0.1741,
                    0.0679,
                    0.0452,
                    0.0452,
                    0.0452,
                    0,
                    0,
                    0,
                    0,
                    0,
                    0,
                    0
                ],
                "20": [
                    0.6103,
                    0.1741,
                    0.0679,
                    0.0452,
                    0.0452,
                    0.0452,
                    0,
                    0,
                    0,
                    0,
                    0,
                    0,
                    0
                ],
                "25": [
                    0.6103,
                    0.1741,
                    0.0679,
                    0.0452,
                    0.0452,
                    0.0452,
                    0,
                    0,
                    0,
                    0,
                    0,
                    0,
                    0
                ],
                "policyYear": [
                    1,
                    2,
                    3,
                    4,
                    5,
                    6,
                    7,
                    8,
                    9,
                    10,
                    11,
                    0,
                    0
                ]
            }
        }
    },
    "releaseDate": "2019-03-04 09:51:50",
    "remarks": {
        "en": "Premium Waiver (CIUN)",
        "zh-Hant": "Premium Waiver (CIUN)"
    },
    "saInput": [
        {
            "ccy": "SGD",
            "decimal": 2,
            "factor": 0
        }
    ],
    "saInputInd": "N",
    "saPostfix": {},
    "saRule": "na",
    "saScale": "",
    "saViewInd": "N",
    "smokeInd": "*",
    "status": "A",
    "type": "product",
    "version": 1,
    "wholeLifeInd": "N"
}