{
    "allowBackdate": "N",
    "budgetRules": [
        "RP"
    ],
    "ccyDesc": {},
    "classInd": "Y",
    "classList": [
        {
            "benefitValue": [
                {
                    "amount": 25,
                    "ccy": "SGD"
                }
            ],
            "className": {
                "en": "25%",
                "zh-Hant": ""
            },
            "covClass": "25",
            "default": "N",
            "valueType": "sa"
        },
        {
            "benefitValue": [
                {
                    "amount": 50,
                    "ccy": "SGD"
                }
            ],
            "className": {
                "en": "50%"
            },
            "covClass": "50",
            "default": "",
            "valueType": "sa"
        },
        {
            "benefitValue": [
                {
                    "amount": 73,
                    "ccy": "SGD"
                }
            ],
            "className": {
                "en": "75%"
            },
            "covClass": "75",
            "default": "",
            "valueType": "sa"
        },
        {
            "benefitValue": [
                {
                    "amount": 100,
                    "ccy": "SGD"
                }
            ],
            "className": {
                "en": "100%"
            },
            "covClass": "100",
            "default": "",
            "valueType": "sa"
        }
    ],
    "classSecDesc": {},
    "classTitle": {
        "en": "Class of %"
    },
    "compCode": "08",
    "corpInd": "N",
    "covCode": "LARB",
    "covName": {
        "en": "Living Accelerator Benefit",
        "zh-Hant": "--"
    },
    "create": "KENNY.CHAN  on 12 Dec 2017 12:17:50",
    "ctyGroup": [
        "*"
    ],
    "currencies": [
        {
            "ccy": [
                "SGD"
            ],
            "country": "*"
        }
    ],
    "dealerGroup": [
        "DIRECT",
        "AGENCY",
        "SYNERGY",
        "BROKER",
        "FUSION",
        "SINGPOST"
    ],
    "effDate": "2017-12-12 02:37:56",
    "entryAge": [
        {
            "country": "*",
            "imaxAge": 60,
            "imaxAgeUnit": "nearestAge",
            "iminAge": 1,
            "iminAgeUnit": "month",
            "omaxAge": 70,
            "omaxAgeUnit": "nearestAge",
            "ominAge": 18,
            "ominAgeUnit": "year",
            "sameAsOwner": ""
        }
    ],
    "expDate": "2118-12-15 15:21:54",
    "formulas": {
        "calcQuotFunc": "",
        "illustrateFunc": "",
        "polTermsFunc": "",
        "premFunc": "",
        "premTermsFunc": "",
        "prepareClassConfig": "function (planDetail, quotation, planDetails) {var bsa = math.number(quotation.plans[0].sumInsured || 0);var options = [], valOpts = [];for(var i =planDetail.classList.length - 1; i >=0; i--){ var classOpt = planDetail.classList[i]; var classOptVal = math.number(classOpt.covClass || 0) / 100; if(bsa * classOptVal >= 6000 && bsa * classOptVal <= 2000000){ valOpts.push(classOpt.covClass); options.push({ value: classOpt.covClass, title: classOpt.className }); }}for(var i in quotation.plans){ var plan = quotation.plans[i]; if(plan.covCode == planDetail.covCode){ if(!options.length || (plan.covClass && valOpts.indexOf(plan.covClass) == -1)){ plan.covClass = null; plan.sumInsured = null; } }}planDetail.inputConfig.canEditClassType = true;planDetail.inputConfig.hasClass = true;planDetail.inputConfig.classTitle = planDetail.classTitle;planDetail.inputConfig.classTypeList = options;}",
        "prepareSAPremConfig": "function (planDetail, quotation, planDetails) {for(var i in quotation.plans){ planDetail.inputConfig.canViewSumAssured = true; planDetail.inputConfig.canViewPremium = false; var plan = quotation.plans[i]; if(planDetail.covCode == plan.covCode && plan.covClass){ plan.sumInsured = math.number(quotation.plans[0].sumInsured || 0) * math.number(plan.covClass) / 100; plan.sumInsured = math.multiply(math.ceil(math.divide(math.number(plan.sumInsured), 100)), 100); } }}",
        "prepareTermConfig": "",
        "saFunc": "",
        "validAfterCalcFunc": "function (quotation, planInfo, planDetail) {quotValid.validatePlanAfterCalc(quotation, planInfo, planDetail);var targetAge = (99 - quotation.iAge);planInfo.policyTerm = \"yrs\" + targetAge;planInfo.polTermDesc = targetAge + \" Years\";planInfo.premTerm = planInfo.policyTerm;planInfo.premTermDesc = targetAge + \" Years\";planInfo.policyTermYr = targetAge;planInfo.premTermYr = targetAge;planInfo.premium = 0;planInfo.planCode = 'LARB';if(planInfo.sumInsured == quotation.plans[0].sumInsured && quotation.plans[0].sumInsured){ for(var i in quotation.plans){ if(quotation.plans[i].covCode === \"WPSR\"){ quotDriver.context.addError({ covCode: quotation.plans[0].covCode, code: 'Waiver of Premium Special cannot be attached when Living Accelerator Rider Sum Assured is equal to Basic Sum Assured' }); } }}}",
        "validBeforeCalcFunc": "",
        "validQuotFunc": "",
        "willValidQuotFunc": ""
    },
    "genderInd": "*",
    "insuredAgeDesc": {},
    "isMasterData": true,
    "isOccupClass": "N",
    "jointLives": "N",
    "keyProdFeatures": {
        "en": "-"
    },
    "lastUpdatedTime": "2018-09-03T09:09:00.179Z",
    "licence": [
        ""
    ],
    "payMethodsDesc": {},
    "payModeDesc": {},
    "payModes": [
        {
            "covMonth": 1,
            "default": "",
            "factor": 12,
            "mode": "M",
            "operator": "D"
        },
        {
            "covMonth": 3,
            "default": "",
            "factor": 4,
            "mode": "Q",
            "operator": "D"
        },
        {
            "covMonth": 6,
            "default": "",
            "factor": 2,
            "mode": "S",
            "operator": "D"
        },
        {
            "covMonth": 12,
            "default": "",
            "factor": 1,
            "mode": "A",
            "operator": "D"
        }
    ],
    "paymentMethods": [
        "crCard",
        "chequeCashierOrder",
        "eNets",
        "cash",
        "dbsCrCardIpp",
        "teleTransfter",
        "axasam"
    ],
    "planInd": "R",
    "polMatSameAsPremMat": "N",
    "polMaturities": [],
    "polTermDesc": {},
    "polTermInd": "N",
    "polTermRule": "na",
    "policyMatSameAsBasic": "N",
    "premMatSameAsBasic": "N",
    "premMatSameAsPolMat": "N",
    "premMaturities": [],
    "premTermDesc": {},
    "premTermInd": "N",
    "premTermRule": "BT",
    "prodFeature": {
        "en": "-"
    },
    "prod_summary_1": 1577684,
    "productCategory": "ilp",
    "productLine": "IL",
    "ref_no": "LARB001",
    "releaseDate": "2018-04-16 14:42:21",
    "remarks": {
        "en": "-"
    },
    "saDesc": {},
    "saInput": [
        {
            "ccy": "SGD",
            "decimal": 0,
            "factor": 0
        }
    ],
    "saInputInd": "N",
    "saPostfix": {},
    "saRule": "na",
    "saScale": "",
    "saViewInd": "Y",
    "smokeInd": "*",
    "status": "A",
    "task_desc": "Living Accelerator Benefit",
    "type": "product",
    "upd": "KENNY.CHAN  on 11 Jan 2018 10:29:04",
    "updatedBy": "mandy",
    "version": 1,
    "wholeLifeInd": "N"
}