{
    "allowBackdate": "N",
    "benlim": [
        {
            "ageFr": "0",
            "ageTo": "70",
            "class": "*",
            "country": "*",
            "limits": [
                {
                    "ccy": "SGD",
                    "max": 1000,
                    "min": 500,
                    "payMode": "A"
                },
                {
                    "ccy": "SGD",
                    "max": 1000,
                    "min": 500,
                    "payMode": "S"
                },
                {
                    "ccy": "SGD",
                    "max": 1000,
                    "min": 500,
                    "payMode": "Q"
                },
                {
                    "ccy": "SGD",
                    "max": 1000,
                    "min": 500,
                    "payMode": "M"
                }
            ]
        }
    ],
    "budgetRules": [
        "RP"
    ],
    "ccyDesc": {
        "en": "SGD"
    },
    "classInd": "N",
    "classSecDesc": {
        "en": "-"
    },
    "compCode": "08",
    "corpInd": "N",
    "covCode": "MER",
    "covName": {
        "en": "Medical Expenses",
        "zh-Hant": "Medical Expenses"
    },
    "create": "Wenny Tang  on 26 Aug 2017 14:22:28",
    "ctyGroup": [
        "*"
    ],
    "currencies": [
        {
            "ccy": [
                "SGD"
            ],
            "country": "*"
        }
    ],
    "dealerGroup": [
        "AGENCY",
        "SYNERGY",
        "SINGPOST",
        "BROKER",
        "DIRECT",
        "FUSION"
    ],
    "effDate": "2017-08-01 00:00:00",
    "entryAge": [
        {
            "country": "*",
            "imaxAge": 70,
            "imaxAgeUnit": "nearestAge",
            "iminAge": 15,
            "iminAgeUnit": "day",
            "omaxAge": 70,
            "omaxAgeUnit": "nearestAge",
            "ominAge": 18,
            "ominAgeUnit": "year",
            "sameAsOwner": ""
        }
    ],
    "expDate": "2118-08-26 13:57:51",
    "formulas": {
        "calcQuotFunc": "",
        "getOccupationClass": "function (quotation, planDetail) { var oCls = quotation.plans[0].covClass; if (oCls) { oCls = parseInt(oCls, 10); if (oCls) return oCls - 1; } return 0;}",
        "illustrateFunc": "",
        "polTermsFunc": "",
        "premFunc": "function (quotation, planInfo, planDetail) { var ocls = runFunc(planDetail.formulas.getOccupationClass, quotation, planDetail); var rate = parseFloat(planDetail.rates.premRate.rates[ocls]); var scale = parseFloat(planDetail.saScale); for(var i = 0; i< quotation.plans.length; i++){ var plan = quotation.plans[i]; if(plan.covCode == planInfo.covCode){ plan.premRate = rate; break; } } var prem = math.divide(math.multiply(math.bignumber(planInfo.sumInsured), rate), scale); var payModes = planDetail.payModes; for (var i = 0; i < payModes.length; i++) { let { mode, factor, operator } = payModes[i]; if (quotation.paymentMode == mode) { if (operator == 'M') { prem = math.multiply(prem, factor); } else if (operator == 'D') { prem = math.divide(prem, factor); } break; } } return math.number(prem);}",
        "premTermsFunc": "",
        "prepareClassConfig": "",
        "prepareSAPremConfig": "",
        "prepareTermConfig": "",
        "saFunc": "",
        "validAfterCalcFunc": "function (quotation, planInfo, planDetail) { quotValid.validatePlanAfterCalc(quotation, planInfo, planDetail); if (planDetail.gstInd == \"Y\") { planInfo.tax = { yearTax: math.number(math.round(math.multiply(math.bignumber(planInfo.yearPrem), planDetail.gstRate), 2)), halfYearTax: math.number(math.round(math.multiply(math.bignumber(planInfo.halfYearPrem), planDetail.gstRate), 2)), quarterTax: math.number(math.round(math.multiply(math.bignumber(planInfo.quarterPrem), planDetail.gstRate), 2)), monthTax: math.number(math.round(math.multiply(math.bignumber(planInfo.monthPrem), planDetail.gstRate), 2)) }; }}",
        "validBeforeCalcFunc": "",
        "validQuotFunc": "",
        "willValidQuotFunc": ""
    },
    "genderInd": "*",
    "insuredAgeDesc": {
        "en": "15 - 70"
    },
    "jointLives": "N",
    "keyProdFeatures": {
        "en": "-",
        "zh-Hant": ""
    },
    "levelPrem": {
        "en": "-"
    },
    "licence": [
        ""
    ],
    "payMethodsDesc": {
        "en": "ALL"
    },
    "payModeDesc": {
        "en": "-"
    },
    "payModes": [
        {
            "covMonth": 12,
            "default": "",
            "factor": 1,
            "mode": "A",
            "operator": "M"
        },
        {
            "covMonth": 6,
            "default": "",
            "factor": 0.51,
            "mode": "S",
            "operator": "M"
        },
        {
            "covMonth": 3,
            "default": "",
            "factor": 0.26,
            "mode": "Q",
            "operator": "M"
        },
        {
            "covMonth": 1,
            "default": "",
            "factor": 0.0875,
            "mode": "M",
            "operator": "M"
        }
    ],
    "paymentMethods": [
        "crCard",
        "eNets",
        "dbsCrCardIpp",
        "cash",
        "chequeCashierOrder",
        "axasam",
        "teleTransfter"
    ],
    "planInd": "R",
    "polMatSameAsPremMat": "N",
    "polTermDesc": {
        "en": "-"
    },
    "polTermInd": "N",
    "polTermRule": "na",
    "policyMatSameAsBasic": "Y",
    "premInput": [
        {
            "ccy": "SGD",
            "decimal": 2,
            "factor": 0
        }
    ],
    "premInputInd": "N",
    "premMatSameAsBasic": "Y",
    "premMatSameAsPolMat": "N",
    "premTermDesc": {
        "en": "-"
    },
    "premTermInd": "N",
    "premTermRule": "na",
    "premType": "L",
    "prodFeature": {
        "en": "Reimburse medical expenses up to the coverage amount selected by You for treatment of Hand, Foot and Mouth Disease; Variant Creutzfeldt-Jakob Disease or ‘Mad Cow Disease’; Malaria; Rabies; Melioidosis; Rubella."
    },
    "productCategory": "ilp",
    "productLine": "AP",
    "rates": {
        "premRate": {
            "rates": [
                1.35,
                1.45,
                1.6,
                2
            ]
        }
    },
    "ref_no": "BAA Rider - MER",
    "releaseDate": "2018-03-21 16:25:25",
    "remarks": {
        "en": "-"
    },
    "saDesc": {
        "en": "500 - 1,000 @100",
        "zh-Hant": ""
    },
    "saInput": [
        {
            "ccy": "SGD",
            "decimal": 0,
            "factor": 100
        }
    ],
    "saInputInd": "Y",
    "saPostfix": {
        "en": "per annum"
    },
    "saRule": "0",
    "saScale": 100,
    "saSecDesc": {
        "en": "-"
    },
    "saViewInd": "Y",
    "smokeInd": "*",
    "status": "A",
    "task_desc": "BAA Rider - Medical Expenses",
    "type": "product",
    "upd": "Wenny Tang  on 26 Aug 2017 14:28:23",
    "version": 1,
    "wholeLifeInd": "N"
}