{
    "allowBackdate": "N",
    "budgetRules": [
        "RP",
        "SP"
    ],
    "calcAgeMethod": "nearest",
    "ccyDesc": {},
    "classInd": "N",
    "classSecDesc": {},
    "compCode": "08",
    "corpInd": "N",
    "covCode": "UNBN_RHP",
    "covName": {
        "en": "Premium Waiver (UN)",
        "zh-Hant": "Premium Waiver (UN)"
    },
    "create": "Jack Wong  on 10 Apr 2018 17:54:58",
    "ctyGroup": [
        "*"
    ],
    "currencies": [
        {
            "ccy": [
                "SGD",
                "USD",
                "GBP",
                "AUD",
                "EUR"
            ],
            "country": "*"
        }
    ],
    "dealerGroup": [
        "AGENCY",
        "DIRECT",
        "SINGPOST",
        "BROKER",
        "FUSION",
        "SYNERGY"
    ],
    "effDate": "2016-08-24 00:00:00",
    "entryAge": [
        {
            "country": "*",
            "imaxAge": 45,
            "imaxAgeUnit": "nearestAge",
            "iminAge": 18,
            "iminAgeUnit": "year",
            "omaxAge": 100,
            "omaxAgeUnit": "na",
            "ominAge": 0,
            "ominAgeUnit": "na",
            "sameAsOwner": ""
        }
    ],
    "expDate": "2050-01-05 16:14:28",
    "formulas": {
        "calcQuotFunc": "function (quotation, planInfo, planDetails) { const PAYOUT_TERM_LIFETIME = 99; var premiumTerm = quotation.plans[0].premTerm; var sumAssuredNonTPD = quotation.plans[1].sumAssuredNonTPD; function calculateRiderPremiumWaiverUN(curPlanInfo){ var testAge = 50 - premiumTerm; var policyTerm = 0; var polTermDesc = ''; if (quotation.iAge <= testAge){ policyTerm = premiumTerm; polTermDesc = policyTerm + ' Years'; } else if ((premiumTerm < 25) && (quotation.iAge <= 45) && (quotation.iAge > testAge)){ policyTerm = 50; polTermDesc = 'To Age 50'; } else if ((premiumTerm == 25) && (quotation.iAge > 25) && (quotation.iAge <= 40)){ policyTerm = 50; polTermDesc = 'To Age 50'; } var premTerm = 0; if (policyTerm == 50){ premTerm = 50 - quotation.iAge; } else{ premTerm = policyTerm; } /** Basic plan has premTerm but no RI or premium inputs yet*/ if ((quotation.plans[0].premTerm) && (quotation.plans[0].premium === undefined)){ curPlanInfo.policyTerm = policyTerm; curPlanInfo.polTermDesc = polTermDesc; curPlanInfo.premTerm = premTerm; curPlanInfo.premTermDesc = premTerm + ' Years'; curPlanInfo.premium = NaN; /** force UI to be blank*/ return; } /** Basic plan has no premterm yet*/ if ((quotation.plans[0].premTerm === undefined) || (quotation.plans[0].premium === undefined) || (quotation.plans[0].premium === NaN)) { if (curPlanInfo.premium){ curPlanInfo.premium = NaN; /** force UI to be blank*/ } return; } var LEP2_UN_rates = planDetails['UNBN_RHP'].rates.LEP2_UN_rates; var ref = ''; var planCode = ''; if (quotation.iAge <= testAge){ if (premiumTerm == 5) {ref += '05';} else {ref += premiumTerm;} ref += 'UNBN'; planCode = ref.slice(0); ref += quotation.iGender; ref += quotation.iSmoke; } else{ if (policyTerm == 50){ ref += 'UNB50'; planCode = ref.slice(0); ref += quotation.iGender; ref += quotation.iSmoke; } } var get_LEP2_UN_rate = function(ref, insuredAge){ var planRates = LEP2_UN_rates[ref]; if (planRates == null){return 0;} return planRates[insuredAge]; }; var unRate = get_LEP2_UN_rate(ref, quotation.iAge); var temp = Math.floor(unRate * sumAssuredNonTPD * 100)/100; /* TRUNCATE to 2 decimal places*/ temp = temp / 100; temp = Math.round(temp * 100) / 100; /* ROUND to 2 decimal places*/ var annualPremium = temp; /** Update planInfo*/ curPlanInfo.planCode = planCode; curPlanInfo.sumAssured = sumAssuredNonTPD; curPlanInfo.policyTerm = policyTerm; curPlanInfo.polTermDesc = polTermDesc; curPlanInfo.premTerm = premTerm; curPlanInfo.premTermDesc = premTerm + ' Years'; curPlanInfo.yearPrem = annualPremium; curPlanInfo.halfYearPrem = Math.floor(annualPremium * 0.51 * 100)/100; curPlanInfo.quarterPrem = Math.floor(annualPremium * 0.26 * 100)/100; curPlanInfo.monthPrem = Math.floor(annualPremium * 0.0875 * 100)/100; quotation.totYearPrem += curPlanInfo.yearPrem; quotation.totHalfyearPrem += curPlanInfo.halfYearPrem; quotation.totQuarterPrem += curPlanInfo.quarterPrem; quotation.totMonthPrem += curPlanInfo.monthPrem; switch (quotation.paymentMode){ case 'A': { curPlanInfo.premium = curPlanInfo.yearPrem; quotation.premium += curPlanInfo.yearPrem; break;} case 'S': { curPlanInfo.premium = curPlanInfo.halfYearPrem; quotation.premium += curPlanInfo.halfYearPrem; break;} case 'Q': { curPlanInfo.premium = curPlanInfo.quarterPrem; quotation.premium += curPlanInfo.quarterPrem; break;} case 'M': { curPlanInfo.premium = curPlanInfo.monthPrem; quotation.premium += curPlanInfo.monthPrem; break;} default: { curPlanInfo.premium = curPlanInfo.yearPrem; quotation.premium += curPlanInfo.yearPrem; break;} } } calculateRiderPremiumWaiverUN(planInfo); }",
        "illustrateFunc": "function (quotation, planInfo, planDetails, extraPara) {var planDetail = planDetails[planInfo.covCode];var rates = planDetail.rates;var dealerGroup = quotation.agent.dealerGroup;var retirementAge = parseInt(quotation.policyOptions.retirementAge);var payoutTerm = parseInt(quotation.policyOptions.payoutTerm);const MAX_POLICY_YEAR = 100;var getChannel = function() { var mappedChannel = dealerGroup; if (dealerGroup === 'SYNERGY') { mappedChannel = 'AGENCY'; } else if (dealerGroup === 'FUSION') { mappedChannel = 'BROKER'; } return mappedChannel;};var trunc = function(value, position) { if(!value) { return null; } if (!position) { position = 0; } var sign = value < 0 ? -1 : 1; var scale = math.pow(10, position); return math.multiply(sign, math.divide(math.floor(math.multiply(math.abs(value), scale)), scale)); };var convertBignumberToReadable = function(data) { /* for (var row in data) { for (var col in data[row]) { if (typeof(data[row][col]) !== 'string') { data[row][col] = math.number(data[row][col]); } } } */};var channel = getChannel();var basicBT = retirementAge + (payoutTerm === 99 ? 99 - retirementAge : payoutTerm) - quotation.iAge;var commissionTable = rates.commission[channel];var calcIllustration = function(illustration) { var sustainTestResult = true; var rawData = []; var defaultRawData = { policyYear: 0, accumPremium: math.bignumber(0), tdc: math.bignumber(0) }; rawData.push(Object.assign({}, defaultRawData)); for (var year = 1; year <= MAX_POLICY_YEAR; year ++) { var currData = Object.assign({}, defaultRawData); var prevData = rawData[year - 1]; currData.policyYear = year; if (year <= basicBT) { var currPrem = math.bignumber(year <= planInfo.premTerm ? planInfo.yearPrem : 0); currData.accumPremium = math.add(currPrem, prevData.accumPremium); var commissionPolicyYrIndex = commissionTable.policyYear.indexOf(year); if (commissionPolicyYrIndex < 0) { commissionPolicyYrIndex = commissionTable.policyYear.length - 1; } var commissionPermTermIndex = 0; var commissionTableKeys = Object.keys(commissionTable); for (var i = 0; i < commissionTableKeys.length; i ++) { var key = commissionTableKeys[i]; if (key !== 'policyYear') { var commissionPremTerm = parseInt(key); if (planInfo.premTerm >= commissionPremTerm) { commissionPermTermIndex = i; } } } var commissionKey = commissionTableKeys[commissionPermTermIndex]; var comm = math.bignumber(commissionTable[commissionKey][commissionPolicyYrIndex]); var currTdc = math.bignumber(year <= planInfo.premTerm ? math.multiply(comm, planInfo.yearPrem) : 0); currData.tdc = math.add(trunc(currTdc, 2), prevData.tdc); } var illData = illustration[year - 1]; illData.policyYear = currData.policyYear; illData.accumPremium = currData.accumPremium; illData.tdc = currData.tdc; rawData.push(currData); } convertBignumberToReadable(rawData); return sustainTestResult;};var illustration = [];var illustrationData = { policyYear: 0, accumPremium: 0, tdc: 0};for (var y = 0; y < MAX_POLICY_YEAR; y ++) { illustration.push(Object.assign({}, JSON.parse(JSON.stringify(illustrationData))));}calcIllustration(illustration);return illustration;}",
        "polTermsFunc": "function (planDetail, quotation) { var policyTermList = []; if (quotation.policyOptions.retirementAge === undefined){ return null; } if (quotation.policyOptions.payoutTerm === undefined){ return null; } if (quotation.plans[0].premTerm === undefined){ return null; } var premiumTerm = quotation.plans[0].premTerm; var testAge = 50 - premiumTerm; var policyTerm = 0; var polTermDesc = ''; if (quotation.iAge <= testAge){ policyTerm = premiumTerm; polTermDesc = policyTerm + ' Years'; } else if ((premiumTerm < 25) && (quotation.iAge <= 45) && (quotation.iAge > testAge)){ policyTerm = 50; polTermDesc = 'To Age 50'; } else if ((premiumTerm == 25) && (quotation.iAge > 25) && (quotation.iAge <= 40)){ policyTerm = 50; polTermDesc = 'To Age 50'; } policyTermList.push({ value: policyTerm, title: polTermDesc, default: true }); return policyTermList;}",
        "premFunc": "",
        "premTermsFunc": "function (planDetail, quotation) {var premTermsList = []; var premiumTerm = quotation.plans[0].premTerm; if (premiumTerm == undefined){return premTermsList;} if (quotation.paymentMode == 'L'){ premTermsList.push({ value: 1, title: 'Single Premium', default: true }); } else{ var policyTerm = 0; var premTerm = 0; var testAge = 50 - premiumTerm; if (quotation.iAge <= testAge){ policyTerm = premiumTerm; } else if ((premiumTerm < 25) && (quotation.iAge <= 45) && (quotation.iAge > testAge)){ policyTerm = 50; } else if ((premiumTerm == 25) && (quotation.iAge > 25) && (quotation.iAge <= 40)){ policyTerm = 50; } if (policyTerm == 50){ premTerm = 50 - quotation.iAge; } else{ premTerm = policyTerm; } premTermsList.push({ value: premTerm, title: premTerm + ' Years', default: true }); } return premTermsList;}",
        "prepareClassConfig": "",
        "prepareSAPremConfig": "",
        "prepareTermConfig": "",
        "saFunc": "",
        "validAfterCalcFunc": "",
        "validBeforeCalcFunc": "",
        "validQuotFunc": "",
        "willValidQuotFunc": ""
    },
    "genderInd": "*",
    "insuredAgeDesc": {},
    "jointLives": "N",
    "keyProdFeatures": {
        "en": "Premium Waiver (UN)",
        "zh-Hant": "Premium Waiver (UN)"
    },
    "levelPrem": {},
    "licence": [
        ""
    ],
    "payMethodsDesc": {},
    "payModeDesc": {},
    "payModes": [
        {
            "covMonth": 12,
            "default": "",
            "factor": 1,
            "mode": "A",
            "operator": "M"
        },
        {
            "covMonth": 6,
            "default": "",
            "factor": 0.51,
            "mode": "S",
            "operator": "M"
        },
        {
            "covMonth": 3,
            "default": "",
            "factor": 0.26,
            "mode": "Q",
            "operator": "M"
        },
        {
            "covMonth": 1,
            "default": "",
            "factor": 0.0875,
            "mode": "M",
            "operator": "M"
        },
        {
            "covMonth": 0,
            "default": "",
            "factor": 1,
            "mode": "L",
            "operator": "M"
        }
    ],
    "paymentMethods": [
        "cash",
        "crCard"
    ],
    "planInd": "R",
    "polMatSameAsPremMat": "N",
    "polMaturities": [],
    "polTermDesc": {},
    "polTermInd": "N",
    "polTermRule": "na",
    "policyMatSameAsBasic": "N",
    "premMatSameAsBasic": "N",
    "premMatSameAsPolMat": "N",
    "premMaturities": [],
    "premTermDesc": {},
    "premTermInd": "N",
    "premTermRule": "na",
    "premType": "L",
    "prodFeature": {},
    "prod_summary": 941168,
    "prod_summary_1": 941168,
    "productCategory": "protectionOnly",
    "productLine": "CIT",
    "rates": {
        "LEP2_UN_rates": {
            "05UNBNFN": [
                0,
                0,
                0,
                0,
                0,
                0,
                0,
                0,
                0,
                0,
                0,
                0,
                0,
                0,
                0,
                0,
                0,
                0,
                0.24,
                0.24,
                0.25,
                0.32,
                0.38,
                0.43,
                0.48,
                0.53,
                0.57,
                0.62,
                0.65,
                0.69,
                0.73,
                0.77,
                0.81,
                0.85,
                0.89,
                0.93,
                0.98,
                1.03,
                1.08,
                1.13,
                1.18,
                1.27,
                1.36,
                1.44,
                1.53,
                1.62,
                1.3,
                0.98,
                0.65,
                0.33,
                0,
                0,
                0,
                0,
                0,
                0,
                0,
                0,
                0,
                0,
                0,
                0,
                0,
                0,
                0,
                0
            ],
            "05UNBNFY": [
                0,
                0,
                0,
                0,
                0,
                0,
                0,
                0,
                0,
                0,
                0,
                0,
                0,
                0,
                0,
                0,
                0,
                0,
                0.24,
                0.24,
                0.25,
                0.32,
                0.38,
                0.43,
                0.48,
                0.53,
                0.57,
                0.62,
                0.65,
                0.69,
                0.73,
                0.77,
                0.81,
                0.85,
                0.89,
                0.93,
                0.98,
                1.03,
                1.08,
                1.13,
                1.18,
                1.27,
                1.36,
                1.44,
                1.53,
                1.62,
                1.3,
                0.98,
                0.65,
                0.33,
                0,
                0,
                0,
                0,
                0,
                0,
                0,
                0,
                0,
                0,
                0,
                0,
                0,
                0,
                0,
                0
            ],
            "05UNBNMN": [
                0,
                0,
                0,
                0,
                0,
                0,
                0,
                0,
                0,
                0,
                0,
                0,
                0,
                0,
                0,
                0,
                0,
                0,
                0.24,
                0.24,
                0.25,
                0.32,
                0.38,
                0.43,
                0.48,
                0.53,
                0.57,
                0.62,
                0.65,
                0.69,
                0.73,
                0.77,
                0.81,
                0.85,
                0.89,
                0.93,
                0.98,
                1.03,
                1.08,
                1.13,
                1.18,
                1.27,
                1.36,
                1.44,
                1.53,
                1.62,
                1.3,
                0.98,
                0.65,
                0.33,
                0,
                0,
                0,
                0,
                0,
                0,
                0,
                0,
                0,
                0,
                0,
                0,
                0,
                0,
                0,
                0
            ],
            "05UNBNMY": [
                0,
                0,
                0,
                0,
                0,
                0,
                0,
                0,
                0,
                0,
                0,
                0,
                0,
                0,
                0,
                0,
                0,
                0,
                0.24,
                0.24,
                0.25,
                0.32,
                0.38,
                0.43,
                0.48,
                0.53,
                0.57,
                0.62,
                0.65,
                0.69,
                0.73,
                0.77,
                0.81,
                0.85,
                0.89,
                0.93,
                0.98,
                1.03,
                1.08,
                1.13,
                1.18,
                1.27,
                1.36,
                1.44,
                1.53,
                1.62,
                1.3,
                0.98,
                0.65,
                0.33,
                0,
                0,
                0,
                0,
                0,
                0,
                0,
                0,
                0,
                0,
                0,
                0,
                0,
                0,
                0,
                0
            ],
            "10UNBNFN": [
                0,
                0,
                0,
                0,
                0,
                0,
                0,
                0,
                0,
                0,
                0,
                0,
                0,
                0,
                0,
                0,
                0,
                0,
                0.24,
                0.25,
                0.27,
                0.33,
                0.38,
                0.43,
                0.49,
                0.54,
                0.59,
                0.63,
                0.67,
                0.71,
                0.75,
                0.8,
                0.85,
                0.89,
                0.94,
                0.98,
                1.03,
                1.08,
                1.13,
                1.18,
                1.23,
                1.31,
                1.38,
                1.47,
                1.54,
                1.62,
                1.3,
                0.98,
                0.65,
                0.33,
                0,
                0,
                0,
                0,
                0,
                0,
                0,
                0,
                0,
                0,
                0,
                0,
                0,
                0,
                0,
                0
            ],
            "10UNBNFY": [
                0,
                0,
                0,
                0,
                0,
                0,
                0,
                0,
                0,
                0,
                0,
                0,
                0,
                0,
                0,
                0,
                0,
                0,
                0.24,
                0.25,
                0.27,
                0.33,
                0.38,
                0.43,
                0.49,
                0.54,
                0.59,
                0.63,
                0.67,
                0.71,
                0.75,
                0.8,
                0.85,
                0.89,
                0.94,
                0.98,
                1.03,
                1.08,
                1.13,
                1.18,
                1.23,
                1.31,
                1.38,
                1.47,
                1.54,
                1.62,
                1.3,
                0.98,
                0.65,
                0.33,
                0,
                0,
                0,
                0,
                0,
                0,
                0,
                0,
                0,
                0,
                0,
                0,
                0,
                0,
                0,
                0
            ],
            "10UNBNMN": [
                0,
                0,
                0,
                0,
                0,
                0,
                0,
                0,
                0,
                0,
                0,
                0,
                0,
                0,
                0,
                0,
                0,
                0,
                0.24,
                0.25,
                0.27,
                0.33,
                0.38,
                0.43,
                0.49,
                0.54,
                0.59,
                0.63,
                0.67,
                0.71,
                0.75,
                0.8,
                0.85,
                0.89,
                0.94,
                0.98,
                1.03,
                1.08,
                1.13,
                1.18,
                1.23,
                1.31,
                1.38,
                1.47,
                1.54,
                1.62,
                1.3,
                0.98,
                0.65,
                0.33,
                0,
                0,
                0,
                0,
                0,
                0,
                0,
                0,
                0,
                0,
                0,
                0,
                0,
                0,
                0,
                0
            ],
            "10UNBNMY": [
                0,
                0,
                0,
                0,
                0,
                0,
                0,
                0,
                0,
                0,
                0,
                0,
                0,
                0,
                0,
                0,
                0,
                0,
                0.24,
                0.25,
                0.27,
                0.33,
                0.38,
                0.43,
                0.49,
                0.54,
                0.59,
                0.63,
                0.67,
                0.71,
                0.75,
                0.8,
                0.85,
                0.89,
                0.94,
                0.98,
                1.03,
                1.08,
                1.13,
                1.18,
                1.23,
                1.31,
                1.38,
                1.47,
                1.54,
                1.62,
                1.3,
                0.98,
                0.65,
                0.33,
                0,
                0,
                0,
                0,
                0,
                0,
                0,
                0,
                0,
                0,
                0,
                0,
                0,
                0,
                0,
                0
            ],
            "15UNBNFN": [
                0,
                0,
                0,
                0,
                0,
                0,
                0,
                0,
                0,
                0,
                0,
                0,
                0,
                0,
                0,
                0,
                0,
                0,
                0.27,
                0.29,
                0.3,
                0.35,
                0.4,
                0.45,
                0.5,
                0.55,
                0.6,
                0.64,
                0.69,
                0.73,
                0.77,
                0.82,
                0.87,
                0.91,
                0.96,
                0.99,
                1.04,
                1.09,
                1.14,
                1.18,
                1.23,
                1.31,
                1.38,
                1.47,
                1.54,
                1.62,
                1.3,
                0.98,
                0.65,
                0.33,
                0,
                0,
                0,
                0,
                0,
                0,
                0,
                0,
                0,
                0,
                0,
                0,
                0,
                0,
                0,
                0
            ],
            "15UNBNFY": [
                0,
                0,
                0,
                0,
                0,
                0,
                0,
                0,
                0,
                0,
                0,
                0,
                0,
                0,
                0,
                0,
                0,
                0,
                0.27,
                0.29,
                0.3,
                0.35,
                0.4,
                0.45,
                0.5,
                0.55,
                0.6,
                0.64,
                0.69,
                0.73,
                0.77,
                0.82,
                0.87,
                0.91,
                0.96,
                0.99,
                1.04,
                1.09,
                1.14,
                1.18,
                1.23,
                1.31,
                1.38,
                1.47,
                1.54,
                1.62,
                1.3,
                0.98,
                0.65,
                0.33,
                0,
                0,
                0,
                0,
                0,
                0,
                0,
                0,
                0,
                0,
                0,
                0,
                0,
                0,
                0,
                0
            ],
            "15UNBNMN": [
                0,
                0,
                0,
                0,
                0,
                0,
                0,
                0,
                0,
                0,
                0,
                0,
                0,
                0,
                0,
                0,
                0,
                0,
                0.27,
                0.29,
                0.3,
                0.35,
                0.4,
                0.45,
                0.5,
                0.55,
                0.6,
                0.64,
                0.69,
                0.73,
                0.77,
                0.82,
                0.87,
                0.91,
                0.96,
                0.99,
                1.04,
                1.09,
                1.14,
                1.18,
                1.23,
                1.31,
                1.38,
                1.47,
                1.54,
                1.62,
                1.3,
                0.98,
                0.65,
                0.33,
                0,
                0,
                0,
                0,
                0,
                0,
                0,
                0,
                0,
                0,
                0,
                0,
                0,
                0,
                0,
                0
            ],
            "15UNBNMY": [
                0,
                0,
                0,
                0,
                0,
                0,
                0,
                0,
                0,
                0,
                0,
                0,
                0,
                0,
                0,
                0,
                0,
                0,
                0.27,
                0.29,
                0.3,
                0.35,
                0.4,
                0.45,
                0.5,
                0.55,
                0.6,
                0.64,
                0.69,
                0.73,
                0.77,
                0.82,
                0.87,
                0.91,
                0.96,
                0.99,
                1.04,
                1.09,
                1.14,
                1.18,
                1.23,
                1.31,
                1.38,
                1.47,
                1.54,
                1.62,
                1.3,
                0.98,
                0.65,
                0.33,
                0,
                0,
                0,
                0,
                0,
                0,
                0,
                0,
                0,
                0,
                0,
                0,
                0,
                0,
                0,
                0
            ],
            "20UNBNFN": [
                0,
                0,
                0,
                0,
                0,
                0,
                0,
                0,
                0,
                0,
                0,
                0,
                0,
                0,
                0,
                0,
                0,
                0,
                0.3,
                0.33,
                0.37,
                0.4,
                0.44,
                0.48,
                0.52,
                0.57,
                0.62,
                0.65,
                0.7,
                0.74,
                0.78,
                0.83,
                0.87,
                0.92,
                0.96,
                0.99,
                1.04,
                1.09,
                1.14,
                1.18,
                1.23,
                1.31,
                1.38,
                1.47,
                1.54,
                1.62,
                1.3,
                0.98,
                0.65,
                0.33,
                0,
                0,
                0,
                0,
                0,
                0,
                0,
                0,
                0,
                0,
                0,
                0,
                0,
                0,
                0,
                0
            ],
            "20UNBNFY": [
                0,
                0,
                0,
                0,
                0,
                0,
                0,
                0,
                0,
                0,
                0,
                0,
                0,
                0,
                0,
                0,
                0,
                0,
                0.3,
                0.33,
                0.37,
                0.4,
                0.44,
                0.48,
                0.52,
                0.57,
                0.62,
                0.65,
                0.7,
                0.74,
                0.78,
                0.83,
                0.87,
                0.92,
                0.96,
                0.99,
                1.04,
                1.09,
                1.14,
                1.18,
                1.23,
                1.31,
                1.38,
                1.47,
                1.54,
                1.62,
                1.3,
                0.98,
                0.65,
                0.33,
                0,
                0,
                0,
                0,
                0,
                0,
                0,
                0,
                0,
                0,
                0,
                0,
                0,
                0,
                0,
                0
            ],
            "20UNBNMN": [
                0,
                0,
                0,
                0,
                0,
                0,
                0,
                0,
                0,
                0,
                0,
                0,
                0,
                0,
                0,
                0,
                0,
                0,
                0.3,
                0.33,
                0.37,
                0.4,
                0.44,
                0.48,
                0.52,
                0.57,
                0.62,
                0.65,
                0.7,
                0.74,
                0.78,
                0.83,
                0.87,
                0.92,
                0.96,
                0.99,
                1.04,
                1.09,
                1.14,
                1.18,
                1.23,
                1.31,
                1.38,
                1.47,
                1.54,
                1.62,
                1.3,
                0.98,
                0.65,
                0.33,
                0,
                0,
                0,
                0,
                0,
                0,
                0,
                0,
                0,
                0,
                0,
                0,
                0,
                0,
                0,
                0
            ],
            "20UNBNMY": [
                0,
                0,
                0,
                0,
                0,
                0,
                0,
                0,
                0,
                0,
                0,
                0,
                0,
                0,
                0,
                0,
                0,
                0,
                0.3,
                0.33,
                0.37,
                0.4,
                0.44,
                0.48,
                0.52,
                0.57,
                0.62,
                0.65,
                0.7,
                0.74,
                0.78,
                0.83,
                0.87,
                0.92,
                0.96,
                0.99,
                1.04,
                1.09,
                1.14,
                1.18,
                1.23,
                1.31,
                1.38,
                1.47,
                1.54,
                1.62,
                1.3,
                0.98,
                0.65,
                0.33,
                0,
                0,
                0,
                0,
                0,
                0,
                0,
                0,
                0,
                0,
                0,
                0,
                0,
                0,
                0,
                0
            ],
            "25UNBNFN": [
                0,
                0,
                0,
                0,
                0,
                0,
                0,
                0,
                0,
                0,
                0,
                0,
                0,
                0,
                0,
                0,
                0,
                0,
                0.35,
                0.38,
                0.42,
                0.45,
                0.48,
                0.52,
                0.55,
                0.58,
                0.62,
                0.66,
                0.7,
                0.74,
                0.78,
                0.83,
                0.87,
                0.92,
                0.96,
                0.99,
                1.04,
                1.09,
                1.14,
                1.18,
                1.23,
                1.31,
                1.38,
                1.47,
                1.54,
                1.62,
                1.3,
                0.98,
                0.65,
                0.33,
                0,
                0,
                0,
                0,
                0,
                0,
                0,
                0,
                0,
                0,
                0,
                0,
                0,
                0,
                0,
                0
            ],
            "25UNBNFY": [
                0,
                0,
                0,
                0,
                0,
                0,
                0,
                0,
                0,
                0,
                0,
                0,
                0,
                0,
                0,
                0,
                0,
                0,
                0.35,
                0.38,
                0.42,
                0.45,
                0.48,
                0.52,
                0.55,
                0.58,
                0.62,
                0.66,
                0.7,
                0.74,
                0.78,
                0.83,
                0.87,
                0.92,
                0.96,
                0.99,
                1.04,
                1.09,
                1.14,
                1.18,
                1.23,
                1.31,
                1.38,
                1.47,
                1.54,
                1.62,
                1.3,
                0.98,
                0.65,
                0.33,
                0,
                0,
                0,
                0,
                0,
                0,
                0,
                0,
                0,
                0,
                0,
                0,
                0,
                0,
                0,
                0
            ],
            "25UNBNMN": [
                0,
                0,
                0,
                0,
                0,
                0,
                0,
                0,
                0,
                0,
                0,
                0,
                0,
                0,
                0,
                0,
                0,
                0,
                0.35,
                0.38,
                0.42,
                0.45,
                0.48,
                0.52,
                0.55,
                0.58,
                0.62,
                0.66,
                0.7,
                0.74,
                0.78,
                0.83,
                0.87,
                0.92,
                0.96,
                0.99,
                1.04,
                1.09,
                1.14,
                1.18,
                1.23,
                1.31,
                1.38,
                1.47,
                1.54,
                1.62,
                1.3,
                0.98,
                0.65,
                0.33,
                0,
                0,
                0,
                0,
                0,
                0,
                0,
                0,
                0,
                0,
                0,
                0,
                0,
                0,
                0,
                0
            ],
            "25UNBNMY": [
                0,
                0,
                0,
                0,
                0,
                0,
                0,
                0,
                0,
                0,
                0,
                0,
                0,
                0,
                0,
                0,
                0,
                0,
                0.35,
                0.38,
                0.42,
                0.45,
                0.48,
                0.52,
                0.55,
                0.58,
                0.62,
                0.66,
                0.7,
                0.74,
                0.78,
                0.83,
                0.87,
                0.92,
                0.96,
                0.99,
                1.04,
                1.09,
                1.14,
                1.18,
                1.23,
                1.31,
                1.38,
                1.47,
                1.54,
                1.62,
                1.3,
                0.98,
                0.65,
                0.33,
                0,
                0,
                0,
                0,
                0,
                0,
                0,
                0,
                0,
                0,
                0,
                0,
                0,
                0,
                0,
                0
            ],
            "REF": [
                "RLL00",
                "RLL01",
                "RLL02",
                "RLL03",
                "RLL04",
                "RLL05",
                "RLL06",
                "RLL07",
                "RLL08",
                "RLL09",
                "RLL10",
                "RLL11",
                "RLL12",
                "RLL13",
                "RLL14",
                "RLL15",
                "RLL16",
                "RLL17",
                "RLL18",
                "RLL19",
                "RLL20",
                "RLL21",
                "RLL22",
                "RLL23",
                "RLL24",
                "RLL25",
                "RLL26",
                "RLL27",
                "RLL28",
                "RLL29",
                "RLL30",
                "RLL31",
                "RLL32",
                "RLL33",
                "RLL34",
                "RLL35",
                "RLL36",
                "RLL37",
                "RLL38",
                "RLL39",
                "RLL40",
                "RLL41",
                "RLL42",
                "RLL43",
                "RLL44",
                "RLL45",
                "RLL46",
                "RLL47",
                "RLL48",
                "RLL49",
                "RLL50",
                "RLL51",
                "RLL52",
                "RLL53",
                "RLL54",
                "RLL55",
                "RLL56",
                "RLL57",
                "RLL58",
                "RLL59",
                "RLL60",
                "RLL61",
                "RLL62",
                "RLL63",
                "RLL64",
                "RLL65"
            ],
            "UNB50FN": [
                0,
                0,
                0,
                0,
                0,
                0,
                0,
                0,
                0,
                0,
                0,
                0,
                0,
                0,
                0,
                0,
                0,
                0,
                0.37,
                0.39,
                0.43,
                0.47,
                0.49,
                0.52,
                0.55,
                0.58,
                0.62,
                0.66,
                0.7,
                0.74,
                0.78,
                0.83,
                0.87,
                0.92,
                0.96,
                0.99,
                1.04,
                1.09,
                1.14,
                1.18,
                1.23,
                1.31,
                1.38,
                1.47,
                1.54,
                1.62,
                0,
                0,
                0,
                0,
                0,
                0,
                0,
                0,
                0,
                0,
                0,
                0,
                0,
                0,
                0,
                0,
                0,
                0,
                0,
                0
            ],
            "UNB50FY": [
                0,
                0,
                0,
                0,
                0,
                0,
                0,
                0,
                0,
                0,
                0,
                0,
                0,
                0,
                0,
                0,
                0,
                0,
                0.37,
                0.39,
                0.43,
                0.47,
                0.49,
                0.52,
                0.55,
                0.58,
                0.62,
                0.66,
                0.7,
                0.74,
                0.78,
                0.83,
                0.87,
                0.92,
                0.96,
                0.99,
                1.04,
                1.09,
                1.14,
                1.18,
                1.23,
                1.31,
                1.38,
                1.47,
                1.54,
                1.62,
                0,
                0,
                0,
                0,
                0,
                0,
                0,
                0,
                0,
                0,
                0,
                0,
                0,
                0,
                0,
                0,
                0,
                0,
                0,
                0
            ],
            "UNB50MN": [
                0,
                0,
                0,
                0,
                0,
                0,
                0,
                0,
                0,
                0,
                0,
                0,
                0,
                0,
                0,
                0,
                0,
                0,
                0.37,
                0.39,
                0.43,
                0.47,
                0.49,
                0.52,
                0.55,
                0.58,
                0.62,
                0.66,
                0.7,
                0.74,
                0.78,
                0.83,
                0.87,
                0.92,
                0.96,
                0.99,
                1.04,
                1.09,
                1.14,
                1.18,
                1.23,
                1.31,
                1.38,
                1.47,
                1.54,
                1.62,
                0,
                0,
                0,
                0,
                0,
                0,
                0,
                0,
                0,
                0,
                0,
                0,
                0,
                0,
                0,
                0,
                0,
                0,
                0,
                0
            ],
            "UNB50MY": [
                0,
                0,
                0,
                0,
                0,
                0,
                0,
                0,
                0,
                0,
                0,
                0,
                0,
                0,
                0,
                0,
                0,
                0,
                0.37,
                0.39,
                0.43,
                0.47,
                0.49,
                0.52,
                0.55,
                0.58,
                0.62,
                0.66,
                0.7,
                0.74,
                0.78,
                0.83,
                0.87,
                0.92,
                0.96,
                0.99,
                1.04,
                1.09,
                1.14,
                1.18,
                1.23,
                1.31,
                1.38,
                1.47,
                1.54,
                1.62,
                0,
                0,
                0,
                0,
                0,
                0,
                0,
                0,
                0,
                0,
                0,
                0,
                0,
                0,
                0,
                0,
                0,
                0,
                0,
                0
            ]
        },
        "commission": {
            "AGENCY": {
                "5": [
                    0.8767,
                    0.4265,
                    0.0831,
                    0.0332,
                    0.0332,
                    0,
                    0
                ],
                "6": [
                    0.8767,
                    0.4265,
                    0.0831,
                    0.0332,
                    0.0332,
                    0.0332,
                    0
                ],
                "10": [
                    1.1689,
                    0.6241,
                    0.0831,
                    0.0332,
                    0.0332,
                    0.0332,
                    0
                ],
                "15": [
                    1.315,
                    0.673,
                    0.0831,
                    0.0332,
                    0.0332,
                    0.0332,
                    0
                ],
                "20": [
                    1.315,
                    0.673,
                    0.0831,
                    0.0332,
                    0.0332,
                    0.0332,
                    0
                ],
                "25": [
                    1.315,
                    0.673,
                    0.0831,
                    0.0332,
                    0.0332,
                    0.0332,
                    0
                ],
                "policyYear": [
                    1,
                    2,
                    3,
                    4,
                    5,
                    6,
                    7
                ]
            },
            "BROKER": {
                "5": [
                    0.823,
                    0.2879,
                    0.0609,
                    0.0332,
                    0.0332,
                    0,
                    0
                ],
                "6": [
                    0.8463,
                    0.2879,
                    0.0609,
                    0.0332,
                    0.0332,
                    0.0332,
                    0
                ],
                "10": [
                    1.0209,
                    0.3322,
                    0.1661,
                    0.0442,
                    0.0442,
                    0.0387,
                    0
                ],
                "15": [
                    1.0559,
                    0.3543,
                    0.1661,
                    0.0553,
                    0.0553,
                    0.0498,
                    0
                ],
                "20": [
                    1.0559,
                    0.3543,
                    0.1661,
                    0.0553,
                    0.0553,
                    0.0498,
                    0
                ],
                "25": [
                    1.0559,
                    0.3543,
                    0.1661,
                    0.0553,
                    0.0553,
                    0.0498,
                    0
                ],
                "policyYear": [
                    1,
                    2,
                    3,
                    4,
                    5,
                    6,
                    7
                ]
            },
            "DIRECT": {
                "5": [
                    0.0684,
                    0.031,
                    0.0207,
                    0.0103,
                    0.0103,
                    0,
                    0
                ],
                "6": [
                    0.1094,
                    0.0517,
                    0.0207,
                    0.0207,
                    0.0207,
                    0.0207,
                    0
                ],
                "10": [
                    0.1641,
                    0.0828,
                    0.031,
                    0.0207,
                    0.0207,
                    0.0207,
                    0
                ],
                "15": [
                    0.2736,
                    0.1242,
                    0.0517,
                    0.031,
                    0.031,
                    0.031,
                    0
                ],
                "20": [
                    0.2736,
                    0.1242,
                    0.0517,
                    0.031,
                    0.031,
                    0.031,
                    0
                ],
                "25": [
                    0.2736,
                    0.1242,
                    0.0517,
                    0.031,
                    0.031,
                    0.031,
                    0
                ],
                "policyYear": [
                    1,
                    2,
                    3,
                    4,
                    5,
                    6,
                    7
                ]
            },
            "SINGPOST": {
                "5": [
                    0.4641,
                    0.0504,
                    0.0224,
                    0.0224,
                    0.0224,
                    0,
                    0
                ],
                "6": [
                    0.4641,
                    0.0504,
                    0.0224,
                    0.0224,
                    0.0224,
                    0.0224,
                    0
                ],
                "10": [
                    0.5559,
                    0.1285,
                    0.0396,
                    0.0282,
                    0.0282,
                    0.0282,
                    0
                ],
                "15": [
                    0.6756,
                    0.1741,
                    0.0679,
                    0.0452,
                    0.0452,
                    0.0452,
                    0
                ],
                "20": [
                    0.6756,
                    0.1741,
                    0.0679,
                    0.0452,
                    0.0452,
                    0.0452,
                    0
                ],
                "25": [
                    0.6756,
                    0.1741,
                    0.0679,
                    0.0452,
                    0.0452,
                    0.0452,
                    0
                ],
                "policyYear": [
                    1,
                    2,
                    3,
                    4,
                    5,
                    6,
                    7
                ]
            }
        }
    },
    "ref_no": "UNBN_RHP",
    "releaseDate": "2018-05-25 16:37:46",
    "remarks": {
        "en": "Premium Waiver (UN)",
        "zh-Hant": "Premium Waiver (UN)"
    },
    "smokeInd": "*",
    "status": "A",
    "task_desc": "Premium Waiver (UN)",
    "type": "product",
    "upd": "Jack Wong  on 10 Apr 2018 17:54:58",
    "version": 1,
    "wholeLifeInd": "N"
}